﻿{
  "Descriptor": {
    "UId": "2e01453d-f73a-4d6e-9ee6-aae4f70fd832",
    "Name": "CompetitorProduct",
    "ModifiedOnUtc": "\/Date(1491299298000)\/",
    "Parent": {
      "UId": "a90cf5af-917c-4b33-8eee-832906dbe6d5",
      "Name": "CompetitorProduct"
    },
    "ExtendParent": true,
    "ManagerName": "EntitySchemaManager",
    "Caption": "Продукт конкурента",
    "DependsOn": []
  }
}