﻿{
  "SqlScript": {
    "UId": "971e13f6-2b36-46ff-b0a5-b6e0896c5ac6",
    "Name": "DeleteAccountAddress",
    "DBEngineType": 0,
    "InstallType": 0,
    "ModifiedOnUtc": "\/Date(1505294901000)\/",
    "DependsOn": []
  }
}