﻿{
  "PackageData": [
    {
      "Row": [
        {
          "SchemaColumnUId": "ae0e45ca-c495-4fe7-a39d-3ab7278e1617",
          "Value": "3998457d-79e0-4af4-8377-95979e87f300"
        },
        {
          "SchemaColumnUId": "39539b29-f4b5-4d7a-9a08-dc5978876705",
          "Value": "null",
          "DisplayValue": ""
        }
      ]
    },
    {
      "Row": [
        {
          "SchemaColumnUId": "ae0e45ca-c495-4fe7-a39d-3ab7278e1617",
          "Value": "68e280d1-186c-4cb9-9429-e066d201f9b6"
        },
        {
          "SchemaColumnUId": "39539b29-f4b5-4d7a-9a08-dc5978876705",
          "Value": "null",
          "DisplayValue": ""
        }
      ]
    },
    {
      "Row": [
        {
          "SchemaColumnUId": "ae0e45ca-c495-4fe7-a39d-3ab7278e1617",
          "Value": "7ce973b9-7a99-46da-b14e-430d9c7ee66b"
        },
        {
          "SchemaColumnUId": "39539b29-f4b5-4d7a-9a08-dc5978876705",
          "Value": "null",
          "DisplayValue": ""
        }
      ]
    },
    {
      "Row": [
        {
          "SchemaColumnUId": "ae0e45ca-c495-4fe7-a39d-3ab7278e1617",
          "Value": "ffed6c57-6ddc-47c0-9904-a01d31e13b5b"
        },
        {
          "SchemaColumnUId": "39539b29-f4b5-4d7a-9a08-dc5978876705",
          "Value": "null",
          "DisplayValue": ""
        }
      ]
    },
    {
      "Row": [
        {
          "SchemaColumnUId": "ae0e45ca-c495-4fe7-a39d-3ab7278e1617",
          "Value": "9513105a-63c4-4952-96bd-3700d05c2f23"
        },
        {
          "SchemaColumnUId": "39539b29-f4b5-4d7a-9a08-dc5978876705",
          "Value": "null",
          "DisplayValue": ""
        }
      ]
    },
    {
      "Row": [
        {
          "SchemaColumnUId": "ae0e45ca-c495-4fe7-a39d-3ab7278e1617",
          "Value": "e98c7297-50a5-4c2b-952f-7a06df400f45"
        },
        {
          "SchemaColumnUId": "39539b29-f4b5-4d7a-9a08-dc5978876705",
          "Value": "null",
          "DisplayValue": ""
        }
      ]
    }
  ]
}