﻿{
  "Descriptor": {
    "UId": "5ad1e472-d81f-49fa-a79b-3b21bb06a10c",
    "Name": "LeadType",
    "ModifiedOnUtc": "\/Date(1477047766000)\/",
    "InstallType": 0,
    "Schema": {
      "UId": "e0dbeb22-4932-4eee-a8f2-a247a5fce888",
      "Name": "LeadType"
    },
    "Columns": [
      {
        "ColumnUId": "736c30a7-c0ec-4fa9-b034-2552b319b633",
        "IsForceUpdate": true,
        "IsKey": false,
        "ColumnName": "Name",
        "DataTypeValueUId": "ddb3a1ee-07e8-4d62-b7a9-d0e618b00fbd"
      },
      {
        "ColumnUId": "9e53fd7c-dde4-4502-a64c-b9e34148108b",
        "IsForceUpdate": false,
        "IsKey": false,
        "ColumnName": "Description",
        "DataTypeValueUId": "ddb3a1ee-07e8-4d62-b7a9-d0e618b00fbd"
      },
      {
        "ColumnUId": "ae0e45ca-c495-4fe7-a39d-3ab7278e1617",
        "IsForceUpdate": false,
        "IsKey": true,
        "ColumnName": "Id",
        "DataTypeValueUId": "23018567-a13c-4320-8687-fd6f9e3699bd"
      },
      {
        "ColumnUId": "39539b29-f4b5-4d7a-9a08-dc5978876705",
        "IsForceUpdate": false,
        "IsKey": false,
        "ColumnName": "Image",
        "DataTypeValueUId": "b039feb0-ee7c-4884-8aa6-d6d45d84316f"
      }
    ]
  }
}