﻿{
  "Descriptor": {
    "UId": "831d6792-ca20-44dd-9fe8-3e741543e550",
    "Name": "SysModuleReportTable",
    "ModifiedOnUtc": "\/Date(1505243959000)\/",
    "InstallType": 0,
    "Schema": {
      "UId": "fa05df4e-0361-4496-8198-5aa5b2dbe677",
      "Name": "SysModuleReportTable"
    },
    "Columns": [
      {
        "ColumnUId": "ae0e45ca-c495-4fe7-a39d-3ab7278e1617",
        "IsForceUpdate": false,
        "IsKey": true,
        "ColumnName": "Id",
        "DataTypeValueUId": "23018567-a13c-4320-8687-fd6f9e3699bd"
      },
      {
        "ColumnUId": "2f929142-c949-4965-822b-718d744291fa",
        "IsForceUpdate": true,
        "IsKey": false,
        "ColumnName": "ObjectId",
        "DataTypeValueUId": "23018567-a13c-4320-8687-fd6f9e3699bd"
      },
      {
        "ColumnUId": "dcbcf570-397b-4c65-bc5c-ffc91e6cc60a",
        "IsForceUpdate": true,
        "IsKey": false,
        "ColumnName": "Name",
        "DataTypeValueUId": "5ca35f10-a101-4c67-a96a-383da6afacfc"
      },
      {
        "ColumnUId": "6e37e4a0-1c37-4475-83aa-dd218ff47173",
        "IsForceUpdate": true,
        "IsKey": false,
        "ColumnName": "ObjectColumnPath",
        "DataTypeValueUId": "5ca35f10-a101-4c67-a96a-383da6afacfc"
      },
      {
        "ColumnUId": "8f7d36c2-dbbb-4185-865c-ae22c23409f5",
        "IsForceUpdate": true,
        "IsKey": false,
        "ColumnName": "Filter",
        "DataTypeValueUId": "b7342b7a-5dde-40de-aa7c-24d2a57b3202"
      },
      {
        "ColumnUId": "154371d2-7624-4a1b-8019-e5c202c2260d",
        "IsForceUpdate": true,
        "IsKey": false,
        "ColumnName": "MacrosList",
        "DataTypeValueUId": "c0f04627-4620-4bc0-84e5-9419dc8516b1"
      },
      {
        "ColumnUId": "8501dbf4-1603-4e8b-b875-e1d9c8de5e8c",
        "IsForceUpdate": true,
        "IsKey": false,
        "ColumnName": "SysModuleReport",
        "DataTypeValueUId": "b295071f-7ea9-4e62-8d1a-919bf3732ff2"
      },
      {
        "ColumnUId": "79a3fa68-aef2-4ed5-86d2-5fb4dc4a7ae3",
        "IsForceUpdate": true,
        "IsKey": false,
        "ColumnName": "ReferenceColumn",
        "DataTypeValueUId": "5ca35f10-a101-4c67-a96a-383da6afacfc"
      },
      {
        "ColumnUId": "2f560358-9c67-4ddb-8ae8-e9507c0faab9",
        "IsForceUpdate": true,
        "IsKey": false,
        "ColumnName": "Caption",
        "DataTypeValueUId": "ddb3a1ee-07e8-4d62-b7a9-d0e618b00fbd"
      },
      {
        "ColumnUId": "7ac8fc3b-9f5f-40d3-8918-3c18bc54cc23",
        "IsForceUpdate": true,
        "IsKey": false,
        "ColumnName": "ObjectColumnCaption",
        "DataTypeValueUId": "5ca35f10-a101-4c67-a96a-383da6afacfc"
      },
      {
        "ColumnUId": "1a6de7b4-2b63-4983-989c-e5f5ad91c559",
        "IsForceUpdate": true,
        "IsKey": false,
        "ColumnName": "ReferenceColumnCaption",
        "DataTypeValueUId": "5ca35f10-a101-4c67-a96a-383da6afacfc"
      }
    ]
  }
}