﻿{
  "Descriptor": {
    "UId": "6c060e3f-34d1-4f79-b366-0128711543fd",
    "Name": "Account",
    "ModifiedOnUtc": "\/Date(1505299044000)\/",
    "Parent": {
      "UId": "25d7c1ab-1de0-4501-b402-02e0e5a72d6e",
      "Name": "Account"
    },
    "ExtendParent": true,
    "ManagerName": "EntitySchemaManager",
    "Caption": "Контрагент",
    "DependsOn": []
  }
}