﻿{
  "PackageData": [
    {
      "Row": [
        {
          "SchemaColumnUId": "ae0e45ca-c495-4fe7-a39d-3ab7278e1617",
          "Value": "a72ff92b-408d-4076-8373-0398ccffe473"
        },
        {
          "SchemaColumnUId": "981348e2-b15b-4ae9-91cb-0ba6582d4731",
          "Value": 4
        }
      ]
    },
    {
      "Row": [
        {
          "SchemaColumnUId": "ae0e45ca-c495-4fe7-a39d-3ab7278e1617",
          "Value": "3dc5f492-a83b-4d8b-998b-13642ccfd30f"
        },
        {
          "SchemaColumnUId": "981348e2-b15b-4ae9-91cb-0ba6582d4731",
          "Value": 2
        }
      ]
    },
    {
      "Row": [
        {
          "SchemaColumnUId": "ae0e45ca-c495-4fe7-a39d-3ab7278e1617",
          "Value": "7929623a-de03-4d1d-8966-9f984e69a649"
        },
        {
          "SchemaColumnUId": "981348e2-b15b-4ae9-91cb-0ba6582d4731",
          "Value": 1
        }
      ]
    },
    {
      "Row": [
        {
          "SchemaColumnUId": "ae0e45ca-c495-4fe7-a39d-3ab7278e1617",
          "Value": "05ceb383-65d1-4d89-8b96-b5a4f3eeb4b9"
        },
        {
          "SchemaColumnUId": "981348e2-b15b-4ae9-91cb-0ba6582d4731",
          "Value": 3
        }
      ]
    },
    {
      "Row": [
        {
          "SchemaColumnUId": "ae0e45ca-c495-4fe7-a39d-3ab7278e1617",
          "Value": "abee5872-0934-415a-84c2-39ef8c2113d1"
        },
        {
          "SchemaColumnUId": "981348e2-b15b-4ae9-91cb-0ba6582d4731",
          "Value": 5
        }
      ]
    }
  ]
}