﻿{
  "MetaData": {
    "Schema": {
      "ManagerName": "ClientUnitSchemaManager",
      "UId": "6fa77e2b-614e-4f62-a0c5-eaf9dbcd9e3e",
      "A2": "TsDashboardScreenshotPage",
      "A5": "c24d0672-92ee-4f4c-9d5b-3f2e0999f5b0",
      "B1": [],
      "B2": [
        {
          "UId": "14449f02-ce22-47ce-8ab7-bd0ea6f9fed6",
          "A2": "GridColumnHeaderCaption",
          "A3": "6fa77e2b-614e-4f62-a0c5-eaf9dbcd9e3e",
          "A4": "6fa77e2b-614e-4f62-a0c5-eaf9dbcd9e3e",
          "A5": "c24d0672-92ee-4f4c-9d5b-3f2e0999f5b0"
        },
        {
          "UId": "ada6d95f-cf82-4ae4-8f28-e7077c0c305a",
          "A2": "SelectButtonCaption",
          "A3": "6fa77e2b-614e-4f62-a0c5-eaf9dbcd9e3e",
          "A4": "6fa77e2b-614e-4f62-a0c5-eaf9dbcd9e3e",
          "A5": "c24d0672-92ee-4f4c-9d5b-3f2e0999f5b0"
        },
        {
          "UId": "12719be3-4256-4d7d-85f7-e94c38f2c185",
          "A2": "CancelButtonCaption",
          "A3": "6fa77e2b-614e-4f62-a0c5-eaf9dbcd9e3e",
          "A4": "6fa77e2b-614e-4f62-a0c5-eaf9dbcd9e3e",
          "A5": "c24d0672-92ee-4f4c-9d5b-3f2e0999f5b0"
        }
      ],
      "B3": [],
      "B6": "12ec0688-188b-44d9-99c0-af66d25810d7",
      "B8": "7.8.3.1978",
      "HD1": "50e3acc0-26fc-4237-a095-849a1d534bd3",
      "HD4": 2,
      "HD6": "define('{0}Structure', ['{0}Resources'], function(resources) {{return {{schemaUId:'{2}',schemaName:'{3}',parentSchemaUId:'{4}',extendParent:{5},type:Terrasoft.SchemaType.EDIT_VIEW_MODEL_SCHEMA,entitySchema:'',name:'',extend:'Terrasoft.model.BaseViewModel',schema:{{leftPanel:[],rightPanel:[],actions:[],analytics:[]}},methods:{{}},controlsConfig:{{}},customBindings:{{}},bindings:{{}},schemaDifferences:function(){{\n{1}\n}}}};}});",
      "HD5": [],
      "HD7": [],
      "HD8": [],
      "HD11": []
    }
  }