﻿{
  "Descriptor": {
    "UId": "7b035ef0-ed8a-45f1-818e-7458d635a346",
    "Name": "ITGeneralClientInfoPrePage",
    "ModifiedOnUtc": "\/Date(1506331903000)\/",
    "Parent": {
      "UId": "d3cc497c-f286-4f13-99c1-751c468733c0",
      "Name": "BasePageV2"
    },
    "ManagerName": "ClientUnitSchemaManager",
    "Caption": "Внесите основную информацию по клиенту",
    "DependsOn": []
  }
}