﻿{
  "PackageData": [
    {
      "Row": [
        {
          "SchemaColumnUId": "ae0e45ca-c495-4fe7-a39d-3ab7278e1617",
          "ColumnName": "Id",
          "Value": "2e3354ed-83b2-4f6e-98b6-55e8bdb55348"
        },
        {
          "SchemaColumnUId": "fe4b0601-251d-4154-8e83-2c323fd6e46c",
          "ColumnName": "Name",
          "Value": "Регион"
        }
      ]
    },
    {
      "Row": [
        {
          "SchemaColumnUId": "ae0e45ca-c495-4fe7-a39d-3ab7278e1617",
          "ColumnName": "Id",
          "Value": "cea404d6-cdec-4410-a4ec-32dd6d9848cd"
        },
        {
          "SchemaColumnUId": "fe4b0601-251d-4154-8e83-2c323fd6e46c",
          "ColumnName": "Name",
          "Value": "Услуга"
        }
      ]
    },
    {
      "Row": [
        {
          "SchemaColumnUId": "ae0e45ca-c495-4fe7-a39d-3ab7278e1617",
          "ColumnName": "Id",
          "Value": "474531f0-8f54-4ef7-86d5-a6eb5065135e"
        },
        {
          "SchemaColumnUId": "fe4b0601-251d-4154-8e83-2c323fd6e46c",
          "ColumnName": "Name",
          "Value": "Филиал"
        }
      ]
    }
  ]
}