﻿{
  "Descriptor": {
    "UId": "ec30865a-0ab8-4638-8312-c7861da1d122",
    "Name": "ITAddProductsToContract",
    "ModifiedOnUtc": "\/Date(1500392752000)\/",
    "ManagerName": "ProcessSchemaManager",
    "Caption": "Добавление услуг из продажи в договор",
    "DependsOn": []
  }
}