﻿{
  "Descriptor": {
    "UId": "c5b9f3d0-7ec0-4197-a0db-16156df7ec39",
    "Name": "ITVwRoleOfContact",
    "ModifiedOnUtc": "\/Date(1496680880000)\/",
    "Parent": {
      "UId": "1bab9dcf-17d5-49f8-9536-8e0064f1dce0",
      "Name": "BaseEntity"
    },
    "ManagerName": "EntitySchemaManager",
    "Caption": "Роль пользователя",
    "DependsOn": []
  }
}