﻿{
  "Descriptor": {
    "UId": "c7ee5d2c-a258-4ad8-a2e8-786bfa021c4d",
    "Name": "TsProductActivityType",
    "ModifiedOnUtc": "\/Date(1478710486000)\/",
    "Parent": {
      "UId": "04f67f0c-0a27-4616-987e-60e378854b0f",
      "Name": "BaseValueLookup"
    },
    "ManagerName": "EntitySchemaManager",
    "Caption": "Виды деятельности по услугам",
    "DependsOn": []
  }
}