﻿{
  "MetaData": {
    "Schema": {
      "ManagerName": "SourceCodeSchemaManager",
      "UId": "d7880c87-d9cf-4239-9b8c-c66592513778",
      "A2": "ITEnrichAccountFromKartoteka",
      "A5": "7ee2975a-2859-4f56-bf07-05dc92dd6fa1",
      "B1": [],
      "B2": [],
      "B3": [],
      "B6": "ae0afc09-09c5-4db4-a1f4-367c76b9671f",
      "B8": "7.8.3.1978",
      "HD1": "50e3acc0-26fc-4237-a095-849a1d534bd3"
    }
  }