﻿{
  "PackageData": [
    {
      "Row": [
        {
          "SchemaColumnUId": "ae0e45ca-c495-4fe7-a39d-3ab7278e1617",
          "Value": "73c916ed-f24d-42a6-8f8b-62740fa4577d"
        },
        {
          "SchemaColumnUId": "6d2de875-c422-4aaa-ab04-d632fbbe86d4",
          "Value": "08d785e4-b399-464c-a8b8-cdd0b6e1334a",
          "DisplayValue": "Согласование КП/РК"
        },
        {
          "SchemaColumnUId": "a402c497-133a-43ca-a8a4-da21324976b6",
          "Value": "3998457d-79e0-4af4-8377-95979e87f300",
          "DisplayValue": "Блок директ-маркетинга"
        },
        {
          "SchemaColumnUId": "f1a20e0e-174b-41a3-bdb2-e7d3bf109628",
          "Value": 3
        },
        {
          "SchemaColumnUId": "9916fb25-3c74-46e4-8705-aad1cf38531c",
          "Value": 0
        }
      ]
    },
    {
      "Row": [
        {
          "SchemaColumnUId": "ae0e45ca-c495-4fe7-a39d-3ab7278e1617",
          "Value": "e2f83e70-ea84-4760-bc6c-abd6045db045"
        },
        {
          "SchemaColumnUId": "6d2de875-c422-4aaa-ab04-d632fbbe86d4",
          "Value": "08d785e4-b399-464c-a8b8-cdd0b6e1334a",
          "DisplayValue": "Согласование КП/РК"
        },
        {
          "SchemaColumnUId": "a402c497-133a-43ca-a8a4-da21324976b6",
          "Value": "68e280d1-186c-4cb9-9429-e066d201f9b6",
          "DisplayValue": "Блок почтового сервиса"
        },
        {
          "SchemaColumnUId": "f1a20e0e-174b-41a3-bdb2-e7d3bf109628",
          "Value": 3
        },
        {
          "SchemaColumnUId": "9916fb25-3c74-46e4-8705-aad1cf38531c",
          "Value": 0
        }
      ]
    },
    {
      "Row": [
        {
          "SchemaColumnUId": "ae0e45ca-c495-4fe7-a39d-3ab7278e1617",
          "Value": "ca8f7cd1-d015-4085-842f-8427624a0c30"
        },
        {
          "SchemaColumnUId": "6d2de875-c422-4aaa-ab04-d632fbbe86d4",
          "Value": "08d785e4-b399-464c-a8b8-cdd0b6e1334a",
          "DisplayValue": "Согласование КП/РК"
        },
        {
          "SchemaColumnUId": "a402c497-133a-43ca-a8a4-da21324976b6",
          "Value": "7ce973b9-7a99-46da-b14e-430d9c7ee66b",
          "DisplayValue": "Блок подписных сервисов"
        },
        {
          "SchemaColumnUId": "f1a20e0e-174b-41a3-bdb2-e7d3bf109628",
          "Value": 3
        },
        {
          "SchemaColumnUId": "9916fb25-3c74-46e4-8705-aad1cf38531c",
          "Value": 0
        }
      ]
    },
    {
      "Row": [
        {
          "SchemaColumnUId": "ae0e45ca-c495-4fe7-a39d-3ab7278e1617",
          "Value": "7a378719-1816-4533-933f-4f68dc047e1c"
        },
        {
          "SchemaColumnUId": "6d2de875-c422-4aaa-ab04-d632fbbe86d4",
          "Value": "0d4ce7ea-ac1a-49b0-bc4b-afb40fa52e12",
          "DisplayValue": "Согласование КП"
        },
        {
          "SchemaColumnUId": "a402c497-133a-43ca-a8a4-da21324976b6",
          "Value": "9513105a-63c4-4952-96bd-3700d05c2f23",
          "DisplayValue": "Посылочный блок"
        },
        {
          "SchemaColumnUId": "f1a20e0e-174b-41a3-bdb2-e7d3bf109628",
          "Value": 3
        },
        {
          "SchemaColumnUId": "9916fb25-3c74-46e4-8705-aad1cf38531c",
          "Value": 7
        }
      ]
    },
    {
      "Row": [
        {
          "SchemaColumnUId": "ae0e45ca-c495-4fe7-a39d-3ab7278e1617",
          "Value": "6ce1ff75-8077-46f2-9982-cb98080101cb"
        },
        {
          "SchemaColumnUId": "6d2de875-c422-4aaa-ab04-d632fbbe86d4",
          "Value": "0d4ce7ea-ac1a-49b0-bc4b-afb40fa52e12",
          "DisplayValue": "Согласование КП"
        },
        {
          "SchemaColumnUId": "a402c497-133a-43ca-a8a4-da21324976b6",
          "Value": "e98c7297-50a5-4c2b-952f-7a06df400f45",
          "DisplayValue": "Финансовый блок"
        },
        {
          "SchemaColumnUId": "f1a20e0e-174b-41a3-bdb2-e7d3bf109628",
          "Value": 3
        },
        {
          "SchemaColumnUId": "9916fb25-3c74-46e4-8705-aad1cf38531c",
          "Value": 7
        }
      ]
    },
    {
      "Row": [
        {
          "SchemaColumnUId": "ae0e45ca-c495-4fe7-a39d-3ab7278e1617",
          "Value": "d8a3c35b-a590-43e5-93a9-6c3f72740591"
        },
        {
          "SchemaColumnUId": "6d2de875-c422-4aaa-ab04-d632fbbe86d4",
          "Value": "0d4ce7ea-ac1a-49b0-bc4b-afb40fa52e12",
          "DisplayValue": "Согласование КП"
        },
        {
          "SchemaColumnUId": "a402c497-133a-43ca-a8a4-da21324976b6",
          "Value": "ffed6c57-6ddc-47c0-9904-a01d31e13b5b",
          "DisplayValue": "Блок розничной торговли"
        },
        {
          "SchemaColumnUId": "f1a20e0e-174b-41a3-bdb2-e7d3bf109628",
          "Value": 3
        },
        {
          "SchemaColumnUId": "9916fb25-3c74-46e4-8705-aad1cf38531c",
          "Value": 7
        }
      ]
    },
    {
      "Row": [
        {
          "SchemaColumnUId": "ae0e45ca-c495-4fe7-a39d-3ab7278e1617",
          "Value": "eb824f76-82da-4111-9854-805335f9fc89"
        },
        {
          "SchemaColumnUId": "6d2de875-c422-4aaa-ab04-d632fbbe86d4",
          "Value": "325f0619-0ee0-df11-971b-001d60e938c6",
          "DisplayValue": "Презентация"
        },
        {
          "SchemaColumnUId": "a402c497-133a-43ca-a8a4-da21324976b6",
          "Value": "68e280d1-186c-4cb9-9429-e066d201f9b6",
          "DisplayValue": "Блок почтового сервиса"
        },
        {
          "SchemaColumnUId": "f1a20e0e-174b-41a3-bdb2-e7d3bf109628",
          "Value": 2
        },
        {
          "SchemaColumnUId": "9916fb25-3c74-46e4-8705-aad1cf38531c",
          "Value": 14
        }
      ]
    },
    {
      "Row": [
        {
          "SchemaColumnUId": "ae0e45ca-c495-4fe7-a39d-3ab7278e1617",
          "Value": "4d0ed4b6-a3d5-47fb-a831-b01d1cf00dca"
        },
        {
          "SchemaColumnUId": "6d2de875-c422-4aaa-ab04-d632fbbe86d4",
          "Value": "325f0619-0ee0-df11-971b-001d60e938c6",
          "DisplayValue": "Презентация"
        },
        {
          "SchemaColumnUId": "a402c497-133a-43ca-a8a4-da21324976b6",
          "Value": "ffed6c57-6ddc-47c0-9904-a01d31e13b5b",
          "DisplayValue": "Блок розничной торговли"
        },
        {
          "SchemaColumnUId": "f1a20e0e-174b-41a3-bdb2-e7d3bf109628",
          "Value": 2
        },
        {
          "SchemaColumnUId": "9916fb25-3c74-46e4-8705-aad1cf38531c",
          "Value": 14
        }
      ]
    },
    {
      "Row": [
        {
          "SchemaColumnUId": "ae0e45ca-c495-4fe7-a39d-3ab7278e1617",
          "Value": "5d5c9d13-a123-41a8-a831-f1b00dd89b52"
        },
        {
          "SchemaColumnUId": "6d2de875-c422-4aaa-ab04-d632fbbe86d4",
          "Value": "325f0619-0ee0-df11-971b-001d60e938c6",
          "DisplayValue": "Презентация"
        },
        {
          "SchemaColumnUId": "a402c497-133a-43ca-a8a4-da21324976b6",
          "Value": "7ce973b9-7a99-46da-b14e-430d9c7ee66b",
          "DisplayValue": "Блок подписных сервисов"
        },
        {
          "SchemaColumnUId": "f1a20e0e-174b-41a3-bdb2-e7d3bf109628",
          "Value": 2
        },
        {
          "SchemaColumnUId": "9916fb25-3c74-46e4-8705-aad1cf38531c",
          "Value": 14
        }
      ]
    },
    {
      "Row": [
        {
          "SchemaColumnUId": "ae0e45ca-c495-4fe7-a39d-3ab7278e1617",
          "Value": "97a7a3a7-a915-4e74-a5b7-40675320a8a1"
        },
        {
          "SchemaColumnUId": "6d2de875-c422-4aaa-ab04-d632fbbe86d4",
          "Value": "325f0619-0ee0-df11-971b-001d60e938c6",
          "DisplayValue": "Презентация"
        },
        {
          "SchemaColumnUId": "a402c497-133a-43ca-a8a4-da21324976b6",
          "Value": "9513105a-63c4-4952-96bd-3700d05c2f23",
          "DisplayValue": "Посылочный блок"
        },
        {
          "SchemaColumnUId": "f1a20e0e-174b-41a3-bdb2-e7d3bf109628",
          "Value": 2
        },
        {
          "SchemaColumnUId": "9916fb25-3c74-46e4-8705-aad1cf38531c",
          "Value": 14
        }
      ]
    },
    {
      "Row": [
        {
          "SchemaColumnUId": "ae0e45ca-c495-4fe7-a39d-3ab7278e1617",
          "Value": "62df71a1-0763-4c0c-9f63-1c13a5997a50"
        },
        {
          "SchemaColumnUId": "6d2de875-c422-4aaa-ab04-d632fbbe86d4",
          "Value": "325f0619-0ee0-df11-971b-001d60e938c6",
          "DisplayValue": "Презентация"
        },
        {
          "SchemaColumnUId": "a402c497-133a-43ca-a8a4-da21324976b6",
          "Value": "e98c7297-50a5-4c2b-952f-7a06df400f45",
          "DisplayValue": "Финансовый блок"
        },
        {
          "SchemaColumnUId": "f1a20e0e-174b-41a3-bdb2-e7d3bf109628",
          "Value": 2
        },
        {
          "SchemaColumnUId": "9916fb25-3c74-46e4-8705-aad1cf38531c",
          "Value": 14
        }
      ]
    },
    {
      "Row": [
        {
          "SchemaColumnUId": "ae0e45ca-c495-4fe7-a39d-3ab7278e1617",
          "Value": "85ad2f62-c5e0-4b80-b0c4-a89d1767ca1c"
        },
        {
          "SchemaColumnUId": "6d2de875-c422-4aaa-ab04-d632fbbe86d4",
          "Value": "325f0619-0ee0-df11-971b-001d60e938c6",
          "DisplayValue": "Презентация"
        },
        {
          "SchemaColumnUId": "a402c497-133a-43ca-a8a4-da21324976b6",
          "Value": "3998457d-79e0-4af4-8377-95979e87f300",
          "DisplayValue": "Блок директ-маркетинга"
        },
        {
          "SchemaColumnUId": "f1a20e0e-174b-41a3-bdb2-e7d3bf109628",
          "Value": 2
        },
        {
          "SchemaColumnUId": "9916fb25-3c74-46e4-8705-aad1cf38531c",
          "Value": 14
        }
      ]
    },
    {
      "Row": [
        {
          "SchemaColumnUId": "ae0e45ca-c495-4fe7-a39d-3ab7278e1617",
          "Value": "b60fe03b-4d12-4456-877a-d2b516fb19b1"
        },
        {
          "SchemaColumnUId": "6d2de875-c422-4aaa-ab04-d632fbbe86d4",
          "Value": "4a9f18a0-8ee1-40e3-bc1e-e138e375e731",
          "DisplayValue": "Сопровождение"
        },
        {
          "SchemaColumnUId": "a402c497-133a-43ca-a8a4-da21324976b6",
          "Value": "7ce973b9-7a99-46da-b14e-430d9c7ee66b",
          "DisplayValue": "Блок подписных сервисов"
        },
        {
          "SchemaColumnUId": "f1a20e0e-174b-41a3-bdb2-e7d3bf109628",
          "Value": 5
        },
        {
          "SchemaColumnUId": "9916fb25-3c74-46e4-8705-aad1cf38531c",
          "Value": 7
        }
      ]
    },
    {
      "Row": [
        {
          "SchemaColumnUId": "ae0e45ca-c495-4fe7-a39d-3ab7278e1617",
          "Value": "c3060f94-3664-4362-bf68-5fe588f5afcb"
        },
        {
          "SchemaColumnUId": "6d2de875-c422-4aaa-ab04-d632fbbe86d4",
          "Value": "4a9f18a0-8ee1-40e3-bc1e-e138e375e731",
          "DisplayValue": "Сопровождение"
        },
        {
          "SchemaColumnUId": "a402c497-133a-43ca-a8a4-da21324976b6",
          "Value": "9513105a-63c4-4952-96bd-3700d05c2f23",
          "DisplayValue": "Посылочный блок"
        },
        {
          "SchemaColumnUId": "f1a20e0e-174b-41a3-bdb2-e7d3bf109628",
          "Value": 5
        },
        {
          "SchemaColumnUId": "9916fb25-3c74-46e4-8705-aad1cf38531c",
          "Value": 7
        }
      ]
    },
    {
      "Row": [
        {
          "SchemaColumnUId": "ae0e45ca-c495-4fe7-a39d-3ab7278e1617",
          "Value": "70c3fda5-5d93-49bb-8f59-7feb19fceb05"
        },
        {
          "SchemaColumnUId": "6d2de875-c422-4aaa-ab04-d632fbbe86d4",
          "Value": "4a9f18a0-8ee1-40e3-bc1e-e138e375e731",
          "DisplayValue": "Сопровождение"
        },
        {
          "SchemaColumnUId": "a402c497-133a-43ca-a8a4-da21324976b6",
          "Value": "e98c7297-50a5-4c2b-952f-7a06df400f45",
          "DisplayValue": "Финансовый блок"
        },
        {
          "SchemaColumnUId": "f1a20e0e-174b-41a3-bdb2-e7d3bf109628",
          "Value": 5
        },
        {
          "SchemaColumnUId": "9916fb25-3c74-46e4-8705-aad1cf38531c",
          "Value": 7
        }
      ]
    },
    {
      "Row": [
        {
          "SchemaColumnUId": "ae0e45ca-c495-4fe7-a39d-3ab7278e1617",
          "Value": "c9706703-36cf-4c0b-a460-7a7c6220675d"
        },
        {
          "SchemaColumnUId": "6d2de875-c422-4aaa-ab04-d632fbbe86d4",
          "Value": "4a9f18a0-8ee1-40e3-bc1e-e138e375e731",
          "DisplayValue": "Сопровождение"
        },
        {
          "SchemaColumnUId": "a402c497-133a-43ca-a8a4-da21324976b6",
          "Value": "3998457d-79e0-4af4-8377-95979e87f300",
          "DisplayValue": "Блок директ-маркетинга"
        },
        {
          "SchemaColumnUId": "f1a20e0e-174b-41a3-bdb2-e7d3bf109628",
          "Value": 5
        },
        {
          "SchemaColumnUId": "9916fb25-3c74-46e4-8705-aad1cf38531c",
          "Value": 7
        }
      ]
    },
    {
      "Row": [
        {
          "SchemaColumnUId": "ae0e45ca-c495-4fe7-a39d-3ab7278e1617",
          "Value": "e3d0058f-487b-4fd4-9490-f029bdcf88a2"
        },
        {
          "SchemaColumnUId": "6d2de875-c422-4aaa-ab04-d632fbbe86d4",
          "Value": "4a9f18a0-8ee1-40e3-bc1e-e138e375e731",
          "DisplayValue": "Сопровождение"
        },
        {
          "SchemaColumnUId": "a402c497-133a-43ca-a8a4-da21324976b6",
          "Value": "ffed6c57-6ddc-47c0-9904-a01d31e13b5b",
          "DisplayValue": "Блок розничной торговли"
        },
        {
          "SchemaColumnUId": "f1a20e0e-174b-41a3-bdb2-e7d3bf109628",
          "Value": 5
        },
        {
          "SchemaColumnUId": "9916fb25-3c74-46e4-8705-aad1cf38531c",
          "Value": 7
        }
      ]
    },
    {
      "Row": [
        {
          "SchemaColumnUId": "ae0e45ca-c495-4fe7-a39d-3ab7278e1617",
          "Value": "38e49a6d-1810-412f-b172-7d0b90ebb7ba"
        },
        {
          "SchemaColumnUId": "6d2de875-c422-4aaa-ab04-d632fbbe86d4",
          "Value": "60d5310c-5be6-df11-971b-001d60e938c6",
          "DisplayValue": "Завершена с победой"
        },
        {
          "SchemaColumnUId": "a402c497-133a-43ca-a8a4-da21324976b6",
          "Value": "3998457d-79e0-4af4-8377-95979e87f300",
          "DisplayValue": "Блок директ-маркетинга"
        },
        {
          "SchemaColumnUId": "f1a20e0e-174b-41a3-bdb2-e7d3bf109628",
          "Value": 6
        },
        {
          "SchemaColumnUId": "9916fb25-3c74-46e4-8705-aad1cf38531c",
          "Value": 0
        }
      ]
    },
    {
      "Row": [
        {
          "SchemaColumnUId": "ae0e45ca-c495-4fe7-a39d-3ab7278e1617",
          "Value": "23c9cc15-d3a0-416d-b242-8b682d04339d"
        },
        {
          "SchemaColumnUId": "6d2de875-c422-4aaa-ab04-d632fbbe86d4",
          "Value": "60d5310c-5be6-df11-971b-001d60e938c6",
          "DisplayValue": "Завершена с победой"
        },
        {
          "SchemaColumnUId": "a402c497-133a-43ca-a8a4-da21324976b6",
          "Value": "68e280d1-186c-4cb9-9429-e066d201f9b6",
          "DisplayValue": "Блок почтового сервиса"
        },
        {
          "SchemaColumnUId": "f1a20e0e-174b-41a3-bdb2-e7d3bf109628",
          "Value": 6
        },
        {
          "SchemaColumnUId": "9916fb25-3c74-46e4-8705-aad1cf38531c",
          "Value": 0
        }
      ]
    },
    {
      "Row": [
        {
          "SchemaColumnUId": "ae0e45ca-c495-4fe7-a39d-3ab7278e1617",
          "Value": "90c76634-8de7-44dd-8c64-4d50ecd2af01"
        },
        {
          "SchemaColumnUId": "6d2de875-c422-4aaa-ab04-d632fbbe86d4",
          "Value": "60d5310c-5be6-df11-971b-001d60e938c6",
          "DisplayValue": "Завершена с победой"
        },
        {
          "SchemaColumnUId": "a402c497-133a-43ca-a8a4-da21324976b6",
          "Value": "7ce973b9-7a99-46da-b14e-430d9c7ee66b",
          "DisplayValue": "Блок подписных сервисов"
        },
        {
          "SchemaColumnUId": "f1a20e0e-174b-41a3-bdb2-e7d3bf109628",
          "Value": 6
        },
        {
          "SchemaColumnUId": "9916fb25-3c74-46e4-8705-aad1cf38531c",
          "Value": 0
        }
      ]
    },
    {
      "Row": [
        {
          "SchemaColumnUId": "ae0e45ca-c495-4fe7-a39d-3ab7278e1617",
          "Value": "0ea9ed09-e44f-49c9-86ec-a3676da1f4d1"
        },
        {
          "SchemaColumnUId": "6d2de875-c422-4aaa-ab04-d632fbbe86d4",
          "Value": "60d5310c-5be6-df11-971b-001d60e938c6",
          "DisplayValue": "Завершена с победой"
        },
        {
          "SchemaColumnUId": "a402c497-133a-43ca-a8a4-da21324976b6",
          "Value": "9513105a-63c4-4952-96bd-3700d05c2f23",
          "DisplayValue": "Посылочный блок"
        },
        {
          "SchemaColumnUId": "f1a20e0e-174b-41a3-bdb2-e7d3bf109628",
          "Value": 6
        },
        {
          "SchemaColumnUId": "9916fb25-3c74-46e4-8705-aad1cf38531c",
          "Value": 0
        }
      ]
    },
    {
      "Row": [
        {
          "SchemaColumnUId": "ae0e45ca-c495-4fe7-a39d-3ab7278e1617",
          "Value": "24c111b7-f726-4dd1-9215-a0b9b87998d8"
        },
        {
          "SchemaColumnUId": "6d2de875-c422-4aaa-ab04-d632fbbe86d4",
          "Value": "60d5310c-5be6-df11-971b-001d60e938c6",
          "DisplayValue": "Завершена с победой"
        },
        {
          "SchemaColumnUId": "a402c497-133a-43ca-a8a4-da21324976b6",
          "Value": "e98c7297-50a5-4c2b-952f-7a06df400f45",
          "DisplayValue": "Финансовый блок"
        },
        {
          "SchemaColumnUId": "f1a20e0e-174b-41a3-bdb2-e7d3bf109628",
          "Value": 6
        },
        {
          "SchemaColumnUId": "9916fb25-3c74-46e4-8705-aad1cf38531c",
          "Value": 0
        }
      ]
    },
    {
      "Row": [
        {
          "SchemaColumnUId": "ae0e45ca-c495-4fe7-a39d-3ab7278e1617",
          "Value": "fbb46e75-5fe3-4bd2-837d-001952cd8d70"
        },
        {
          "SchemaColumnUId": "6d2de875-c422-4aaa-ab04-d632fbbe86d4",
          "Value": "60d5310c-5be6-df11-971b-001d60e938c6",
          "DisplayValue": "Завершена с победой"
        },
        {
          "SchemaColumnUId": "a402c497-133a-43ca-a8a4-da21324976b6",
          "Value": "ffed6c57-6ddc-47c0-9904-a01d31e13b5b",
          "DisplayValue": "Блок розничной торговли"
        },
        {
          "SchemaColumnUId": "f1a20e0e-174b-41a3-bdb2-e7d3bf109628",
          "Value": 6
        },
        {
          "SchemaColumnUId": "9916fb25-3c74-46e4-8705-aad1cf38531c",
          "Value": 0
        }
      ]
    },
    {
      "Row": [
        {
          "SchemaColumnUId": "ae0e45ca-c495-4fe7-a39d-3ab7278e1617",
          "Value": "e3acf821-f7a8-489f-97d3-7fec6b9a8aeb"
        },
        {
          "SchemaColumnUId": "6d2de875-c422-4aaa-ab04-d632fbbe86d4",
          "Value": "8e27f01c-808e-4845-96b5-ac7685908b71",
          "DisplayValue": "Подписание договора"
        },
        {
          "SchemaColumnUId": "a402c497-133a-43ca-a8a4-da21324976b6",
          "Value": "9513105a-63c4-4952-96bd-3700d05c2f23",
          "DisplayValue": "Посылочный блок"
        },
        {
          "SchemaColumnUId": "f1a20e0e-174b-41a3-bdb2-e7d3bf109628",
          "Value": 4
        },
        {
          "SchemaColumnUId": "9916fb25-3c74-46e4-8705-aad1cf38531c",
          "Value": 7
        }
      ]
    },
    {
      "Row": [
        {
          "SchemaColumnUId": "ae0e45ca-c495-4fe7-a39d-3ab7278e1617",
          "Value": "4e450a8a-1a28-4cba-84ec-711eaa0b77e2"
        },
        {
          "SchemaColumnUId": "6d2de875-c422-4aaa-ab04-d632fbbe86d4",
          "Value": "8e27f01c-808e-4845-96b5-ac7685908b71",
          "DisplayValue": "Подписание договора"
        },
        {
          "SchemaColumnUId": "a402c497-133a-43ca-a8a4-da21324976b6",
          "Value": "e98c7297-50a5-4c2b-952f-7a06df400f45",
          "DisplayValue": "Финансовый блок"
        },
        {
          "SchemaColumnUId": "f1a20e0e-174b-41a3-bdb2-e7d3bf109628",
          "Value": 4
        },
        {
          "SchemaColumnUId": "9916fb25-3c74-46e4-8705-aad1cf38531c",
          "Value": 7
        }
      ]
    },
    {
      "Row": [
        {
          "SchemaColumnUId": "ae0e45ca-c495-4fe7-a39d-3ab7278e1617",
          "Value": "9febaeda-5961-46bc-a53f-ea216f9c75c4"
        },
        {
          "SchemaColumnUId": "6d2de875-c422-4aaa-ab04-d632fbbe86d4",
          "Value": "8e27f01c-808e-4845-96b5-ac7685908b71",
          "DisplayValue": "Подписание договора"
        },
        {
          "SchemaColumnUId": "a402c497-133a-43ca-a8a4-da21324976b6",
          "Value": "3998457d-79e0-4af4-8377-95979e87f300",
          "DisplayValue": "Блок директ-маркетинга"
        },
        {
          "SchemaColumnUId": "f1a20e0e-174b-41a3-bdb2-e7d3bf109628",
          "Value": 4
        },
        {
          "SchemaColumnUId": "9916fb25-3c74-46e4-8705-aad1cf38531c",
          "Value": 7
        }
      ]
    },
    {
      "Row": [
        {
          "SchemaColumnUId": "ae0e45ca-c495-4fe7-a39d-3ab7278e1617",
          "Value": "f1c0ef92-3ce4-4846-b2df-e601c84d74fe"
        },
        {
          "SchemaColumnUId": "6d2de875-c422-4aaa-ab04-d632fbbe86d4",
          "Value": "8e27f01c-808e-4845-96b5-ac7685908b71",
          "DisplayValue": "Подписание договора"
        },
        {
          "SchemaColumnUId": "a402c497-133a-43ca-a8a4-da21324976b6",
          "Value": "68e280d1-186c-4cb9-9429-e066d201f9b6",
          "DisplayValue": "Блок почтового сервиса"
        },
        {
          "SchemaColumnUId": "f1a20e0e-174b-41a3-bdb2-e7d3bf109628",
          "Value": 4
        },
        {
          "SchemaColumnUId": "9916fb25-3c74-46e4-8705-aad1cf38531c",
          "Value": 7
        }
      ]
    },
    {
      "Row": [
        {
          "SchemaColumnUId": "ae0e45ca-c495-4fe7-a39d-3ab7278e1617",
          "Value": "b5d25043-9529-4f20-80dd-35eabb92140a"
        },
        {
          "SchemaColumnUId": "6d2de875-c422-4aaa-ab04-d632fbbe86d4",
          "Value": "a9aafdfe-2242-4f42-8cd5-2ae3b9556d79",
          "DisplayValue": "Завершена с проигрышем"
        },
        {
          "SchemaColumnUId": "a402c497-133a-43ca-a8a4-da21324976b6",
          "Value": "3998457d-79e0-4af4-8377-95979e87f300",
          "DisplayValue": "Блок директ-маркетинга"
        },
        {
          "SchemaColumnUId": "f1a20e0e-174b-41a3-bdb2-e7d3bf109628",
          "Value": 7
        },
        {
          "SchemaColumnUId": "9916fb25-3c74-46e4-8705-aad1cf38531c",
          "Value": 0
        }
      ]
    },
    {
      "Row": [
        {
          "SchemaColumnUId": "ae0e45ca-c495-4fe7-a39d-3ab7278e1617",
          "Value": "f8c3920a-3944-426a-a42b-9d539b9920a3"
        },
        {
          "SchemaColumnUId": "6d2de875-c422-4aaa-ab04-d632fbbe86d4",
          "Value": "a9aafdfe-2242-4f42-8cd5-2ae3b9556d79",
          "DisplayValue": "Завершена с проигрышем"
        },
        {
          "SchemaColumnUId": "a402c497-133a-43ca-a8a4-da21324976b6",
          "Value": "68e280d1-186c-4cb9-9429-e066d201f9b6",
          "DisplayValue": "Блок почтового сервиса"
        },
        {
          "SchemaColumnUId": "f1a20e0e-174b-41a3-bdb2-e7d3bf109628",
          "Value": 7
        },
        {
          "SchemaColumnUId": "9916fb25-3c74-46e4-8705-aad1cf38531c",
          "Value": 0
        }
      ]
    },
    {
      "Row": [
        {
          "SchemaColumnUId": "ae0e45ca-c495-4fe7-a39d-3ab7278e1617",
          "Value": "9fa330f3-3314-400d-b82e-3217f4587e03"
        },
        {
          "SchemaColumnUId": "6d2de875-c422-4aaa-ab04-d632fbbe86d4",
          "Value": "a9aafdfe-2242-4f42-8cd5-2ae3b9556d79",
          "DisplayValue": "Завершена с проигрышем"
        },
        {
          "SchemaColumnUId": "a402c497-133a-43ca-a8a4-da21324976b6",
          "Value": "7ce973b9-7a99-46da-b14e-430d9c7ee66b",
          "DisplayValue": "Блок подписных сервисов"
        },
        {
          "SchemaColumnUId": "f1a20e0e-174b-41a3-bdb2-e7d3bf109628",
          "Value": 7
        },
        {
          "SchemaColumnUId": "9916fb25-3c74-46e4-8705-aad1cf38531c",
          "Value": 0
        }
      ]
    },
    {
      "Row": [
        {
          "SchemaColumnUId": "ae0e45ca-c495-4fe7-a39d-3ab7278e1617",
          "Value": "b7430463-d693-421c-a714-e497f55e7c25"
        },
        {
          "SchemaColumnUId": "6d2de875-c422-4aaa-ab04-d632fbbe86d4",
          "Value": "a9aafdfe-2242-4f42-8cd5-2ae3b9556d79",
          "DisplayValue": "Завершена с проигрышем"
        },
        {
          "SchemaColumnUId": "a402c497-133a-43ca-a8a4-da21324976b6",
          "Value": "9513105a-63c4-4952-96bd-3700d05c2f23",
          "DisplayValue": "Посылочный блок"
        },
        {
          "SchemaColumnUId": "f1a20e0e-174b-41a3-bdb2-e7d3bf109628",
          "Value": 7
        },
        {
          "SchemaColumnUId": "9916fb25-3c74-46e4-8705-aad1cf38531c",
          "Value": 0
        }
      ]
    },
    {
      "Row": [
        {
          "SchemaColumnUId": "ae0e45ca-c495-4fe7-a39d-3ab7278e1617",
          "Value": "1e46a208-e061-4090-86b8-38ec3fece598"
        },
        {
          "SchemaColumnUId": "6d2de875-c422-4aaa-ab04-d632fbbe86d4",
          "Value": "a9aafdfe-2242-4f42-8cd5-2ae3b9556d79",
          "DisplayValue": "Завершена с проигрышем"
        },
        {
          "SchemaColumnUId": "a402c497-133a-43ca-a8a4-da21324976b6",
          "Value": "e98c7297-50a5-4c2b-952f-7a06df400f45",
          "DisplayValue": "Финансовый блок"
        },
        {
          "SchemaColumnUId": "f1a20e0e-174b-41a3-bdb2-e7d3bf109628",
          "Value": 7
        },
        {
          "SchemaColumnUId": "9916fb25-3c74-46e4-8705-aad1cf38531c",
          "Value": 0
        }
      ]
    },
    {
      "Row": [
        {
          "SchemaColumnUId": "ae0e45ca-c495-4fe7-a39d-3ab7278e1617",
          "Value": "d97548be-901d-4ba5-b8d0-559fc17af88c"
        },
        {
          "SchemaColumnUId": "6d2de875-c422-4aaa-ab04-d632fbbe86d4",
          "Value": "a9aafdfe-2242-4f42-8cd5-2ae3b9556d79",
          "DisplayValue": "Завершена с проигрышем"
        },
        {
          "SchemaColumnUId": "a402c497-133a-43ca-a8a4-da21324976b6",
          "Value": "ffed6c57-6ddc-47c0-9904-a01d31e13b5b",
          "DisplayValue": "Блок розничной торговли"
        },
        {
          "SchemaColumnUId": "f1a20e0e-174b-41a3-bdb2-e7d3bf109628",
          "Value": 7
        },
        {
          "SchemaColumnUId": "9916fb25-3c74-46e4-8705-aad1cf38531c",
          "Value": 0
        }
      ]
    },
    {
      "Row": [
        {
          "SchemaColumnUId": "ae0e45ca-c495-4fe7-a39d-3ab7278e1617",
          "Value": "95ad627b-05bf-406d-b509-4f2d5f6dd681"
        },
        {
          "SchemaColumnUId": "6d2de875-c422-4aaa-ab04-d632fbbe86d4",
          "Value": "aa85c2ef-6d39-45a0-9d92-b3bed671da1e",
          "DisplayValue": "Сопровождение/Мониторинг"
        },
        {
          "SchemaColumnUId": "a402c497-133a-43ca-a8a4-da21324976b6",
          "Value": "68e280d1-186c-4cb9-9429-e066d201f9b6",
          "DisplayValue": "Блок почтового сервиса"
        },
        {
          "SchemaColumnUId": "f1a20e0e-174b-41a3-bdb2-e7d3bf109628",
          "Value": 5
        },
        {
          "SchemaColumnUId": "9916fb25-3c74-46e4-8705-aad1cf38531c",
          "Value": 0
        }
      ]
    },
    {
      "Row": [
        {
          "SchemaColumnUId": "ae0e45ca-c495-4fe7-a39d-3ab7278e1617",
          "Value": "4ec48ac2-2498-49f7-8416-ac04ae81abeb"
        },
        {
          "SchemaColumnUId": "6d2de875-c422-4aaa-ab04-d632fbbe86d4",
          "Value": "c2067b11-0ee0-df11-971b-001d60e938c6",
          "DisplayValue": "Квалификация"
        },
        {
          "SchemaColumnUId": "a402c497-133a-43ca-a8a4-da21324976b6",
          "Value": "68e280d1-186c-4cb9-9429-e066d201f9b6",
          "DisplayValue": "Блок почтового сервиса"
        },
        {
          "SchemaColumnUId": "f1a20e0e-174b-41a3-bdb2-e7d3bf109628",
          "Value": 1
        },
        {
          "SchemaColumnUId": "9916fb25-3c74-46e4-8705-aad1cf38531c",
          "Value": 0
        }
      ]
    },
    {
      "Row": [
        {
          "SchemaColumnUId": "ae0e45ca-c495-4fe7-a39d-3ab7278e1617",
          "Value": "8cd6281e-cc5d-4552-8b82-7e5a3c848002"
        },
        {
          "SchemaColumnUId": "6d2de875-c422-4aaa-ab04-d632fbbe86d4",
          "Value": "c2067b11-0ee0-df11-971b-001d60e938c6",
          "DisplayValue": "Квалификация"
        },
        {
          "SchemaColumnUId": "a402c497-133a-43ca-a8a4-da21324976b6",
          "Value": "ffed6c57-6ddc-47c0-9904-a01d31e13b5b",
          "DisplayValue": "Блок розничной торговли"
        },
        {
          "SchemaColumnUId": "f1a20e0e-174b-41a3-bdb2-e7d3bf109628",
          "Value": 1
        },
        {
          "SchemaColumnUId": "9916fb25-3c74-46e4-8705-aad1cf38531c",
          "Value": 0
        }
      ]
    },
    {
      "Row": [
        {
          "SchemaColumnUId": "ae0e45ca-c495-4fe7-a39d-3ab7278e1617",
          "Value": "99405c06-5fcb-489c-bdd3-973e69973913"
        },
        {
          "SchemaColumnUId": "6d2de875-c422-4aaa-ab04-d632fbbe86d4",
          "Value": "c2067b11-0ee0-df11-971b-001d60e938c6",
          "DisplayValue": "Квалификация"
        },
        {
          "SchemaColumnUId": "a402c497-133a-43ca-a8a4-da21324976b6",
          "Value": "7ce973b9-7a99-46da-b14e-430d9c7ee66b",
          "DisplayValue": "Блок подписных сервисов"
        },
        {
          "SchemaColumnUId": "f1a20e0e-174b-41a3-bdb2-e7d3bf109628",
          "Value": 1
        },
        {
          "SchemaColumnUId": "9916fb25-3c74-46e4-8705-aad1cf38531c",
          "Value": 0
        }
      ]
    },
    {
      "Row": [
        {
          "SchemaColumnUId": "ae0e45ca-c495-4fe7-a39d-3ab7278e1617",
          "Value": "fdf3e9fe-5d89-47b7-ad04-5bcaa4437480"
        },
        {
          "SchemaColumnUId": "6d2de875-c422-4aaa-ab04-d632fbbe86d4",
          "Value": "c2067b11-0ee0-df11-971b-001d60e938c6",
          "DisplayValue": "Квалификация"
        },
        {
          "SchemaColumnUId": "a402c497-133a-43ca-a8a4-da21324976b6",
          "Value": "9513105a-63c4-4952-96bd-3700d05c2f23",
          "DisplayValue": "Посылочный блок"
        },
        {
          "SchemaColumnUId": "f1a20e0e-174b-41a3-bdb2-e7d3bf109628",
          "Value": 1
        },
        {
          "SchemaColumnUId": "9916fb25-3c74-46e4-8705-aad1cf38531c",
          "Value": 0
        }
      ]
    },
    {
      "Row": [
        {
          "SchemaColumnUId": "ae0e45ca-c495-4fe7-a39d-3ab7278e1617",
          "Value": "cd574293-a21f-4c4d-8fb0-6e2897602eca"
        },
        {
          "SchemaColumnUId": "6d2de875-c422-4aaa-ab04-d632fbbe86d4",
          "Value": "c2067b11-0ee0-df11-971b-001d60e938c6",
          "DisplayValue": "Квалификация"
        },
        {
          "SchemaColumnUId": "a402c497-133a-43ca-a8a4-da21324976b6",
          "Value": "e98c7297-50a5-4c2b-952f-7a06df400f45",
          "DisplayValue": "Финансовый блок"
        },
        {
          "SchemaColumnUId": "f1a20e0e-174b-41a3-bdb2-e7d3bf109628",
          "Value": 1
        },
        {
          "SchemaColumnUId": "9916fb25-3c74-46e4-8705-aad1cf38531c",
          "Value": 0
        }
      ]
    },
    {
      "Row": [
        {
          "SchemaColumnUId": "ae0e45ca-c495-4fe7-a39d-3ab7278e1617",
          "Value": "e306b9d6-6b10-42cb-9df0-7f32f1bd13d0"
        },
        {
          "SchemaColumnUId": "6d2de875-c422-4aaa-ab04-d632fbbe86d4",
          "Value": "c2067b11-0ee0-df11-971b-001d60e938c6",
          "DisplayValue": "Квалификация"
        },
        {
          "SchemaColumnUId": "a402c497-133a-43ca-a8a4-da21324976b6",
          "Value": "3998457d-79e0-4af4-8377-95979e87f300",
          "DisplayValue": "Блок директ-маркетинга"
        },
        {
          "SchemaColumnUId": "f1a20e0e-174b-41a3-bdb2-e7d3bf109628",
          "Value": 1
        },
        {
          "SchemaColumnUId": "9916fb25-3c74-46e4-8705-aad1cf38531c",
          "Value": 0
        }
      ]
    },
    {
      "Row": [
        {
          "SchemaColumnUId": "ae0e45ca-c495-4fe7-a39d-3ab7278e1617",
          "Value": "eba239bd-6f52-4de0-9007-35e7a677d7d0"
        },
        {
          "SchemaColumnUId": "6d2de875-c422-4aaa-ab04-d632fbbe86d4",
          "Value": "e8ec28ec-4eb5-4e9f-a065-67c081ada877",
          "DisplayValue": "Заключение договора"
        },
        {
          "SchemaColumnUId": "a402c497-133a-43ca-a8a4-da21324976b6",
          "Value": "7ce973b9-7a99-46da-b14e-430d9c7ee66b",
          "DisplayValue": "Блок подписных сервисов"
        },
        {
          "SchemaColumnUId": "f1a20e0e-174b-41a3-bdb2-e7d3bf109628",
          "Value": 4
        },
        {
          "SchemaColumnUId": "9916fb25-3c74-46e4-8705-aad1cf38531c",
          "Value": 0
        }
      ]
    },
    {
      "Row": [
        {
          "SchemaColumnUId": "ae0e45ca-c495-4fe7-a39d-3ab7278e1617",
          "Value": "8d2b58c6-e472-49bc-963a-196f2922ca41"
        },
        {
          "SchemaColumnUId": "6d2de875-c422-4aaa-ab04-d632fbbe86d4",
          "Value": "f87992c4-6783-44ef-91b3-f3bd2c551c62",
          "DisplayValue": "Подписание договора поставщика"
        },
        {
          "SchemaColumnUId": "a402c497-133a-43ca-a8a4-da21324976b6",
          "Value": "ffed6c57-6ddc-47c0-9904-a01d31e13b5b",
          "DisplayValue": "Блок розничной торговли"
        },
        {
          "SchemaColumnUId": "f1a20e0e-174b-41a3-bdb2-e7d3bf109628",
          "Value": 4
        },
        {
          "SchemaColumnUId": "9916fb25-3c74-46e4-8705-aad1cf38531c",
          "Value": 0
        }
      ]
    }
  ]
}