{
  "MetaData": {
    "Schema": {
      "ManagerName": "ProcessSchemaManager",
      "UId": "58009011-3322-4458-9b0c-00259f6c73fb",
      "A2": "ITChangeOwnersByDate",
      "A5": "c96c2ab3-b60e-4151-bd60-9c2b786df0f0",
      "B1": [],
      "B2": [],
      "B3": [],
      "B6": "b18a0f67-6bd3-4ff3-8fa3-c759fb72d073",
      "B8": "7.8.3.1978",
      "FJ1": [
        {
          "BL1": "Terrasoft.Core.Process.ProcessSchemaParameter",
          "UId": "0f6d8457-2a6c-4eb7-b2bc-794e35fb79e1",
          "A2": "CurrentDateTime",
          "A3": "58009011-3322-4458-9b0c-00259f6c73fb",
          "A4": "58009011-3322-4458-9b0c-00259f6c73fb",
          "L1": "d21e9ef4-c064-4012-b286-fa1a8171da44",
          "L8": {
            "GS1": 3,
            "GS2": "[#SysVariable.CurrentDateTime#]",
            "GS5": "58009011-3322-4458-9b0c-00259f6c73fb"
          }
        },
        {
          "BL1": "Terrasoft.Core.Process.ProcessSchemaParameter",
          "UId": "097ccab5-2df2-4c49-ae14-ba560f6755d0",
          "A2": "IterrationsCount",
          "A3": "58009011-3322-4458-9b0c-00259f6c73fb",
          "A4": "58009011-3322-4458-9b0c-00259f6c73fb",
          "L1": "6b6b74e2-820d-490e-a017-2b73d4ccf2b0",
          "L8": {}
        }
      ],
      "IJ1": true,
      "BK1": "FFFFFFFF",
      "BK2": "FFBBBBBB",
      "BK3": [
        {
          "BL1": "Terrasoft.Core.Process.ProcessSchemaLaneSet",
          "UId": "8f4e95e2-59d4-44f0-82f0-b222ec1edd1d",
          "A2": "LaneSet1",
          "A3": "58009011-3322-4458-9b0c-00259f6c73fb",
          "A4": "58009011-3322-4458-9b0c-00259f6c73fb",
          "A5": "b18a0f67-6bd3-4ff3-8fa3-c759fb72d073",
          "BL7": "11a47caf-a0d5-41fa-a274-a0b11f77447a",
          "BL8": "58009011-3322-4458-9b0c-00259f6c73fb",
          "BM1": 0,
          "BM4": [
            {
              "BL1": "Terrasoft.Core.Process.ProcessSchemaLane",
              "UId": "9f2d7e4d-5681-4d42-b9ed-f75e416d7d4f",
              "A2": "Lane1",
              "A3": "58009011-3322-4458-9b0c-00259f6c73fb",
              "A4": "58009011-3322-4458-9b0c-00259f6c73fb",
              "A5": "b18a0f67-6bd3-4ff3-8fa3-c759fb72d073",
              "IL2": "8f4e95e2-59d4-44f0-82f0-b222ec1edd1d",
              "BL7": "abcd74b9-5912-414b-82ac-f1aa4dcd554e",
              "BL8": "58009011-3322-4458-9b0c-00259f6c73fb",
              "CD1": [],
              "CD2": [],
              "CD4": "8f4e95e2-59d4-44f0-82f0-b222ec1edd1d",
              "CD7": []
            }
          ]
        }
      ],
      "BK5": [],
      "BK4": [
        {
          "BL1": "Terrasoft.Core.Process.ProcessSchemaStartEvent",
          "UId": "96815220-da06-4c32-bf90-7f67d32bdea1",
          "A2": "StartEvent1",
          "A3": "58009011-3322-4458-9b0c-00259f6c73fb",
          "A4": "58009011-3322-4458-9b0c-00259f6c73fb",
          "A5": "b18a0f67-6bd3-4ff3-8fa3-c759fb72d073",
          "IL2": "9f2d7e4d-5681-4d42-b9ed-f75e416d7d4f",
          "BL3": "53;184",
          "BL7": "53818048-7868-48f6-ada0-0ebaa65af628",
          "BL8": "58009011-3322-4458-9b0c-00259f6c73fb",
          "BN2": "27;27",
          "BO3": true,
          "FC1": [],
          "ED1": false
        },
        {
          "BL1": "Terrasoft.Core.Process.ProcessSchemaTerminateEvent",
          "UId": "3b4c3d67-9b7d-4bc1-bc24-8bdc764a4b18",
          "A2": "TerminateEvent1",
          "A3": "58009011-3322-4458-9b0c-00259f6c73fb",
          "A4": "58009011-3322-4458-9b0c-00259f6c73fb",
          "A5": "b18a0f67-6bd3-4ff3-8fa3-c759fb72d073",
          "IL2": "9f2d7e4d-5681-4d42-b9ed-f75e416d7d4f",
          "BL3": "713;184",
          "BL7": "1bd93619-0574-454e-bb4e-cf53b9eb9470",
          "BL8": "58009011-3322-4458-9b0c-00259f6c73fb",
          "BN2": "27;27",
          "BO3": true,
          "FC1": []
        },
        {
          "BL1": "Terrasoft.Core.Process.ProcessSchemaUserTask",
          "UId": "bc92ec6d-dce3-4908-b3a1-8cff7a8787a5",
          "A2": "ReadDataUserTask1",
          "A3": "58009011-3322-4458-9b0c-00259f6c73fb",
          "A4": "58009011-3322-4458-9b0c-00259f6c73fb",
          "A5": "b18a0f67-6bd3-4ff3-8fa3-c759fb72d073",
          "IL2": "9f2d7e4d-5681-4d42-b9ed-f75e416d7d4f",
          "BL3": "100;170",
          "BL7": "cb455b6f-78ff-4b1e-b241-c2bbc0b37e9f",
          "BL8": "58009011-3322-4458-9b0c-00259f6c73fb",
          "BN2": "69;55",
          "BO2": true,
          "BO3": true,
          "BP2": [
            {
              "BL1": "Terrasoft.Core.Process.ProcessSchemaParameter",
              "UId": "bd32156d-41af-4240-8845-191893b34be0",
              "A2": "DataSourceFilters",
              "A3": "cb455b6f-78ff-4b1e-b241-c2bbc0b37e9f",
              "A4": "cb455b6f-78ff-4b1e-b241-c2bbc0b37e9f",
              "A5": "66e9e705-64b4-4dda-925e-d1e05a389eb6",
              "IL2": "bc92ec6d-dce3-4908-b3a1-8cff7a8787a5",
              "L1": "394e160f-c8e0-46fa-9c0d-75d97e9e9169",
              "L8": {
                "GS1": 1,
                "GS2": "{\"className\":\"Terrasoft.FilterGroup\",\"serializedFilterEditData\":\"{\\\"className\\\":\\\"Terrasoft.FilterGroup\\\",\\\"items\\\":{\\\"52864a3f-d18b-4c2b-aa64-9abf670049ca\\\":{\\\"className\\\":\\\"Terrasoft.CompareFilter\\\",\\\"filterType\\\":1,\\\"comparisonType\\\":5,\\\"isEnabled\\\":true,\\\"trimDateTimeParameterToDate\\\":true,\\\"leftExpression\\\":{\\\"className\\\":\\\"Terrasoft.ColumnExpression\\\",\\\"expressionType\\\":0,\\\"columnPath\\\":\\\"ITChangeUntilDate\\\"},\\\"isAggregative\\\":false,\\\"key\\\":\\\"52864a3f-d18b-4c2b-aa64-9abf670049ca\\\",\\\"dataValueType\\\":7,\\\"leftExpressionCaption\\\":\\\"Замена до\\\",\\\"rightExpression\\\":{\\\"className\\\":\\\"Terrasoft.ParameterExpression\\\",\\\"expressionType\\\":2,\\\"parameter\\\":{\\\"className\\\":\\\"Terrasoft.Parameter\\\",\\\"dataValueType\\\":26,\\\"value\\\":{\\\"value\\\":\\\"[IsOwnerSchema:false].[IsSchema:false].[Parameter:{0f6d8457-2a6c-4eb7-b2bc-794e35fb79e1}]\\\",\\\"displayValue\\\":\\\"Текущее значение Даты/Времени\\\"}}}}},\\\"logicalOperation\\\":0,\\\"isEnabled\\\":true,\\\"filterType\\\":6,\\\"rootSchemaName\\\":\\\"ITChangeOwnerLog\\\",\\\"key\\\":\\\"\\\"}\",\"dataSourceFilters\":\"{\\\"items\\\":{\\\"52864a3f-d18b-4c2b-aa64-9abf670049ca\\\":{\\\"filterType\\\":1,\\\"comparisonType\\\":5,\\\"isEnabled\\\":true,\\\"trimDateTimeParameterToDate\\\":true,\\\"leftExpression\\\":{\\\"expressionType\\\":0,\\\"columnPath\\\":\\\"ITChangeUntilDate\\\"},\\\"rightExpression\\\":{\\\"expressionType\\\":2,\\\"parameter\\\":{\\\"dataValueType\\\":26,\\\"value\\\":{\\\"value\\\":\\\"[IsOwnerSchema:false].[IsSchema:false].[Parameter:{0f6d8457-2a6c-4eb7-b2bc-794e35fb79e1}]\\\"}}}}},\\\"logicalOperation\\\":0,\\\"isEnabled\\\":true,\\\"filterType\\\":6,\\\"rootSchemaName\\\":\\\"ITChangeOwnerLog\\\"}\"}",
                "GS5": "58009011-3322-4458-9b0c-00259f6c73fb"
              }
            },
            {
              "BL1": "Terrasoft.Core.Process.ProcessSchemaParameter",
              "UId": "8ca00602-a6ef-48c7-a8d3-796eed35ad55",
              "A2": "ResultType",
              "A3": "cb455b6f-78ff-4b1e-b241-c2bbc0b37e9f",
              "A4": "cb455b6f-78ff-4b1e-b241-c2bbc0b37e9f",
              "IL2": "bc92ec6d-dce3-4908-b3a1-8cff7a8787a5",
              "L1": "6b6b74e2-820d-490e-a017-2b73d4ccf2b0",
              "L8": {
                "GS1": 1,
                "GS2": "1",
                "GS5": "58009011-3322-4458-9b0c-00259f6c73fb"
              }
            },
            {
              "BL1": "Terrasoft.Core.Process.ProcessSchemaParameter",
              "UId": "a04bef7f-c248-4ea4-9039-b1d156407819",
              "A2": "ReadSomeTopRecords",
              "A3": "cb455b6f-78ff-4b1e-b241-c2bbc0b37e9f",
              "A4": "cb455b6f-78ff-4b1e-b241-c2bbc0b37e9f",
              "IL2": "bc92ec6d-dce3-4908-b3a1-8cff7a8787a5",
              "L1": "90b65bf8-0ffc-4141-8779-2420877af907",
              "L8": {
                "GS2": ""
              }
            },
            {
              "BL1": "Terrasoft.Core.Process.ProcessSchemaParameter",
              "UId": "2ab3b2d2-9693-4612-8cc6-68d4a8a3d6e1",
              "A2": "NumberOfRecords",
              "A3": "cb455b6f-78ff-4b1e-b241-c2bbc0b37e9f",
              "A4": "cb455b6f-78ff-4b1e-b241-c2bbc0b37e9f",
              "IL2": "bc92ec6d-dce3-4908-b3a1-8cff7a8787a5",
              "L1": "6b6b74e2-820d-490e-a017-2b73d4ccf2b0",
              "L8": {
                "GS2": ""
              }
            },
            {
              "BL1": "Terrasoft.Core.Process.ProcessSchemaParameter",
              "UId": "2d175dd3-0cef-481c-8394-2d5af9016c70",
              "A2": "FunctionType",
              "A3": "cb455b6f-78ff-4b1e-b241-c2bbc0b37e9f",
              "A4": "cb455b6f-78ff-4b1e-b241-c2bbc0b37e9f",
              "IL2": "bc92ec6d-dce3-4908-b3a1-8cff7a8787a5",
              "L1": "6b6b74e2-820d-490e-a017-2b73d4ccf2b0",
              "L8": {
                "GS1": 1,
                "GS2": "0",
                "GS5": "58009011-3322-4458-9b0c-00259f6c73fb"
              }
            },
            {
              "BL1": "Terrasoft.Core.Process.ProcessSchemaParameter",
              "UId": "64d09132-1cc1-49cb-839c-aee63032aafb",
              "A2": "AggregationColumnName",
              "A3": "cb455b6f-78ff-4b1e-b241-c2bbc0b37e9f",
              "A4": "cb455b6f-78ff-4b1e-b241-c2bbc0b37e9f",
              "IL2": "bc92ec6d-dce3-4908-b3a1-8cff7a8787a5",
              "L1": "394e160f-c8e0-46fa-9c0d-75d97e9e9169",
              "L8": {
                "GS2": ""
              }
            },
            {
              "BL1": "Terrasoft.Core.Process.ProcessSchemaParameter",
              "UId": "fe11f716-6914-4da5-8fdf-7bcaea720c19",
              "A2": "OrderInfo",
              "A3": "cb455b6f-78ff-4b1e-b241-c2bbc0b37e9f",
              "A4": "cb455b6f-78ff-4b1e-b241-c2bbc0b37e9f",
              "IL2": "bc92ec6d-dce3-4908-b3a1-8cff7a8787a5",
              "L1": "394e160f-c8e0-46fa-9c0d-75d97e9e9169",
              "L8": {
                "GS2": ""
              }
            },
            {
              "BL1": "Terrasoft.Core.Process.ProcessSchemaParameter",
              "UId": "a33f7c32-6646-4139-9098-9f7d21f67477",
              "A2": "ResultEntity",
              "A3": "cb455b6f-78ff-4b1e-b241-c2bbc0b37e9f",
              "A4": "cb455b6f-78ff-4b1e-b241-c2bbc0b37e9f",
              "A5": "66e9e705-64b4-4dda-925e-d1e05a389eb6",
              "IL2": "bc92ec6d-dce3-4908-b3a1-8cff7a8787a5",
              "L1": "ebd85d37-0abf-4bbf-bb32-97dc3dffcc8c",
              "L8": {
                "GS1": 1,
                "GS5": "58009011-3322-4458-9b0c-00259f6c73fb"
              },
              "L9": "15822461-6de9-4464-8587-2e20ce2ea9c4"
            },
            {
              "BL1": "Terrasoft.Core.Process.ProcessSchemaParameter",
              "UId": "a7d54f5b-e67e-48f0-af26-072507463ecf",
              "A2": "ResultCount",
              "A3": "cb455b6f-78ff-4b1e-b241-c2bbc0b37e9f",
              "A4": "cb455b6f-78ff-4b1e-b241-c2bbc0b37e9f",
              "IL2": "bc92ec6d-dce3-4908-b3a1-8cff7a8787a5",
              "L1": "6b6b74e2-820d-490e-a017-2b73d4ccf2b0",
              "L8": {
                "GS2": ""
              }
            },
            {
              "BL1": "Terrasoft.Core.Process.ProcessSchemaParameter",
              "UId": "f9a009f3-8395-415b-bed6-35aa34345d5b",
              "A2": "ResultIntegerFunction",
              "A3": "cb455b6f-78ff-4b1e-b241-c2bbc0b37e9f",
              "A4": "cb455b6f-78ff-4b1e-b241-c2bbc0b37e9f",
              "IL2": "bc92ec6d-dce3-4908-b3a1-8cff7a8787a5",
              "L1": "6b6b74e2-820d-490e-a017-2b73d4ccf2b0",
              "L8": {
                "GS2": ""
              }
            },
            {
              "BL1": "Terrasoft.Core.Process.ProcessSchemaParameter",
              "UId": "1d65ac7d-4277-439c-9843-2148c40e7349",
              "A2": "ResultFloatFunction",
              "A3": "cb455b6f-78ff-4b1e-b241-c2bbc0b37e9f",
              "A4": "cb455b6f-78ff-4b1e-b241-c2bbc0b37e9f",
              "IL2": "bc92ec6d-dce3-4908-b3a1-8cff7a8787a5",
              "L1": "ff22e049-4d16-46ee-a529-92d8808932dc",
              "L8": {
                "GS2": ""
              }
            },
            {
              "BL1": "Terrasoft.Core.Process.ProcessSchemaParameter",
              "UId": "9500884e-04e0-4463-9a7e-4e46af9378b5",
              "A2": "ResultDateTimeFunction",
              "A3": "cb455b6f-78ff-4b1e-b241-c2bbc0b37e9f",
              "A4": "cb455b6f-78ff-4b1e-b241-c2bbc0b37e9f",
              "IL2": "bc92ec6d-dce3-4908-b3a1-8cff7a8787a5",
              "L1": "d21e9ef4-c064-4012-b286-fa1a8171da44",
              "L8": {
                "GS2": ""
              }
            },
            {
              "BL1": "Terrasoft.Core.Process.ProcessSchemaParameter",
              "UId": "ecb6ac01-a939-4ff7-8123-c1e8d37696fe",
              "A2": "ResultRowsCount",
              "A3": "cb455b6f-78ff-4b1e-b241-c2bbc0b37e9f",
              "A4": "cb455b6f-78ff-4b1e-b241-c2bbc0b37e9f",
              "IL2": "bc92ec6d-dce3-4908-b3a1-8cff7a8787a5",
              "L1": "6b6b74e2-820d-490e-a017-2b73d4ccf2b0",
              "L8": {
                "GS2": ""
              }
            },
            {
              "BL1": "Terrasoft.Core.Process.ProcessSchemaParameter",
              "UId": "570bbc08-1884-46b1-98be-320f45ab71e0",
              "A2": "CanReadUncommitedData",
              "A3": "cb455b6f-78ff-4b1e-b241-c2bbc0b37e9f",
              "A4": "cb455b6f-78ff-4b1e-b241-c2bbc0b37e9f",
              "IL2": "bc92ec6d-dce3-4908-b3a1-8cff7a8787a5",
              "L1": "90b65bf8-0ffc-4141-8779-2420877af907",
              "L8": {
                "GS1": 1,
                "GS2": "true",
                "GS5": "cb455b6f-78ff-4b1e-b241-c2bbc0b37e9f"
              }
            },
            {
              "BL1": "Terrasoft.Core.Process.ProcessSchemaParameter",
              "UId": "48b85662-52de-4ad1-8d6c-4b32f4673fc2",
              "A2": "ResultEntityCollection",
              "A3": "cb455b6f-78ff-4b1e-b241-c2bbc0b37e9f",
              "A4": "cb455b6f-78ff-4b1e-b241-c2bbc0b37e9f",
              "IL2": "bc92ec6d-dce3-4908-b3a1-8cff7a8787a5",
              "L1": "51fb23ba-3eb2-11e2-b7d5-b0c76188709b",
              "L8": {
                "GS2": ""
              }
            },
            {
              "BL1": "Terrasoft.Core.Process.ProcessSchemaParameter",
              "UId": "bbc096ba-b5b7-42bc-90c4-4e0ff0a5e2f1",
              "A2": "EntityColumnMetaPathes",
              "A3": "cb455b6f-78ff-4b1e-b241-c2bbc0b37e9f",
              "A4": "cb455b6f-78ff-4b1e-b241-c2bbc0b37e9f",
              "IL2": "bc92ec6d-dce3-4908-b3a1-8cff7a8787a5",
              "L1": "394e160f-c8e0-46fa-9c0d-75d97e9e9169",
              "L8": {
                "GS2": ""
              }
            },
            {
              "BL1": "Terrasoft.Core.Process.ProcessSchemaParameter",
              "UId": "9db7335c-9d86-417b-9ddb-530c5e910c8f",
              "A2": "IgnoreDisplayValues",
              "A3": "cb455b6f-78ff-4b1e-b241-c2bbc0b37e9f",
              "A4": "cb455b6f-78ff-4b1e-b241-c2bbc0b37e9f",
              "IL2": "bc92ec6d-dce3-4908-b3a1-8cff7a8787a5",
              "L1": "90b65bf8-0ffc-4141-8779-2420877af907",
              "L8": {
                "GS2": ""
              }
            }
          ],
          "CL2": "FFFFFFFF",
          "J6": "cb455b6f-78ff-4b1e-b241-c2bbc0b37e9f",
          "J5": "ProcessUserTaskSchemaManager"
        },
        {
          "BL1": "Terrasoft.Core.Process.ProcessSchemaUserTask",
          "UId": "0e29b3f3-e176-4b52-851b-c6e6edf9da19",
          "A2": "ReadDataUserTask2",
          "A3": "58009011-3322-4458-9b0c-00259f6c73fb",
          "A4": "58009011-3322-4458-9b0c-00259f6c73fb",
          "A5": "b18a0f67-6bd3-4ff3-8fa3-c759fb72d073",
          "IL2": "9f2d7e4d-5681-4d42-b9ed-f75e416d7d4f",
          "BL3": "320;170",
          "BL7": "cb455b6f-78ff-4b1e-b241-c2bbc0b37e9f",
          "BL8": "58009011-3322-4458-9b0c-00259f6c73fb",
          "BN2": "69;55",
          "BO2": true,
          "BO3": true,
          "BP2": [
            {
              "BL1": "Terrasoft.Core.Process.ProcessSchemaParameter",
              "UId": "88688b80-8462-46f2-98b3-f1eca8a0b259",
              "A2": "DataSourceFilters",
              "A3": "cb455b6f-78ff-4b1e-b241-c2bbc0b37e9f",
              "A4": "cb455b6f-78ff-4b1e-b241-c2bbc0b37e9f",
              "A5": "66e9e705-64b4-4dda-925e-d1e05a389eb6",
              "IL2": "0e29b3f3-e176-4b52-851b-c6e6edf9da19",
              "L1": "394e160f-c8e0-46fa-9c0d-75d97e9e9169",
              "L8": {
                "GS1": 1,
                "GS2": "{\"className\":\"Terrasoft.FilterGroup\",\"serializedFilterEditData\":\"{\\\"className\\\":\\\"Terrasoft.FilterGroup\\\",\\\"items\\\":{\\\"3b4746d0-e2be-42f8-ae82-136739fc261b\\\":{\\\"className\\\":\\\"Terrasoft.CompareFilter\\\",\\\"filterType\\\":1,\\\"comparisonType\\\":5,\\\"isEnabled\\\":true,\\\"trimDateTimeParameterToDate\\\":true,\\\"leftExpression\\\":{\\\"className\\\":\\\"Terrasoft.ColumnExpression\\\",\\\"expressionType\\\":0,\\\"columnPath\\\":\\\"ITChangeUntilDate\\\"},\\\"isAggregative\\\":false,\\\"key\\\":\\\"3b4746d0-e2be-42f8-ae82-136739fc261b\\\",\\\"dataValueType\\\":7,\\\"leftExpressionCaption\\\":\\\"Замена до\\\",\\\"rightExpression\\\":{\\\"className\\\":\\\"Terrasoft.ParameterExpression\\\",\\\"expressionType\\\":2,\\\"parameter\\\":{\\\"className\\\":\\\"Terrasoft.Parameter\\\",\\\"dataValueType\\\":26,\\\"value\\\":{\\\"value\\\":\\\"[IsOwnerSchema:false].[IsSchema:false].[Parameter:{0f6d8457-2a6c-4eb7-b2bc-794e35fb79e1}]\\\",\\\"displayValue\\\":\\\"Текущее значение Даты/Времени\\\"}}}}},\\\"logicalOperation\\\":0,\\\"isEnabled\\\":true,\\\"filterType\\\":6,\\\"rootSchemaName\\\":\\\"ITChangeOwnerLog\\\",\\\"key\\\":\\\"\\\"}\",\"dataSourceFilters\":\"{\\\"items\\\":{\\\"3b4746d0-e2be-42f8-ae82-136739fc261b\\\":{\\\"filterType\\\":1,\\\"comparisonType\\\":5,\\\"isEnabled\\\":true,\\\"trimDateTimeParameterToDate\\\":true,\\\"leftExpression\\\":{\\\"expressionType\\\":0,\\\"columnPath\\\":\\\"ITChangeUntilDate\\\"},\\\"rightExpression\\\":{\\\"expressionType\\\":2,\\\"parameter\\\":{\\\"dataValueType\\\":26,\\\"value\\\":{\\\"value\\\":\\\"[IsOwnerSchema:false].[IsSchema:false].[Parameter:{0f6d8457-2a6c-4eb7-b2bc-794e35fb79e1}]\\\"}}}}},\\\"logicalOperation\\\":0,\\\"isEnabled\\\":true,\\\"filterType\\\":6,\\\"rootSchemaName\\\":\\\"ITChangeOwnerLog\\\"}\"}",
                "GS5": "58009011-3322-4458-9b0c-00259f6c73fb"
              }
            },
            {
              "BL1": "Terrasoft.Core.Process.ProcessSchemaParameter",
              "UId": "542d3916-5f7c-4ed7-91b2-0db24a89da4a",
              "A2": "ResultType",
              "A3": "cb455b6f-78ff-4b1e-b241-c2bbc0b37e9f",
              "A4": "cb455b6f-78ff-4b1e-b241-c2bbc0b37e9f",
              "IL2": "0e29b3f3-e176-4b52-851b-c6e6edf9da19",
              "L1": "6b6b74e2-820d-490e-a017-2b73d4ccf2b0",
              "L8": {
                "GS1": 1,
                "GS2": "0",
                "GS5": "cb455b6f-78ff-4b1e-b241-c2bbc0b37e9f"
              }
            },
            {
              "BL1": "Terrasoft.Core.Process.ProcessSchemaParameter",
              "UId": "34f6050a-7e31-477c-bd70-8ce2708d7a12",
              "A2": "ReadSomeTopRecords",
              "A3": "cb455b6f-78ff-4b1e-b241-c2bbc0b37e9f",
              "A4": "cb455b6f-78ff-4b1e-b241-c2bbc0b37e9f",
              "IL2": "0e29b3f3-e176-4b52-851b-c6e6edf9da19",
              "L1": "90b65bf8-0ffc-4141-8779-2420877af907",
              "L8": {
                "GS2": ""
              }
            },
            {
              "BL1": "Terrasoft.Core.Process.ProcessSchemaParameter",
              "UId": "1cabb7a2-f81a-442b-bc2a-e7a3c1ba6b7f",
              "A2": "NumberOfRecords",
              "A3": "cb455b6f-78ff-4b1e-b241-c2bbc0b37e9f",
              "A4": "cb455b6f-78ff-4b1e-b241-c2bbc0b37e9f",
              "IL2": "0e29b3f3-e176-4b52-851b-c6e6edf9da19",
              "L1": "6b6b74e2-820d-490e-a017-2b73d4ccf2b0",
              "L8": {
                "GS2": ""
              }
            },
            {
              "BL1": "Terrasoft.Core.Process.ProcessSchemaParameter",
              "UId": "a2bdc0e0-b6af-46dd-b177-ad7474d00945",
              "A2": "FunctionType",
              "A3": "cb455b6f-78ff-4b1e-b241-c2bbc0b37e9f",
              "A4": "cb455b6f-78ff-4b1e-b241-c2bbc0b37e9f",
              "IL2": "0e29b3f3-e176-4b52-851b-c6e6edf9da19",
              "L1": "6b6b74e2-820d-490e-a017-2b73d4ccf2b0",
              "L8": {
                "GS1": 1,
                "GS2": "0",
                "GS5": "58009011-3322-4458-9b0c-00259f6c73fb"
              }
            },
            {
              "BL1": "Terrasoft.Core.Process.ProcessSchemaParameter",
              "UId": "52d08884-91e1-4967-9afd-c7e39d0c40bf",
              "A2": "AggregationColumnName",
              "A3": "cb455b6f-78ff-4b1e-b241-c2bbc0b37e9f",
              "A4": "cb455b6f-78ff-4b1e-b241-c2bbc0b37e9f",
              "IL2": "0e29b3f3-e176-4b52-851b-c6e6edf9da19",
              "L1": "394e160f-c8e0-46fa-9c0d-75d97e9e9169",
              "L8": {
                "GS2": ""
              }
            },
            {
              "BL1": "Terrasoft.Core.Process.ProcessSchemaParameter",
              "UId": "b2b2ae74-0e02-4313-909b-8ed5a3efc46c",
              "A2": "OrderInfo",
              "A3": "cb455b6f-78ff-4b1e-b241-c2bbc0b37e9f",
              "A4": "cb455b6f-78ff-4b1e-b241-c2bbc0b37e9f",
              "IL2": "0e29b3f3-e176-4b52-851b-c6e6edf9da19",
              "L1": "394e160f-c8e0-46fa-9c0d-75d97e9e9169",
              "L8": {
                "GS2": ""
              }
            },
            {
              "BL1": "Terrasoft.Core.Process.ProcessSchemaParameter",
              "UId": "b9be7a46-9d6a-4d91-8268-311e9ae6eea5",
              "A2": "ResultEntity",
              "A3": "cb455b6f-78ff-4b1e-b241-c2bbc0b37e9f",
              "A4": "cb455b6f-78ff-4b1e-b241-c2bbc0b37e9f",
              "A5": "66e9e705-64b4-4dda-925e-d1e05a389eb6",
              "IL2": "0e29b3f3-e176-4b52-851b-c6e6edf9da19",
              "L1": "ebd85d37-0abf-4bbf-bb32-97dc3dffcc8c",
              "L8": {
                "GS1": 1,
                "GS5": "58009011-3322-4458-9b0c-00259f6c73fb"
              },
              "L9": "15822461-6de9-4464-8587-2e20ce2ea9c4",
              "L13": true,
              "L16": "ITChangeOwnerLog"
            },
            {
              "BL1": "Terrasoft.Core.Process.ProcessSchemaParameter",
              "UId": "8af07829-5485-4128-b2e9-64690a1c8a73",
              "A2": "ResultCount",
              "A3": "cb455b6f-78ff-4b1e-b241-c2bbc0b37e9f",
              "A4": "cb455b6f-78ff-4b1e-b241-c2bbc0b37e9f",
              "IL2": "0e29b3f3-e176-4b52-851b-c6e6edf9da19",
              "L1": "6b6b74e2-820d-490e-a017-2b73d4ccf2b0",
              "L8": {
                "GS2": ""
              }
            },
            {
              "BL1": "Terrasoft.Core.Process.ProcessSchemaParameter",
              "UId": "e9f8ec83-fe8e-4de8-8440-bd221ade05b5",
              "A2": "ResultIntegerFunction",
              "A3": "cb455b6f-78ff-4b1e-b241-c2bbc0b37e9f",
              "A4": "cb455b6f-78ff-4b1e-b241-c2bbc0b37e9f",
              "IL2": "0e29b3f3-e176-4b52-851b-c6e6edf9da19",
              "L1": "6b6b74e2-820d-490e-a017-2b73d4ccf2b0",
              "L8": {
                "GS2": ""
              }
            },
            {
              "BL1": "Terrasoft.Core.Process.ProcessSchemaParameter",
              "UId": "a9efc3dc-1226-4bf2-9dcc-2277869d3923",
              "A2": "ResultFloatFunction",
              "A3": "cb455b6f-78ff-4b1e-b241-c2bbc0b37e9f",
              "A4": "cb455b6f-78ff-4b1e-b241-c2bbc0b37e9f",
              "IL2": "0e29b3f3-e176-4b52-851b-c6e6edf9da19",
              "L1": "ff22e049-4d16-46ee-a529-92d8808932dc",
              "L8": {
                "GS2": ""
              }
            },
            {
              "BL1": "Terrasoft.Core.Process.ProcessSchemaParameter",
              "UId": "d0711f8e-7a1c-45de-aa65-685f412a9feb",
              "A2": "ResultDateTimeFunction",
              "A3": "cb455b6f-78ff-4b1e-b241-c2bbc0b37e9f",
              "A4": "cb455b6f-78ff-4b1e-b241-c2bbc0b37e9f",
              "IL2": "0e29b3f3-e176-4b52-851b-c6e6edf9da19",
              "L1": "d21e9ef4-c064-4012-b286-fa1a8171da44",
              "L8": {
                "GS2": ""
              }
            },
            {
              "BL1": "Terrasoft.Core.Process.ProcessSchemaParameter",
              "UId": "fa1d7c88-e1f1-4197-8911-31bad36ac94e",
              "A2": "ResultRowsCount",
              "A3": "cb455b6f-78ff-4b1e-b241-c2bbc0b37e9f",
              "A4": "cb455b6f-78ff-4b1e-b241-c2bbc0b37e9f",
              "IL2": "0e29b3f3-e176-4b52-851b-c6e6edf9da19",
              "L1": "6b6b74e2-820d-490e-a017-2b73d4ccf2b0",
              "L8": {
                "GS2": ""
              }
            },
            {
              "BL1": "Terrasoft.Core.Process.ProcessSchemaParameter",
              "UId": "9deb22ae-d98d-4807-8a3c-af0ff3129617",
              "A2": "CanReadUncommitedData",
              "A3": "cb455b6f-78ff-4b1e-b241-c2bbc0b37e9f",
              "A4": "cb455b6f-78ff-4b1e-b241-c2bbc0b37e9f",
              "IL2": "0e29b3f3-e176-4b52-851b-c6e6edf9da19",
              "L1": "90b65bf8-0ffc-4141-8779-2420877af907",
              "L8": {
                "GS1": 1,
                "GS2": "true",
                "GS5": "cb455b6f-78ff-4b1e-b241-c2bbc0b37e9f"
              }
            },
            {
              "BL1": "Terrasoft.Core.Process.ProcessSchemaParameter",
              "UId": "b6f619d8-2c59-4d18-8990-a90501df0683",
              "A2": "ResultEntityCollection",
              "A3": "cb455b6f-78ff-4b1e-b241-c2bbc0b37e9f",
              "A4": "cb455b6f-78ff-4b1e-b241-c2bbc0b37e9f",
              "IL2": "0e29b3f3-e176-4b52-851b-c6e6edf9da19",
              "L1": "51fb23ba-3eb2-11e2-b7d5-b0c76188709b",
              "L8": {
                "GS2": ""
              }
            },
            {
              "BL1": "Terrasoft.Core.Process.ProcessSchemaParameter",
              "UId": "2b77f43c-5cb5-494a-9029-0499b5e73e36",
              "A2": "EntityColumnMetaPathes",
              "A3": "cb455b6f-78ff-4b1e-b241-c2bbc0b37e9f",
              "A4": "cb455b6f-78ff-4b1e-b241-c2bbc0b37e9f",
              "IL2": "0e29b3f3-e176-4b52-851b-c6e6edf9da19",
              "L1": "394e160f-c8e0-46fa-9c0d-75d97e9e9169",
              "L8": {
                "GS1": 1,
                "GS2": "ae0e45ca-c495-4fe7-a39d-3ab7278e1617;9839cdd8-9323-42a1-8b54-0add813081b1;d8b57057-984b-4f9b-b148-52db7f098a05;fbb28074-705a-4c46-9708-f304bc7aa23c;7b520076-38b8-475b-8703-c151145f3865;c42b0ba3-961c-4abb-935f-c77d6d7c8d02",
                "GS5": "58009011-3322-4458-9b0c-00259f6c73fb"
              }
            },
            {
              "BL1": "Terrasoft.Core.Process.ProcessSchemaParameter",
              "UId": "72604dfa-61bd-4597-8a9a-91c12496a591",
              "A2": "IgnoreDisplayValues",
              "A3": "cb455b6f-78ff-4b1e-b241-c2bbc0b37e9f",
              "A4": "cb455b6f-78ff-4b1e-b241-c2bbc0b37e9f",
              "IL2": "0e29b3f3-e176-4b52-851b-c6e6edf9da19",
              "L1": "90b65bf8-0ffc-4141-8779-2420877af907",
              "L8": {
                "GS2": ""
              }
            }
          ],
          "CL2": "FFFFFFFF",
          "J6": "cb455b6f-78ff-4b1e-b241-c2bbc0b37e9f",
          "J5": "ProcessUserTaskSchemaManager"
        },
        {
          "BL1": "Terrasoft.Core.Process.ProcessSchemaUserTask",
          "UId": "fc9bc8cc-6eb8-4528-9f53-e5ad8a03b430",
          "A2": "DeleteDataUserTask1",
          "A3": "58009011-3322-4458-9b0c-00259f6c73fb",
          "A4": "58009011-3322-4458-9b0c-00259f6c73fb",
          "A5": "b18a0f67-6bd3-4ff3-8fa3-c759fb72d073",
          "IL2": "9f2d7e4d-5681-4d42-b9ed-f75e416d7d4f",
          "BL3": "551;170",
          "BL7": "40f4a8f2-edca-432d-a5ea-03e8577b4691",
          "BL8": "58009011-3322-4458-9b0c-00259f6c73fb",
          "BN2": "69;55",
          "BO3": true,
          "BP2": [
            {
              "BL1": "Terrasoft.Core.Process.ProcessSchemaParameter",
              "UId": "34c2eb8f-6870-41bf-a077-9e2ab66a7381",
              "A2": "EntitySchemaId",
              "A3": "40f4a8f2-edca-432d-a5ea-03e8577b4691",
              "A4": "40f4a8f2-edca-432d-a5ea-03e8577b4691",
              "IL2": "fc9bc8cc-6eb8-4528-9f53-e5ad8a03b430",
              "L1": "b295071f-7ea9-4e62-8d1a-919bf3732ff2",
              "L8": {
                "GS1": 1,
                "GS2": "15822461-6de9-4464-8587-2e20ce2ea9c4",
                "GS5": "58009011-3322-4458-9b0c-00259f6c73fb"
              },
              "L9": "2e155463-3ff1-4ccf-8584-4ec8d7233111"
            },
            {
              "BL1": "Terrasoft.Core.Process.ProcessSchemaParameter",
              "UId": "729c0e78-dcd6-456e-858f-cee99abecd82",
              "A2": "DataSourceFilters",
              "A3": "40f4a8f2-edca-432d-a5ea-03e8577b4691",
              "A4": "40f4a8f2-edca-432d-a5ea-03e8577b4691",
              "IL2": "fc9bc8cc-6eb8-4528-9f53-e5ad8a03b430",
              "L1": "394e160f-c8e0-46fa-9c0d-75d97e9e9169",
              "L8": {
                "GS1": 1,
                "GS2": "{\"className\":\"Terrasoft.FilterGroup\",\"serializedFilterEditData\":\"{\\\"className\\\":\\\"Terrasoft.FilterGroup\\\",\\\"items\\\":{\\\"c150d52b-d15b-4370-b380-4386f5030ba8\\\":{\\\"className\\\":\\\"Terrasoft.CompareFilter\\\",\\\"filterType\\\":1,\\\"comparisonType\\\":3,\\\"isEnabled\\\":true,\\\"trimDateTimeParameterToDate\\\":false,\\\"leftExpression\\\":{\\\"className\\\":\\\"Terrasoft.ColumnExpression\\\",\\\"expressionType\\\":0,\\\"columnPath\\\":\\\"Id\\\"},\\\"isAggregative\\\":false,\\\"key\\\":\\\"c150d52b-d15b-4370-b380-4386f5030ba8\\\",\\\"dataValueType\\\":0,\\\"leftExpressionCaption\\\":\\\"Id\\\",\\\"rightExpression\\\":{\\\"className\\\":\\\"Terrasoft.ParameterExpression\\\",\\\"expressionType\\\":2,\\\"parameter\\\":{\\\"className\\\":\\\"Terrasoft.Parameter\\\",\\\"dataValueType\\\":26,\\\"value\\\":{\\\"value\\\":\\\"[IsOwnerSchema:false].[IsSchema:false].[Element:{0e29b3f3-e176-4b52-851b-c6e6edf9da19}].[Parameter:{b9be7a46-9d6a-4d91-8268-311e9ae6eea5}].[EntityColumn:{ae0e45ca-c495-4fe7-a39d-3ab7278e1617}]\\\",\\\"displayValue\\\":\\\"Выбрать запись.Первый элемент результирующей коллекции.Id\\\"}}}}},\\\"logicalOperation\\\":0,\\\"isEnabled\\\":true,\\\"filterType\\\":6,\\\"rootSchemaName\\\":\\\"ITChangeOwnerLog\\\",\\\"key\\\":\\\"\\\"}\",\"dataSourceFilters\":\"{\\\"items\\\":{\\\"c150d52b-d15b-4370-b380-4386f5030ba8\\\":{\\\"filterType\\\":1,\\\"comparisonType\\\":3,\\\"isEnabled\\\":true,\\\"trimDateTimeParameterToDate\\\":false,\\\"leftExpression\\\":{\\\"expressionType\\\":0,\\\"columnPath\\\":\\\"Id\\\"},\\\"rightExpression\\\":{\\\"expressionType\\\":2,\\\"parameter\\\":{\\\"dataValueType\\\":26,\\\"value\\\":{\\\"value\\\":\\\"[IsOwnerSchema:false].[IsSchema:false].[Element:{0e29b3f3-e176-4b52-851b-c6e6edf9da19}].[Parameter:{b9be7a46-9d6a-4d91-8268-311e9ae6eea5}].[EntityColumn:{ae0e45ca-c495-4fe7-a39d-3ab7278e1617}]\\\"}}}}},\\\"logicalOperation\\\":0,\\\"isEnabled\\\":true,\\\"filterType\\\":6,\\\"rootSchemaName\\\":\\\"ITChangeOwnerLog\\\"}\"}",
                "GS5": "58009011-3322-4458-9b0c-00259f6c73fb"
              }
            },
            {
              "BL1": "Terrasoft.Core.Process.ProcessSchemaParameter",
              "UId": "f0abf0c0-f98a-46b0-9137-d3a140e5ee82",
              "A2": "IsMatchConditions",
              "A3": "40f4a8f2-edca-432d-a5ea-03e8577b4691",
              "A4": "40f4a8f2-edca-432d-a5ea-03e8577b4691",
              "IL2": "fc9bc8cc-6eb8-4528-9f53-e5ad8a03b430",
              "L1": "90b65bf8-0ffc-4141-8779-2420877af907",
              "L8": {}
            }
          ],
          "CL2": "FFFFFFFF",
          "J6": "40f4a8f2-edca-432d-a5ea-03e8577b4691",
          "J5": "ProcessUserTaskSchemaManager"
        },
        {
          "BL1": "Terrasoft.Core.Process.ProcessSchemaFormulaTask",
          "UId": "cc2844ca-4ad9-4dc5-bd38-820b557abf2c",
          "A2": "FormulaTask1",
          "A3": "58009011-3322-4458-9b0c-00259f6c73fb",
          "A4": "58009011-3322-4458-9b0c-00259f6c73fb",
          "A5": "b18a0f67-6bd3-4ff3-8fa3-c759fb72d073",
          "IL2": "9f2d7e4d-5681-4d42-b9ed-f75e416d7d4f",
          "BL3": "210;170",
          "BL7": "d334d28f-b11a-477e-9ff0-0a95fa73d53b",
          "BL8": "58009011-3322-4458-9b0c-00259f6c73fb",
          "BN2": "69;55",
          "BO3": true,
          "BP2": [],
          "CL2": "FFFFFFFF",
          "CH1": "[#[IsOwnerSchema:false].[IsSchema:false].[Element:{bc92ec6d-dce3-4908-b3a1-8cff7a8787a5}].[Parameter:{a7d54f5b-e67e-48f0-af26-072507463ecf}]#]",
          "HS1": "097ccab5-2df2-4c49-ae14-ba560f6755d0"
        },
        {
          "BL1": "Terrasoft.Core.Process.ProcessSchemaSubProcess",
          "UId": "7c9a7dec-cbf7-45bd-bbca-6b551a4521be",
          "A2": "ChangeOwnerSubProcess",
          "A3": "58009011-3322-4458-9b0c-00259f6c73fb",
          "A4": "58009011-3322-4458-9b0c-00259f6c73fb",
          "A5": "b18a0f67-6bd3-4ff3-8fa3-c759fb72d073",
          "IL2": "9f2d7e4d-5681-4d42-b9ed-f75e416d7d4f",
          "BL3": "431;170",
          "BL7": "49eafdbb-a89e-4bdf-a29d-7f17b1670a45",
          "BL8": "58009011-3322-4458-9b0c-00259f6c73fb",
          "BN2": "69;55",
          "BO2": true,
          "BO3": true,
          "BP2": [
            {
              "BL1": "Terrasoft.Core.Process.ProcessSchemaParameter",
              "UId": "5c1d641a-755e-456b-b77f-3a30f00f3276",
              "A2": "ExceptionOccureduserMessage",
              "A3": "2fe06334-b0d9-4994-8481-5f86c9aa3c4f",
              "A4": "2fe06334-b0d9-4994-8481-5f86c9aa3c4f",
              "IL2": "7c9a7dec-cbf7-45bd-bbca-6b551a4521be",
              "L1": "5ca35f10-a101-4c67-a96a-383da6afacfc",
              "L8": {
                "GS5": "2fe06334-b0d9-4994-8481-5f86c9aa3c4f"
              }
            },
            {
              "BL1": "Terrasoft.Core.Process.ProcessSchemaParameter",
              "UId": "c3a8788f-b2c2-4f64-a176-c03d359a1fa0",
              "A2": "SuccessChangeMessage",
              "A3": "2fe06334-b0d9-4994-8481-5f86c9aa3c4f",
              "A4": "2fe06334-b0d9-4994-8481-5f86c9aa3c4f",
              "IL2": "7c9a7dec-cbf7-45bd-bbca-6b551a4521be",
              "L1": "5ca35f10-a101-4c67-a96a-383da6afacfc",
              "L8": {
                "GS5": "2fe06334-b0d9-4994-8481-5f86c9aa3c4f"
              }
            },
            {
              "BL1": "Terrasoft.Core.Process.ProcessSchemaParameter",
              "UId": "fd669b66-db23-482a-be35-9bcc1309a5b0",
              "A2": "RemindDescription",
              "A3": "2fe06334-b0d9-4994-8481-5f86c9aa3c4f",
              "A4": "2fe06334-b0d9-4994-8481-5f86c9aa3c4f",
              "IL2": "7c9a7dec-cbf7-45bd-bbca-6b551a4521be",
              "L1": "5ca35f10-a101-4c67-a96a-383da6afacfc",
              "L8": {}
            },
            {
              "BL1": "Terrasoft.Core.Process.ProcessSchemaParameter",
              "UId": "1ef22834-c026-4cfa-a760-1d2a2a47a00e",
              "A2": "OldOwnerId",
              "A3": "2fe06334-b0d9-4994-8481-5f86c9aa3c4f",
              "A4": "2fe06334-b0d9-4994-8481-5f86c9aa3c4f",
              "IL2": "7c9a7dec-cbf7-45bd-bbca-6b551a4521be",
              "L1": "23018567-a13c-4320-8687-fd6f9e3699bd",
              "L8": {
                "GS1": 3,
                "GS2": "[#[IsOwnerSchema:false].[IsSchema:false].[Element:{0e29b3f3-e176-4b52-851b-c6e6edf9da19}].[Parameter:{b9be7a46-9d6a-4d91-8268-311e9ae6eea5}].[EntityColumn:{9839cdd8-9323-42a1-8b54-0add813081b1}]#]",
                "GS5": "58009011-3322-4458-9b0c-00259f6c73fb"
              }
            },
            {
              "BL1": "Terrasoft.Core.Process.ProcessSchemaParameter",
              "UId": "6464188f-bc06-4f1a-8eb0-ac7f9df742a6",
              "A2": "NewOwnerId",
              "A3": "2fe06334-b0d9-4994-8481-5f86c9aa3c4f",
              "A4": "2fe06334-b0d9-4994-8481-5f86c9aa3c4f",
              "IL2": "7c9a7dec-cbf7-45bd-bbca-6b551a4521be",
              "L1": "23018567-a13c-4320-8687-fd6f9e3699bd",
              "L8": {
                "GS1": 3,
                "GS2": "[#[IsOwnerSchema:false].[IsSchema:false].[Element:{0e29b3f3-e176-4b52-851b-c6e6edf9da19}].[Parameter:{b9be7a46-9d6a-4d91-8268-311e9ae6eea5}].[EntityColumn:{7b520076-38b8-475b-8703-c151145f3865}]#]",
                "GS5": "58009011-3322-4458-9b0c-00259f6c73fb"
              }
            },
            {
              "BL1": "Terrasoft.Core.Process.ProcessSchemaParameter",
              "UId": "0a5c7662-249a-4872-8d5a-9f5469a61c09",
              "A2": "RemindingSubject",
              "A3": "2fe06334-b0d9-4994-8481-5f86c9aa3c4f",
              "A4": "2fe06334-b0d9-4994-8481-5f86c9aa3c4f",
              "IL2": "7c9a7dec-cbf7-45bd-bbca-6b551a4521be",
              "L1": "5ca35f10-a101-4c67-a96a-383da6afacfc",
              "L8": {
                "GS5": "2fe06334-b0d9-4994-8481-5f86c9aa3c4f"
              }
            },
            {
              "BL1": "Terrasoft.Core.Process.ProcessSchemaParameter",
              "UId": "1b254caf-de9b-4b5b-9321-489dfff752e1",
              "A2": "ChangeOwnerFlag",
              "A3": "2fe06334-b0d9-4994-8481-5f86c9aa3c4f",
              "A4": "2fe06334-b0d9-4994-8481-5f86c9aa3c4f",
              "IL2": "7c9a7dec-cbf7-45bd-bbca-6b551a4521be",
              "L1": "90b65bf8-0ffc-4141-8779-2420877af907",
              "L8": {
                "GS1": 3,
                "GS2": "[#[IsOwnerSchema:false].[IsSchema:false].[Element:{0e29b3f3-e176-4b52-851b-c6e6edf9da19}].[Parameter:{b9be7a46-9d6a-4d91-8268-311e9ae6eea5}].[EntityColumn:{d8b57057-984b-4f9b-b148-52db7f098a05}]#]",
                "GS5": "58009011-3322-4458-9b0c-00259f6c73fb"
              }
            },
            {
              "BL1": "Terrasoft.Core.Process.ProcessSchemaParameter",
              "UId": "7df5149a-baec-4e40-b2e0-3d0501ab0382",
              "A2": "ChangeOwnerSupplierFlag",
              "A3": "2fe06334-b0d9-4994-8481-5f86c9aa3c4f",
              "A4": "2fe06334-b0d9-4994-8481-5f86c9aa3c4f",
              "IL2": "7c9a7dec-cbf7-45bd-bbca-6b551a4521be",
              "L1": "90b65bf8-0ffc-4141-8779-2420877af907",
              "L8": {
                "GS1": 3,
                "GS2": "[#[IsOwnerSchema:false].[IsSchema:false].[Element:{0e29b3f3-e176-4b52-851b-c6e6edf9da19}].[Parameter:{b9be7a46-9d6a-4d91-8268-311e9ae6eea5}].[EntityColumn:{fbb28074-705a-4c46-9708-f304bc7aa23c}]#]",
                "GS5": "58009011-3322-4458-9b0c-00259f6c73fb"
              }
            },
            {
              "BL1": "Terrasoft.Core.Process.ProcessSchemaParameter",
              "UId": "40cc27f4-a383-464f-9631-afc4e18e6477",
              "A2": "LeadType",
              "A3": "2fe06334-b0d9-4994-8481-5f86c9aa3c4f",
              "A4": "2fe06334-b0d9-4994-8481-5f86c9aa3c4f",
              "IL2": "7c9a7dec-cbf7-45bd-bbca-6b551a4521be",
              "L1": "b295071f-7ea9-4e62-8d1a-919bf3732ff2",
              "L8": {
                "GS1": 3,
                "GS2": "[#[IsOwnerSchema:false].[IsSchema:false].[Element:{0e29b3f3-e176-4b52-851b-c6e6edf9da19}].[Parameter:{b9be7a46-9d6a-4d91-8268-311e9ae6eea5}].[EntityColumn:{c42b0ba3-961c-4abb-935f-c77d6d7c8d02}]#]",
                "GS5": "58009011-3322-4458-9b0c-00259f6c73fb"
              },
              "L9": "e0dbeb22-4932-4eee-a8f2-a247a5fce888"
            }
          ],
          "CK4": "2fe06334-b0d9-4994-8481-5f86c9aa3c4f",
          "CK2": [],
          "CK3": []
        },
        {
          "BL1": "Terrasoft.Core.Process.ProcessSchemaFormulaTask",
          "UId": "ef1bfae6-51dc-4005-a1f8-134a93c350fb",
          "A2": "FormulaTask2",
          "A3": "58009011-3322-4458-9b0c-00259f6c73fb",
          "A4": "58009011-3322-4458-9b0c-00259f6c73fb",
          "A5": "b18a0f67-6bd3-4ff3-8fa3-c759fb72d073",
          "IL2": "9f2d7e4d-5681-4d42-b9ed-f75e416d7d4f",
          "BL3": "431;45",
          "BL7": "d334d28f-b11a-477e-9ff0-0a95fa73d53b",
          "BL8": "58009011-3322-4458-9b0c-00259f6c73fb",
          "BN2": "69;55",
          "BO3": true,
          "BP2": [],
          "CL2": "FFFFFFFF",
          "CH1": "[#[IsOwnerSchema:false].[IsSchema:false].[Parameter:{097ccab5-2df2-4c49-ae14-ba560f6755d0}]#] - 1",
          "HS1": "097ccab5-2df2-4c49-ae14-ba560f6755d0"
        },
        {
          "BL1": "Terrasoft.Core.Process.ProcessSchemaSequenceFlow",
          "UId": "973a8bc7-3143-43ff-8b41-4fbf986a5c78",
          "A2": "SequenceFlow1",
          "A3": "58009011-3322-4458-9b0c-00259f6c73fb",
          "A4": "58009011-3322-4458-9b0c-00259f6c73fb",
          "A5": "b18a0f67-6bd3-4ff3-8fa3-c759fb72d073",
          "BL7": "0d8351f6-c2f4-4737-bdd9-6fbfe0837fec",
          "BL8": "58009011-3322-4458-9b0c-00259f6c73fb",
          "CI1": "96815220-da06-4c32-bf90-7f67d32bdea1",
          "CI2": "bc92ec6d-dce3-4908-b3a1-8cff7a8787a5",
          "CI3": "null",
          "CI5": "FF939598",
          "CI6": 1,
          "CI8": "-1;0"
        },
        {
          "BL1": "Terrasoft.Core.Process.ProcessSchemaSequenceFlow",
          "UId": "2a51c465-acdd-496b-82a7-c092ea126ef2",
          "A2": "SequenceFlow2",
          "A3": "58009011-3322-4458-9b0c-00259f6c73fb",
          "A4": "58009011-3322-4458-9b0c-00259f6c73fb",
          "A5": "b18a0f67-6bd3-4ff3-8fa3-c759fb72d073",
          "BL7": "0d8351f6-c2f4-4737-bdd9-6fbfe0837fec",
          "BL8": "58009011-3322-4458-9b0c-00259f6c73fb",
          "CI1": "bc92ec6d-dce3-4908-b3a1-8cff7a8787a5",
          "CI2": "cc2844ca-4ad9-4dc5-bd38-820b557abf2c",
          "CI3": "null",
          "CI5": "FF939598",
          "CI6": 1,
          "CI7": "1;0",
          "CI8": "-1;0"
        },
        {
          "BL1": "Terrasoft.Core.Process.ProcessSchemaSequenceFlow",
          "UId": "03b2354c-a195-4dcd-b310-535deafb1ef1",
          "A2": "SequenceFlow6",
          "A3": "58009011-3322-4458-9b0c-00259f6c73fb",
          "A4": "58009011-3322-4458-9b0c-00259f6c73fb",
          "A5": "b18a0f67-6bd3-4ff3-8fa3-c759fb72d073",
          "BL7": "0d8351f6-c2f4-4737-bdd9-6fbfe0837fec",
          "BL8": "58009011-3322-4458-9b0c-00259f6c73fb",
          "CI1": "7c9a7dec-cbf7-45bd-bbca-6b551a4521be",
          "CI2": "fc9bc8cc-6eb8-4528-9f53-e5ad8a03b430",
          "CI3": "null",
          "CI5": "FF939598",
          "CI6": 1,
          "CI7": "1;0",
          "CI8": "-1;0"
        },
        {
          "BL1": "Terrasoft.Core.Process.ProcessSchemaSequenceFlow",
          "UId": "55193f78-8fab-4e66-b3ca-8554882e34ed",
          "A2": "DefaultSequenceFlow1",
          "A3": "58009011-3322-4458-9b0c-00259f6c73fb",
          "A4": "58009011-3322-4458-9b0c-00259f6c73fb",
          "A5": "b18a0f67-6bd3-4ff3-8fa3-c759fb72d073",
          "BL7": "573ed909-e069-4161-b193-ae8dd9437c68",
          "BL8": "58009011-3322-4458-9b0c-00259f6c73fb",
          "CI1": "fc9bc8cc-6eb8-4528-9f53-e5ad8a03b430",
          "CI2": "ef1bfae6-51dc-4005-a1f8-134a93c350fb",
          "CI3": "null",
          "CI4": 1,
          "CI5": "FF939598",
          "CI6": 1,
          "CI7": "0;1",
          "CI8": "1;0",
          "CI10": {
            "Item0": "585;72"
          }
        },
        {
          "BL1": "Terrasoft.Core.Process.ProcessSchemaConditionalFlow",
          "UId": "3aaffc65-49b3-4722-bbcc-ae66e3937afd",
          "A2": "ConditionalSequenceFlow1",
          "A3": "58009011-3322-4458-9b0c-00259f6c73fb",
          "A4": "58009011-3322-4458-9b0c-00259f6c73fb",
          "A5": "b18a0f67-6bd3-4ff3-8fa3-c759fb72d073",
          "BL7": "dac675d4-ea84-4e44-9056-38bf918618e9",
          "BL8": "58009011-3322-4458-9b0c-00259f6c73fb",
          "CI1": "fc9bc8cc-6eb8-4528-9f53-e5ad8a03b430",
          "CI2": "3b4c3d67-9b7d-4bc1-bc24-8bdc764a4b18",
          "CI3": "[#[IsOwnerSchema:false].[IsSchema:false].[Parameter:{097ccab5-2df2-4c49-ae14-ba560f6755d0}]#] == 0",
          "CI4": 2,
          "CI5": "FF939598",
          "CI6": 1,
          "CI7": "1;0",
          "CI8": "-1;0",
          "GV2": "{\"$type\":\"System.Collections.Generic.Dictionary`2[[System.Guid, mscorlib],[System.Collections.ObjectModel.Collection`1[[System.Guid, mscorlib]], mscorlib]], mscorlib\"}",
          "GV3": []
        },
        {
          "BL1": "Terrasoft.Core.Process.ProcessSchemaSequenceFlow",
          "UId": "20a4dd36-6a57-48be-bf5c-51558d9b6e46",
          "A2": "SequenceFlow4",
          "A3": "58009011-3322-4458-9b0c-00259f6c73fb",
          "A4": "58009011-3322-4458-9b0c-00259f6c73fb",
          "A5": "b18a0f67-6bd3-4ff3-8fa3-c759fb72d073",
          "BL7": "0d8351f6-c2f4-4737-bdd9-6fbfe0837fec",
          "BL8": "58009011-3322-4458-9b0c-00259f6c73fb",
          "CI1": "ef1bfae6-51dc-4005-a1f8-134a93c350fb",
          "CI2": "0e29b3f3-e176-4b52-851b-c6e6edf9da19",
          "CI3": "null",
          "CI5": "FF939598",
          "CI6": 1,
          "CI7": "-1;0",
          "CI8": "0;1",
          "CI10": {
            "Item0": "354;72"
          }
        },
        {
          "BL1": "Terrasoft.Core.Process.ProcessSchemaSequenceFlow",
          "UId": "8cef91b4-97d7-4bdd-90b7-0a3b959f337f",
          "A2": "DefaultSequenceFlow2",
          "A3": "58009011-3322-4458-9b0c-00259f6c73fb",
          "A4": "58009011-3322-4458-9b0c-00259f6c73fb",
          "A5": "b18a0f67-6bd3-4ff3-8fa3-c759fb72d073",
          "BL7": "573ed909-e069-4161-b193-ae8dd9437c68",
          "BL8": "58009011-3322-4458-9b0c-00259f6c73fb",
          "CI1": "cc2844ca-4ad9-4dc5-bd38-820b557abf2c",
          "CI2": "0e29b3f3-e176-4b52-851b-c6e6edf9da19",
          "CI3": "null",
          "CI4": 1,
          "CI5": "FF939598",
          "CI6": 1,
          "CI7": "1;0",
          "CI8": "-1;0"
        },
        {
          "BL1": "Terrasoft.Core.Process.ProcessSchemaConditionalFlow",
          "UId": "34488c75-4cd0-4c42-9402-06718a14d81b",
          "A2": "ConditionalSequenceFlow2",
          "A3": "58009011-3322-4458-9b0c-00259f6c73fb",
          "A4": "58009011-3322-4458-9b0c-00259f6c73fb",
          "A5": "b18a0f67-6bd3-4ff3-8fa3-c759fb72d073",
          "BL7": "dac675d4-ea84-4e44-9056-38bf918618e9",
          "BL8": "58009011-3322-4458-9b0c-00259f6c73fb",
          "CI1": "cc2844ca-4ad9-4dc5-bd38-820b557abf2c",
          "CI2": "3b4c3d67-9b7d-4bc1-bc24-8bdc764a4b18",
          "CI3": "[#[IsOwnerSchema:false].[IsSchema:false].[Element:{bc92ec6d-dce3-4908-b3a1-8cff7a8787a5}].[Parameter:{a7d54f5b-e67e-48f0-af26-072507463ecf}]#] == 0",
          "CI4": 2,
          "CI5": "FF939598",
          "CI6": 1,
          "CI7": "0;-1",
          "CI8": "0;-1",
          "CI10": {
            "Item0": "244;321",
            "Item1": "726;321"
          },
          "GV2": "{\"$type\":\"System.Collections.Generic.Dictionary`2[[System.Guid, mscorlib],[System.Collections.ObjectModel.Collection`1[[System.Guid, mscorlib]], mscorlib]], mscorlib\"}",
          "GV3": []
        },
        {
          "BL1": "Terrasoft.Core.Process.ProcessSchemaConditionalFlow",
          "UId": "331a0dea-0037-4d0b-9ad7-20e3b52dc518",
          "A2": "ConditionalSequenceFlow3",
          "A3": "58009011-3322-4458-9b0c-00259f6c73fb",
          "A4": "58009011-3322-4458-9b0c-00259f6c73fb",
          "A5": "b18a0f67-6bd3-4ff3-8fa3-c759fb72d073",
          "BL7": "dac675d4-ea84-4e44-9056-38bf918618e9",
          "BL8": "58009011-3322-4458-9b0c-00259f6c73fb",
          "CI1": "0e29b3f3-e176-4b52-851b-c6e6edf9da19",
          "CI2": "3b4c3d67-9b7d-4bc1-bc24-8bdc764a4b18",
          "CI3": "[#[IsOwnerSchema:false].[IsSchema:false].[Element:{0e29b3f3-e176-4b52-851b-c6e6edf9da19}].[Parameter:{b9be7a46-9d6a-4d91-8268-311e9ae6eea5}].[EntityColumn:{ae0e45ca-c495-4fe7-a39d-3ab7278e1617}]#]==Guid.Empty",
          "CI4": 2,
          "CI5": "FF939598",
          "CI6": 1,
          "CI7": "0;-1",
          "CI8": "0;-1",
          "CI10": {
            "Item0": "354;292",
            "Item1": "726;292"
          },
          "GV2": "{\"$type\":\"System.Collections.Generic.Dictionary`2[[System.Guid, mscorlib],[System.Collections.ObjectModel.Collection`1[[System.Guid, mscorlib]], mscorlib]], mscorlib\"}",
          "GV3": []
        },
        {
          "BL1": "Terrasoft.Core.Process.ProcessSchemaConditionalFlow",
          "UId": "5db1f3b8-2651-4186-a73e-be498595c53d",
          "A2": "ConditionalSequenceFlow4",
          "A3": "58009011-3322-4458-9b0c-00259f6c73fb",
          "A4": "58009011-3322-4458-9b0c-00259f6c73fb",
          "A5": "b18a0f67-6bd3-4ff3-8fa3-c759fb72d073",
          "BL7": "dac675d4-ea84-4e44-9056-38bf918618e9",
          "BL8": "58009011-3322-4458-9b0c-00259f6c73fb",
          "CI1": "0e29b3f3-e176-4b52-851b-c6e6edf9da19",
          "CI2": "7c9a7dec-cbf7-45bd-bbca-6b551a4521be",
          "CI3": "[#[IsOwnerSchema:false].[IsSchema:false].[Element:{0e29b3f3-e176-4b52-851b-c6e6edf9da19}].[Parameter:{b9be7a46-9d6a-4d91-8268-311e9ae6eea5}].[EntityColumn:{ae0e45ca-c495-4fe7-a39d-3ab7278e1617}]#]!=Guid.Empty",
          "CI4": 2,
          "CI5": "FF939598",
          "CI6": 1,
          "CI7": "1;0",
          "CI8": "-1;0",
          "GV2": "{\"$type\":\"System.Collections.Generic.Dictionary`2[[System.Guid, mscorlib],[System.Collections.ObjectModel.Collection`1[[System.Guid, mscorlib]], mscorlib]], mscorlib\"}",
          "GV3": []
        }
      ],
      "BK9": [],
      "BK8": "bb4d6607-026b-4b27-b640-8f5c77c1e89d",
      "BK18": "Business Process",
      "BK15": [
        {
          "BL1": "Terrasoft.Core.Process.ProcessSchemaMapping",
          "UId": "5aee7c29-effc-4c5e-bae3-ef117781a312",
          "A2": "ReadDataUserTask1",
          "A3": "58009011-3322-4458-9b0c-00259f6c73fb",
          "A4": "58009011-3322-4458-9b0c-00259f6c73fb",
          "GT2": "[Element:{bc92ec6d-dce3-4908-b3a1-8cff7a8787a5}].[Parameter:{bd32156d-41af-4240-8845-191893b34be0}]",
          "GT3": "bd32156d-41af-4240-8845-191893b34be0",
          "GT5": "5d9ac9a7-7782-49ce-8990-dcb1c73832b0",
          "GT4": "cb455b6f-78ff-4b1e-b241-c2bbc0b37e9f",
          "GT1": {
            "GS1": 1,
            "GS2": "{\"className\":\"Terrasoft.FilterGroup\",\"serializedFilterEditData\":\"{\\\"className\\\":\\\"Terrasoft.FilterGroup\\\",\\\"items\\\":{\\\"52864a3f-d18b-4c2b-aa64-9abf670049ca\\\":{\\\"className\\\":\\\"Terrasoft.CompareFilter\\\",\\\"filterType\\\":1,\\\"comparisonType\\\":5,\\\"isEnabled\\\":true,\\\"trimDateTimeParameterToDate\\\":true,\\\"leftExpression\\\":{\\\"className\\\":\\\"Terrasoft.ColumnExpression\\\",\\\"expressionType\\\":0,\\\"columnPath\\\":\\\"ITChangeUntilDate\\\"},\\\"isAggregative\\\":false,\\\"key\\\":\\\"52864a3f-d18b-4c2b-aa64-9abf670049ca\\\",\\\"dataValueType\\\":7,\\\"leftExpressionCaption\\\":\\\"Замена до\\\",\\\"rightExpression\\\":{\\\"className\\\":\\\"Terrasoft.ParameterExpression\\\",\\\"expressionType\\\":2,\\\"parameter\\\":{\\\"className\\\":\\\"Terrasoft.Parameter\\\",\\\"dataValueType\\\":26,\\\"value\\\":{\\\"value\\\":\\\"[IsOwnerSchema:false].[IsSchema:false].[Parameter:{0f6d8457-2a6c-4eb7-b2bc-794e35fb79e1}]\\\",\\\"displayValue\\\":\\\"Текущее значение Даты/Времени\\\"}}}}},\\\"logicalOperation\\\":0,\\\"isEnabled\\\":true,\\\"filterType\\\":6,\\\"rootSchemaName\\\":\\\"ITChangeOwnerLog\\\",\\\"key\\\":\\\"\\\"}\",\"dataSourceFilters\":\"{\\\"items\\\":{\\\"52864a3f-d18b-4c2b-aa64-9abf670049ca\\\":{\\\"filterType\\\":1,\\\"comparisonType\\\":5,\\\"isEnabled\\\":true,\\\"trimDateTimeParameterToDate\\\":true,\\\"leftExpression\\\":{\\\"expressionType\\\":0,\\\"columnPath\\\":\\\"ITChangeUntilDate\\\"},\\\"rightExpression\\\":{\\\"expressionType\\\":2,\\\"parameter\\\":{\\\"dataValueType\\\":26,\\\"value\\\":{\\\"value\\\":\\\"[IsOwnerSchema:false].[IsSchema:false].[Parameter:{0f6d8457-2a6c-4eb7-b2bc-794e35fb79e1}]\\\"}}}}},\\\"logicalOperation\\\":0,\\\"isEnabled\\\":true,\\\"filterType\\\":6,\\\"rootSchemaName\\\":\\\"ITChangeOwnerLog\\\"}\"}",
            "GS5": "58009011-3322-4458-9b0c-00259f6c73fb"
          }
        },
        {
          "BL1": "Terrasoft.Core.Process.ProcessSchemaMapping",
          "UId": "97a47533-c452-49e4-884d-64d225e37e41",
          "A2": "ReadDataUserTask1",
          "A3": "58009011-3322-4458-9b0c-00259f6c73fb",
          "A4": "58009011-3322-4458-9b0c-00259f6c73fb",
          "GT2": "[Element:{bc92ec6d-dce3-4908-b3a1-8cff7a8787a5}].[Parameter:{8ca00602-a6ef-48c7-a8d3-796eed35ad55}]",
          "GT3": "8ca00602-a6ef-48c7-a8d3-796eed35ad55",
          "GT5": "643e4d6d-7ec8-49f0-842a-066a996fbe8b",
          "GT4": "cb455b6f-78ff-4b1e-b241-c2bbc0b37e9f",
          "GT1": {
            "GS1": 1,
            "GS2": "1",
            "GS5": "58009011-3322-4458-9b0c-00259f6c73fb"
          }
        },
        {
          "BL1": "Terrasoft.Core.Process.ProcessSchemaMapping",
          "UId": "67c2c7f3-203b-493a-929b-b2da4fbbb51a",
          "A2": "ReadDataUserTask1",
          "A3": "58009011-3322-4458-9b0c-00259f6c73fb",
          "A4": "58009011-3322-4458-9b0c-00259f6c73fb",
          "GT2": "[Element:{bc92ec6d-dce3-4908-b3a1-8cff7a8787a5}].[Parameter:{a04bef7f-c248-4ea4-9039-b1d156407819}]",
          "GT3": "a04bef7f-c248-4ea4-9039-b1d156407819",
          "GT5": "29115add-7520-4ad4-8371-d91f537ac913",
          "GT4": "cb455b6f-78ff-4b1e-b241-c2bbc0b37e9f",
          "GT1": {
            "GS2": ""
          }
        },
        {
          "BL1": "Terrasoft.Core.Process.ProcessSchemaMapping",
          "UId": "19d52d64-049e-4f32-ae22-3b00f60e5c1a",
          "A2": "ReadDataUserTask1",
          "A3": "58009011-3322-4458-9b0c-00259f6c73fb",
          "A4": "58009011-3322-4458-9b0c-00259f6c73fb",
          "GT2": "[Element:{bc92ec6d-dce3-4908-b3a1-8cff7a8787a5}].[Parameter:{2ab3b2d2-9693-4612-8cc6-68d4a8a3d6e1}]",
          "GT3": "2ab3b2d2-9693-4612-8cc6-68d4a8a3d6e1",
          "GT5": "f29e5660-c5ef-4d84-8331-9046c3093519",
          "GT4": "cb455b6f-78ff-4b1e-b241-c2bbc0b37e9f",
          "GT1": {
            "GS2": ""
          }
        },
        {
          "BL1": "Terrasoft.Core.Process.ProcessSchemaMapping",
          "UId": "f492e335-d33e-4adc-81d9-3b7ddd3a2bed",
          "A2": "ReadDataUserTask1",
          "A3": "58009011-3322-4458-9b0c-00259f6c73fb",
          "A4": "58009011-3322-4458-9b0c-00259f6c73fb",
          "GT2": "[Element:{bc92ec6d-dce3-4908-b3a1-8cff7a8787a5}].[Parameter:{2d175dd3-0cef-481c-8394-2d5af9016c70}]",
          "GT3": "2d175dd3-0cef-481c-8394-2d5af9016c70",
          "GT5": "94ba9876-18c1-4a68-bcef-08f7e7f0e25c",
          "GT4": "cb455b6f-78ff-4b1e-b241-c2bbc0b37e9f",
          "GT1": {
            "GS1": 1,
            "GS2": "0",
            "GS5": "58009011-3322-4458-9b0c-00259f6c73fb"
          }
        },
        {
          "BL1": "Terrasoft.Core.Process.ProcessSchemaMapping",
          "UId": "c531ee93-52ee-4c59-a627-752e540102d0",
          "A2": "ReadDataUserTask1",
          "A3": "58009011-3322-4458-9b0c-00259f6c73fb",
          "A4": "58009011-3322-4458-9b0c-00259f6c73fb",
          "GT2": "[Element:{bc92ec6d-dce3-4908-b3a1-8cff7a8787a5}].[Parameter:{64d09132-1cc1-49cb-839c-aee63032aafb}]",
          "GT3": "64d09132-1cc1-49cb-839c-aee63032aafb",
          "GT5": "cb5d6d26-7e81-4cbe-8730-8b7169000d14",
          "GT4": "cb455b6f-78ff-4b1e-b241-c2bbc0b37e9f",
          "GT1": {
            "GS2": ""
          }
        },
        {
          "BL1": "Terrasoft.Core.Process.ProcessSchemaMapping",
          "UId": "a4aa2eae-8696-491a-8c0c-42cf36274ebb",
          "A2": "ReadDataUserTask1",
          "A3": "58009011-3322-4458-9b0c-00259f6c73fb",
          "A4": "58009011-3322-4458-9b0c-00259f6c73fb",
          "GT2": "[Element:{bc92ec6d-dce3-4908-b3a1-8cff7a8787a5}].[Parameter:{fe11f716-6914-4da5-8fdf-7bcaea720c19}]",
          "GT3": "fe11f716-6914-4da5-8fdf-7bcaea720c19",
          "GT5": "473e79e2-727e-40a7-8829-7eefc576b403",
          "GT4": "cb455b6f-78ff-4b1e-b241-c2bbc0b37e9f",
          "GT1": {
            "GS2": ""
          }
        },
        {
          "BL1": "Terrasoft.Core.Process.ProcessSchemaMapping",
          "UId": "99c3bffd-0f9a-4521-8b3f-1ba0814def38",
          "A2": "ReadDataUserTask1",
          "A3": "58009011-3322-4458-9b0c-00259f6c73fb",
          "A4": "58009011-3322-4458-9b0c-00259f6c73fb",
          "GT2": "[Element:{bc92ec6d-dce3-4908-b3a1-8cff7a8787a5}].[Parameter:{a33f7c32-6646-4139-9098-9f7d21f67477}]",
          "GT3": "a33f7c32-6646-4139-9098-9f7d21f67477",
          "GT5": "e2fced10-4842-423e-ada0-523bf7ea8ad3",
          "GT4": "cb455b6f-78ff-4b1e-b241-c2bbc0b37e9f",
          "GT1": {
            "GS1": 1,
            "GS5": "58009011-3322-4458-9b0c-00259f6c73fb"
          }
        },
        {
          "BL1": "Terrasoft.Core.Process.ProcessSchemaMapping",
          "UId": "6cdfce22-a38a-4951-b29f-3659da574f78",
          "A2": "ReadDataUserTask1",
          "A3": "58009011-3322-4458-9b0c-00259f6c73fb",
          "A4": "58009011-3322-4458-9b0c-00259f6c73fb",
          "GT2": "[Element:{bc92ec6d-dce3-4908-b3a1-8cff7a8787a5}].[Parameter:{a7d54f5b-e67e-48f0-af26-072507463ecf}]",
          "GT3": "a7d54f5b-e67e-48f0-af26-072507463ecf",
          "GT5": "2e63ea99-8125-4254-88bd-20d3610bd471",
          "GT4": "cb455b6f-78ff-4b1e-b241-c2bbc0b37e9f",
          "GT1": {
            "GS2": ""
          }
        },
        {
          "BL1": "Terrasoft.Core.Process.ProcessSchemaMapping",
          "UId": "7de0380f-2973-4d31-b36f-19d6a0be535c",
          "A2": "ReadDataUserTask1",
          "A3": "58009011-3322-4458-9b0c-00259f6c73fb",
          "A4": "58009011-3322-4458-9b0c-00259f6c73fb",
          "GT2": "[Element:{bc92ec6d-dce3-4908-b3a1-8cff7a8787a5}].[Parameter:{f9a009f3-8395-415b-bed6-35aa34345d5b}]",
          "GT3": "f9a009f3-8395-415b-bed6-35aa34345d5b",
          "GT5": "a3660fce-a8f9-4a68-a3c1-b4f2f7983635",
          "GT4": "cb455b6f-78ff-4b1e-b241-c2bbc0b37e9f",
          "GT1": {
            "GS2": ""
          }
        },
        {
          "BL1": "Terrasoft.Core.Process.ProcessSchemaMapping",
          "UId": "65442a15-be0f-4e3e-bee6-0a998ea64eb3",
          "A2": "ReadDataUserTask1",
          "A3": "58009011-3322-4458-9b0c-00259f6c73fb",
          "A4": "58009011-3322-4458-9b0c-00259f6c73fb",
          "GT2": "[Element:{bc92ec6d-dce3-4908-b3a1-8cff7a8787a5}].[Parameter:{1d65ac7d-4277-439c-9843-2148c40e7349}]",
          "GT3": "1d65ac7d-4277-439c-9843-2148c40e7349",
          "GT5": "9a594933-75da-4304-b6a3-5945dba159e3",
          "GT4": "cb455b6f-78ff-4b1e-b241-c2bbc0b37e9f",
          "GT1": {
            "GS2": ""
          }
        },
        {
          "BL1": "Terrasoft.Core.Process.ProcessSchemaMapping",
          "UId": "ec400fb1-a1d0-4eab-a108-5473bb2922e1",
          "A2": "ReadDataUserTask1",
          "A3": "58009011-3322-4458-9b0c-00259f6c73fb",
          "A4": "58009011-3322-4458-9b0c-00259f6c73fb",
          "GT2": "[Element:{bc92ec6d-dce3-4908-b3a1-8cff7a8787a5}].[Parameter:{9500884e-04e0-4463-9a7e-4e46af9378b5}]",
          "GT3": "9500884e-04e0-4463-9a7e-4e46af9378b5",
          "GT5": "11fb235f-c06a-4111-84cd-a5dbf9a440d5",
          "GT4": "cb455b6f-78ff-4b1e-b241-c2bbc0b37e9f",
          "GT1": {
            "GS2": ""
          }
        },
        {
          "BL1": "Terrasoft.Core.Process.ProcessSchemaMapping",
          "UId": "4136f269-ac42-4a3d-bece-891e02a740e3",
          "A2": "ReadDataUserTask1",
          "A3": "58009011-3322-4458-9b0c-00259f6c73fb",
          "A4": "58009011-3322-4458-9b0c-00259f6c73fb",
          "GT2": "[Element:{bc92ec6d-dce3-4908-b3a1-8cff7a8787a5}].[Parameter:{ecb6ac01-a939-4ff7-8123-c1e8d37696fe}]",
          "GT3": "ecb6ac01-a939-4ff7-8123-c1e8d37696fe",
          "GT5": "78252e95-b759-416a-9c48-c128fbdf59ef",
          "GT4": "cb455b6f-78ff-4b1e-b241-c2bbc0b37e9f",
          "GT1": {
            "GS2": ""
          }
        },
        {
          "BL1": "Terrasoft.Core.Process.ProcessSchemaMapping",
          "UId": "af38bcef-6778-45f9-bad1-104defa00e4e",
          "A2": "ReadDataUserTask1",
          "A3": "58009011-3322-4458-9b0c-00259f6c73fb",
          "A4": "58009011-3322-4458-9b0c-00259f6c73fb",
          "GT2": "[Element:{bc92ec6d-dce3-4908-b3a1-8cff7a8787a5}].[Parameter:{570bbc08-1884-46b1-98be-320f45ab71e0}]",
          "GT3": "570bbc08-1884-46b1-98be-320f45ab71e0",
          "GT5": "2f797429-6f43-4594-96bb-62fbc7b7deec",
          "GT4": "cb455b6f-78ff-4b1e-b241-c2bbc0b37e9f",
          "GT1": {
            "GS1": 1,
            "GS2": "true",
            "GS5": "cb455b6f-78ff-4b1e-b241-c2bbc0b37e9f"
          }
        },
        {
          "BL1": "Terrasoft.Core.Process.ProcessSchemaMapping",
          "UId": "1851dcb0-5473-4a87-a9e8-ca2866bb51ef",
          "A2": "ReadDataUserTask1",
          "A3": "58009011-3322-4458-9b0c-00259f6c73fb",
          "A4": "58009011-3322-4458-9b0c-00259f6c73fb",
          "GT2": "[Element:{bc92ec6d-dce3-4908-b3a1-8cff7a8787a5}].[Parameter:{48b85662-52de-4ad1-8d6c-4b32f4673fc2}]",
          "GT3": "48b85662-52de-4ad1-8d6c-4b32f4673fc2",
          "GT5": "be4a0d16-6a15-41cf-ac44-a8b757565428",
          "GT4": "cb455b6f-78ff-4b1e-b241-c2bbc0b37e9f",
          "GT1": {
            "GS2": ""
          }
        },
        {
          "BL1": "Terrasoft.Core.Process.ProcessSchemaMapping",
          "UId": "783175b1-5ad0-4163-b7db-edb6a8db8bbb",
          "A2": "ReadDataUserTask1",
          "A3": "58009011-3322-4458-9b0c-00259f6c73fb",
          "A4": "58009011-3322-4458-9b0c-00259f6c73fb",
          "GT2": "[Element:{bc92ec6d-dce3-4908-b3a1-8cff7a8787a5}].[Parameter:{bbc096ba-b5b7-42bc-90c4-4e0ff0a5e2f1}]",
          "GT3": "bbc096ba-b5b7-42bc-90c4-4e0ff0a5e2f1",
          "GT5": "cc12005f-f434-4a40-b9d0-dc8f81755545",
          "GT4": "cb455b6f-78ff-4b1e-b241-c2bbc0b37e9f",
          "GT1": {
            "GS2": ""
          }
        },
        {
          "BL1": "Terrasoft.Core.Process.ProcessSchemaMapping",
          "UId": "ea086e0a-3be1-48d9-997c-69d18a711854",
          "A2": "ReadDataUserTask1",
          "A3": "58009011-3322-4458-9b0c-00259f6c73fb",
          "A4": "58009011-3322-4458-9b0c-00259f6c73fb",
          "GT2": "[Element:{bc92ec6d-dce3-4908-b3a1-8cff7a8787a5}].[Parameter:{9db7335c-9d86-417b-9ddb-530c5e910c8f}]",
          "GT3": "9db7335c-9d86-417b-9ddb-530c5e910c8f",
          "GT5": "6dada847-859b-4e0a-9297-b3c9572530b6",
          "GT4": "cb455b6f-78ff-4b1e-b241-c2bbc0b37e9f",
          "GT1": {
            "GS2": ""
          }
        },
        {
          "BL1": "Terrasoft.Core.Process.ProcessSchemaMapping",
          "UId": "14dc8559-c3d8-496b-8af7-55797cc31ad0",
          "A2": "ReadDataUserTask2",
          "A3": "58009011-3322-4458-9b0c-00259f6c73fb",
          "A4": "58009011-3322-4458-9b0c-00259f6c73fb",
          "GT2": "[Element:{0e29b3f3-e176-4b52-851b-c6e6edf9da19}].[Parameter:{88688b80-8462-46f2-98b3-f1eca8a0b259}]",
          "GT3": "88688b80-8462-46f2-98b3-f1eca8a0b259",
          "GT5": "5d9ac9a7-7782-49ce-8990-dcb1c73832b0",
          "GT4": "cb455b6f-78ff-4b1e-b241-c2bbc0b37e9f",
          "GT1": {
            "GS1": 1,
            "GS2": "{\"className\":\"Terrasoft.FilterGroup\",\"serializedFilterEditData\":\"{\\\"className\\\":\\\"Terrasoft.FilterGroup\\\",\\\"items\\\":{\\\"3b4746d0-e2be-42f8-ae82-136739fc261b\\\":{\\\"className\\\":\\\"Terrasoft.CompareFilter\\\",\\\"filterType\\\":1,\\\"comparisonType\\\":5,\\\"isEnabled\\\":true,\\\"trimDateTimeParameterToDate\\\":true,\\\"leftExpression\\\":{\\\"className\\\":\\\"Terrasoft.ColumnExpression\\\",\\\"expressionType\\\":0,\\\"columnPath\\\":\\\"ITChangeUntilDate\\\"},\\\"isAggregative\\\":false,\\\"key\\\":\\\"3b4746d0-e2be-42f8-ae82-136739fc261b\\\",\\\"dataValueType\\\":7,\\\"leftExpressionCaption\\\":\\\"Замена до\\\",\\\"rightExpression\\\":{\\\"className\\\":\\\"Terrasoft.ParameterExpression\\\",\\\"expressionType\\\":2,\\\"parameter\\\":{\\\"className\\\":\\\"Terrasoft.Parameter\\\",\\\"dataValueType\\\":26,\\\"value\\\":{\\\"value\\\":\\\"[IsOwnerSchema:false].[IsSchema:false].[Parameter:{0f6d8457-2a6c-4eb7-b2bc-794e35fb79e1}]\\\",\\\"displayValue\\\":\\\"Текущее значение Даты/Времени\\\"}}}}},\\\"logicalOperation\\\":0,\\\"isEnabled\\\":true,\\\"filterType\\\":6,\\\"rootSchemaName\\\":\\\"ITChangeOwnerLog\\\",\\\"key\\\":\\\"\\\"}\",\"dataSourceFilters\":\"{\\\"items\\\":{\\\"3b4746d0-e2be-42f8-ae82-136739fc261b\\\":{\\\"filterType\\\":1,\\\"comparisonType\\\":5,\\\"isEnabled\\\":true,\\\"trimDateTimeParameterToDate\\\":true,\\\"leftExpression\\\":{\\\"expressionType\\\":0,\\\"columnPath\\\":\\\"ITChangeUntilDate\\\"},\\\"rightExpression\\\":{\\\"expressionType\\\":2,\\\"parameter\\\":{\\\"dataValueType\\\":26,\\\"value\\\":{\\\"value\\\":\\\"[IsOwnerSchema:false].[IsSchema:false].[Parameter:{0f6d8457-2a6c-4eb7-b2bc-794e35fb79e1}]\\\"}}}}},\\\"logicalOperation\\\":0,\\\"isEnabled\\\":true,\\\"filterType\\\":6,\\\"rootSchemaName\\\":\\\"ITChangeOwnerLog\\\"}\"}",
            "GS5": "58009011-3322-4458-9b0c-00259f6c73fb"
          }
        },
        {
          "BL1": "Terrasoft.Core.Process.ProcessSchemaMapping",
          "UId": "2dc6c326-21e4-4afc-bbf2-5a16a49f0a59",
          "A2": "ReadDataUserTask2",
          "A3": "58009011-3322-4458-9b0c-00259f6c73fb",
          "A4": "58009011-3322-4458-9b0c-00259f6c73fb",
          "GT2": "[Element:{0e29b3f3-e176-4b52-851b-c6e6edf9da19}].[Parameter:{542d3916-5f7c-4ed7-91b2-0db24a89da4a}]",
          "GT3": "542d3916-5f7c-4ed7-91b2-0db24a89da4a",
          "GT5": "643e4d6d-7ec8-49f0-842a-066a996fbe8b",
          "GT4": "cb455b6f-78ff-4b1e-b241-c2bbc0b37e9f",
          "GT1": {
            "GS1": 1,
            "GS2": "0",
            "GS5": "cb455b6f-78ff-4b1e-b241-c2bbc0b37e9f"
          }
        },
        {
          "BL1": "Terrasoft.Core.Process.ProcessSchemaMapping",
          "UId": "0a0899ea-7c7d-478b-8341-74757a15dbc2",
          "A2": "ReadDataUserTask2",
          "A3": "58009011-3322-4458-9b0c-00259f6c73fb",
          "A4": "58009011-3322-4458-9b0c-00259f6c73fb",
          "GT2": "[Element:{0e29b3f3-e176-4b52-851b-c6e6edf9da19}].[Parameter:{34f6050a-7e31-477c-bd70-8ce2708d7a12}]",
          "GT3": "34f6050a-7e31-477c-bd70-8ce2708d7a12",
          "GT5": "29115add-7520-4ad4-8371-d91f537ac913",
          "GT4": "cb455b6f-78ff-4b1e-b241-c2bbc0b37e9f",
          "GT1": {
            "GS2": ""
          }
        },
        {
          "BL1": "Terrasoft.Core.Process.ProcessSchemaMapping",
          "UId": "d627c00f-20eb-4c2e-a543-f38214e92709",
          "A2": "ReadDataUserTask2",
          "A3": "58009011-3322-4458-9b0c-00259f6c73fb",
          "A4": "58009011-3322-4458-9b0c-00259f6c73fb",
          "GT2": "[Element:{0e29b3f3-e176-4b52-851b-c6e6edf9da19}].[Parameter:{1cabb7a2-f81a-442b-bc2a-e7a3c1ba6b7f}]",
          "GT3": "1cabb7a2-f81a-442b-bc2a-e7a3c1ba6b7f",
          "GT5": "f29e5660-c5ef-4d84-8331-9046c3093519",
          "GT4": "cb455b6f-78ff-4b1e-b241-c2bbc0b37e9f",
          "GT1": {
            "GS2": ""
          }
        },
        {
          "BL1": "Terrasoft.Core.Process.ProcessSchemaMapping",
          "UId": "6aced134-5345-4112-b3e4-62df9a4e8736",
          "A2": "ReadDataUserTask2",
          "A3": "58009011-3322-4458-9b0c-00259f6c73fb",
          "A4": "58009011-3322-4458-9b0c-00259f6c73fb",
          "GT2": "[Element:{0e29b3f3-e176-4b52-851b-c6e6edf9da19}].[Parameter:{a2bdc0e0-b6af-46dd-b177-ad7474d00945}]",
          "GT3": "a2bdc0e0-b6af-46dd-b177-ad7474d00945",
          "GT5": "94ba9876-18c1-4a68-bcef-08f7e7f0e25c",
          "GT4": "cb455b6f-78ff-4b1e-b241-c2bbc0b37e9f",
          "GT1": {
            "GS1": 1,
            "GS2": "0",
            "GS5": "58009011-3322-4458-9b0c-00259f6c73fb"
          }
        },
        {
          "BL1": "Terrasoft.Core.Process.ProcessSchemaMapping",
          "UId": "568f6728-f888-4f2f-a353-a9a1c1ee4249",
          "A2": "ReadDataUserTask2",
          "A3": "58009011-3322-4458-9b0c-00259f6c73fb",
          "A4": "58009011-3322-4458-9b0c-00259f6c73fb",
          "GT2": "[Element:{0e29b3f3-e176-4b52-851b-c6e6edf9da19}].[Parameter:{52d08884-91e1-4967-9afd-c7e39d0c40bf}]",
          "GT3": "52d08884-91e1-4967-9afd-c7e39d0c40bf",
          "GT5": "cb5d6d26-7e81-4cbe-8730-8b7169000d14",
          "GT4": "cb455b6f-78ff-4b1e-b241-c2bbc0b37e9f",
          "GT1": {
            "GS2": ""
          }
        },
        {
          "BL1": "Terrasoft.Core.Process.ProcessSchemaMapping",
          "UId": "7c02e92e-9895-4a42-a15b-2a0b17e4c963",
          "A2": "ReadDataUserTask2",
          "A3": "58009011-3322-4458-9b0c-00259f6c73fb",
          "A4": "58009011-3322-4458-9b0c-00259f6c73fb",
          "GT2": "[Element:{0e29b3f3-e176-4b52-851b-c6e6edf9da19}].[Parameter:{b2b2ae74-0e02-4313-909b-8ed5a3efc46c}]",
          "GT3": "b2b2ae74-0e02-4313-909b-8ed5a3efc46c",
          "GT5": "473e79e2-727e-40a7-8829-7eefc576b403",
          "GT4": "cb455b6f-78ff-4b1e-b241-c2bbc0b37e9f",
          "GT1": {
            "GS2": ""
          }
        },
        {
          "BL1": "Terrasoft.Core.Process.ProcessSchemaMapping",
          "UId": "398025c2-a2f3-4328-af25-ae65ed5614ee",
          "A2": "ReadDataUserTask2",
          "A3": "58009011-3322-4458-9b0c-00259f6c73fb",
          "A4": "58009011-3322-4458-9b0c-00259f6c73fb",
          "GT2": "[Element:{0e29b3f3-e176-4b52-851b-c6e6edf9da19}].[Parameter:{b9be7a46-9d6a-4d91-8268-311e9ae6eea5}]",
          "GT3": "b9be7a46-9d6a-4d91-8268-311e9ae6eea5",
          "GT5": "e2fced10-4842-423e-ada0-523bf7ea8ad3",
          "GT4": "cb455b6f-78ff-4b1e-b241-c2bbc0b37e9f",
          "GT1": {
            "GS1": 1,
            "GS5": "58009011-3322-4458-9b0c-00259f6c73fb"
          }
        },
        {
          "BL1": "Terrasoft.Core.Process.ProcessSchemaMapping",
          "UId": "fb0176aa-8fb0-44f4-a6c7-2f8c80d9100d",
          "A2": "ReadDataUserTask2",
          "A3": "58009011-3322-4458-9b0c-00259f6c73fb",
          "A4": "58009011-3322-4458-9b0c-00259f6c73fb",
          "GT2": "[Element:{0e29b3f3-e176-4b52-851b-c6e6edf9da19}].[Parameter:{8af07829-5485-4128-b2e9-64690a1c8a73}]",
          "GT3": "8af07829-5485-4128-b2e9-64690a1c8a73",
          "GT5": "2e63ea99-8125-4254-88bd-20d3610bd471",
          "GT4": "cb455b6f-78ff-4b1e-b241-c2bbc0b37e9f",
          "GT1": {
            "GS2": ""
          }
        },
        {
          "BL1": "Terrasoft.Core.Process.ProcessSchemaMapping",
          "UId": "81cfaa51-007e-4c54-9b97-cdde94703642",
          "A2": "ReadDataUserTask2",
          "A3": "58009011-3322-4458-9b0c-00259f6c73fb",
          "A4": "58009011-3322-4458-9b0c-00259f6c73fb",
          "GT2": "[Element:{0e29b3f3-e176-4b52-851b-c6e6edf9da19}].[Parameter:{e9f8ec83-fe8e-4de8-8440-bd221ade05b5}]",
          "GT3": "e9f8ec83-fe8e-4de8-8440-bd221ade05b5",
          "GT5": "a3660fce-a8f9-4a68-a3c1-b4f2f7983635",
          "GT4": "cb455b6f-78ff-4b1e-b241-c2bbc0b37e9f",
          "GT1": {
            "GS2": ""
          }
        },
        {
          "BL1": "Terrasoft.Core.Process.ProcessSchemaMapping",
          "UId": "f60ea6b4-d827-4b58-85ea-0519b61b59de",
          "A2": "ReadDataUserTask2",
          "A3": "58009011-3322-4458-9b0c-00259f6c73fb",
          "A4": "58009011-3322-4458-9b0c-00259f6c73fb",
          "GT2": "[Element:{0e29b3f3-e176-4b52-851b-c6e6edf9da19}].[Parameter:{a9efc3dc-1226-4bf2-9dcc-2277869d3923}]",
          "GT3": "a9efc3dc-1226-4bf2-9dcc-2277869d3923",
          "GT5": "9a594933-75da-4304-b6a3-5945dba159e3",
          "GT4": "cb455b6f-78ff-4b1e-b241-c2bbc0b37e9f",
          "GT1": {
            "GS2": ""
          }
        },
        {
          "BL1": "Terrasoft.Core.Process.ProcessSchemaMapping",
          "UId": "79f03f26-930d-42f8-a019-e397d6cbdd9e",
          "A2": "ReadDataUserTask2",
          "A3": "58009011-3322-4458-9b0c-00259f6c73fb",
          "A4": "58009011-3322-4458-9b0c-00259f6c73fb",
          "GT2": "[Element:{0e29b3f3-e176-4b52-851b-c6e6edf9da19}].[Parameter:{d0711f8e-7a1c-45de-aa65-685f412a9feb}]",
          "GT3": "d0711f8e-7a1c-45de-aa65-685f412a9feb",
          "GT5": "11fb235f-c06a-4111-84cd-a5dbf9a440d5",
          "GT4": "cb455b6f-78ff-4b1e-b241-c2bbc0b37e9f",
          "GT1": {
            "GS2": ""
          }
        },
        {
          "BL1": "Terrasoft.Core.Process.ProcessSchemaMapping",
          "UId": "25a7c38c-c05b-4c9f-b597-348dd6db0205",
          "A2": "ReadDataUserTask2",
          "A3": "58009011-3322-4458-9b0c-00259f6c73fb",
          "A4": "58009011-3322-4458-9b0c-00259f6c73fb",
          "GT2": "[Element:{0e29b3f3-e176-4b52-851b-c6e6edf9da19}].[Parameter:{fa1d7c88-e1f1-4197-8911-31bad36ac94e}]",
          "GT3": "fa1d7c88-e1f1-4197-8911-31bad36ac94e",
          "GT5": "78252e95-b759-416a-9c48-c128fbdf59ef",
          "GT4": "cb455b6f-78ff-4b1e-b241-c2bbc0b37e9f",
          "GT1": {
            "GS2": ""
          }
        },
        {
          "BL1": "Terrasoft.Core.Process.ProcessSchemaMapping",
          "UId": "3cc471bc-f09f-42ce-995e-0e5d9f19c4a2",
          "A2": "ReadDataUserTask2",
          "A3": "58009011-3322-4458-9b0c-00259f6c73fb",
          "A4": "58009011-3322-4458-9b0c-00259f6c73fb",
          "GT2": "[Element:{0e29b3f3-e176-4b52-851b-c6e6edf9da19}].[Parameter:{9deb22ae-d98d-4807-8a3c-af0ff3129617}]",
          "GT3": "9deb22ae-d98d-4807-8a3c-af0ff3129617",
          "GT5": "2f797429-6f43-4594-96bb-62fbc7b7deec",
          "GT4": "cb455b6f-78ff-4b1e-b241-c2bbc0b37e9f",
          "GT1": {
            "GS1": 1,
            "GS2": "true",
            "GS5": "cb455b6f-78ff-4b1e-b241-c2bbc0b37e9f"
          }
        },
        {
          "BL1": "Terrasoft.Core.Process.ProcessSchemaMapping",
          "UId": "acb38f19-fcc4-4825-b913-47c02d14e2c4",
          "A2": "ReadDataUserTask2",
          "A3": "58009011-3322-4458-9b0c-00259f6c73fb",
          "A4": "58009011-3322-4458-9b0c-00259f6c73fb",
          "GT2": "[Element:{0e29b3f3-e176-4b52-851b-c6e6edf9da19}].[Parameter:{b6f619d8-2c59-4d18-8990-a90501df0683}]",
          "GT3": "b6f619d8-2c59-4d18-8990-a90501df0683",
          "GT5": "be4a0d16-6a15-41cf-ac44-a8b757565428",
          "GT4": "cb455b6f-78ff-4b1e-b241-c2bbc0b37e9f",
          "GT1": {
            "GS2": ""
          }
        },
        {
          "BL1": "Terrasoft.Core.Process.ProcessSchemaMapping",
          "UId": "c450fe25-e032-44b5-a670-8a55d4c6ef77",
          "A2": "ReadDataUserTask2",
          "A3": "58009011-3322-4458-9b0c-00259f6c73fb",
          "A4": "58009011-3322-4458-9b0c-00259f6c73fb",
          "GT2": "[Element:{0e29b3f3-e176-4b52-851b-c6e6edf9da19}].[Parameter:{2b77f43c-5cb5-494a-9029-0499b5e73e36}]",
          "GT3": "2b77f43c-5cb5-494a-9029-0499b5e73e36",
          "GT5": "cc12005f-f434-4a40-b9d0-dc8f81755545",
          "GT4": "cb455b6f-78ff-4b1e-b241-c2bbc0b37e9f",
          "GT1": {
            "GS1": 1,
            "GS2": "ae0e45ca-c495-4fe7-a39d-3ab7278e1617;9839cdd8-9323-42a1-8b54-0add813081b1;d8b57057-984b-4f9b-b148-52db7f098a05;fbb28074-705a-4c46-9708-f304bc7aa23c;7b520076-38b8-475b-8703-c151145f3865;c42b0ba3-961c-4abb-935f-c77d6d7c8d02",
            "GS5": "58009011-3322-4458-9b0c-00259f6c73fb"
          }
        },
        {
          "BL1": "Terrasoft.Core.Process.ProcessSchemaMapping",
          "UId": "d1b5c827-ac1b-4dc9-b4d8-da85fad2ce79",
          "A2": "ReadDataUserTask2",
          "A3": "58009011-3322-4458-9b0c-00259f6c73fb",
          "A4": "58009011-3322-4458-9b0c-00259f6c73fb",
          "GT2": "[Element:{0e29b3f3-e176-4b52-851b-c6e6edf9da19}].[Parameter:{72604dfa-61bd-4597-8a9a-91c12496a591}]",
          "GT3": "72604dfa-61bd-4597-8a9a-91c12496a591",
          "GT5": "6dada847-859b-4e0a-9297-b3c9572530b6",
          "GT4": "cb455b6f-78ff-4b1e-b241-c2bbc0b37e9f",
          "GT1": {
            "GS2": ""
          }
        },
        {
          "BL1": "Terrasoft.Core.Process.ProcessSchemaMapping",
          "UId": "797e3d0a-1477-4124-8e43-a097a2b285e1",
          "A2": "DeleteDataUserTask1",
          "A3": "58009011-3322-4458-9b0c-00259f6c73fb",
          "A4": "58009011-3322-4458-9b0c-00259f6c73fb",
          "GT2": "[Element:{fc9bc8cc-6eb8-4528-9f53-e5ad8a03b430}].[Parameter:{34c2eb8f-6870-41bf-a077-9e2ab66a7381}]",
          "GT3": "34c2eb8f-6870-41bf-a077-9e2ab66a7381",
          "GT5": "d4b2bc79-929e-449b-9fd9-c1b05a86a743",
          "GT4": "40f4a8f2-edca-432d-a5ea-03e8577b4691",
          "GT1": {
            "GS1": 1,
            "GS2": "15822461-6de9-4464-8587-2e20ce2ea9c4",
            "GS5": "58009011-3322-4458-9b0c-00259f6c73fb"
          }
        },
        {
          "BL1": "Terrasoft.Core.Process.ProcessSchemaMapping",
          "UId": "fa9ee0b2-ec7c-41f4-b6f5-fd259ee61007",
          "A2": "DeleteDataUserTask1",
          "A3": "58009011-3322-4458-9b0c-00259f6c73fb",
          "A4": "58009011-3322-4458-9b0c-00259f6c73fb",
          "GT2": "[Element:{fc9bc8cc-6eb8-4528-9f53-e5ad8a03b430}].[Parameter:{729c0e78-dcd6-456e-858f-cee99abecd82}]",
          "GT3": "729c0e78-dcd6-456e-858f-cee99abecd82",
          "GT5": "bf4c5111-ad4d-488b-99d6-c2a7f95495c4",
          "GT4": "40f4a8f2-edca-432d-a5ea-03e8577b4691",
          "GT1": {
            "GS1": 1,
            "GS2": "{\"className\":\"Terrasoft.FilterGroup\",\"serializedFilterEditData\":\"{\\\"className\\\":\\\"Terrasoft.FilterGroup\\\",\\\"items\\\":{\\\"c150d52b-d15b-4370-b380-4386f5030ba8\\\":{\\\"className\\\":\\\"Terrasoft.CompareFilter\\\",\\\"filterType\\\":1,\\\"comparisonType\\\":3,\\\"isEnabled\\\":true,\\\"trimDateTimeParameterToDate\\\":false,\\\"leftExpression\\\":{\\\"className\\\":\\\"Terrasoft.ColumnExpression\\\",\\\"expressionType\\\":0,\\\"columnPath\\\":\\\"Id\\\"},\\\"isAggregative\\\":false,\\\"key\\\":\\\"c150d52b-d15b-4370-b380-4386f5030ba8\\\",\\\"dataValueType\\\":0,\\\"leftExpressionCaption\\\":\\\"Id\\\",\\\"rightExpression\\\":{\\\"className\\\":\\\"Terrasoft.ParameterExpression\\\",\\\"expressionType\\\":2,\\\"parameter\\\":{\\\"className\\\":\\\"Terrasoft.Parameter\\\",\\\"dataValueType\\\":26,\\\"value\\\":{\\\"value\\\":\\\"[IsOwnerSchema:false].[IsSchema:false].[Element:{0e29b3f3-e176-4b52-851b-c6e6edf9da19}].[Parameter:{b9be7a46-9d6a-4d91-8268-311e9ae6eea5}].[EntityColumn:{ae0e45ca-c495-4fe7-a39d-3ab7278e1617}]\\\",\\\"displayValue\\\":\\\"Выбрать запись.Первый элемент результирующей коллекции.Id\\\"}}}}},\\\"logicalOperation\\\":0,\\\"isEnabled\\\":true,\\\"filterType\\\":6,\\\"rootSchemaName\\\":\\\"ITChangeOwnerLog\\\",\\\"key\\\":\\\"\\\"}\",\"dataSourceFilters\":\"{\\\"items\\\":{\\\"c150d52b-d15b-4370-b380-4386f5030ba8\\\":{\\\"filterType\\\":1,\\\"comparisonType\\\":3,\\\"isEnabled\\\":true,\\\"trimDateTimeParameterToDate\\\":false,\\\"leftExpression\\\":{\\\"expressionType\\\":0,\\\"columnPath\\\":\\\"Id\\\"},\\\"rightExpression\\\":{\\\"expressionType\\\":2,\\\"parameter\\\":{\\\"dataValueType\\\":26,\\\"value\\\":{\\\"value\\\":\\\"[IsOwnerSchema:false].[IsSchema:false].[Element:{0e29b3f3-e176-4b52-851b-c6e6edf9da19}].[Parameter:{b9be7a46-9d6a-4d91-8268-311e9ae6eea5}].[EntityColumn:{ae0e45ca-c495-4fe7-a39d-3ab7278e1617}]\\\"}}}}},\\\"logicalOperation\\\":0,\\\"isEnabled\\\":true,\\\"filterType\\\":6,\\\"rootSchemaName\\\":\\\"ITChangeOwnerLog\\\"}\"}",
            "GS5": "58009011-3322-4458-9b0c-00259f6c73fb"
          }
        },
        {
          "BL1": "Terrasoft.Core.Process.ProcessSchemaMapping",
          "UId": "b3edd871-c9b6-42c3-b009-5ddeece0c0d3",
          "A2": "DeleteDataUserTask1",
          "A3": "58009011-3322-4458-9b0c-00259f6c73fb",
          "A4": "58009011-3322-4458-9b0c-00259f6c73fb",
          "GT2": "[Element:{fc9bc8cc-6eb8-4528-9f53-e5ad8a03b430}].[Parameter:{f0abf0c0-f98a-46b0-9137-d3a140e5ee82}]",
          "GT3": "f0abf0c0-f98a-46b0-9137-d3a140e5ee82",
          "GT5": "01c46f30-bbdc-4c7a-888c-4a0adac0b305",
          "GT4": "40f4a8f2-edca-432d-a5ea-03e8577b4691",
          "GT1": {}
        },
        {
          "BL1": "Terrasoft.Core.Process.ProcessSchemaMapping",
          "UId": "62070ea3-64ff-4355-9434-31329ce176a6",
          "A2": "SubProcess1",
          "A3": "58009011-3322-4458-9b0c-00259f6c73fb",
          "A4": "58009011-3322-4458-9b0c-00259f6c73fb",
          "GT2": "[Element:{7c9a7dec-cbf7-45bd-bbca-6b551a4521be}].[Parameter:{5c1d641a-755e-456b-b77f-3a30f00f3276}]",
          "GT3": "5c1d641a-755e-456b-b77f-3a30f00f3276",
          "GT5": "eadce0e0-b963-48ac-acc3-5e56e4f0df54",
          "GT4": "2fe06334-b0d9-4994-8481-5f86c9aa3c4f",
          "GT1": {
            "GS5": "2fe06334-b0d9-4994-8481-5f86c9aa3c4f"
          }
        },
        {
          "BL1": "Terrasoft.Core.Process.ProcessSchemaMapping",
          "UId": "578c1060-91dc-47cd-ad68-c594b78898d2",
          "A2": "SubProcess1",
          "A3": "58009011-3322-4458-9b0c-00259f6c73fb",
          "A4": "58009011-3322-4458-9b0c-00259f6c73fb",
          "GT2": "[Element:{7c9a7dec-cbf7-45bd-bbca-6b551a4521be}].[Parameter:{c3a8788f-b2c2-4f64-a176-c03d359a1fa0}]",
          "GT3": "c3a8788f-b2c2-4f64-a176-c03d359a1fa0",
          "GT5": "2f72dcda-ed07-4e46-86e8-84c1c3d63398",
          "GT4": "2fe06334-b0d9-4994-8481-5f86c9aa3c4f",
          "GT1": {
            "GS5": "2fe06334-b0d9-4994-8481-5f86c9aa3c4f"
          }
        },
        {
          "BL1": "Terrasoft.Core.Process.ProcessSchemaMapping",
          "UId": "ef7dcd76-ff62-41d2-b53e-de8ab35f8995",
          "A2": "SubProcess1",
          "A3": "58009011-3322-4458-9b0c-00259f6c73fb",
          "A4": "58009011-3322-4458-9b0c-00259f6c73fb",
          "GT2": "[Element:{7c9a7dec-cbf7-45bd-bbca-6b551a4521be}].[Parameter:{fd669b66-db23-482a-be35-9bcc1309a5b0}]",
          "GT3": "fd669b66-db23-482a-be35-9bcc1309a5b0",
          "GT5": "b522ba8d-ddd1-4acf-8f1a-71b768e118c9",
          "GT4": "2fe06334-b0d9-4994-8481-5f86c9aa3c4f",
          "GT1": {}
        },
        {
          "BL1": "Terrasoft.Core.Process.ProcessSchemaMapping",
          "UId": "64ec84ce-73e5-448b-87a2-4c3dffdf49f7",
          "A2": "SubProcess1",
          "A3": "58009011-3322-4458-9b0c-00259f6c73fb",
          "A4": "58009011-3322-4458-9b0c-00259f6c73fb",
          "GT2": "[Element:{7c9a7dec-cbf7-45bd-bbca-6b551a4521be}].[Parameter:{1ef22834-c026-4cfa-a760-1d2a2a47a00e}]",
          "GT3": "1ef22834-c026-4cfa-a760-1d2a2a47a00e",
          "GT5": "56ca6b63-face-4025-9127-bd374457e826",
          "GT4": "2fe06334-b0d9-4994-8481-5f86c9aa3c4f",
          "GT1": {
            "GS1": 3,
            "GS2": "[#[IsOwnerSchema:false].[IsSchema:false].[Element:{0e29b3f3-e176-4b52-851b-c6e6edf9da19}].[Parameter:{b9be7a46-9d6a-4d91-8268-311e9ae6eea5}].[EntityColumn:{9839cdd8-9323-42a1-8b54-0add813081b1}]#]",
            "GS5": "58009011-3322-4458-9b0c-00259f6c73fb"
          }
        },
        {
          "BL1": "Terrasoft.Core.Process.ProcessSchemaMapping",
          "UId": "62a4f482-8d0e-4bad-9e97-380916291182",
          "A2": "SubProcess1",
          "A3": "58009011-3322-4458-9b0c-00259f6c73fb",
          "A4": "58009011-3322-4458-9b0c-00259f6c73fb",
          "GT2": "[Element:{7c9a7dec-cbf7-45bd-bbca-6b551a4521be}].[Parameter:{6464188f-bc06-4f1a-8eb0-ac7f9df742a6}]",
          "GT3": "6464188f-bc06-4f1a-8eb0-ac7f9df742a6",
          "GT5": "c4e0b605-e160-4bb7-988d-6e9cbfd5f17d",
          "GT4": "2fe06334-b0d9-4994-8481-5f86c9aa3c4f",
          "GT1": {
            "GS1": 3,
            "GS2": "[#[IsOwnerSchema:false].[IsSchema:false].[Element:{0e29b3f3-e176-4b52-851b-c6e6edf9da19}].[Parameter:{b9be7a46-9d6a-4d91-8268-311e9ae6eea5}].[EntityColumn:{7b520076-38b8-475b-8703-c151145f3865}]#]",
            "GS5": "58009011-3322-4458-9b0c-00259f6c73fb"
          }
        },
        {
          "BL1": "Terrasoft.Core.Process.ProcessSchemaMapping",
          "UId": "81d37b19-850c-4b5a-9060-6da064f296a3",
          "A2": "SubProcess1",
          "A3": "58009011-3322-4458-9b0c-00259f6c73fb",
          "A4": "58009011-3322-4458-9b0c-00259f6c73fb",
          "GT2": "[Element:{7c9a7dec-cbf7-45bd-bbca-6b551a4521be}].[Parameter:{0a5c7662-249a-4872-8d5a-9f5469a61c09}]",
          "GT3": "0a5c7662-249a-4872-8d5a-9f5469a61c09",
          "GT5": "c01b06e7-cfb9-4ab1-ae92-ccbf826b04a9",
          "GT4": "2fe06334-b0d9-4994-8481-5f86c9aa3c4f",
          "GT1": {
            "GS5": "2fe06334-b0d9-4994-8481-5f86c9aa3c4f"
          }
        },
        {
          "BL1": "Terrasoft.Core.Process.ProcessSchemaMapping",
          "UId": "b22dbefa-da90-4fe6-9262-2e43fb282cb1",
          "A2": "SubProcess1",
          "A3": "58009011-3322-4458-9b0c-00259f6c73fb",
          "A4": "58009011-3322-4458-9b0c-00259f6c73fb",
          "GT2": "[Element:{7c9a7dec-cbf7-45bd-bbca-6b551a4521be}].[Parameter:{1b254caf-de9b-4b5b-9321-489dfff752e1}]",
          "GT3": "1b254caf-de9b-4b5b-9321-489dfff752e1",
          "GT5": "0785900b-3013-42a3-b0d4-3d0d313e9385",
          "GT4": "2fe06334-b0d9-4994-8481-5f86c9aa3c4f",
          "GT1": {
            "GS1": 3,
            "GS2": "[#[IsOwnerSchema:false].[IsSchema:false].[Element:{0e29b3f3-e176-4b52-851b-c6e6edf9da19}].[Parameter:{b9be7a46-9d6a-4d91-8268-311e9ae6eea5}].[EntityColumn:{d8b57057-984b-4f9b-b148-52db7f098a05}]#]",
            "GS5": "58009011-3322-4458-9b0c-00259f6c73fb"
          }
        },
        {
          "BL1": "Terrasoft.Core.Process.ProcessSchemaMapping",
          "UId": "b2a85786-17f7-4016-b3bf-6c5acd0e80d0",
          "A2": "SubProcess1",
          "A3": "58009011-3322-4458-9b0c-00259f6c73fb",
          "A4": "58009011-3322-4458-9b0c-00259f6c73fb",
          "GT2": "[Element:{7c9a7dec-cbf7-45bd-bbca-6b551a4521be}].[Parameter:{7df5149a-baec-4e40-b2e0-3d0501ab0382}]",
          "GT3": "7df5149a-baec-4e40-b2e0-3d0501ab0382",
          "GT5": "f3c62656-8439-4d55-a167-42717d70513d",
          "GT4": "2fe06334-b0d9-4994-8481-5f86c9aa3c4f",
          "GT1": {
            "GS1": 3,
            "GS2": "[#[IsOwnerSchema:false].[IsSchema:false].[Element:{0e29b3f3-e176-4b52-851b-c6e6edf9da19}].[Parameter:{b9be7a46-9d6a-4d91-8268-311e9ae6eea5}].[EntityColumn:{fbb28074-705a-4c46-9708-f304bc7aa23c}]#]",
            "GS5": "58009011-3322-4458-9b0c-00259f6c73fb"
          }
        },
        {
          "BL1": "Terrasoft.Core.Process.ProcessSchemaMapping",
          "UId": "3897ad49-23c4-47ce-9b36-e18fc8eefb9d",
          "A2": "SubProcess1",
          "A3": "58009011-3322-4458-9b0c-00259f6c73fb",
          "A4": "58009011-3322-4458-9b0c-00259f6c73fb",
          "GT2": "[Element:{7c9a7dec-cbf7-45bd-bbca-6b551a4521be}].[Parameter:{40cc27f4-a383-464f-9631-afc4e18e6477}]",
          "GT3": "40cc27f4-a383-464f-9631-afc4e18e6477",
          "GT5": "b3997c41-626e-454c-92eb-ea8e7eacdd60",
          "GT4": "2fe06334-b0d9-4994-8481-5f86c9aa3c4f",
          "GT1": {
            "GS1": 3,
            "GS2": "[#[IsOwnerSchema:false].[IsSchema:false].[Element:{0e29b3f3-e176-4b52-851b-c6e6edf9da19}].[Parameter:{b9be7a46-9d6a-4d91-8268-311e9ae6eea5}].[EntityColumn:{c42b0ba3-961c-4abb-935f-c77d6d7c8d02}]#]",
            "GS5": "58009011-3322-4458-9b0c-00259f6c73fb"
          }
        }
      ],
      "BK29": true,
      "BK31": true,
      "BK34": "null",
      "BK24": []
    }
  }