﻿{
  "Descriptor": {
    "UId": "63f5ac0c-5c69-404b-8f1f-fb051b6494a2",
    "Name": "ITInsideNotification",
    "ModifiedOnUtc": "\/Date(1482931496000)\/",
    "Parent": {
      "UId": "11ab4bcb-9b23-4b6d-9c86-520fae925d75",
      "Name": "BaseLookup"
    },
    "ManagerName": "EntitySchemaManager",
    "Caption": "Тип уведомлений внутренний",
    "DependsOn": []
  }
}