﻿{
  "PackageData": [
    {
      "Row": [
        {
          "SchemaColumnUId": "ae0e45ca-c495-4fe7-a39d-3ab7278e1617",
          "Value": "d79d54d9-efed-491c-ba4f-dac930a910ba"
        },
        {
          "SchemaColumnUId": "9ba728be-e5cd-451d-a74a-c4a047c374b3",
          "Value": "a29a3ba5-4b0d-de11-9a51-005056c00008",
          "DisplayValue": "Все сотрудники компании"
        },
        {
          "SchemaColumnUId": "82b72e0d-42a3-4857-8445-0279b66e7e2c",
          "Value": 1
        },
        {
          "SchemaColumnUId": "631177f9-f983-4787-a7aa-ced1b24ba918",
          "Value": "1479474d-9ffe-40ae-8766-5268f5d263a0",
          "DisplayValue": "UseOldOpportunityManagementProcess"
        }
      ]
    }
  ]
}