﻿{
  "Descriptor": {
    "UId": "b20acb34-2297-4fa0-bbf6-b868af14c000",
    "Name": "ITAccountCategDetail",
    "ModifiedOnUtc": "\/Date(1492588637000)\/",
    "Parent": {
      "UId": "01eb38ee-668a-42f0-999d-c2534f979089",
      "Name": "BaseGridDetailV2"
    },
    "ManagerName": "ClientUnitSchemaManager",
    "Caption": "Деталь категоризации контрагента",
    "DependsOn": []
  }
}