﻿{
  "Descriptor": {
    "UId": "932fe08a-a7b9-48a1-ac26-8edacfa68602",
    "Name": "TsOpportunityManagementEndOfStage",
    "ModifiedOnUtc": "\/Date(1477092759000)\/",
    "ManagerName": "ProcessSchemaManager",
    "Caption": "Завершение стадии - TsBase",
    "DependsOn": []
  }
}