﻿{
  "Descriptor": {
    "UId": "370669df-557f-4fb0-b518-96216c849e46",
    "Name": "ITNotificationDupRules",
    "ModifiedOnUtc": "\/Date(1490252731000)\/",
    "InstallType": 0,
    "Schema": {
      "UId": "568b4b8f-6253-40a0-a778-e2162e004bd1",
      "Name": "ITNotificationDupRules"
    },
    "Columns": [
      {
        "ColumnUId": "9e53fd7c-dde4-4502-a64c-b9e34148108b",
        "IsForceUpdate": false,
        "IsKey": false,
        "ColumnName": "Description",
        "DataTypeValueUId": "ddb3a1ee-07e8-4d62-b7a9-d0e618b00fbd"
      },
      {
        "ColumnUId": "6d9d392b-fc01-41f1-a1a5-659de9237329",
        "IsForceUpdate": false,
        "IsKey": false,
        "ColumnName": "ITParcelUnitResponsible",
        "DataTypeValueUId": "90b65bf8-0ffc-4141-8779-2420877af907"
      },
      {
        "ColumnUId": "2b80933a-12d3-4c03-b246-a2127a885d45",
        "IsForceUpdate": false,
        "IsKey": false,
        "ColumnName": "ITParcelUnitManager",
        "DataTypeValueUId": "90b65bf8-0ffc-4141-8779-2420877af907"
      },
      {
        "ColumnUId": "eb911ded-efba-43f1-8fc0-1018838cd038",
        "IsForceUpdate": false,
        "IsKey": false,
        "ColumnName": "ITFinanceUnitResponsible",
        "DataTypeValueUId": "90b65bf8-0ffc-4141-8779-2420877af907"
      },
      {
        "ColumnUId": "8aa66a37-d096-472a-a9ee-7cfa9fd7a7cf",
        "IsForceUpdate": false,
        "IsKey": false,
        "ColumnName": "ITFinanceUnitManager",
        "DataTypeValueUId": "90b65bf8-0ffc-4141-8779-2420877af907"
      },
      {
        "ColumnUId": "57c71d8d-09e9-4cb2-a1d2-2bd2970c9994",
        "IsForceUpdate": false,
        "IsKey": false,
        "ColumnName": "ITPostUnitResponsible",
        "DataTypeValueUId": "90b65bf8-0ffc-4141-8779-2420877af907"
      },
      {
        "ColumnUId": "7894d836-de0b-4a02-88f0-871c956b1bbd",
        "IsForceUpdate": false,
        "IsKey": false,
        "ColumnName": "ITPostUnitManager",
        "DataTypeValueUId": "90b65bf8-0ffc-4141-8779-2420877af907"
      },
      {
        "ColumnUId": "f515f211-fa01-4a04-a39e-7ba6e417bf38",
        "IsForceUpdate": false,
        "IsKey": false,
        "ColumnName": "ITInsideNotification",
        "DataTypeValueUId": "b295071f-7ea9-4e62-8d1a-919bf3732ff2"
      },
      {
        "ColumnUId": "ae0e45ca-c495-4fe7-a39d-3ab7278e1617",
        "IsForceUpdate": false,
        "IsKey": true,
        "ColumnName": "Id",
        "DataTypeValueUId": "23018567-a13c-4320-8687-fd6f9e3699bd"
      },
      {
        "ColumnUId": "736c30a7-c0ec-4fa9-b034-2552b319b633",
        "IsForceUpdate": false,
        "IsKey": false,
        "ColumnName": "Name",
        "DataTypeValueUId": "ddb3a1ee-07e8-4d62-b7a9-d0e618b00fbd"
      }
    ]
  }
}