﻿{
  "PackageData": [
    {
      "Row": [
        {
          "SchemaColumnUId": "ae0e45ca-c495-4fe7-a39d-3ab7278e1617",
          "Value": "d2776dd8-3c6a-4661-84cf-af30cdefdc14"
        },
        {
          "SchemaColumnUId": "55132174-2b96-4e0a-830c-b8e952b12c45",
          "Value": "Карточка схемы: \"Скидка в Контрагенте\""
        },
        {
          "SchemaColumnUId": "f7b189f1-06c6-4b54-bb04-eaf91625177f",
          "Value": "17e60f7d-5669-43ba-b912-ac70d0047803",
          "DisplayValue": "null"
        },
        {
          "SchemaColumnUId": "56c33b79-2d9a-4b49-adb4-79df03d178e9",
          "Value": "null"
        },
        {
          "SchemaColumnUId": "c53035ba-426a-4b98-a5fa-2d2966b2c908",
          "Value": true
        },
        {
          "SchemaColumnUId": "ca35057b-1338-4316-9d6f-8c35f98f5db5",
          "Value": 0
        },
        {
          "SchemaColumnUId": "a90e57e9-5e2c-40e8-80e2-3ac8b48f9619",
          "Value": ""
        },
        {
          "SchemaColumnUId": "ae683a77-0faf-4743-a1c2-abadf29f6e98",
          "Value": "null"
        },
        {
          "SchemaColumnUId": "fcd5ccc3-2a7a-4a9d-b8b8-e78f76efe747",
          "Value": "d947bbe1-8aef-46fb-bb46-ee254049640f"
        },
        {
          "SchemaColumnUId": "a19bf4bf-e22b-49b5-b6e0-918ff6290020",
          "Value": ""
        },
        {
          "SchemaColumnUId": "f14f9a76-5ad3-47f9-b175-b7648b7bd340",
          "Value": ""
        },
        {
          "SchemaColumnUId": "350ddc16-b017-4661-ae25-33482662a8d2",
          "Value": "null"
        }
      ]
    }
  ]
}