﻿{
  "Descriptor": {
    "UId": "55b14b65-c41d-44f2-89fc-f863d6e986a8",
    "Name": "ITProcess8",
    "ModifiedOnUtc": "\/Date(1499863203000)\/",
    "ManagerName": "ProcessSchemaManager",
    "Caption": "Процесс сопровождения печатного сервиса - ITBase",
    "DependsOn": []
  }
}