﻿{
  "Descriptor": {
    "UId": "312dc2b6-029d-4cdf-9ea7-e0fef568d288",
    "Name": "ITFinanceUnitCOSigning1",
    "ModifiedOnUtc": "\/Date(1501154348000)\/",
    "ManagerName": "ProcessSchemaManager",
    "Caption": "Процесс подписания договора финансового блока - ITBase",
    "DependsOn": []
  }
}