﻿{
  "Descriptor": {
    "UId": "0d280e06-14c8-4704-aa55-65b35bdfa8d2",
    "Name": "TsAccountExecHistoryPageV2",
    "ModifiedOnUtc": "\/Date(1478849848000)\/",
    "Parent": {
      "UId": "d3cc497c-f286-4f13-99c1-751c468733c0",
      "Name": "BasePageV2"
    },
    "ManagerName": "ClientUnitSchemaManager",
    "Caption": "Страница редактирования \"История изменения ответственного в контрагенте\"",
    "DependsOn": []
  }
}