﻿{
  "Descriptor": {
    "UId": "47b7400e-c94a-44d8-90e0-47f100c24b4c",
    "Name": "ITProcess7",
    "ModifiedOnUtc": "\/Date(1502712796000)\/",
    "ManagerName": "ProcessSchemaManager",
    "Caption": "Процесс подписания договора печатного сервиса - ITBase",
    "DependsOn": []
  }
}