﻿{
  "Descriptor": {
    "UId": "50b65e64-c647-42f8-83ba-649ee5b140f9",
    "Name": "InvoicePageV2",
    "ModifiedOnUtc": "\/Date(1489043370000)\/",
    "Parent": {
      "UId": "b8a98131-367e-4bc0-88b7-06bea6a143de",
      "Name": "InvoicePageV2"
    },
    "ExtendParent": true,
    "ManagerName": "ClientUnitSchemaManager",
    "Caption": "Страница редактирования счета",
    "DependsOn": []
  }
}