{
  "MetaData": {
    "Schema": {
      "ManagerName": "ProcessSchemaManager",
      "UId": "fbc11f5f-7c94-4d56-9609-7a1ba1519723",
      "A2": "ITAccountDeliveryUnitOpportunityManagement",
      "A5": "170c1fde-33f4-40e6-9b82-a225b93aec56",
      "B1": [],
      "B2": [],
      "B3": [],
      "B6": "b18a0f67-6bd3-4ff3-8fa3-c759fb72d073",
      "B8": "7.8.3.1978",
      "FJ1": [
        {
          "BL1": "Terrasoft.Core.Process.ProcessSchemaParameter",
          "UId": "19d9b528-da58-473c-b5b4-1f73a90f9872",
          "A2": "CurrentOpportunityId",
          "A3": "fbc11f5f-7c94-4d56-9609-7a1ba1519723",
          "A4": "fbc11f5f-7c94-4d56-9609-7a1ba1519723",
          "L1": "23018567-a13c-4320-8687-fd6f9e3699bd",
          "L8": {}
        },
        {
          "BL1": "Terrasoft.Core.Process.ProcessSchemaParameter",
          "UId": "5f21d25e-6d6b-46a6-8f0a-1bc3c7cd1324",
          "A2": "IsStageChangedByUser",
          "A3": "fbc11f5f-7c94-4d56-9609-7a1ba1519723",
          "A4": "fbc11f5f-7c94-4d56-9609-7a1ba1519723",
          "L1": "90b65bf8-0ffc-4141-8779-2420877af907",
          "L8": {
            "GS1": 3,
            "GS2": "[#[IsOwnerSchema:false].[IsSchema:false].[Element:{9a0a71ca-8a3b-4f3f-b546-88fe10208068}].[Parameter:{8a58e686-17c9-4785-a86b-56cf8b948ecb}]#]||[#[IsOwnerSchema:false].[IsSchema:false].[Element:{0de2cf42-765a-43ba-a60c-dff1fe1de449}].[Parameter:{a3e17268-5cfb-40f4-b8f5-6dd5b9dd27ca}]#]||[#[IsOwnerSchema:false].[IsSchema:false].[Element:{85250f78-fc12-494c-bef6-3d6a7d741864}].[Parameter:{2993ddd6-c1a4-4a8e-a365-b8c670725387}]#]",
            "GS5": "fbc11f5f-7c94-4d56-9609-7a1ba1519723"
          }
        },
        {
          "BL1": "Terrasoft.Core.Process.ProcessSchemaParameter",
          "UId": "a9512d27-31db-48b7-aa20-f852e6c17870",
          "A2": "LeadTypeId",
          "A3": "fbc11f5f-7c94-4d56-9609-7a1ba1519723",
          "A4": "fbc11f5f-7c94-4d56-9609-7a1ba1519723",
          "L1": "b295071f-7ea9-4e62-8d1a-919bf3732ff2",
          "L8": {
            "GS1": 3,
            "GS2": "[#Lookup.e0dbeb22-4932-4eee-a8f2-a247a5fce888.2f2a26a4-fddb-44b7-b5c1-aaf2cbd1e633#]",
            "GS5": "fbc11f5f-7c94-4d56-9609-7a1ba1519723"
          },
          "L9": "e0dbeb22-4932-4eee-a8f2-a247a5fce888"
        },
        {
          "BL1": "Terrasoft.Core.Process.ProcessSchemaParameter",
          "UId": "eb5ea806-697c-451d-ac50-b737907728f3",
          "A2": "CurrentStageNumber",
          "A3": "fbc11f5f-7c94-4d56-9609-7a1ba1519723",
          "A4": "fbc11f5f-7c94-4d56-9609-7a1ba1519723",
          "L1": "6b6b74e2-820d-490e-a017-2b73d4ccf2b0",
          "L8": {}
        },
        {
          "BL1": "Terrasoft.Core.Process.ProcessSchemaParameter",
          "UId": "e17b4986-8db3-4ab2-97d7-609f77f5525c",
          "A2": "LeadStageId",
          "A3": "fbc11f5f-7c94-4d56-9609-7a1ba1519723",
          "A4": "fbc11f5f-7c94-4d56-9609-7a1ba1519723",
          "L1": "23018567-a13c-4320-8687-fd6f9e3699bd",
          "L8": {}
        },
        {
          "BL1": "Terrasoft.Core.Process.ProcessSchemaParameter",
          "UId": "fd77f7aa-edee-45f4-a393-241e0179fc36",
          "A2": "OppMainContactId",
          "A3": "fbc11f5f-7c94-4d56-9609-7a1ba1519723",
          "A4": "fbc11f5f-7c94-4d56-9609-7a1ba1519723",
          "L1": "23018567-a13c-4320-8687-fd6f9e3699bd",
          "L8": {
            "GS1": 3,
            "GS2": "[#[IsOwnerSchema:false].[IsSchema:false].[Element:{b5c13caf-b377-49a4-ba59-5665f62cdb9d}].[Parameter:{e9376b7b-3b93-4de0-99f9-9f6bf6ecb61c}].[EntityColumn:{a628d3aa-7961-4943-886b-136561ddcc96}]#]",
            "GS5": "fbc11f5f-7c94-4d56-9609-7a1ba1519723"
          }
        },
        {
          "BL1": "Terrasoft.Core.Process.ProcessSchemaParameter",
          "UId": "c80e30f1-d684-4acc-97f3-33cce178d96b",
          "A2": "FirstOpportunity",
          "A3": "fbc11f5f-7c94-4d56-9609-7a1ba1519723",
          "A4": "fbc11f5f-7c94-4d56-9609-7a1ba1519723",
          "L1": "90b65bf8-0ffc-4141-8779-2420877af907",
          "L8": {
            "GS2": "false",
            "GS5": "fbc11f5f-7c94-4d56-9609-7a1ba1519723"
          }
        }
      ],
      "IJ1": true,
      "BK1": "FFFFFFFF",
      "BK2": "FFBBBBBB",
      "BK3": [
        {
          "BL1": "Terrasoft.Core.Process.ProcessSchemaLaneSet",
          "UId": "84074799-e12e-4762-950f-a67089498ff2",
          "A2": "LaneSet1",
          "A3": "fbc11f5f-7c94-4d56-9609-7a1ba1519723",
          "A4": "fbc11f5f-7c94-4d56-9609-7a1ba1519723",
          "A5": "b18a0f67-6bd3-4ff3-8fa3-c759fb72d073",
          "BL7": "11a47caf-a0d5-41fa-a274-a0b11f77447a",
          "BL8": "fbc11f5f-7c94-4d56-9609-7a1ba1519723",
          "BM1": 0,
          "BM4": [
            {
              "BL1": "Terrasoft.Core.Process.ProcessSchemaLane",
              "UId": "ce667956-ecc5-4349-aeb9-76285038e336",
              "A2": "Lane1",
              "A3": "fbc11f5f-7c94-4d56-9609-7a1ba1519723",
              "A4": "fbc11f5f-7c94-4d56-9609-7a1ba1519723",
              "A5": "b18a0f67-6bd3-4ff3-8fa3-c759fb72d073",
              "IL2": "84074799-e12e-4762-950f-a67089498ff2",
              "BL7": "abcd74b9-5912-414b-82ac-f1aa4dcd554e",
              "BL8": "fbc11f5f-7c94-4d56-9609-7a1ba1519723",
              "CD1": [],
              "CD2": [],
              "CD4": "84074799-e12e-4762-950f-a67089498ff2",
              "CD7": []
            }
          ]
        }
      ],
      "BK5": [],
      "BK4": [
        {
          "BL1": "Terrasoft.Core.Process.ProcessSchemaStartEvent",
          "UId": "7f738605-e8b8-4442-be36-fdaa81f36766",
          "A2": "StartEvent1",
          "A3": "fbc11f5f-7c94-4d56-9609-7a1ba1519723",
          "A4": "fbc11f5f-7c94-4d56-9609-7a1ba1519723",
          "A5": "b18a0f67-6bd3-4ff3-8fa3-c759fb72d073",
          "IL2": "ce667956-ecc5-4349-aeb9-76285038e336",
          "BL3": "50;334",
          "BL7": "53818048-7868-48f6-ada0-0ebaa65af628",
          "BL8": "fbc11f5f-7c94-4d56-9609-7a1ba1519723",
          "BN2": "27;27",
          "BO3": true,
          "FC1": [],
          "ED1": false
        },
        {
          "BL1": "Terrasoft.Core.Process.ProcessSchemaTerminateEvent",
          "UId": "51a5cda3-bcf9-44e2-b387-c1de2416e510",
          "A2": "TerminateEvent1",
          "A3": "fbc11f5f-7c94-4d56-9609-7a1ba1519723",
          "A4": "fbc11f5f-7c94-4d56-9609-7a1ba1519723",
          "A5": "b18a0f67-6bd3-4ff3-8fa3-c759fb72d073",
          "IL2": "ce667956-ecc5-4349-aeb9-76285038e336",
          "BL3": "173;440",
          "BL7": "1bd93619-0574-454e-bb4e-cf53b9eb9470",
          "BL8": "fbc11f5f-7c94-4d56-9609-7a1ba1519723",
          "BN2": "27;27",
          "BO3": true,
          "FC1": []
        },
        {
          "BL1": "Terrasoft.Core.Process.ProcessSchemaUserTask",
          "UId": "b5c13caf-b377-49a4-ba59-5665f62cdb9d",
          "A2": "ReadDataUserTask1",
          "A3": "fbc11f5f-7c94-4d56-9609-7a1ba1519723",
          "A4": "fbc11f5f-7c94-4d56-9609-7a1ba1519723",
          "A5": "b18a0f67-6bd3-4ff3-8fa3-c759fb72d073",
          "IL2": "ce667956-ecc5-4349-aeb9-76285038e336",
          "BL3": "152;319",
          "BL7": "cb455b6f-78ff-4b1e-b241-c2bbc0b37e9f",
          "BL8": "fbc11f5f-7c94-4d56-9609-7a1ba1519723",
          "BN2": "69;55",
          "BO2": true,
          "BO3": true,
          "BP2": [
            {
              "BL1": "Terrasoft.Core.Process.ProcessSchemaParameter",
              "UId": "c55aec47-3377-40c3-b38b-7d33a6bab32c",
              "A2": "DataSourceFilters",
              "A3": "cb455b6f-78ff-4b1e-b241-c2bbc0b37e9f",
              "A4": "cb455b6f-78ff-4b1e-b241-c2bbc0b37e9f",
              "A5": "66e9e705-64b4-4dda-925e-d1e05a389eb6",
              "IL2": "b5c13caf-b377-49a4-ba59-5665f62cdb9d",
              "L1": "394e160f-c8e0-46fa-9c0d-75d97e9e9169",
              "L8": {
                "GS1": 1,
                "GS2": "{\"className\":\"Terrasoft.FilterGroup\",\"serializedFilterEditData\":\"{\\\"className\\\":\\\"Terrasoft.FilterGroup\\\",\\\"items\\\":{\\\"fe9275cc-f97a-43c7-bdc5-e6454f6e9215\\\":{\\\"className\\\":\\\"Terrasoft.InFilter\\\",\\\"filterType\\\":4,\\\"comparisonType\\\":3,\\\"isEnabled\\\":true,\\\"trimDateTimeParameterToDate\\\":false,\\\"leftExpression\\\":{\\\"className\\\":\\\"Terrasoft.ColumnExpression\\\",\\\"expressionType\\\":0,\\\"columnPath\\\":\\\"Opportunity\\\"},\\\"isAggregative\\\":false,\\\"key\\\":\\\"fe9275cc-f97a-43c7-bdc5-e6454f6e9215\\\",\\\"dataValueType\\\":10,\\\"leftExpressionCaption\\\":\\\"Продажа\\\",\\\"referenceSchemaName\\\":\\\"Opportunity\\\",\\\"rightExpressions\\\":[{\\\"className\\\":\\\"Terrasoft.ParameterExpression\\\",\\\"expressionType\\\":2,\\\"parameter\\\":{\\\"className\\\":\\\"Terrasoft.Parameter\\\",\\\"dataValueType\\\":26,\\\"value\\\":{\\\"value\\\":\\\"[IsOwnerSchema:false].[IsSchema:false].[Parameter:{19d9b528-da58-473c-b5b4-1f73a90f9872}]\\\",\\\"displayValue\\\":\\\"Текущая продажа\\\",\\\"Id\\\":\\\"91420bfe-b8d6-4783-89ab-4420b575800b\\\"}}}]},\\\"cea1100c-3fc9-4a99-8f79-78deb3dd13f9\\\":{\\\"className\\\":\\\"Terrasoft.CompareFilter\\\",\\\"filterType\\\":1,\\\"comparisonType\\\":3,\\\"isEnabled\\\":true,\\\"trimDateTimeParameterToDate\\\":false,\\\"leftExpression\\\":{\\\"className\\\":\\\"Terrasoft.ColumnExpression\\\",\\\"expressionType\\\":0,\\\"columnPath\\\":\\\"IsMainContact\\\"},\\\"isAggregative\\\":false,\\\"key\\\":\\\"cea1100c-3fc9-4a99-8f79-78deb3dd13f9\\\",\\\"dataValueType\\\":12,\\\"leftExpressionCaption\\\":\\\"Основной контакт\\\",\\\"rightExpression\\\":{\\\"className\\\":\\\"Terrasoft.ParameterExpression\\\",\\\"expressionType\\\":2,\\\"parameter\\\":{\\\"className\\\":\\\"Terrasoft.Parameter\\\",\\\"dataValueType\\\":12,\\\"value\\\":true}}}},\\\"logicalOperation\\\":0,\\\"isEnabled\\\":true,\\\"filterType\\\":6,\\\"rootSchemaName\\\":\\\"OpportunityContact\\\",\\\"key\\\":\\\"\\\"}\",\"dataSourceFilters\":\"{\\\"items\\\":{\\\"fe9275cc-f97a-43c7-bdc5-e6454f6e9215\\\":{\\\"filterType\\\":4,\\\"comparisonType\\\":3,\\\"isEnabled\\\":true,\\\"trimDateTimeParameterToDate\\\":false,\\\"leftExpression\\\":{\\\"expressionType\\\":0,\\\"columnPath\\\":\\\"Opportunity\\\"},\\\"rightExpressions\\\":[{\\\"expressionType\\\":2,\\\"parameter\\\":{\\\"dataValueType\\\":26,\\\"value\\\":{\\\"value\\\":\\\"[IsOwnerSchema:false].[IsSchema:false].[Parameter:{19d9b528-da58-473c-b5b4-1f73a90f9872}]\\\",\\\"Id\\\":\\\"91420bfe-b8d6-4783-89ab-4420b575800b\\\"}}}]},\\\"cea1100c-3fc9-4a99-8f79-78deb3dd13f9\\\":{\\\"filterType\\\":1,\\\"comparisonType\\\":3,\\\"isEnabled\\\":true,\\\"trimDateTimeParameterToDate\\\":false,\\\"leftExpression\\\":{\\\"expressionType\\\":0,\\\"columnPath\\\":\\\"IsMainContact\\\"},\\\"rightExpression\\\":{\\\"expressionType\\\":2,\\\"parameter\\\":{\\\"dataValueType\\\":12,\\\"value\\\":true}}}},\\\"logicalOperation\\\":0,\\\"isEnabled\\\":true,\\\"filterType\\\":6,\\\"rootSchemaName\\\":\\\"OpportunityContact\\\"}\"}",
                "GS5": "fbc11f5f-7c94-4d56-9609-7a1ba1519723"
              }
            },
            {
              "BL1": "Terrasoft.Core.Process.ProcessSchemaParameter",
              "UId": "0a829a9e-f2a7-40c7-9f9d-a41626c02a41",
              "A2": "ResultType",
              "A3": "cb455b6f-78ff-4b1e-b241-c2bbc0b37e9f",
              "A4": "cb455b6f-78ff-4b1e-b241-c2bbc0b37e9f",
              "IL2": "b5c13caf-b377-49a4-ba59-5665f62cdb9d",
              "L1": "6b6b74e2-820d-490e-a017-2b73d4ccf2b0",
              "L8": {
                "GS1": 1,
                "GS2": "0",
                "GS5": "cb455b6f-78ff-4b1e-b241-c2bbc0b37e9f"
              }
            },
            {
              "BL1": "Terrasoft.Core.Process.ProcessSchemaParameter",
              "UId": "b0322a7a-05ab-4da7-a2cd-025617d567c5",
              "A2": "ReadSomeTopRecords",
              "A3": "cb455b6f-78ff-4b1e-b241-c2bbc0b37e9f",
              "A4": "cb455b6f-78ff-4b1e-b241-c2bbc0b37e9f",
              "IL2": "b5c13caf-b377-49a4-ba59-5665f62cdb9d",
              "L1": "90b65bf8-0ffc-4141-8779-2420877af907",
              "L8": {
                "GS2": ""
              }
            },
            {
              "BL1": "Terrasoft.Core.Process.ProcessSchemaParameter",
              "UId": "05f452ab-4044-416b-a2ce-cf926ec175f5",
              "A2": "NumberOfRecords",
              "A3": "cb455b6f-78ff-4b1e-b241-c2bbc0b37e9f",
              "A4": "cb455b6f-78ff-4b1e-b241-c2bbc0b37e9f",
              "IL2": "b5c13caf-b377-49a4-ba59-5665f62cdb9d",
              "L1": "6b6b74e2-820d-490e-a017-2b73d4ccf2b0",
              "L8": {
                "GS2": ""
              }
            },
            {
              "BL1": "Terrasoft.Core.Process.ProcessSchemaParameter",
              "UId": "5af1a833-a668-4177-8c15-8b9efc2cc7fc",
              "A2": "FunctionType",
              "A3": "cb455b6f-78ff-4b1e-b241-c2bbc0b37e9f",
              "A4": "cb455b6f-78ff-4b1e-b241-c2bbc0b37e9f",
              "IL2": "b5c13caf-b377-49a4-ba59-5665f62cdb9d",
              "L1": "6b6b74e2-820d-490e-a017-2b73d4ccf2b0",
              "L8": {
                "GS1": 1,
                "GS2": "0",
                "GS5": "fbc11f5f-7c94-4d56-9609-7a1ba1519723"
              }
            },
            {
              "BL1": "Terrasoft.Core.Process.ProcessSchemaParameter",
              "UId": "565f9baf-2ff2-465e-a278-43caa8681702",
              "A2": "AggregationColumnName",
              "A3": "cb455b6f-78ff-4b1e-b241-c2bbc0b37e9f",
              "A4": "cb455b6f-78ff-4b1e-b241-c2bbc0b37e9f",
              "IL2": "b5c13caf-b377-49a4-ba59-5665f62cdb9d",
              "L1": "394e160f-c8e0-46fa-9c0d-75d97e9e9169",
              "L8": {
                "GS2": ""
              }
            },
            {
              "BL1": "Terrasoft.Core.Process.ProcessSchemaParameter",
              "UId": "68a4a24d-4acf-41f0-b1cb-fff36aae48d4",
              "A2": "OrderInfo",
              "A3": "cb455b6f-78ff-4b1e-b241-c2bbc0b37e9f",
              "A4": "cb455b6f-78ff-4b1e-b241-c2bbc0b37e9f",
              "IL2": "b5c13caf-b377-49a4-ba59-5665f62cdb9d",
              "L1": "394e160f-c8e0-46fa-9c0d-75d97e9e9169",
              "L8": {
                "GS2": ""
              }
            },
            {
              "BL1": "Terrasoft.Core.Process.ProcessSchemaParameter",
              "UId": "e9376b7b-3b93-4de0-99f9-9f6bf6ecb61c",
              "A2": "ResultEntity",
              "A3": "cb455b6f-78ff-4b1e-b241-c2bbc0b37e9f",
              "A4": "cb455b6f-78ff-4b1e-b241-c2bbc0b37e9f",
              "A5": "66e9e705-64b4-4dda-925e-d1e05a389eb6",
              "IL2": "b5c13caf-b377-49a4-ba59-5665f62cdb9d",
              "L1": "ebd85d37-0abf-4bbf-bb32-97dc3dffcc8c",
              "L8": {
                "GS1": 1,
                "GS5": "fbc11f5f-7c94-4d56-9609-7a1ba1519723"
              },
              "L9": "fa274f3d-57a3-44ee-b644-d93441a31de2",
              "L13": true,
              "L16": "OpportunityContact"
            },
            {
              "BL1": "Terrasoft.Core.Process.ProcessSchemaParameter",
              "UId": "edc6b16c-7651-42a3-b539-10ec4c1bae86",
              "A2": "ResultCount",
              "A3": "cb455b6f-78ff-4b1e-b241-c2bbc0b37e9f",
              "A4": "cb455b6f-78ff-4b1e-b241-c2bbc0b37e9f",
              "IL2": "b5c13caf-b377-49a4-ba59-5665f62cdb9d",
              "L1": "6b6b74e2-820d-490e-a017-2b73d4ccf2b0",
              "L8": {
                "GS2": ""
              }
            },
            {
              "BL1": "Terrasoft.Core.Process.ProcessSchemaParameter",
              "UId": "5519cd9c-05ea-40c1-83b3-9a6493adb7be",
              "A2": "ResultIntegerFunction",
              "A3": "cb455b6f-78ff-4b1e-b241-c2bbc0b37e9f",
              "A4": "cb455b6f-78ff-4b1e-b241-c2bbc0b37e9f",
              "IL2": "b5c13caf-b377-49a4-ba59-5665f62cdb9d",
              "L1": "6b6b74e2-820d-490e-a017-2b73d4ccf2b0",
              "L8": {
                "GS2": ""
              }
            },
            {
              "BL1": "Terrasoft.Core.Process.ProcessSchemaParameter",
              "UId": "6afe7f99-e12f-4491-828f-b7ea17af85c7",
              "A2": "ResultFloatFunction",
              "A3": "cb455b6f-78ff-4b1e-b241-c2bbc0b37e9f",
              "A4": "cb455b6f-78ff-4b1e-b241-c2bbc0b37e9f",
              "IL2": "b5c13caf-b377-49a4-ba59-5665f62cdb9d",
              "L1": "ff22e049-4d16-46ee-a529-92d8808932dc",
              "L8": {
                "GS2": ""
              }
            },
            {
              "BL1": "Terrasoft.Core.Process.ProcessSchemaParameter",
              "UId": "19b08ae3-4ad7-4c47-8747-8fcdfbc3a630",
              "A2": "ResultDateTimeFunction",
              "A3": "cb455b6f-78ff-4b1e-b241-c2bbc0b37e9f",
              "A4": "cb455b6f-78ff-4b1e-b241-c2bbc0b37e9f",
              "IL2": "b5c13caf-b377-49a4-ba59-5665f62cdb9d",
              "L1": "d21e9ef4-c064-4012-b286-fa1a8171da44",
              "L8": {
                "GS2": ""
              }
            },
            {
              "BL1": "Terrasoft.Core.Process.ProcessSchemaParameter",
              "UId": "d71906b9-46f4-4c5d-a8c2-b3ea053bb878",
              "A2": "ResultRowsCount",
              "A3": "cb455b6f-78ff-4b1e-b241-c2bbc0b37e9f",
              "A4": "cb455b6f-78ff-4b1e-b241-c2bbc0b37e9f",
              "IL2": "b5c13caf-b377-49a4-ba59-5665f62cdb9d",
              "L1": "6b6b74e2-820d-490e-a017-2b73d4ccf2b0",
              "L8": {
                "GS2": ""
              }
            },
            {
              "BL1": "Terrasoft.Core.Process.ProcessSchemaParameter",
              "UId": "f44a3859-348c-4997-a448-fa98ee8d9bd9",
              "A2": "CanReadUncommitedData",
              "A3": "cb455b6f-78ff-4b1e-b241-c2bbc0b37e9f",
              "A4": "cb455b6f-78ff-4b1e-b241-c2bbc0b37e9f",
              "IL2": "b5c13caf-b377-49a4-ba59-5665f62cdb9d",
              "L1": "90b65bf8-0ffc-4141-8779-2420877af907",
              "L8": {
                "GS1": 1,
                "GS2": "true",
                "GS5": "cb455b6f-78ff-4b1e-b241-c2bbc0b37e9f"
              }
            },
            {
              "BL1": "Terrasoft.Core.Process.ProcessSchemaParameter",
              "UId": "6a0bcf6e-631d-47d3-9966-06d156261eb7",
              "A2": "ResultEntityCollection",
              "A3": "cb455b6f-78ff-4b1e-b241-c2bbc0b37e9f",
              "A4": "cb455b6f-78ff-4b1e-b241-c2bbc0b37e9f",
              "IL2": "b5c13caf-b377-49a4-ba59-5665f62cdb9d",
              "L1": "51fb23ba-3eb2-11e2-b7d5-b0c76188709b",
              "L8": {
                "GS2": ""
              }
            },
            {
              "BL1": "Terrasoft.Core.Process.ProcessSchemaParameter",
              "UId": "47ff3da1-3f3f-42d7-94b5-334dbbe4766c",
              "A2": "EntityColumnMetaPathes",
              "A3": "cb455b6f-78ff-4b1e-b241-c2bbc0b37e9f",
              "A4": "cb455b6f-78ff-4b1e-b241-c2bbc0b37e9f",
              "IL2": "b5c13caf-b377-49a4-ba59-5665f62cdb9d",
              "L1": "394e160f-c8e0-46fa-9c0d-75d97e9e9169",
              "L8": {
                "GS1": 1,
                "GS2": "a628d3aa-7961-4943-886b-136561ddcc96",
                "GS5": "fbc11f5f-7c94-4d56-9609-7a1ba1519723"
              }
            },
            {
              "BL1": "Terrasoft.Core.Process.ProcessSchemaParameter",
              "UId": "b36502ec-f08e-415d-a6b2-2b1edd8f3622",
              "A2": "IgnoreDisplayValues",
              "A3": "cb455b6f-78ff-4b1e-b241-c2bbc0b37e9f",
              "A4": "cb455b6f-78ff-4b1e-b241-c2bbc0b37e9f",
              "IL2": "b5c13caf-b377-49a4-ba59-5665f62cdb9d",
              "L1": "90b65bf8-0ffc-4141-8779-2420877af907",
              "L8": {
                "GS2": ""
              }
            }
          ],
          "CL2": "FFFFFFFF",
          "J6": "cb455b6f-78ff-4b1e-b241-c2bbc0b37e9f",
          "J5": "ProcessUserTaskSchemaManager"
        },
        {
          "BL1": "Terrasoft.Core.Process.ProcessSchemaSubProcess",
          "UId": "9a0a71ca-8a3b-4f3f-b546-88fe10208068",
          "A2": "ItAccountDeliveryReconsilation",
          "A3": "fbc11f5f-7c94-4d56-9609-7a1ba1519723",
          "A4": "fbc11f5f-7c94-4d56-9609-7a1ba1519723",
          "A5": "b18a0f67-6bd3-4ff3-8fa3-c759fb72d073",
          "IL2": "ce667956-ecc5-4349-aeb9-76285038e336",
          "BL3": "380;25",
          "BL7": "49eafdbb-a89e-4bdf-a29d-7f17b1670a45",
          "BL8": "fbc11f5f-7c94-4d56-9609-7a1ba1519723",
          "BN2": "69;55",
          "BO2": true,
          "BO3": true,
          "BP2": [
            {
              "BL1": "Terrasoft.Core.Process.ProcessSchemaParameter",
              "UId": "5e60439a-ccbf-46c3-a123-00beda6100e4",
              "A2": "CurrentOpportunityId",
              "A3": "550c32c8-bb73-4aa4-a7ac-afff7ea412fb",
              "A4": "550c32c8-bb73-4aa4-a7ac-afff7ea412fb",
              "IL2": "9a0a71ca-8a3b-4f3f-b546-88fe10208068",
              "L1": "23018567-a13c-4320-8687-fd6f9e3699bd",
              "L8": {
                "GS1": 3,
                "GS2": "[#[IsOwnerSchema:false].[IsSchema:false].[Parameter:{19d9b528-da58-473c-b5b4-1f73a90f9872}]#]",
                "GS5": "fbc11f5f-7c94-4d56-9609-7a1ba1519723"
              }
            },
            {
              "BL1": "Terrasoft.Core.Process.ProcessSchemaParameter",
              "UId": "8a58e686-17c9-4785-a86b-56cf8b948ecb",
              "A2": "IsStageChanged",
              "A3": "550c32c8-bb73-4aa4-a7ac-afff7ea412fb",
              "A4": "550c32c8-bb73-4aa4-a7ac-afff7ea412fb",
              "IL2": "9a0a71ca-8a3b-4f3f-b546-88fe10208068",
              "L1": "90b65bf8-0ffc-4141-8779-2420877af907",
              "L8": {
                "GS5": "550c32c8-bb73-4aa4-a7ac-afff7ea412fb"
              }
            },
            {
              "BL1": "Terrasoft.Core.Process.ProcessSchemaParameter",
              "UId": "eceffce2-d943-4026-b6d3-e458e7b2e497",
              "A2": "ClientName",
              "A3": "550c32c8-bb73-4aa4-a7ac-afff7ea412fb",
              "A4": "550c32c8-bb73-4aa4-a7ac-afff7ea412fb",
              "IL2": "9a0a71ca-8a3b-4f3f-b546-88fe10208068",
              "L1": "5ca35f10-a101-4c67-a96a-383da6afacfc",
              "L8": {
                "GS5": "550c32c8-bb73-4aa4-a7ac-afff7ea412fb"
              }
            },
            {
              "BL1": "Terrasoft.Core.Process.ProcessSchemaParameter",
              "UId": "90461298-3617-47a1-a1aa-d475927b8b41",
              "A2": "OppMainContactId",
              "A3": "550c32c8-bb73-4aa4-a7ac-afff7ea412fb",
              "A4": "550c32c8-bb73-4aa4-a7ac-afff7ea412fb",
              "IL2": "9a0a71ca-8a3b-4f3f-b546-88fe10208068",
              "L1": "23018567-a13c-4320-8687-fd6f9e3699bd",
              "L8": {
                "GS1": 3,
                "GS2": "[#[IsOwnerSchema:false].[IsSchema:false].[Element:{b5c13caf-b377-49a4-ba59-5665f62cdb9d}].[Parameter:{e9376b7b-3b93-4de0-99f9-9f6bf6ecb61c}].[EntityColumn:{a628d3aa-7961-4943-886b-136561ddcc96}]#]",
                "GS5": "fbc11f5f-7c94-4d56-9609-7a1ba1519723"
              }
            }
          ],
          "CK4": "550c32c8-bb73-4aa4-a7ac-afff7ea412fb",
          "CK2": [],
          "CK3": []
        },
        {
          "BL1": "Terrasoft.Core.Process.ProcessSchemaSubProcess",
          "UId": "0de2cf42-765a-43ba-a60c-dff1fe1de449",
          "A2": "ItAccountDeliveryCOSigning",
          "A3": "fbc11f5f-7c94-4d56-9609-7a1ba1519723",
          "A4": "fbc11f5f-7c94-4d56-9609-7a1ba1519723",
          "A5": "b18a0f67-6bd3-4ff3-8fa3-c759fb72d073",
          "IL2": "ce667956-ecc5-4349-aeb9-76285038e336",
          "BL3": "380;145",
          "BL7": "49eafdbb-a89e-4bdf-a29d-7f17b1670a45",
          "BL8": "fbc11f5f-7c94-4d56-9609-7a1ba1519723",
          "BN2": "69;55",
          "BO2": true,
          "BO3": true,
          "BP2": [
            {
              "BL1": "Terrasoft.Core.Process.ProcessSchemaParameter",
              "UId": "9a298048-5e09-41a4-9cf7-516ab47f8e69",
              "A2": "CurrentOpportunityId",
              "A3": "3c8d5f07-3832-4609-a34f-fdd512f14ea3",
              "A4": "3c8d5f07-3832-4609-a34f-fdd512f14ea3",
              "IL2": "0de2cf42-765a-43ba-a60c-dff1fe1de449",
              "L1": "23018567-a13c-4320-8687-fd6f9e3699bd",
              "L8": {
                "GS1": 3,
                "GS2": "[#[IsOwnerSchema:false].[IsSchema:false].[Parameter:{19d9b528-da58-473c-b5b4-1f73a90f9872}]#]",
                "GS5": "fbc11f5f-7c94-4d56-9609-7a1ba1519723"
              }
            },
            {
              "BL1": "Terrasoft.Core.Process.ProcessSchemaParameter",
              "UId": "ace35f04-1731-49eb-8ba7-914e950022cb",
              "A2": "ProcessSchemaParameter1",
              "A3": "3c8d5f07-3832-4609-a34f-fdd512f14ea3",
              "A4": "3c8d5f07-3832-4609-a34f-fdd512f14ea3",
              "IL2": "0de2cf42-765a-43ba-a60c-dff1fe1de449",
              "L1": "5ca35f10-a101-4c67-a96a-383da6afacfc",
              "L8": {
                "GS5": "3c8d5f07-3832-4609-a34f-fdd512f14ea3"
              }
            },
            {
              "BL1": "Terrasoft.Core.Process.ProcessSchemaParameter",
              "UId": "a3e17268-5cfb-40f4-b8f5-6dd5b9dd27ca",
              "A2": "IsStageChanged",
              "A3": "3c8d5f07-3832-4609-a34f-fdd512f14ea3",
              "A4": "3c8d5f07-3832-4609-a34f-fdd512f14ea3",
              "IL2": "0de2cf42-765a-43ba-a60c-dff1fe1de449",
              "L1": "90b65bf8-0ffc-4141-8779-2420877af907",
              "L8": {
                "GS5": "3c8d5f07-3832-4609-a34f-fdd512f14ea3"
              }
            },
            {
              "BL1": "Terrasoft.Core.Process.ProcessSchemaParameter",
              "UId": "75190cb7-c918-4dda-9eef-d7182936f642",
              "A2": "OppMainContactId",
              "A3": "3c8d5f07-3832-4609-a34f-fdd512f14ea3",
              "A4": "3c8d5f07-3832-4609-a34f-fdd512f14ea3",
              "IL2": "0de2cf42-765a-43ba-a60c-dff1fe1de449",
              "L1": "23018567-a13c-4320-8687-fd6f9e3699bd",
              "L8": {
                "GS1": 3,
                "GS2": "[#[IsOwnerSchema:false].[IsSchema:false].[Element:{b5c13caf-b377-49a4-ba59-5665f62cdb9d}].[Parameter:{e9376b7b-3b93-4de0-99f9-9f6bf6ecb61c}].[EntityColumn:{a628d3aa-7961-4943-886b-136561ddcc96}]#]",
                "GS5": "fbc11f5f-7c94-4d56-9609-7a1ba1519723"
              }
            }
          ],
          "CK4": "3c8d5f07-3832-4609-a34f-fdd512f14ea3",
          "CK2": [],
          "CK3": []
        },
        {
          "BL1": "Terrasoft.Core.Process.ProcessSchemaSubProcess",
          "UId": "85250f78-fc12-494c-bef6-3d6a7d741864",
          "A2": "ItAccountDeliverySupporting",
          "A3": "fbc11f5f-7c94-4d56-9609-7a1ba1519723",
          "A4": "fbc11f5f-7c94-4d56-9609-7a1ba1519723",
          "A5": "b18a0f67-6bd3-4ff3-8fa3-c759fb72d073",
          "IL2": "ce667956-ecc5-4349-aeb9-76285038e336",
          "BL3": "380;278",
          "BL7": "49eafdbb-a89e-4bdf-a29d-7f17b1670a45",
          "BL8": "fbc11f5f-7c94-4d56-9609-7a1ba1519723",
          "BN2": "69;55",
          "BO2": true,
          "BO3": true,
          "BP2": [
            {
              "BL1": "Terrasoft.Core.Process.ProcessSchemaParameter",
              "UId": "d9bb2c82-e68f-499f-b510-bb9e1ae70220",
              "A2": "CurrentOpportunityId",
              "A3": "3a743b86-f71c-4b37-bf2f-bcaf602e766f",
              "A4": "3a743b86-f71c-4b37-bf2f-bcaf602e766f",
              "IL2": "85250f78-fc12-494c-bef6-3d6a7d741864",
              "L1": "23018567-a13c-4320-8687-fd6f9e3699bd",
              "L8": {
                "GS1": 3,
                "GS2": "[#[IsOwnerSchema:false].[IsSchema:false].[Parameter:{19d9b528-da58-473c-b5b4-1f73a90f9872}]#]",
                "GS5": "fbc11f5f-7c94-4d56-9609-7a1ba1519723"
              }
            },
            {
              "BL1": "Terrasoft.Core.Process.ProcessSchemaParameter",
              "UId": "c7d4ee78-aa2d-4559-9c74-9d850c7b86fd",
              "A2": "ClientName",
              "A3": "3a743b86-f71c-4b37-bf2f-bcaf602e766f",
              "A4": "3a743b86-f71c-4b37-bf2f-bcaf602e766f",
              "IL2": "85250f78-fc12-494c-bef6-3d6a7d741864",
              "L1": "5ca35f10-a101-4c67-a96a-383da6afacfc",
              "L8": {
                "GS5": "3a743b86-f71c-4b37-bf2f-bcaf602e766f"
              }
            },
            {
              "BL1": "Terrasoft.Core.Process.ProcessSchemaParameter",
              "UId": "2993ddd6-c1a4-4a8e-a365-b8c670725387",
              "A2": "IsStageChanged",
              "A3": "3a743b86-f71c-4b37-bf2f-bcaf602e766f",
              "A4": "3a743b86-f71c-4b37-bf2f-bcaf602e766f",
              "IL2": "85250f78-fc12-494c-bef6-3d6a7d741864",
              "L1": "90b65bf8-0ffc-4141-8779-2420877af907",
              "L8": {
                "GS5": "3a743b86-f71c-4b37-bf2f-bcaf602e766f"
              }
            },
            {
              "BL1": "Terrasoft.Core.Process.ProcessSchemaParameter",
              "UId": "f415248e-6a6f-4f74-9d95-736d2449c756",
              "A2": "OppMainContactId",
              "A3": "3a743b86-f71c-4b37-bf2f-bcaf602e766f",
              "A4": "3a743b86-f71c-4b37-bf2f-bcaf602e766f",
              "IL2": "85250f78-fc12-494c-bef6-3d6a7d741864",
              "L1": "23018567-a13c-4320-8687-fd6f9e3699bd",
              "L8": {
                "GS1": 3,
                "GS2": "[#[IsOwnerSchema:false].[IsSchema:false].[Element:{b5c13caf-b377-49a4-ba59-5665f62cdb9d}].[Parameter:{e9376b7b-3b93-4de0-99f9-9f6bf6ecb61c}].[EntityColumn:{a628d3aa-7961-4943-886b-136561ddcc96}]#]",
                "GS5": "fbc11f5f-7c94-4d56-9609-7a1ba1519723"
              }
            }
          ],
          "CK4": "3a743b86-f71c-4b37-bf2f-bcaf602e766f",
          "CK2": [],
          "CK3": []
        },
        {
          "BL1": "Terrasoft.Core.Process.ProcessSchemaSubProcess",
          "UId": "62acc472-3944-42b1-a029-d3ea24902d62",
          "A2": "TsOpportunityManagementEndOfStage",
          "A3": "fbc11f5f-7c94-4d56-9609-7a1ba1519723",
          "A4": "fbc11f5f-7c94-4d56-9609-7a1ba1519723",
          "A5": "b18a0f67-6bd3-4ff3-8fa3-c759fb72d073",
          "IL2": "ce667956-ecc5-4349-aeb9-76285038e336",
          "BL3": "611;278",
          "BL7": "49eafdbb-a89e-4bdf-a29d-7f17b1670a45",
          "BL8": "fbc11f5f-7c94-4d56-9609-7a1ba1519723",
          "BN2": "69;55",
          "BO2": true,
          "BO3": true,
          "BP2": [
            {
              "BL1": "Terrasoft.Core.Process.ProcessSchemaParameter",
              "UId": "0191da2f-e3c1-417b-80e3-da6cd0adada5",
              "A2": "CurrentOpportunity",
              "A3": "ef001c07-7562-494e-bce9-4ca276f4e027",
              "A4": "ef001c07-7562-494e-bce9-4ca276f4e027",
              "IL2": "62acc472-3944-42b1-a029-d3ea24902d62",
              "L1": "23018567-a13c-4320-8687-fd6f9e3699bd",
              "L8": {
                "GS1": 3,
                "GS2": "[#[IsOwnerSchema:false].[IsSchema:false].[Parameter:{19d9b528-da58-473c-b5b4-1f73a90f9872}]#]",
                "GS5": "fbc11f5f-7c94-4d56-9609-7a1ba1519723"
              },
              "L9": "ae46fb87-c02c-4ae8-ad31-a923cdd994cf",
              "L16": "Opportunity"
            },
            {
              "BL1": "Terrasoft.Core.Process.ProcessSchemaParameter",
              "UId": "a47c2766-8e78-4f67-a4e8-6b55f6dd22e7",
              "A2": "NextOpportunityStageNumber",
              "A3": "ef001c07-7562-494e-bce9-4ca276f4e027",
              "A4": "ef001c07-7562-494e-bce9-4ca276f4e027",
              "IL2": "62acc472-3944-42b1-a029-d3ea24902d62",
              "L1": "6b6b74e2-820d-490e-a017-2b73d4ccf2b0",
              "L8": {
                "GS5": "ef001c07-7562-494e-bce9-4ca276f4e027"
              }
            },
            {
              "BL1": "Terrasoft.Core.Process.ProcessSchemaParameter",
              "UId": "84f7ab98-0257-493c-8481-695db4b98774",
              "A2": "IsStageChangedByUser",
              "A3": "ef001c07-7562-494e-bce9-4ca276f4e027",
              "A4": "ef001c07-7562-494e-bce9-4ca276f4e027",
              "IL2": "62acc472-3944-42b1-a029-d3ea24902d62",
              "L1": "90b65bf8-0ffc-4141-8779-2420877af907",
              "L8": {
                "GS1": 3,
                "GS2": "[#[IsOwnerSchema:false].[IsSchema:false].[Parameter:{5f21d25e-6d6b-46a6-8f0a-1bc3c7cd1324}]#]",
                "GS5": "fbc11f5f-7c94-4d56-9609-7a1ba1519723"
              }
            },
            {
              "BL1": "Terrasoft.Core.Process.ProcessSchemaParameter",
              "UId": "423c3fea-e998-43ca-851c-c721f8401a2b",
              "A2": "NextStage",
              "A3": "ef001c07-7562-494e-bce9-4ca276f4e027",
              "A4": "ef001c07-7562-494e-bce9-4ca276f4e027",
              "IL2": "62acc472-3944-42b1-a029-d3ea24902d62",
              "L1": "23018567-a13c-4320-8687-fd6f9e3699bd",
              "L8": {
                "GS5": "ef001c07-7562-494e-bce9-4ca276f4e027"
              },
              "L9": "ccf7d813-fc83-47ad-be61-8f3b3b98a54f",
              "L16": "OpportunityStage"
            },
            {
              "BL1": "Terrasoft.Core.Process.ProcessSchemaParameter",
              "UId": "265da8a4-ec7b-4f65-a41f-16ff5ddc68b6",
              "A2": "CurrentStageNumber",
              "A3": "ef001c07-7562-494e-bce9-4ca276f4e027",
              "A4": "ef001c07-7562-494e-bce9-4ca276f4e027",
              "IL2": "62acc472-3944-42b1-a029-d3ea24902d62",
              "L1": "6b6b74e2-820d-490e-a017-2b73d4ccf2b0",
              "L8": {
                "GS1": 3,
                "GS2": "[#[IsOwnerSchema:false].[IsSchema:false].[Parameter:{eb5ea806-697c-451d-ac50-b737907728f3}]#]",
                "GS5": "fbc11f5f-7c94-4d56-9609-7a1ba1519723"
              }
            },
            {
              "BL1": "Terrasoft.Core.Process.ProcessSchemaParameter",
              "UId": "b020c3c5-8cb5-4737-a907-fa8c6c632779",
              "A2": "LeadTypeId",
              "A3": "ef001c07-7562-494e-bce9-4ca276f4e027",
              "A4": "ef001c07-7562-494e-bce9-4ca276f4e027",
              "IL2": "62acc472-3944-42b1-a029-d3ea24902d62",
              "L1": "23018567-a13c-4320-8687-fd6f9e3699bd",
              "L8": {
                "GS1": 3,
                "GS2": "[#[IsOwnerSchema:false].[IsSchema:false].[Parameter:{a9512d27-31db-48b7-aa20-f852e6c17870}]#]",
                "GS5": "fbc11f5f-7c94-4d56-9609-7a1ba1519723"
              }
            }
          ],
          "CK4": "ef001c07-7562-494e-bce9-4ca276f4e027",
          "CK2": [],
          "CK3": []
        },
        {
          "BL1": "Terrasoft.Core.Process.ProcessSchemaFormulaTask",
          "UId": "0f8d6c16-dc8a-48d9-94cf-5422396f8cb7",
          "A2": "FormulaTask1",
          "A3": "fbc11f5f-7c94-4d56-9609-7a1ba1519723",
          "A4": "fbc11f5f-7c94-4d56-9609-7a1ba1519723",
          "A5": "b18a0f67-6bd3-4ff3-8fa3-c759fb72d073",
          "IL2": "ce667956-ecc5-4349-aeb9-76285038e336",
          "BL3": "751;279",
          "BL7": "d334d28f-b11a-477e-9ff0-0a95fa73d53b",
          "BL8": "fbc11f5f-7c94-4d56-9609-7a1ba1519723",
          "BN2": "69;55",
          "BO3": true,
          "BP2": [],
          "CL2": "FFFFFFFF",
          "CH1": "[#[IsOwnerSchema:false].[IsSchema:false].[Element:{62acc472-3944-42b1-a029-d3ea24902d62}].[Parameter:{a47c2766-8e78-4f67-a4e8-6b55f6dd22e7}]#]",
          "HS1": "eb5ea806-697c-451d-ac50-b737907728f3"
        },
        {
          "BL1": "Terrasoft.Core.Process.ProcessSchemaFormulaTask",
          "UId": "a2585c6e-81a7-4fa9-9ac4-f44e1b2a4fb1",
          "A2": "FormulaTask2",
          "A3": "fbc11f5f-7c94-4d56-9609-7a1ba1519723",
          "A4": "fbc11f5f-7c94-4d56-9609-7a1ba1519723",
          "A5": "b18a0f67-6bd3-4ff3-8fa3-c759fb72d073",
          "IL2": "ce667956-ecc5-4349-aeb9-76285038e336",
          "BL3": "891;279",
          "BL7": "d334d28f-b11a-477e-9ff0-0a95fa73d53b",
          "BL8": "fbc11f5f-7c94-4d56-9609-7a1ba1519723",
          "BN2": "69;55",
          "BO3": true,
          "BP2": [],
          "CL2": "FFFFFFFF",
          "CH1": "[#[IsOwnerSchema:false].[IsSchema:false].[Element:{62acc472-3944-42b1-a029-d3ea24902d62}].[Parameter:{423c3fea-e998-43ca-851c-c721f8401a2b}]#]",
          "HS1": "e17b4986-8db3-4ab2-97d7-609f77f5525c"
        },
        {
          "BL1": "Terrasoft.Core.Process.ProcessSchemaSequenceFlow",
          "UId": "93ae002c-d106-4d38-9443-b32933b17f3f",
          "A2": "SequenceFlow1",
          "A3": "fbc11f5f-7c94-4d56-9609-7a1ba1519723",
          "A4": "fbc11f5f-7c94-4d56-9609-7a1ba1519723",
          "A5": "b18a0f67-6bd3-4ff3-8fa3-c759fb72d073",
          "BL7": "0d8351f6-c2f4-4737-bdd9-6fbfe0837fec",
          "BL8": "fbc11f5f-7c94-4d56-9609-7a1ba1519723",
          "CI1": "7f738605-e8b8-4442-be36-fdaa81f36766",
          "CI2": "b5c13caf-b377-49a4-ba59-5665f62cdb9d",
          "CI3": "null",
          "CI5": "FF939598",
          "CI6": 1,
          "CI8": "-1;0"
        },
        {
          "BL1": "Terrasoft.Core.Process.ProcessSchemaConditionalFlow",
          "UId": "e16e4248-12a7-4925-b3df-984dd3c5acd7",
          "A2": "ConditionalSequenceFlow2",
          "A3": "fbc11f5f-7c94-4d56-9609-7a1ba1519723",
          "A4": "fbc11f5f-7c94-4d56-9609-7a1ba1519723",
          "A5": "b18a0f67-6bd3-4ff3-8fa3-c759fb72d073",
          "BL7": "dac675d4-ea84-4e44-9056-38bf918618e9",
          "BL8": "fbc11f5f-7c94-4d56-9609-7a1ba1519723",
          "CI1": "b5c13caf-b377-49a4-ba59-5665f62cdb9d",
          "CI2": "9a0a71ca-8a3b-4f3f-b546-88fe10208068",
          "CI3": "[#Lookup.ccf7d813-fc83-47ad-be61-8f3b3b98a54f.0d4ce7ea-ac1a-49b0-bc4b-afb40fa52e12#] == [#[IsOwnerSchema:false].[IsSchema:false].[Parameter:{e17b4986-8db3-4ab2-97d7-609f77f5525c}]#]",
          "CI4": 2,
          "CI5": "FF939598",
          "CI6": 1,
          "CI7": "1;0",
          "CI8": "-1;0",
          "CI10": {
            "Item0": "300;346",
            "Item1": "300;52"
          },
          "GV2": "{\"$type\":\"System.Collections.Generic.Dictionary`2[[System.Guid, mscorlib],[System.Collections.ObjectModel.Collection`1[[System.Guid, mscorlib]], mscorlib]], mscorlib\"}",
          "GV3": []
        },
        {
          "BL1": "Terrasoft.Core.Process.ProcessSchemaConditionalFlow",
          "UId": "c2b4f8b3-abcc-4621-b647-58b79895bf2d",
          "A2": "ConditionalSequenceFlow3",
          "A3": "fbc11f5f-7c94-4d56-9609-7a1ba1519723",
          "A4": "fbc11f5f-7c94-4d56-9609-7a1ba1519723",
          "A5": "b18a0f67-6bd3-4ff3-8fa3-c759fb72d073",
          "BL7": "dac675d4-ea84-4e44-9056-38bf918618e9",
          "BL8": "fbc11f5f-7c94-4d56-9609-7a1ba1519723",
          "CI1": "b5c13caf-b377-49a4-ba59-5665f62cdb9d",
          "CI2": "85250f78-fc12-494c-bef6-3d6a7d741864",
          "CI3": "[#Lookup.ccf7d813-fc83-47ad-be61-8f3b3b98a54f.aa85c2ef-6d39-45a0-9d92-b3bed671da1e#] == [#[IsOwnerSchema:false].[IsSchema:false].[Parameter:{e17b4986-8db3-4ab2-97d7-609f77f5525c}]#]",
          "CI4": 2,
          "CI5": "FF939598",
          "CI6": 1,
          "CI7": "1;0",
          "CI8": "-1;0",
          "CI10": {
            "Item0": "300;346",
            "Item1": "300;305"
          },
          "GV2": "{\"$type\":\"System.Collections.Generic.Dictionary`2[[System.Guid, mscorlib],[System.Collections.ObjectModel.Collection`1[[System.Guid, mscorlib]], mscorlib]], mscorlib\"}",
          "GV3": []
        },
        {
          "BL1": "Terrasoft.Core.Process.ProcessSchemaConditionalFlow",
          "UId": "2fc171cc-ef80-4598-89d6-d2c977cea4c1",
          "A2": "ConditionalSequenceFlow4",
          "A3": "fbc11f5f-7c94-4d56-9609-7a1ba1519723",
          "A4": "fbc11f5f-7c94-4d56-9609-7a1ba1519723",
          "A5": "b18a0f67-6bd3-4ff3-8fa3-c759fb72d073",
          "BL7": "dac675d4-ea84-4e44-9056-38bf918618e9",
          "BL8": "fbc11f5f-7c94-4d56-9609-7a1ba1519723",
          "CI1": "b5c13caf-b377-49a4-ba59-5665f62cdb9d",
          "CI2": "0de2cf42-765a-43ba-a60c-dff1fe1de449",
          "CI3": "[#Lookup.ccf7d813-fc83-47ad-be61-8f3b3b98a54f.8e27f01c-808e-4845-96b5-ac7685908b71#] == [#[IsOwnerSchema:false].[IsSchema:false].[Parameter:{e17b4986-8db3-4ab2-97d7-609f77f5525c}]#]",
          "CI4": 2,
          "CI5": "FF939598",
          "CI6": 1,
          "CI7": "1;0",
          "CI8": "-1;0",
          "CI10": {
            "Item0": "300;346",
            "Item1": "300;172"
          },
          "GV2": "{\"$type\":\"System.Collections.Generic.Dictionary`2[[System.Guid, mscorlib],[System.Collections.ObjectModel.Collection`1[[System.Guid, mscorlib]], mscorlib]], mscorlib\"}",
          "GV3": []
        },
        {
          "BL1": "Terrasoft.Core.Process.ProcessSchemaSequenceFlow",
          "UId": "aa7231ce-5cb0-4ee9-b6c1-3840b41bdd64",
          "A2": "SequenceFlow3",
          "A3": "fbc11f5f-7c94-4d56-9609-7a1ba1519723",
          "A4": "fbc11f5f-7c94-4d56-9609-7a1ba1519723",
          "A5": "b18a0f67-6bd3-4ff3-8fa3-c759fb72d073",
          "BL7": "0d8351f6-c2f4-4737-bdd9-6fbfe0837fec",
          "BL8": "fbc11f5f-7c94-4d56-9609-7a1ba1519723",
          "CI1": "9a0a71ca-8a3b-4f3f-b546-88fe10208068",
          "CI2": "62acc472-3944-42b1-a029-d3ea24902d62",
          "CI3": "null",
          "CI5": "FF939598",
          "CI6": 1,
          "CI7": "1;0",
          "CI8": "-1;0",
          "CI10": {
            "Item0": "530;52",
            "Item1": "530;305"
          }
        },
        {
          "BL1": "Terrasoft.Core.Process.ProcessSchemaSequenceFlow",
          "UId": "008dc30a-c9c9-4c51-874f-f9207f3fd6d3",
          "A2": "SequenceFlow4",
          "A3": "fbc11f5f-7c94-4d56-9609-7a1ba1519723",
          "A4": "fbc11f5f-7c94-4d56-9609-7a1ba1519723",
          "A5": "b18a0f67-6bd3-4ff3-8fa3-c759fb72d073",
          "BL7": "0d8351f6-c2f4-4737-bdd9-6fbfe0837fec",
          "BL8": "fbc11f5f-7c94-4d56-9609-7a1ba1519723",
          "CI1": "0de2cf42-765a-43ba-a60c-dff1fe1de449",
          "CI2": "62acc472-3944-42b1-a029-d3ea24902d62",
          "CI3": "null",
          "CI5": "FF939598",
          "CI6": 1,
          "CI7": "1;0",
          "CI8": "-1;0",
          "CI10": {
            "Item0": "530;172",
            "Item1": "530;305"
          }
        },
        {
          "BL1": "Terrasoft.Core.Process.ProcessSchemaSequenceFlow",
          "UId": "8ca330d0-a3b3-4c45-a076-25e72eb8c694",
          "A2": "SequenceFlow5",
          "A3": "fbc11f5f-7c94-4d56-9609-7a1ba1519723",
          "A4": "fbc11f5f-7c94-4d56-9609-7a1ba1519723",
          "A5": "b18a0f67-6bd3-4ff3-8fa3-c759fb72d073",
          "BL7": "0d8351f6-c2f4-4737-bdd9-6fbfe0837fec",
          "BL8": "fbc11f5f-7c94-4d56-9609-7a1ba1519723",
          "CI1": "85250f78-fc12-494c-bef6-3d6a7d741864",
          "CI2": "62acc472-3944-42b1-a029-d3ea24902d62",
          "CI3": "null",
          "CI5": "FF939598",
          "CI6": 1,
          "CI7": "1;0",
          "CI8": "-1;0"
        },
        {
          "BL1": "Terrasoft.Core.Process.ProcessSchemaSequenceFlow",
          "UId": "a595b45b-e4ad-4d35-bf39-1fdf89fd03ed",
          "A2": "DefaultSequenceFlow1",
          "A3": "fbc11f5f-7c94-4d56-9609-7a1ba1519723",
          "A4": "fbc11f5f-7c94-4d56-9609-7a1ba1519723",
          "A5": "b18a0f67-6bd3-4ff3-8fa3-c759fb72d073",
          "BL7": "573ed909-e069-4161-b193-ae8dd9437c68",
          "BL8": "fbc11f5f-7c94-4d56-9609-7a1ba1519723",
          "CI1": "b5c13caf-b377-49a4-ba59-5665f62cdb9d",
          "CI2": "51a5cda3-bcf9-44e2-b387-c1de2416e510",
          "CI3": "null",
          "CI4": 1,
          "CI5": "FF939598",
          "CI6": 1,
          "CI7": "0;-1",
          "CI8": "0;1"
        },
        {
          "BL1": "Terrasoft.Core.Process.ProcessSchemaSequenceFlow",
          "UId": "13b233a4-2a13-4751-b767-05ef2148478b",
          "A2": "SequenceFlow6",
          "A3": "fbc11f5f-7c94-4d56-9609-7a1ba1519723",
          "A4": "fbc11f5f-7c94-4d56-9609-7a1ba1519723",
          "A5": "b18a0f67-6bd3-4ff3-8fa3-c759fb72d073",
          "BL7": "0d8351f6-c2f4-4737-bdd9-6fbfe0837fec",
          "BL8": "fbc11f5f-7c94-4d56-9609-7a1ba1519723",
          "CI1": "62acc472-3944-42b1-a029-d3ea24902d62",
          "CI2": "0f8d6c16-dc8a-48d9-94cf-5422396f8cb7",
          "CI3": "null",
          "CI5": "FF939598",
          "CI6": 1,
          "CI7": "1;0",
          "CI8": "-1;0",
          "CI10": {
            "Item0": "715;306",
            "Item1": "715;307"
          }
        },
        {
          "BL1": "Terrasoft.Core.Process.ProcessSchemaSequenceFlow",
          "UId": "48ed144f-5920-49f3-942e-afbb7f56d24d",
          "A2": "SequenceFlow7",
          "A3": "fbc11f5f-7c94-4d56-9609-7a1ba1519723",
          "A4": "fbc11f5f-7c94-4d56-9609-7a1ba1519723",
          "A5": "b18a0f67-6bd3-4ff3-8fa3-c759fb72d073",
          "BL7": "0d8351f6-c2f4-4737-bdd9-6fbfe0837fec",
          "BL8": "fbc11f5f-7c94-4d56-9609-7a1ba1519723",
          "CI1": "0f8d6c16-dc8a-48d9-94cf-5422396f8cb7",
          "CI2": "a2585c6e-81a7-4fa9-9ac4-f44e1b2a4fb1",
          "CI3": "null",
          "CI5": "FF939598",
          "CI6": 1,
          "CI7": "1;0",
          "CI8": "-1;0"
        },
        {
          "BL1": "Terrasoft.Core.Process.ProcessSchemaSequenceFlow",
          "UId": "5100df17-8bf2-41b4-aa38-1cfb5d53944f",
          "A2": "SequenceFlow8",
          "A3": "fbc11f5f-7c94-4d56-9609-7a1ba1519723",
          "A4": "fbc11f5f-7c94-4d56-9609-7a1ba1519723",
          "A5": "b18a0f67-6bd3-4ff3-8fa3-c759fb72d073",
          "BL7": "0d8351f6-c2f4-4737-bdd9-6fbfe0837fec",
          "BL8": "fbc11f5f-7c94-4d56-9609-7a1ba1519723",
          "CI1": "a2585c6e-81a7-4fa9-9ac4-f44e1b2a4fb1",
          "CI2": "b5c13caf-b377-49a4-ba59-5665f62cdb9d",
          "CI3": "null",
          "CI5": "FF939598",
          "CI6": 1,
          "CI7": "1;0",
          "CI8": "-1;0",
          "CI10": {
            "Item0": "990;307",
            "Item1": "990;405",
            "Item2": "122;405",
            "Item3": "122;347"
          }
        }
      ],
      "BK9": [],
      "BK8": "bb4d6607-026b-4b27-b640-8f5c77c1e89d",
      "BK18": "Business Process",
      "BK15": [
        {
          "BL1": "Terrasoft.Core.Process.ProcessSchemaMapping",
          "UId": "4705dc22-6cfe-46ce-9108-efa7bece7635",
          "A2": "ReadDataUserTask1",
          "A3": "fbc11f5f-7c94-4d56-9609-7a1ba1519723",
          "A4": "fbc11f5f-7c94-4d56-9609-7a1ba1519723",
          "GT2": "[Element:{b5c13caf-b377-49a4-ba59-5665f62cdb9d}].[Parameter:{c55aec47-3377-40c3-b38b-7d33a6bab32c}]",
          "GT3": "c55aec47-3377-40c3-b38b-7d33a6bab32c",
          "GT5": "5d9ac9a7-7782-49ce-8990-dcb1c73832b0",
          "GT4": "cb455b6f-78ff-4b1e-b241-c2bbc0b37e9f",
          "GT1": {
            "GS1": 1,
            "GS2": "{\"className\":\"Terrasoft.FilterGroup\",\"serializedFilterEditData\":\"{\\\"className\\\":\\\"Terrasoft.FilterGroup\\\",\\\"items\\\":{\\\"fe9275cc-f97a-43c7-bdc5-e6454f6e9215\\\":{\\\"className\\\":\\\"Terrasoft.InFilter\\\",\\\"filterType\\\":4,\\\"comparisonType\\\":3,\\\"isEnabled\\\":true,\\\"trimDateTimeParameterToDate\\\":false,\\\"leftExpression\\\":{\\\"className\\\":\\\"Terrasoft.ColumnExpression\\\",\\\"expressionType\\\":0,\\\"columnPath\\\":\\\"Opportunity\\\"},\\\"isAggregative\\\":false,\\\"key\\\":\\\"fe9275cc-f97a-43c7-bdc5-e6454f6e9215\\\",\\\"dataValueType\\\":10,\\\"leftExpressionCaption\\\":\\\"Продажа\\\",\\\"referenceSchemaName\\\":\\\"Opportunity\\\",\\\"rightExpressions\\\":[{\\\"className\\\":\\\"Terrasoft.ParameterExpression\\\",\\\"expressionType\\\":2,\\\"parameter\\\":{\\\"className\\\":\\\"Terrasoft.Parameter\\\",\\\"dataValueType\\\":26,\\\"value\\\":{\\\"value\\\":\\\"[IsOwnerSchema:false].[IsSchema:false].[Parameter:{19d9b528-da58-473c-b5b4-1f73a90f9872}]\\\",\\\"displayValue\\\":\\\"Текущая продажа\\\",\\\"Id\\\":\\\"91420bfe-b8d6-4783-89ab-4420b575800b\\\"}}}]},\\\"cea1100c-3fc9-4a99-8f79-78deb3dd13f9\\\":{\\\"className\\\":\\\"Terrasoft.CompareFilter\\\",\\\"filterType\\\":1,\\\"comparisonType\\\":3,\\\"isEnabled\\\":true,\\\"trimDateTimeParameterToDate\\\":false,\\\"leftExpression\\\":{\\\"className\\\":\\\"Terrasoft.ColumnExpression\\\",\\\"expressionType\\\":0,\\\"columnPath\\\":\\\"IsMainContact\\\"},\\\"isAggregative\\\":false,\\\"key\\\":\\\"cea1100c-3fc9-4a99-8f79-78deb3dd13f9\\\",\\\"dataValueType\\\":12,\\\"leftExpressionCaption\\\":\\\"Основной контакт\\\",\\\"rightExpression\\\":{\\\"className\\\":\\\"Terrasoft.ParameterExpression\\\",\\\"expressionType\\\":2,\\\"parameter\\\":{\\\"className\\\":\\\"Terrasoft.Parameter\\\",\\\"dataValueType\\\":12,\\\"value\\\":true}}}},\\\"logicalOperation\\\":0,\\\"isEnabled\\\":true,\\\"filterType\\\":6,\\\"rootSchemaName\\\":\\\"OpportunityContact\\\",\\\"key\\\":\\\"\\\"}\",\"dataSourceFilters\":\"{\\\"items\\\":{\\\"fe9275cc-f97a-43c7-bdc5-e6454f6e9215\\\":{\\\"filterType\\\":4,\\\"comparisonType\\\":3,\\\"isEnabled\\\":true,\\\"trimDateTimeParameterToDate\\\":false,\\\"leftExpression\\\":{\\\"expressionType\\\":0,\\\"columnPath\\\":\\\"Opportunity\\\"},\\\"rightExpressions\\\":[{\\\"expressionType\\\":2,\\\"parameter\\\":{\\\"dataValueType\\\":26,\\\"value\\\":{\\\"value\\\":\\\"[IsOwnerSchema:false].[IsSchema:false].[Parameter:{19d9b528-da58-473c-b5b4-1f73a90f9872}]\\\",\\\"Id\\\":\\\"91420bfe-b8d6-4783-89ab-4420b575800b\\\"}}}]},\\\"cea1100c-3fc9-4a99-8f79-78deb3dd13f9\\\":{\\\"filterType\\\":1,\\\"comparisonType\\\":3,\\\"isEnabled\\\":true,\\\"trimDateTimeParameterToDate\\\":false,\\\"leftExpression\\\":{\\\"expressionType\\\":0,\\\"columnPath\\\":\\\"IsMainContact\\\"},\\\"rightExpression\\\":{\\\"expressionType\\\":2,\\\"parameter\\\":{\\\"dataValueType\\\":12,\\\"value\\\":true}}}},\\\"logicalOperation\\\":0,\\\"isEnabled\\\":true,\\\"filterType\\\":6,\\\"rootSchemaName\\\":\\\"OpportunityContact\\\"}\"}",
            "GS5": "fbc11f5f-7c94-4d56-9609-7a1ba1519723"
          }
        },
        {
          "BL1": "Terrasoft.Core.Process.ProcessSchemaMapping",
          "UId": "574e3503-8159-4cc0-b015-c1c9e5d8f57f",
          "A2": "ReadDataUserTask1",
          "A3": "fbc11f5f-7c94-4d56-9609-7a1ba1519723",
          "A4": "fbc11f5f-7c94-4d56-9609-7a1ba1519723",
          "GT2": "[Element:{b5c13caf-b377-49a4-ba59-5665f62cdb9d}].[Parameter:{0a829a9e-f2a7-40c7-9f9d-a41626c02a41}]",
          "GT3": "0a829a9e-f2a7-40c7-9f9d-a41626c02a41",
          "GT5": "643e4d6d-7ec8-49f0-842a-066a996fbe8b",
          "GT4": "cb455b6f-78ff-4b1e-b241-c2bbc0b37e9f",
          "GT1": {
            "GS1": 1,
            "GS2": "0",
            "GS5": "cb455b6f-78ff-4b1e-b241-c2bbc0b37e9f"
          }
        },
        {
          "BL1": "Terrasoft.Core.Process.ProcessSchemaMapping",
          "UId": "71823216-901c-4d17-8b89-80f801522ac3",
          "A2": "ReadDataUserTask1",
          "A3": "fbc11f5f-7c94-4d56-9609-7a1ba1519723",
          "A4": "fbc11f5f-7c94-4d56-9609-7a1ba1519723",
          "GT2": "[Element:{b5c13caf-b377-49a4-ba59-5665f62cdb9d}].[Parameter:{b0322a7a-05ab-4da7-a2cd-025617d567c5}]",
          "GT3": "b0322a7a-05ab-4da7-a2cd-025617d567c5",
          "GT5": "29115add-7520-4ad4-8371-d91f537ac913",
          "GT4": "cb455b6f-78ff-4b1e-b241-c2bbc0b37e9f",
          "GT1": {
            "GS2": ""
          }
        },
        {
          "BL1": "Terrasoft.Core.Process.ProcessSchemaMapping",
          "UId": "7336878d-b2d0-4694-b4d2-8fac71297a1c",
          "A2": "ReadDataUserTask1",
          "A3": "fbc11f5f-7c94-4d56-9609-7a1ba1519723",
          "A4": "fbc11f5f-7c94-4d56-9609-7a1ba1519723",
          "GT2": "[Element:{b5c13caf-b377-49a4-ba59-5665f62cdb9d}].[Parameter:{05f452ab-4044-416b-a2ce-cf926ec175f5}]",
          "GT3": "05f452ab-4044-416b-a2ce-cf926ec175f5",
          "GT5": "f29e5660-c5ef-4d84-8331-9046c3093519",
          "GT4": "cb455b6f-78ff-4b1e-b241-c2bbc0b37e9f",
          "GT1": {
            "GS2": ""
          }
        },
        {
          "BL1": "Terrasoft.Core.Process.ProcessSchemaMapping",
          "UId": "16215836-172f-4801-8407-1aa2203dabf2",
          "A2": "ReadDataUserTask1",
          "A3": "fbc11f5f-7c94-4d56-9609-7a1ba1519723",
          "A4": "fbc11f5f-7c94-4d56-9609-7a1ba1519723",
          "GT2": "[Element:{b5c13caf-b377-49a4-ba59-5665f62cdb9d}].[Parameter:{5af1a833-a668-4177-8c15-8b9efc2cc7fc}]",
          "GT3": "5af1a833-a668-4177-8c15-8b9efc2cc7fc",
          "GT5": "94ba9876-18c1-4a68-bcef-08f7e7f0e25c",
          "GT4": "cb455b6f-78ff-4b1e-b241-c2bbc0b37e9f",
          "GT1": {
            "GS1": 1,
            "GS2": "0",
            "GS5": "fbc11f5f-7c94-4d56-9609-7a1ba1519723"
          }
        },
        {
          "BL1": "Terrasoft.Core.Process.ProcessSchemaMapping",
          "UId": "b34c4586-bd02-4b9f-8ac3-068f901f27ea",
          "A2": "ReadDataUserTask1",
          "A3": "fbc11f5f-7c94-4d56-9609-7a1ba1519723",
          "A4": "fbc11f5f-7c94-4d56-9609-7a1ba1519723",
          "GT2": "[Element:{b5c13caf-b377-49a4-ba59-5665f62cdb9d}].[Parameter:{565f9baf-2ff2-465e-a278-43caa8681702}]",
          "GT3": "565f9baf-2ff2-465e-a278-43caa8681702",
          "GT5": "cb5d6d26-7e81-4cbe-8730-8b7169000d14",
          "GT4": "cb455b6f-78ff-4b1e-b241-c2bbc0b37e9f",
          "GT1": {
            "GS2": ""
          }
        },
        {
          "BL1": "Terrasoft.Core.Process.ProcessSchemaMapping",
          "UId": "7d478751-dbd5-4e23-9667-e9f3d2140497",
          "A2": "ReadDataUserTask1",
          "A3": "fbc11f5f-7c94-4d56-9609-7a1ba1519723",
          "A4": "fbc11f5f-7c94-4d56-9609-7a1ba1519723",
          "GT2": "[Element:{b5c13caf-b377-49a4-ba59-5665f62cdb9d}].[Parameter:{68a4a24d-4acf-41f0-b1cb-fff36aae48d4}]",
          "GT3": "68a4a24d-4acf-41f0-b1cb-fff36aae48d4",
          "GT5": "473e79e2-727e-40a7-8829-7eefc576b403",
          "GT4": "cb455b6f-78ff-4b1e-b241-c2bbc0b37e9f",
          "GT1": {
            "GS2": ""
          }
        },
        {
          "BL1": "Terrasoft.Core.Process.ProcessSchemaMapping",
          "UId": "9424523c-0838-4d40-b74e-82f7ca3fec3e",
          "A2": "ReadDataUserTask1",
          "A3": "fbc11f5f-7c94-4d56-9609-7a1ba1519723",
          "A4": "fbc11f5f-7c94-4d56-9609-7a1ba1519723",
          "GT2": "[Element:{b5c13caf-b377-49a4-ba59-5665f62cdb9d}].[Parameter:{e9376b7b-3b93-4de0-99f9-9f6bf6ecb61c}]",
          "GT3": "e9376b7b-3b93-4de0-99f9-9f6bf6ecb61c",
          "GT5": "e2fced10-4842-423e-ada0-523bf7ea8ad3",
          "GT4": "cb455b6f-78ff-4b1e-b241-c2bbc0b37e9f",
          "GT1": {
            "GS1": 1,
            "GS5": "fbc11f5f-7c94-4d56-9609-7a1ba1519723"
          }
        },
        {
          "BL1": "Terrasoft.Core.Process.ProcessSchemaMapping",
          "UId": "1e4a52f6-7dc6-42cf-b06b-b635151f08ca",
          "A2": "ReadDataUserTask1",
          "A3": "fbc11f5f-7c94-4d56-9609-7a1ba1519723",
          "A4": "fbc11f5f-7c94-4d56-9609-7a1ba1519723",
          "GT2": "[Element:{b5c13caf-b377-49a4-ba59-5665f62cdb9d}].[Parameter:{edc6b16c-7651-42a3-b539-10ec4c1bae86}]",
          "GT3": "edc6b16c-7651-42a3-b539-10ec4c1bae86",
          "GT5": "2e63ea99-8125-4254-88bd-20d3610bd471",
          "GT4": "cb455b6f-78ff-4b1e-b241-c2bbc0b37e9f",
          "GT1": {
            "GS2": ""
          }
        },
        {
          "BL1": "Terrasoft.Core.Process.ProcessSchemaMapping",
          "UId": "89d57794-4323-424d-b985-4b70f2f02142",
          "A2": "ReadDataUserTask1",
          "A3": "fbc11f5f-7c94-4d56-9609-7a1ba1519723",
          "A4": "fbc11f5f-7c94-4d56-9609-7a1ba1519723",
          "GT2": "[Element:{b5c13caf-b377-49a4-ba59-5665f62cdb9d}].[Parameter:{5519cd9c-05ea-40c1-83b3-9a6493adb7be}]",
          "GT3": "5519cd9c-05ea-40c1-83b3-9a6493adb7be",
          "GT5": "a3660fce-a8f9-4a68-a3c1-b4f2f7983635",
          "GT4": "cb455b6f-78ff-4b1e-b241-c2bbc0b37e9f",
          "GT1": {
            "GS2": ""
          }
        },
        {
          "BL1": "Terrasoft.Core.Process.ProcessSchemaMapping",
          "UId": "9077ee3b-f144-421a-8faf-2d29b9d1634e",
          "A2": "ReadDataUserTask1",
          "A3": "fbc11f5f-7c94-4d56-9609-7a1ba1519723",
          "A4": "fbc11f5f-7c94-4d56-9609-7a1ba1519723",
          "GT2": "[Element:{b5c13caf-b377-49a4-ba59-5665f62cdb9d}].[Parameter:{6afe7f99-e12f-4491-828f-b7ea17af85c7}]",
          "GT3": "6afe7f99-e12f-4491-828f-b7ea17af85c7",
          "GT5": "9a594933-75da-4304-b6a3-5945dba159e3",
          "GT4": "cb455b6f-78ff-4b1e-b241-c2bbc0b37e9f",
          "GT1": {
            "GS2": ""
          }
        },
        {
          "BL1": "Terrasoft.Core.Process.ProcessSchemaMapping",
          "UId": "d8638da7-bd51-4a3c-94c5-c1ffa481e64b",
          "A2": "ReadDataUserTask1",
          "A3": "fbc11f5f-7c94-4d56-9609-7a1ba1519723",
          "A4": "fbc11f5f-7c94-4d56-9609-7a1ba1519723",
          "GT2": "[Element:{b5c13caf-b377-49a4-ba59-5665f62cdb9d}].[Parameter:{19b08ae3-4ad7-4c47-8747-8fcdfbc3a630}]",
          "GT3": "19b08ae3-4ad7-4c47-8747-8fcdfbc3a630",
          "GT5": "11fb235f-c06a-4111-84cd-a5dbf9a440d5",
          "GT4": "cb455b6f-78ff-4b1e-b241-c2bbc0b37e9f",
          "GT1": {
            "GS2": ""
          }
        },
        {
          "BL1": "Terrasoft.Core.Process.ProcessSchemaMapping",
          "UId": "16b57137-a872-4d53-babb-cf9e45d2aa4a",
          "A2": "ReadDataUserTask1",
          "A3": "fbc11f5f-7c94-4d56-9609-7a1ba1519723",
          "A4": "fbc11f5f-7c94-4d56-9609-7a1ba1519723",
          "GT2": "[Element:{b5c13caf-b377-49a4-ba59-5665f62cdb9d}].[Parameter:{d71906b9-46f4-4c5d-a8c2-b3ea053bb878}]",
          "GT3": "d71906b9-46f4-4c5d-a8c2-b3ea053bb878",
          "GT5": "78252e95-b759-416a-9c48-c128fbdf59ef",
          "GT4": "cb455b6f-78ff-4b1e-b241-c2bbc0b37e9f",
          "GT1": {
            "GS2": ""
          }
        },
        {
          "BL1": "Terrasoft.Core.Process.ProcessSchemaMapping",
          "UId": "c957312b-4157-4b4a-b7e6-ad9dbd9a4888",
          "A2": "ReadDataUserTask1",
          "A3": "fbc11f5f-7c94-4d56-9609-7a1ba1519723",
          "A4": "fbc11f5f-7c94-4d56-9609-7a1ba1519723",
          "GT2": "[Element:{b5c13caf-b377-49a4-ba59-5665f62cdb9d}].[Parameter:{f44a3859-348c-4997-a448-fa98ee8d9bd9}]",
          "GT3": "f44a3859-348c-4997-a448-fa98ee8d9bd9",
          "GT5": "2f797429-6f43-4594-96bb-62fbc7b7deec",
          "GT4": "cb455b6f-78ff-4b1e-b241-c2bbc0b37e9f",
          "GT1": {
            "GS1": 1,
            "GS2": "true",
            "GS5": "cb455b6f-78ff-4b1e-b241-c2bbc0b37e9f"
          }
        },
        {
          "BL1": "Terrasoft.Core.Process.ProcessSchemaMapping",
          "UId": "54d01634-b185-437e-b748-23d2a8630eeb",
          "A2": "ReadDataUserTask1",
          "A3": "fbc11f5f-7c94-4d56-9609-7a1ba1519723",
          "A4": "fbc11f5f-7c94-4d56-9609-7a1ba1519723",
          "GT2": "[Element:{b5c13caf-b377-49a4-ba59-5665f62cdb9d}].[Parameter:{6a0bcf6e-631d-47d3-9966-06d156261eb7}]",
          "GT3": "6a0bcf6e-631d-47d3-9966-06d156261eb7",
          "GT5": "be4a0d16-6a15-41cf-ac44-a8b757565428",
          "GT4": "cb455b6f-78ff-4b1e-b241-c2bbc0b37e9f",
          "GT1": {
            "GS2": ""
          }
        },
        {
          "BL1": "Terrasoft.Core.Process.ProcessSchemaMapping",
          "UId": "9cfcf3d3-2401-431c-8ec9-559f9f1b8380",
          "A2": "ReadDataUserTask1",
          "A3": "fbc11f5f-7c94-4d56-9609-7a1ba1519723",
          "A4": "fbc11f5f-7c94-4d56-9609-7a1ba1519723",
          "GT2": "[Element:{b5c13caf-b377-49a4-ba59-5665f62cdb9d}].[Parameter:{47ff3da1-3f3f-42d7-94b5-334dbbe4766c}]",
          "GT3": "47ff3da1-3f3f-42d7-94b5-334dbbe4766c",
          "GT5": "cc12005f-f434-4a40-b9d0-dc8f81755545",
          "GT4": "cb455b6f-78ff-4b1e-b241-c2bbc0b37e9f",
          "GT1": {
            "GS1": 1,
            "GS2": "a628d3aa-7961-4943-886b-136561ddcc96",
            "GS5": "fbc11f5f-7c94-4d56-9609-7a1ba1519723"
          }
        },
        {
          "BL1": "Terrasoft.Core.Process.ProcessSchemaMapping",
          "UId": "7a4a99ab-5959-47b9-979a-32cd7f9d958c",
          "A2": "ReadDataUserTask1",
          "A3": "fbc11f5f-7c94-4d56-9609-7a1ba1519723",
          "A4": "fbc11f5f-7c94-4d56-9609-7a1ba1519723",
          "GT2": "[Element:{b5c13caf-b377-49a4-ba59-5665f62cdb9d}].[Parameter:{b36502ec-f08e-415d-a6b2-2b1edd8f3622}]",
          "GT3": "b36502ec-f08e-415d-a6b2-2b1edd8f3622",
          "GT5": "6dada847-859b-4e0a-9297-b3c9572530b6",
          "GT4": "cb455b6f-78ff-4b1e-b241-c2bbc0b37e9f",
          "GT1": {
            "GS2": ""
          }
        },
        {
          "BL1": "Terrasoft.Core.Process.ProcessSchemaMapping",
          "UId": "54594170-e561-4637-9131-74bd5a1032f6",
          "A2": "TsOpportunityManagementEndOfStage",
          "A3": "fbc11f5f-7c94-4d56-9609-7a1ba1519723",
          "A4": "fbc11f5f-7c94-4d56-9609-7a1ba1519723",
          "GT2": "[Element:{62acc472-3944-42b1-a029-d3ea24902d62}].[Parameter:{0191da2f-e3c1-417b-80e3-da6cd0adada5}]",
          "GT3": "0191da2f-e3c1-417b-80e3-da6cd0adada5",
          "GT5": "dfce71b8-964d-4c09-bd58-0c97f1365945",
          "GT4": "ef001c07-7562-494e-bce9-4ca276f4e027",
          "GT1": {
            "GS1": 3,
            "GS2": "[#[IsOwnerSchema:false].[IsSchema:false].[Parameter:{19d9b528-da58-473c-b5b4-1f73a90f9872}]#]",
            "GS5": "fbc11f5f-7c94-4d56-9609-7a1ba1519723"
          }
        },
        {
          "BL1": "Terrasoft.Core.Process.ProcessSchemaMapping",
          "UId": "dc02f362-b2bf-403a-9ec1-d52e6767db02",
          "A2": "TsOpportunityManagementEndOfStage",
          "A3": "fbc11f5f-7c94-4d56-9609-7a1ba1519723",
          "A4": "fbc11f5f-7c94-4d56-9609-7a1ba1519723",
          "GT2": "[Element:{62acc472-3944-42b1-a029-d3ea24902d62}].[Parameter:{a47c2766-8e78-4f67-a4e8-6b55f6dd22e7}]",
          "GT3": "a47c2766-8e78-4f67-a4e8-6b55f6dd22e7",
          "GT5": "d7748fee-12d1-4402-9af3-177336bb4bb3",
          "GT4": "ef001c07-7562-494e-bce9-4ca276f4e027",
          "GT1": {
            "GS5": "ef001c07-7562-494e-bce9-4ca276f4e027"
          }
        },
        {
          "BL1": "Terrasoft.Core.Process.ProcessSchemaMapping",
          "UId": "7a08050c-b274-4351-ad60-89459af66d36",
          "A2": "TsOpportunityManagementEndOfStage",
          "A3": "fbc11f5f-7c94-4d56-9609-7a1ba1519723",
          "A4": "fbc11f5f-7c94-4d56-9609-7a1ba1519723",
          "GT2": "[Element:{62acc472-3944-42b1-a029-d3ea24902d62}].[Parameter:{84f7ab98-0257-493c-8481-695db4b98774}]",
          "GT3": "84f7ab98-0257-493c-8481-695db4b98774",
          "GT5": "2d124c72-8de2-4327-a821-7370bb4f3f04",
          "GT4": "ef001c07-7562-494e-bce9-4ca276f4e027",
          "GT1": {
            "GS1": 3,
            "GS2": "[#[IsOwnerSchema:false].[IsSchema:false].[Parameter:{5f21d25e-6d6b-46a6-8f0a-1bc3c7cd1324}]#]",
            "GS5": "fbc11f5f-7c94-4d56-9609-7a1ba1519723"
          }
        },
        {
          "BL1": "Terrasoft.Core.Process.ProcessSchemaMapping",
          "UId": "878778bd-759e-4686-8a3e-2e9f0a60ca69",
          "A2": "TsOpportunityManagementEndOfStage",
          "A3": "fbc11f5f-7c94-4d56-9609-7a1ba1519723",
          "A4": "fbc11f5f-7c94-4d56-9609-7a1ba1519723",
          "GT2": "[Element:{62acc472-3944-42b1-a029-d3ea24902d62}].[Parameter:{423c3fea-e998-43ca-851c-c721f8401a2b}]",
          "GT3": "423c3fea-e998-43ca-851c-c721f8401a2b",
          "GT5": "b84b8659-7d6c-46df-be98-b96c5d0e5b85",
          "GT4": "ef001c07-7562-494e-bce9-4ca276f4e027",
          "GT1": {
            "GS5": "ef001c07-7562-494e-bce9-4ca276f4e027"
          }
        },
        {
          "BL1": "Terrasoft.Core.Process.ProcessSchemaMapping",
          "UId": "0014e9a7-0b62-48bc-a888-5bc94fdee3d1",
          "A2": "TsOpportunityManagementEndOfStage",
          "A3": "fbc11f5f-7c94-4d56-9609-7a1ba1519723",
          "A4": "fbc11f5f-7c94-4d56-9609-7a1ba1519723",
          "GT2": "[Element:{62acc472-3944-42b1-a029-d3ea24902d62}].[Parameter:{265da8a4-ec7b-4f65-a41f-16ff5ddc68b6}]",
          "GT3": "265da8a4-ec7b-4f65-a41f-16ff5ddc68b6",
          "GT5": "bd592f50-4345-4f9c-84b5-1c8c79c0d7ea",
          "GT4": "ef001c07-7562-494e-bce9-4ca276f4e027",
          "GT1": {
            "GS1": 3,
            "GS2": "[#[IsOwnerSchema:false].[IsSchema:false].[Parameter:{eb5ea806-697c-451d-ac50-b737907728f3}]#]",
            "GS5": "fbc11f5f-7c94-4d56-9609-7a1ba1519723"
          }
        },
        {
          "BL1": "Terrasoft.Core.Process.ProcessSchemaMapping",
          "UId": "4e04290c-68f3-4d0c-9733-5e028628cc8b",
          "A2": "TsOpportunityManagementEndOfStage",
          "A3": "fbc11f5f-7c94-4d56-9609-7a1ba1519723",
          "A4": "fbc11f5f-7c94-4d56-9609-7a1ba1519723",
          "GT2": "[Element:{62acc472-3944-42b1-a029-d3ea24902d62}].[Parameter:{b020c3c5-8cb5-4737-a907-fa8c6c632779}]",
          "GT3": "b020c3c5-8cb5-4737-a907-fa8c6c632779",
          "GT5": "36aeb1ae-d491-439f-af00-89878da82b64",
          "GT4": "ef001c07-7562-494e-bce9-4ca276f4e027",
          "GT1": {
            "GS1": 3,
            "GS2": "[#[IsOwnerSchema:false].[IsSchema:false].[Parameter:{a9512d27-31db-48b7-aa20-f852e6c17870}]#]",
            "GS5": "fbc11f5f-7c94-4d56-9609-7a1ba1519723"
          }
        },
        {
          "BL1": "Terrasoft.Core.Process.ProcessSchemaMapping",
          "UId": "6516b375-0378-4dd6-89aa-c78198dd0892",
          "A2": "ItPrintServiceReconsilation",
          "A3": "fbc11f5f-7c94-4d56-9609-7a1ba1519723",
          "A4": "fbc11f5f-7c94-4d56-9609-7a1ba1519723",
          "GT2": "[Element:{9a0a71ca-8a3b-4f3f-b546-88fe10208068}].[Parameter:{5e60439a-ccbf-46c3-a123-00beda6100e4}]",
          "GT3": "5e60439a-ccbf-46c3-a123-00beda6100e4",
          "GT5": "cee615bd-8086-4e8f-9a46-cac995d726cc",
          "GT4": "550c32c8-bb73-4aa4-a7ac-afff7ea412fb",
          "GT1": {
            "GS1": 3,
            "GS2": "[#[IsOwnerSchema:false].[IsSchema:false].[Parameter:{19d9b528-da58-473c-b5b4-1f73a90f9872}]#]",
            "GS5": "fbc11f5f-7c94-4d56-9609-7a1ba1519723"
          }
        },
        {
          "BL1": "Terrasoft.Core.Process.ProcessSchemaMapping",
          "UId": "c450c749-77a6-4338-9eb2-dd91bf69b24f",
          "A2": "ItPrintServiceReconsilation",
          "A3": "fbc11f5f-7c94-4d56-9609-7a1ba1519723",
          "A4": "fbc11f5f-7c94-4d56-9609-7a1ba1519723",
          "GT2": "[Element:{9a0a71ca-8a3b-4f3f-b546-88fe10208068}].[Parameter:{8a58e686-17c9-4785-a86b-56cf8b948ecb}]",
          "GT3": "8a58e686-17c9-4785-a86b-56cf8b948ecb",
          "GT5": "eff543e2-5868-4f0d-b851-401e64e52e3d",
          "GT4": "550c32c8-bb73-4aa4-a7ac-afff7ea412fb",
          "GT1": {
            "GS5": "550c32c8-bb73-4aa4-a7ac-afff7ea412fb"
          }
        },
        {
          "BL1": "Terrasoft.Core.Process.ProcessSchemaMapping",
          "UId": "f66d64ee-d3d0-489e-aae0-f60c75925188",
          "A2": "ItPrintServiceReconsilation",
          "A3": "fbc11f5f-7c94-4d56-9609-7a1ba1519723",
          "A4": "fbc11f5f-7c94-4d56-9609-7a1ba1519723",
          "GT2": "[Element:{9a0a71ca-8a3b-4f3f-b546-88fe10208068}].[Parameter:{eceffce2-d943-4026-b6d3-e458e7b2e497}]",
          "GT3": "eceffce2-d943-4026-b6d3-e458e7b2e497",
          "GT5": "07d681e2-27b5-4c20-95bc-9bd386e2fe03",
          "GT4": "550c32c8-bb73-4aa4-a7ac-afff7ea412fb",
          "GT1": {
            "GS5": "550c32c8-bb73-4aa4-a7ac-afff7ea412fb"
          }
        },
        {
          "BL1": "Terrasoft.Core.Process.ProcessSchemaMapping",
          "UId": "246acadc-33e0-44f7-b40e-d93329edb3c4",
          "A2": "ItPrintServiceReconsilation",
          "A3": "fbc11f5f-7c94-4d56-9609-7a1ba1519723",
          "A4": "fbc11f5f-7c94-4d56-9609-7a1ba1519723",
          "GT2": "[Element:{9a0a71ca-8a3b-4f3f-b546-88fe10208068}].[Parameter:{90461298-3617-47a1-a1aa-d475927b8b41}]",
          "GT3": "90461298-3617-47a1-a1aa-d475927b8b41",
          "GT5": "c8eb5475-6a38-4bf2-aa10-ca383cf48ef7",
          "GT4": "550c32c8-bb73-4aa4-a7ac-afff7ea412fb",
          "GT1": {
            "GS1": 3,
            "GS2": "[#[IsOwnerSchema:false].[IsSchema:false].[Element:{b5c13caf-b377-49a4-ba59-5665f62cdb9d}].[Parameter:{e9376b7b-3b93-4de0-99f9-9f6bf6ecb61c}].[EntityColumn:{a628d3aa-7961-4943-886b-136561ddcc96}]#]",
            "GS5": "fbc11f5f-7c94-4d56-9609-7a1ba1519723"
          }
        },
        {
          "BL1": "Terrasoft.Core.Process.ProcessSchemaMapping",
          "UId": "09e3e26d-b928-4ffe-92b6-497ef4c60f34",
          "A2": "ItPrintServiceCOSigning",
          "A3": "fbc11f5f-7c94-4d56-9609-7a1ba1519723",
          "A4": "fbc11f5f-7c94-4d56-9609-7a1ba1519723",
          "GT2": "[Element:{0de2cf42-765a-43ba-a60c-dff1fe1de449}].[Parameter:{9a298048-5e09-41a4-9cf7-516ab47f8e69}]",
          "GT3": "9a298048-5e09-41a4-9cf7-516ab47f8e69",
          "GT5": "8485d5df-aa7f-4ca1-8a85-b43d3f2bf551",
          "GT4": "3c8d5f07-3832-4609-a34f-fdd512f14ea3",
          "GT1": {
            "GS1": 3,
            "GS2": "[#[IsOwnerSchema:false].[IsSchema:false].[Parameter:{19d9b528-da58-473c-b5b4-1f73a90f9872}]#]",
            "GS5": "fbc11f5f-7c94-4d56-9609-7a1ba1519723"
          }
        },
        {
          "BL1": "Terrasoft.Core.Process.ProcessSchemaMapping",
          "UId": "35da7030-2017-4263-ae06-c7448c892f38",
          "A2": "ItPrintServiceCOSigning",
          "A3": "fbc11f5f-7c94-4d56-9609-7a1ba1519723",
          "A4": "fbc11f5f-7c94-4d56-9609-7a1ba1519723",
          "GT2": "[Element:{0de2cf42-765a-43ba-a60c-dff1fe1de449}].[Parameter:{ace35f04-1731-49eb-8ba7-914e950022cb}]",
          "GT3": "ace35f04-1731-49eb-8ba7-914e950022cb",
          "GT5": "30573d9d-62d5-4d7f-aa33-f8a3fdc3d742",
          "GT4": "3c8d5f07-3832-4609-a34f-fdd512f14ea3",
          "GT1": {
            "GS5": "3c8d5f07-3832-4609-a34f-fdd512f14ea3"
          }
        },
        {
          "BL1": "Terrasoft.Core.Process.ProcessSchemaMapping",
          "UId": "c33360b7-3726-4bb2-a7e0-536e23999649",
          "A2": "ItPrintServiceCOSigning",
          "A3": "fbc11f5f-7c94-4d56-9609-7a1ba1519723",
          "A4": "fbc11f5f-7c94-4d56-9609-7a1ba1519723",
          "GT2": "[Element:{0de2cf42-765a-43ba-a60c-dff1fe1de449}].[Parameter:{a3e17268-5cfb-40f4-b8f5-6dd5b9dd27ca}]",
          "GT3": "a3e17268-5cfb-40f4-b8f5-6dd5b9dd27ca",
          "GT5": "edae102e-b776-4627-849c-ba3fbef528e5",
          "GT4": "3c8d5f07-3832-4609-a34f-fdd512f14ea3",
          "GT1": {
            "GS5": "3c8d5f07-3832-4609-a34f-fdd512f14ea3"
          }
        },
        {
          "BL1": "Terrasoft.Core.Process.ProcessSchemaMapping",
          "UId": "74155181-31dd-4b2c-8b74-a9edc9d65c05",
          "A2": "ItPrintServiceCOSigning",
          "A3": "fbc11f5f-7c94-4d56-9609-7a1ba1519723",
          "A4": "fbc11f5f-7c94-4d56-9609-7a1ba1519723",
          "GT2": "[Element:{0de2cf42-765a-43ba-a60c-dff1fe1de449}].[Parameter:{75190cb7-c918-4dda-9eef-d7182936f642}]",
          "GT3": "75190cb7-c918-4dda-9eef-d7182936f642",
          "GT5": "75e01342-5266-4524-9abe-d5a103d52a15",
          "GT4": "3c8d5f07-3832-4609-a34f-fdd512f14ea3",
          "GT1": {
            "GS1": 3,
            "GS2": "[#[IsOwnerSchema:false].[IsSchema:false].[Element:{b5c13caf-b377-49a4-ba59-5665f62cdb9d}].[Parameter:{e9376b7b-3b93-4de0-99f9-9f6bf6ecb61c}].[EntityColumn:{a628d3aa-7961-4943-886b-136561ddcc96}]#]",
            "GS5": "fbc11f5f-7c94-4d56-9609-7a1ba1519723"
          }
        },
        {
          "BL1": "Terrasoft.Core.Process.ProcessSchemaMapping",
          "UId": "e1370146-4c94-4a02-87be-da099e41ebad",
          "A2": "ItPrintServiceSupporting",
          "A3": "fbc11f5f-7c94-4d56-9609-7a1ba1519723",
          "A4": "fbc11f5f-7c94-4d56-9609-7a1ba1519723",
          "GT2": "[Element:{85250f78-fc12-494c-bef6-3d6a7d741864}].[Parameter:{d9bb2c82-e68f-499f-b510-bb9e1ae70220}]",
          "GT3": "d9bb2c82-e68f-499f-b510-bb9e1ae70220",
          "GT5": "6fd446ac-887d-4f08-8de9-6d1c51aad248",
          "GT4": "3a743b86-f71c-4b37-bf2f-bcaf602e766f",
          "GT1": {
            "GS1": 3,
            "GS2": "[#[IsOwnerSchema:false].[IsSchema:false].[Parameter:{19d9b528-da58-473c-b5b4-1f73a90f9872}]#]",
            "GS5": "fbc11f5f-7c94-4d56-9609-7a1ba1519723"
          }
        },
        {
          "BL1": "Terrasoft.Core.Process.ProcessSchemaMapping",
          "UId": "9fd443da-60ab-44a1-93db-b44b42852781",
          "A2": "ItPrintServiceSupporting",
          "A3": "fbc11f5f-7c94-4d56-9609-7a1ba1519723",
          "A4": "fbc11f5f-7c94-4d56-9609-7a1ba1519723",
          "GT2": "[Element:{85250f78-fc12-494c-bef6-3d6a7d741864}].[Parameter:{c7d4ee78-aa2d-4559-9c74-9d850c7b86fd}]",
          "GT3": "c7d4ee78-aa2d-4559-9c74-9d850c7b86fd",
          "GT5": "376002d5-c409-4fe0-8ba2-6c7e9ace9d98",
          "GT4": "3a743b86-f71c-4b37-bf2f-bcaf602e766f",
          "GT1": {
            "GS5": "3a743b86-f71c-4b37-bf2f-bcaf602e766f"
          }
        },
        {
          "BL1": "Terrasoft.Core.Process.ProcessSchemaMapping",
          "UId": "11eccaa2-9da5-4328-abd8-f2b79545888f",
          "A2": "ItPrintServiceSupporting",
          "A3": "fbc11f5f-7c94-4d56-9609-7a1ba1519723",
          "A4": "fbc11f5f-7c94-4d56-9609-7a1ba1519723",
          "GT2": "[Element:{85250f78-fc12-494c-bef6-3d6a7d741864}].[Parameter:{2993ddd6-c1a4-4a8e-a365-b8c670725387}]",
          "GT3": "2993ddd6-c1a4-4a8e-a365-b8c670725387",
          "GT5": "52521a82-ed9f-4a26-b620-96ef86a4de63",
          "GT4": "3a743b86-f71c-4b37-bf2f-bcaf602e766f",
          "GT1": {
            "GS5": "3a743b86-f71c-4b37-bf2f-bcaf602e766f"
          }
        },
        {
          "BL1": "Terrasoft.Core.Process.ProcessSchemaMapping",
          "UId": "4dfdef56-b861-49b0-a545-443fcde090fe",
          "A2": "ItPrintServiceSupporting",
          "A3": "fbc11f5f-7c94-4d56-9609-7a1ba1519723",
          "A4": "fbc11f5f-7c94-4d56-9609-7a1ba1519723",
          "GT2": "[Element:{85250f78-fc12-494c-bef6-3d6a7d741864}].[Parameter:{f415248e-6a6f-4f74-9d95-736d2449c756}]",
          "GT3": "f415248e-6a6f-4f74-9d95-736d2449c756",
          "GT5": "af854cfb-e9fe-4297-847c-69cc37b2b76e",
          "GT4": "3a743b86-f71c-4b37-bf2f-bcaf602e766f",
          "GT1": {
            "GS1": 3,
            "GS2": "[#[IsOwnerSchema:false].[IsSchema:false].[Element:{b5c13caf-b377-49a4-ba59-5665f62cdb9d}].[Parameter:{e9376b7b-3b93-4de0-99f9-9f6bf6ecb61c}].[EntityColumn:{a628d3aa-7961-4943-886b-136561ddcc96}]#]",
            "GS5": "fbc11f5f-7c94-4d56-9609-7a1ba1519723"
          }
        }
      ],
      "BK29": true,
      "BK30": true,
      "BK34": "ru-RU",
      "BK24": []
    }
  }