﻿{
  "MetaData": {
    "Schema": {
      "ManagerName": "ClientUnitSchemaManager",
      "UId": "65c1a387-47ef-48ad-bc0a-b5a6654411a7",
      "A2": "ITActivityDashboardItemViewModel",
      "A5": "acab0919-55cf-42d7-a8ce-1a4ea20eb993",
      "B1": [],
      "B2": [
        {
          "UId": "bf6192b1-8496-433e-8446-5596a393b69b",
          "A2": "FirstButtonCaption",
          "A3": "65c1a387-47ef-48ad-bc0a-b5a6654411a7",
          "A4": "65c1a387-47ef-48ad-bc0a-b5a6654411a7",
          "A5": "acab0919-55cf-42d7-a8ce-1a4ea20eb993"
        },
        {
          "UId": "721db482-2803-4a1f-83f6-6e65f33fe8d2",
          "A2": "SecondButtonCaption",
          "A3": "65c1a387-47ef-48ad-bc0a-b5a6654411a7",
          "A4": "65c1a387-47ef-48ad-bc0a-b5a6654411a7",
          "A5": "acab0919-55cf-42d7-a8ce-1a4ea20eb993"
        },
        {
          "UId": "0907317a-a22b-494d-9cb2-2756c15260a5",
          "A2": "ThirdButtonCaption",
          "A3": "65c1a387-47ef-48ad-bc0a-b5a6654411a7",
          "A4": "65c1a387-47ef-48ad-bc0a-b5a6654411a7",
          "A5": "acab0919-55cf-42d7-a8ce-1a4ea20eb993"
        },
        {
          "UId": "159edd57-f6db-4327-945f-21c9a66e780e",
          "A2": "NextButtonCaption",
          "A3": "65c1a387-47ef-48ad-bc0a-b5a6654411a7",
          "A4": "65c1a387-47ef-48ad-bc0a-b5a6654411a7",
          "A5": "acab0919-55cf-42d7-a8ce-1a4ea20eb993"
        }
      ],
      "B3": [],
      "B6": "b18a0f67-6bd3-4ff3-8fa3-c759fb72d073",
      "B8": "7.8.3.1978",
      "HD1": "50e3acc0-26fc-4237-a095-849a1d534bd3",
      "HD4": 1,
      "HD6": "null",
      "HD5": [],
      "HD7": [],
      "HD8": [],
      "HD11": []
    }
  }