﻿{
  "Descriptor": {
    "UId": "2fe1fa46-5056-468c-8c81-0d7ad504ef5f",
    "Name": "ITADFirstImport",
    "ModifiedOnUtc": "\/Date(1504530290000)\/",
    "ManagerName": "ProcessSchemaManager",
    "Caption": "Импорт из AD",
    "DependsOn": []
  }
}