﻿{
  "Descriptor": {
    "UId": "be311c7c-fcaa-49bc-b030-fbd2a78c58dd",
    "PackageVersion": "7.8.3",
    "Name": "TsTop",
    "ModifiedOnUtc": "\/Date(1473935113000)\/",
    "Maintainer": "Terrasoft",
    "DependsOn": [
      {
        "UId": "12ec0688-188b-44d9-99c0-af66d25810d7",
        "PackageVersion": "7.8.3",
        "Name": "TsBase"
      }
    ]
  }
}