﻿{
  "Descriptor": {
    "UId": "5c283791-4aa3-49d5-8c9f-68298415d851",
    "Name": "ITPostDeliveryUnitCOReconsilation",
    "ModifiedOnUtc": "\/Date(1504248405000)\/",
    "ManagerName": "ProcessSchemaManager",
    "Caption": "Процесс согласования КП письменной корреспонденции - ITBase",
    "DependsOn": []
  }
}