﻿{
  "Descriptor": {
    "UId": "184c1c2b-2591-40df-94eb-e24d5b773875",
    "Name": "OpportunityMiniPage",
    "ModifiedOnUtc": "\/Date(1477053113000)\/",
    "Parent": {
      "UId": "2506aff4-2c84-42bc-984c-9d692afde7e9",
      "Name": "OpportunityMiniPage"
    },
    "ExtendParent": true,
    "ManagerName": "ClientUnitSchemaManager",
    "Caption": "OpportunityMiniPage",
    "DependsOn": []
  }
}