﻿{
  "Descriptor": {
    "UId": "5c69f7dd-ba45-4639-a9f2-4da090ac90f7",
    "Name": "CustomSQLPage",
    "ModifiedOnUtc": "\/Date(1449834731000)\/",
    "ManagerName": "PageSchemaManager",
    "Caption": "Выполнить запрос"
  }
}