﻿{
  "Descriptor": {
    "UId": "691517d9-e761-45a6-a461-132f7c4563b3",
    "Name": "ContractSectionV2",
    "ModifiedOnUtc": "\/Date(1474884842000)\/",
    "Parent": {
      "UId": "12c75b69-6f6f-462c-a00c-490fd3f1cd69",
      "Name": "ContractSectionV2"
    },
    "ExtendParent": true,
    "ManagerName": "ClientUnitSchemaManager",
    "Caption": "Схема раздела: \"Договоры\"",
    "DependsOn": []
  }
}