﻿{
  "Descriptor": {
    "UId": "e97557fd-6f59-453d-b764-a899c84d74df",
    "Name": "ITFunnelToPreviousStageDataProvider",
    "ModifiedOnUtc": "\/Date(1495546558000)\/",
    "ManagerName": "ClientUnitSchemaManager",
    "Caption": "ITFunnelToPreviousStageDataProvider",
    "DependsOn": []
  }
}