﻿{
  "Descriptor": {
    "UId": "b358b0f0-7fd4-4b45-83c6-555b17fab34e",
    "Name": "OpportunityContactPageV2",
    "ModifiedOnUtc": "\/Date(1475071873000)\/",
    "Parent": {
      "UId": "f8de39ca-f271-4b94-b0d1-7930b653faa7",
      "Name": "OpportunityContactPageV2"
    },
    "ExtendParent": true,
    "ManagerName": "ClientUnitSchemaManager",
    "Caption": "OpportunityContactPageV2",
    "DependsOn": []
  }
}