﻿{
  "Descriptor": {
    "UId": "dbb26ece-5b8a-4f2c-868b-81edb7ff312a",
    "Name": "ITChangeOfTime",
    "ModifiedOnUtc": "\/Date(1499173222000)\/",
    "Parent": {
      "UId": "1bab9dcf-17d5-49f8-9536-8e0064f1dce0",
      "Name": "BaseEntity"
    },
    "ManagerName": "EntitySchemaManager",
    "Caption": "Изменение времени",
    "DependsOn": []
  }
}