﻿{
  "PackageData": [
    {
      "Row": [
        {
          "SchemaColumnUId": "ae0e45ca-c495-4fe7-a39d-3ab7278e1617",
          "Value": "f3e11034-03d8-460f-9d4f-739265882954"
        },
        {
          "SchemaColumnUId": "bd9ec46e-6371-466e-87ec-1adf995e47c7",
          "Value": "null",
          "DisplayValue": ""
        }
      ]
    },
    {
      "Row": [
        {
          "SchemaColumnUId": "ae0e45ca-c495-4fe7-a39d-3ab7278e1617",
          "Value": "74e7c471-c8ec-4ee1-a8e7-0013b9706876"
        },
        {
          "SchemaColumnUId": "bd9ec46e-6371-466e-87ec-1adf995e47c7",
          "Value": "null",
          "DisplayValue": ""
        }
      ]
    },
    {
      "Row": [
        {
          "SchemaColumnUId": "ae0e45ca-c495-4fe7-a39d-3ab7278e1617",
          "Value": "a72247e0-b7ac-4aa8-b404-1d7857f6e719"
        },
        {
          "SchemaColumnUId": "bd9ec46e-6371-466e-87ec-1adf995e47c7",
          "Value": "null",
          "DisplayValue": ""
        }
      ]
    },
    {
      "Row": [
        {
          "SchemaColumnUId": "ae0e45ca-c495-4fe7-a39d-3ab7278e1617",
          "Value": "2a87ec23-e564-4812-9e71-84f69b9a5a68"
        },
        {
          "SchemaColumnUId": "bd9ec46e-6371-466e-87ec-1adf995e47c7",
          "Value": "null",
          "DisplayValue": ""
        }
      ]
    },
    {
      "Row": [
        {
          "SchemaColumnUId": "ae0e45ca-c495-4fe7-a39d-3ab7278e1617",
          "Value": "5dbbc1ff-4aaa-4141-9c2c-ea239351452a"
        },
        {
          "SchemaColumnUId": "bd9ec46e-6371-466e-87ec-1adf995e47c7",
          "Value": "null",
          "DisplayValue": ""
        }
      ]
    },
    {
      "Row": [
        {
          "SchemaColumnUId": "ae0e45ca-c495-4fe7-a39d-3ab7278e1617",
          "Value": "7f5dfa0a-36f1-464c-b027-8e5505809213"
        },
        {
          "SchemaColumnUId": "bd9ec46e-6371-466e-87ec-1adf995e47c7",
          "Value": "null",
          "DisplayValue": ""
        }
      ]
    },
    {
      "Row": [
        {
          "SchemaColumnUId": "ae0e45ca-c495-4fe7-a39d-3ab7278e1617",
          "Value": "628aa99a-9bab-41c5-8a8d-6e6804d88f29"
        },
        {
          "SchemaColumnUId": "bd9ec46e-6371-466e-87ec-1adf995e47c7",
          "Value": "null",
          "DisplayValue": ""
        }
      ]
    }
  ]
}