﻿{
  "Descriptor": {
    "UId": "739c3115-b42e-4938-bcd7-32dbbba5e1ac",
    "Name": "ITPostDeliveryUnitOpportunityManagement",
    "ModifiedOnUtc": "\/Date(1505816295000)\/",
    "ManagerName": "ProcessSchemaManager",
    "Caption": "Продажа доставки письменной корреспонденции- ITBase",
    "DependsOn": []
  }
}