﻿{
  "PackageData": [
    {
      "Row": [
        {
          "SchemaColumnUId": "ae0e45ca-c495-4fe7-a39d-3ab7278e1617",
          "Value": "1c0b6b13-e8bb-df11-b00f-001d60e938c6"
        },
        {
          "SchemaColumnUId": "8fb75ea2-14b8-4bb1-8420-f3a650b11962",
          "Value": "a570b005-e8bb-df11-b00f-001d60e938c6",
          "DisplayValue": "Россия"
        },
        {
          "SchemaColumnUId": "b9be9a1a-dc05-4574-b391-b8377b8f82f8",
          "Value": "9a136327-896f-4901-8a42-7f3358a18854",
          "DisplayValue": "Москва"
        },
        {
          "SchemaColumnUId": "8ff41b5d-ef8e-4f95-bc96-07b5d595a3eb",
          "Value": "a0c71d34-55d8-df11-9b2a-001d60e938c6",
          "DisplayValue": "Волгоград, Москва, Санкт-Петербург (RTZ 2) (GMT+03:00)"
        }
      ]
    },
    {
      "Row": [
        {
          "SchemaColumnUId": "ae0e45ca-c495-4fe7-a39d-3ab7278e1617",
          "Value": "190b6b13-e8bb-df11-b00f-001d60e938c6"
        },
        {
          "SchemaColumnUId": "8fb75ea2-14b8-4bb1-8420-f3a650b11962",
          "Value": "a570b005-e8bb-df11-b00f-001d60e938c6",
          "DisplayValue": "Россия"
        },
        {
          "SchemaColumnUId": "b9be9a1a-dc05-4574-b391-b8377b8f82f8",
          "Value": "72673bde-1000-4ab8-a7af-6155042ce938",
          "DisplayValue": "Санкт-Петербург"
        },
        {
          "SchemaColumnUId": "8ff41b5d-ef8e-4f95-bc96-07b5d595a3eb",
          "Value": "a0c71d34-55d8-df11-9b2a-001d60e938c6",
          "DisplayValue": "Волгоград, Москва, Санкт-Петербург (RTZ 2) (GMT+03:00)"
        }
      ]
    },
    {
      "Row": [
        {
          "SchemaColumnUId": "ae0e45ca-c495-4fe7-a39d-3ab7278e1617",
          "Value": "59ed176b-6eec-40ac-9962-ad1d00167481"
        },
        {
          "SchemaColumnUId": "8fb75ea2-14b8-4bb1-8420-f3a650b11962",
          "Value": "a570b005-e8bb-df11-b00f-001d60e938c6",
          "DisplayValue": "Россия"
        },
        {
          "SchemaColumnUId": "b9be9a1a-dc05-4574-b391-b8377b8f82f8",
          "Value": "1b26907d-4328-4811-bf53-e3878cf54a64",
          "DisplayValue": "Севастополь"
        },
        {
          "SchemaColumnUId": "8ff41b5d-ef8e-4f95-bc96-07b5d595a3eb",
          "Value": "a0c71d34-55d8-df11-9b2a-001d60e938c6",
          "DisplayValue": "Волгоград, Москва, Санкт-Петербург (RTZ 2) (GMT+03:00)"
        }
      ]
    }
  ]
}