﻿{
  "Descriptor": {
    "UId": "7f268026-891b-4d04-83fd-c1db2ff59d88",
    "Name": "ITPaymentForm",
    "ModifiedOnUtc": "\/Date(1496922942000)\/",
    "Parent": {
      "UId": "11ab4bcb-9b23-4b6d-9c86-520fae925d75",
      "Name": "BaseLookup"
    },
    "ManagerName": "EntitySchemaManager",
    "Caption": "Форма оплаты",
    "DependsOn": []
  }
}