﻿{
  "Descriptor": {
    "UId": "c4619bac-52fc-4d19-8b01-28be02e2e49d",
    "Name": "DocumentPageV2",
    "ModifiedOnUtc": "\/Date(1501668741000)\/",
    "Parent": {
      "UId": "12ba33bc-d12c-4ec6-b552-7b739b7b5193",
      "Name": "DocumentPageV2"
    },
    "ExtendParent": true,
    "ManagerName": "ClientUnitSchemaManager",
    "Caption": "Схема карточки документа",
    "DependsOn": []
  }
}