﻿{
  "Descriptor": {
    "UId": "231dcc72-4579-488a-9ee3-99fa237db2e6",
    "Name": "Dimension",
    "ModifiedOnUtc": "\/Date(1480922787000)\/",
    "InstallType": 0,
    "Schema": {
      "UId": "488f25fa-5d1c-49d4-b2f0-8d6c2a5eab19",
      "Name": "Dimension"
    },
    "Columns": [
      {
        "ColumnUId": "ae0e45ca-c495-4fe7-a39d-3ab7278e1617",
        "IsForceUpdate": false,
        "IsKey": true,
        "ColumnName": "Id",
        "DataTypeValueUId": "23018567-a13c-4320-8687-fd6f9e3699bd"
      },
      {
        "ColumnUId": "fe4b0601-251d-4154-8e83-2c323fd6e46c",
        "IsForceUpdate": true,
        "IsKey": false,
        "ColumnName": "Name",
        "DataTypeValueUId": "325a73b8-0f47-44a0-8412-7606f78003ac"
      },
      {
        "ColumnUId": "14055143-dfec-47d9-9acb-54dbf93106e9",
        "IsForceUpdate": true,
        "IsKey": false,
        "ColumnName": "Path",
        "DataTypeValueUId": "325a73b8-0f47-44a0-8412-7606f78003ac"
      },
      {
        "ColumnUId": "856dceda-bb97-4e4e-aa55-3dce60eebe67",
        "IsForceUpdate": true,
        "IsKey": false,
        "ColumnName": "EntitySchemaUId",
        "DataTypeValueUId": "23018567-a13c-4320-8687-fd6f9e3699bd"
      }
    ]
  }
}