﻿{
  "Descriptor": {
    "UId": "347f9f73-ab7c-42c9-b88b-89387a6d2c22",
    "Name": "TsChoosingModule",
    "ModifiedOnUtc": "\/Date(1479470108000)\/",
    "ManagerName": "ClientUnitSchemaManager",
    "Caption": "TsChoosingModule",
    "DependsOn": []
  }
}