﻿{
  "PackageData": [
    {
      "Row": [
        {
          "SchemaColumnUId": "ae0e45ca-c495-4fe7-a39d-3ab7278e1617",
          "Value": "1381035a-5ace-4d64-afe2-f3cc01a82554"
        },
        {
          "SchemaColumnUId": "bd12ea8e-2bc2-42bf-925a-3ab766cc0b9f",
          "Value": 7
        },
        {
          "SchemaColumnUId": "0e3d3857-2203-40e4-b1ec-8e972007650e",
          "Value": "77bed087-06de-4f01-bb1a-7bfbc679b14e",
          "DisplayValue": "Системный администратор"
        },
        {
          "SchemaColumnUId": "991cf5ef-ffb8-49a5-add3-074a595f6c43",
          "Value": "2848865d-fe7c-45cf-950f-563a7155b792",
          "DisplayValue": "Тарификатор"
        }
      ]
    },
    {
      "Row": [
        {
          "SchemaColumnUId": "ae0e45ca-c495-4fe7-a39d-3ab7278e1617",
          "Value": "81b99266-fb36-4da1-94ef-9e42aba6e80d"
        },
        {
          "SchemaColumnUId": "bd12ea8e-2bc2-42bf-925a-3ab766cc0b9f",
          "Value": 8
        },
        {
          "SchemaColumnUId": "0e3d3857-2203-40e4-b1ec-8e972007650e",
          "Value": "77bed087-06de-4f01-bb1a-7bfbc679b14e",
          "DisplayValue": "Системный администратор"
        },
        {
          "SchemaColumnUId": "991cf5ef-ffb8-49a5-add3-074a595f6c43",
          "Value": "b46f6e70-0603-4138-a665-7a8c4d6e3aaf",
          "DisplayValue": "Точка сдачи"
        }
      ]
    },
    {
      "Row": [
        {
          "SchemaColumnUId": "ae0e45ca-c495-4fe7-a39d-3ab7278e1617",
          "Value": "d5550942-f9fd-4507-9435-4842afc94385"
        },
        {
          "SchemaColumnUId": "bd12ea8e-2bc2-42bf-925a-3ab766cc0b9f",
          "Value": 0
        },
        {
          "SchemaColumnUId": "0e3d3857-2203-40e4-b1ec-8e972007650e",
          "Value": "77bed087-06de-4f01-bb1a-7bfbc679b14e",
          "DisplayValue": "Системный администратор"
        },
        {
          "SchemaColumnUId": "991cf5ef-ffb8-49a5-add3-074a595f6c43",
          "Value": "055063c9-8180-e011-afbc-00155d04320c",
          "DisplayValue": "Календарь"
        }
      ]
    },
    {
      "Row": [
        {
          "SchemaColumnUId": "ae0e45ca-c495-4fe7-a39d-3ab7278e1617",
          "Value": "b70653b5-acc3-4400-9c40-92e84091177b"
        },
        {
          "SchemaColumnUId": "bd12ea8e-2bc2-42bf-925a-3ab766cc0b9f",
          "Value": 1
        },
        {
          "SchemaColumnUId": "0e3d3857-2203-40e4-b1ec-8e972007650e",
          "Value": "77bed087-06de-4f01-bb1a-7bfbc679b14e",
          "DisplayValue": "Системный администратор"
        },
        {
          "SchemaColumnUId": "991cf5ef-ffb8-49a5-add3-074a595f6c43",
          "Value": "015063c9-8180-e011-afbc-00155d04320c",
          "DisplayValue": "База знаний"
        }
      ]
    },
    {
      "Row": [
        {
          "SchemaColumnUId": "ae0e45ca-c495-4fe7-a39d-3ab7278e1617",
          "Value": "21bfac90-ebab-4a3f-ac52-bd71d8468c5f"
        },
        {
          "SchemaColumnUId": "bd12ea8e-2bc2-42bf-925a-3ab766cc0b9f",
          "Value": 2
        },
        {
          "SchemaColumnUId": "0e3d3857-2203-40e4-b1ec-8e972007650e",
          "Value": "77bed087-06de-4f01-bb1a-7bfbc679b14e",
          "DisplayValue": "Системный администратор"
        },
        {
          "SchemaColumnUId": "991cf5ef-ffb8-49a5-add3-074a595f6c43",
          "Value": "f87726a9-c0b2-4496-99ad-7ebb5118988d",
          "DisplayValue": "Договоры"
        }
      ]
    },
    {
      "Row": [
        {
          "SchemaColumnUId": "ae0e45ca-c495-4fe7-a39d-3ab7278e1617",
          "Value": "5af30ff9-90eb-4e40-96dc-8a4f08b8c22c"
        },
        {
          "SchemaColumnUId": "bd12ea8e-2bc2-42bf-925a-3ab766cc0b9f",
          "Value": 3
        },
        {
          "SchemaColumnUId": "0e3d3857-2203-40e4-b1ec-8e972007650e",
          "Value": "77bed087-06de-4f01-bb1a-7bfbc679b14e",
          "DisplayValue": "Системный администратор"
        },
        {
          "SchemaColumnUId": "991cf5ef-ffb8-49a5-add3-074a595f6c43",
          "Value": "085063c9-8180-e011-afbc-00155d04320c",
          "DisplayValue": "Документы"
        }
      ]
    },
    {
      "Row": [
        {
          "SchemaColumnUId": "ae0e45ca-c495-4fe7-a39d-3ab7278e1617",
          "Value": "e73e9bb0-5df7-4294-8b38-047472483efd"
        },
        {
          "SchemaColumnUId": "bd12ea8e-2bc2-42bf-925a-3ab766cc0b9f",
          "Value": 4
        },
        {
          "SchemaColumnUId": "0e3d3857-2203-40e4-b1ec-8e972007650e",
          "Value": "77bed087-06de-4f01-bb1a-7bfbc679b14e",
          "DisplayValue": "Системный администратор"
        },
        {
          "SchemaColumnUId": "991cf5ef-ffb8-49a5-add3-074a595f6c43",
          "Value": "0c5063c9-8180-e011-afbc-00155d04320c",
          "DisplayValue": "Отчеты"
        }
      ]
    },
    {
      "Row": [
        {
          "SchemaColumnUId": "ae0e45ca-c495-4fe7-a39d-3ab7278e1617",
          "Value": "44fb99b7-ea20-4afa-a005-d93770d03003"
        },
        {
          "SchemaColumnUId": "bd12ea8e-2bc2-42bf-925a-3ab766cc0b9f",
          "Value": 5
        },
        {
          "SchemaColumnUId": "0e3d3857-2203-40e4-b1ec-8e972007650e",
          "Value": "77bed087-06de-4f01-bb1a-7bfbc679b14e",
          "DisplayValue": "Системный администратор"
        },
        {
          "SchemaColumnUId": "991cf5ef-ffb8-49a5-add3-074a595f6c43",
          "Value": "065063c9-8180-e011-afbc-00155d04320c",
          "DisplayValue": "Контакты"
        }
      ]
    },
    {
      "Row": [
        {
          "SchemaColumnUId": "ae0e45ca-c495-4fe7-a39d-3ab7278e1617",
          "Value": "8f47d9f0-84f1-4096-adb7-6c89509312de"
        },
        {
          "SchemaColumnUId": "bd12ea8e-2bc2-42bf-925a-3ab766cc0b9f",
          "Value": 6
        },
        {
          "SchemaColumnUId": "0e3d3857-2203-40e4-b1ec-8e972007650e",
          "Value": "77bed087-06de-4f01-bb1a-7bfbc679b14e",
          "DisplayValue": "Системный администратор"
        },
        {
          "SchemaColumnUId": "991cf5ef-ffb8-49a5-add3-074a595f6c43",
          "Value": "005063c9-8180-e011-afbc-00155d04320c",
          "DisplayValue": "Контрагенты"
        }
      ]
    },
    {
      "Row": [
        {
          "SchemaColumnUId": "ae0e45ca-c495-4fe7-a39d-3ab7278e1617",
          "Value": "10941bf6-7878-4013-9398-adf8c6b5828f"
        },
        {
          "SchemaColumnUId": "bd12ea8e-2bc2-42bf-925a-3ab766cc0b9f",
          "Value": 9
        },
        {
          "SchemaColumnUId": "0e3d3857-2203-40e4-b1ec-8e972007650e",
          "Value": "77bed087-06de-4f01-bb1a-7bfbc679b14e",
          "DisplayValue": "Системный администратор"
        },
        {
          "SchemaColumnUId": "991cf5ef-ffb8-49a5-add3-074a595f6c43",
          "Value": "4e55cdcd-8cab-433e-aecd-a181ff149631",
          "DisplayValue": "Лента"
        }
      ]
    },
    {
      "Row": [
        {
          "SchemaColumnUId": "ae0e45ca-c495-4fe7-a39d-3ab7278e1617",
          "Value": "61d94100-bf79-4eac-9f2a-83789c84a991"
        },
        {
          "SchemaColumnUId": "bd12ea8e-2bc2-42bf-925a-3ab766cc0b9f",
          "Value": 11
        },
        {
          "SchemaColumnUId": "0e3d3857-2203-40e4-b1ec-8e972007650e",
          "Value": "77bed087-06de-4f01-bb1a-7bfbc679b14e",
          "DisplayValue": "Системный администратор"
        },
        {
          "SchemaColumnUId": "991cf5ef-ffb8-49a5-add3-074a595f6c43",
          "Value": "7f3f22d6-f36b-1410-6584-1c6f65e16a07",
          "DisplayValue": "Лиды"
        }
      ]
    },
    {
      "Row": [
        {
          "SchemaColumnUId": "ae0e45ca-c495-4fe7-a39d-3ab7278e1617",
          "Value": "a100bd5d-0036-4191-bab0-def7987663f1"
        },
        {
          "SchemaColumnUId": "bd12ea8e-2bc2-42bf-925a-3ab766cc0b9f",
          "Value": 12
        },
        {
          "SchemaColumnUId": "0e3d3857-2203-40e4-b1ec-8e972007650e",
          "Value": "77bed087-06de-4f01-bb1a-7bfbc679b14e",
          "DisplayValue": "Системный администратор"
        },
        {
          "SchemaColumnUId": "991cf5ef-ffb8-49a5-add3-074a595f6c43",
          "Value": "cb84e797-832d-4d51-98e3-64b69174e600",
          "DisplayValue": "Планирование"
        }
      ]
    },
    {
      "Row": [
        {
          "SchemaColumnUId": "ae0e45ca-c495-4fe7-a39d-3ab7278e1617",
          "Value": "c07cb9d5-9040-4136-bbd2-53fbc0729f7c"
        },
        {
          "SchemaColumnUId": "bd12ea8e-2bc2-42bf-925a-3ab766cc0b9f",
          "Value": 10
        },
        {
          "SchemaColumnUId": "0e3d3857-2203-40e4-b1ec-8e972007650e",
          "Value": "77bed087-06de-4f01-bb1a-7bfbc679b14e",
          "DisplayValue": "Системный администратор"
        },
        {
          "SchemaColumnUId": "991cf5ef-ffb8-49a5-add3-074a595f6c43",
          "Value": "075063c9-8180-e011-afbc-00155d04320c",
          "DisplayValue": "Продажи"
        }
      ]
    },
    {
      "Row": [
        {
          "SchemaColumnUId": "ae0e45ca-c495-4fe7-a39d-3ab7278e1617",
          "Value": "662a9196-ac8b-4581-8ba3-1a1c79020061"
        },
        {
          "SchemaColumnUId": "bd12ea8e-2bc2-42bf-925a-3ab766cc0b9f",
          "Value": 13
        },
        {
          "SchemaColumnUId": "0e3d3857-2203-40e4-b1ec-8e972007650e",
          "Value": "77bed087-06de-4f01-bb1a-7bfbc679b14e",
          "DisplayValue": "Системный администратор"
        },
        {
          "SchemaColumnUId": "991cf5ef-ffb8-49a5-add3-074a595f6c43",
          "Value": "2e6c2b9f-cd05-4e71-aeb0-599b9f69c66a",
          "DisplayValue": "Услуги"
        }
      ]
    },
    {
      "Row": [
        {
          "SchemaColumnUId": "ae0e45ca-c495-4fe7-a39d-3ab7278e1617",
          "Value": "72ea6dfb-3777-4277-b0a8-c8c720b97508"
        },
        {
          "SchemaColumnUId": "bd12ea8e-2bc2-42bf-925a-3ab766cc0b9f",
          "Value": 14
        },
        {
          "SchemaColumnUId": "0e3d3857-2203-40e4-b1ec-8e972007650e",
          "Value": "77bed087-06de-4f01-bb1a-7bfbc679b14e",
          "DisplayValue": "Системный администратор"
        },
        {
          "SchemaColumnUId": "991cf5ef-ffb8-49a5-add3-074a595f6c43",
          "Value": "3706db16-9714-4c45-bad5-e9642b863738",
          "DisplayValue": "Справочники"
        }
      ]
    },
    {
      "Row": [
        {
          "SchemaColumnUId": "ae0e45ca-c495-4fe7-a39d-3ab7278e1617",
          "Value": "113924fb-adad-4587-ad39-0593f29af00b"
        },
        {
          "SchemaColumnUId": "bd12ea8e-2bc2-42bf-925a-3ab766cc0b9f",
          "Value": 15
        },
        {
          "SchemaColumnUId": "0e3d3857-2203-40e4-b1ec-8e972007650e",
          "Value": "77bed087-06de-4f01-bb1a-7bfbc679b14e",
          "DisplayValue": "Системный администратор"
        },
        {
          "SchemaColumnUId": "991cf5ef-ffb8-49a5-add3-074a595f6c43",
          "Value": "025063c9-8180-e011-afbc-00155d04320c",
          "DisplayValue": "Счета"
        }
      ]
    }
  ]
}