﻿{
  "Descriptor": {
    "UId": "f69d6bc5-a56d-4b8e-ad68-b20990045e06",
    "Name": "ITChangeOfTimeDetail",
    "ModifiedOnUtc": "\/Date(1499354468000)\/",
    "Parent": {
      "UId": "01eb38ee-668a-42f0-999d-c2534f979089",
      "Name": "BaseGridDetailV2"
    },
    "ManagerName": "ClientUnitSchemaManager",
    "Caption": "Схема детали \"Изменение времени\" в активности",
    "DependsOn": []
  }
}