﻿{
  "Descriptor": {
    "UId": "c81fe947-4c2e-49c1-8d57-202f4271b8b3",
    "Name": "ITJsLeadConsts",
    "ModifiedOnUtc": "\/Date(1496841776000)\/",
    "ManagerName": "ClientUnitSchemaManager",
    "Caption": "ITJsLeadConsts",
    "DependsOn": []
  }
}