﻿{
  "SqlScript": {
    "UId": "d560db47-847e-4fcd-9989-e73a29d05326",
    "Name": "Merge_AccountOwnership",
    "DBEngineType": 0,
    "InstallType": 2,
    "ModifiedOnUtc": "\/Date(1477410260000)\/",
    "DependsOn": []
  }
}