﻿{
  "Descriptor": {
    "UId": "92417d90-072a-4d4e-8fe8-85673bfdb922",
    "Name": "TsParcelUnitCOReconsilation",
    "ModifiedOnUtc": "\/Date(1477570836000)\/",
    "ManagerName": "ProcessSchemaManager",
    "Caption": "Процесс согласования КП посылочного блока",
    "DependsOn": []
  }
}