﻿{
  "Descriptor": {
    "UId": "690e9a22-041a-4851-8251-ee7fb29175a8",
    "Name": "TsParcelUnitCOSigning",
    "ModifiedOnUtc": "\/Date(1477571421000)\/",
    "ManagerName": "ProcessSchemaManager",
    "Caption": "Процесс подписания КП посылочного блока",
    "DependsOn": []
  }
}