﻿{
  "Descriptor": {
    "UId": "611eb608-0439-401b-bd81-84a352f6ffc5",
    "Name": "ITParcelUnitPresentation",
    "ModifiedOnUtc": "\/Date(1506505055000)\/",
    "ManagerName": "ProcessSchemaManager",
    "Caption": "Процесс презентации посылочного блока - ITBase",
    "DependsOn": []
  }
}