﻿{
  "PackageData": [
    {
      "Row": [
        {
          "SchemaColumnUId": "ae0e45ca-c495-4fe7-a39d-3ab7278e1617",
          "ColumnName": "Id",
          "Value": "09e9debf-7038-4957-9dca-bebaaa21bddd"
        },
        {
          "SchemaColumnUId": "a215f575-7283-41bd-8852-b2415a935051",
          "ColumnName": "Caption",
          "Value": "Sales rep dashboard"
        },
        {
          "SchemaColumnUId": "551ce105-25dc-4a76-b318-cf37635e88c3",
          "ColumnName": "Items",
          "Value": "{\"Indicator\":{\"parameters\":{\"caption\":\"Number of overdue tasks\",\"entitySchemaName\":\"Activity\",\"filterData\":\"{\\\"className\\\":\\\"Terrasoft.FilterGroup\\\",\\\"items\\\":{\\\"242e25c8-11d8-4894-a7b6-3fedad83f3fa\\\":{\\\"className\\\":\\\"Terrasoft.CompareFilter\\\",\\\"filterType\\\":1,\\\"comparisonType\\\":5,\\\"isEnabled\\\":true,\\\"trimDateTimeParameterToDate\\\":true,\\\"leftExpression\\\":{\\\"className\\\":\\\"Terrasoft.ColumnExpression\\\",\\\"expressionType\\\":0,\\\"columnPath\\\":\\\"DueDate\\\"},\\\"isAggregative\\\":false,\\\"key\\\":\\\"242e25c8-11d8-4894-a7b6-3fedad83f3fa\\\",\\\"dataValueType\\\":7,\\\"leftExpressionCaption\\\":\\\"Due\\\",\\\"rightExpression\\\":{\\\"className\\\":\\\"Terrasoft.FunctionExpression\\\",\\\"expressionType\\\":1,\\\"functionType\\\":1,\\\"macrosType\\\":21}},\\\"9d8d0f37-25ce-4ef3-bb72-791f721241b2\\\":{\\\"className\\\":\\\"Terrasoft.InFilter\\\",\\\"filterType\\\":4,\\\"comparisonType\\\":4,\\\"isEnabled\\\":true,\\\"trimDateTimeParameterToDate\\\":false,\\\"leftExpression\\\":{\\\"className\\\":\\\"Terrasoft.ColumnExpression\\\",\\\"expressionType\\\":0,\\\"columnPath\\\":\\\"Status\\\"},\\\"isAggregative\\\":false,\\\"key\\\":\\\"9d8d0f37-25ce-4ef3-bb72-791f721241b2\\\",\\\"dataValueType\\\":10,\\\"leftExpressionCaption\\\":\\\"Status\\\",\\\"referenceSchemaName\\\":\\\"ActivityStatus\\\",\\\"rightExpressions\\\":[{\\\"className\\\":\\\"Terrasoft.ParameterExpression\\\",\\\"expressionType\\\":2,\\\"parameter\\\":{\\\"className\\\":\\\"Terrasoft.Parameter\\\",\\\"dataValueType\\\":10,\\\"value\\\":{\\\"Name\\\":\\\"Completed\\\",\\\"Id\\\":\\\"4bdbb88f-58e6-df11-971b-001d60e938c6\\\",\\\"value\\\":\\\"4bdbb88f-58e6-df11-971b-001d60e938c6\\\",\\\"displayValue\\\":\\\"Completed\\\"}}},{\\\"className\\\":\\\"Terrasoft.ParameterExpression\\\",\\\"expressionType\\\":2,\\\"parameter\\\":{\\\"className\\\":\\\"Terrasoft.Parameter\\\",\\\"dataValueType\\\":10,\\\"value\\\":{\\\"Name\\\":\\\"Canceled\\\",\\\"Id\\\":\\\"201cfba8-58e6-df11-971b-001d60e938c6\\\",\\\"value\\\":\\\"201cfba8-58e6-df11-971b-001d60e938c6\\\",\\\"displayValue\\\":\\\"Canceled\\\"}}}]},\\\"87b4a33f-38e8-48a9-954f-b83fe15b0d7a\\\":{\\\"className\\\":\\\"Terrasoft.CompareFilter\\\",\\\"filterType\\\":1,\\\"comparisonType\\\":3,\\\"isEnabled\\\":true,\\\"trimDateTimeParameterToDate\\\":false,\\\"leftExpression\\\":{\\\"className\\\":\\\"Terrasoft.ColumnExpression\\\",\\\"expressionType\\\":0,\\\"columnPath\\\":\\\"Owner\\\"},\\\"isAggregative\\\":false,\\\"key\\\":\\\"87b4a33f-38e8-48a9-954f-b83fe15b0d7a\\\",\\\"dataValueType\\\":10,\\\"leftExpressionCaption\\\":\\\"Owner\\\",\\\"referenceSchemaName\\\":\\\"Contact\\\",\\\"rightExpression\\\":{\\\"className\\\":\\\"Terrasoft.FunctionExpression\\\",\\\"expressionType\\\":1,\\\"functionType\\\":1,\\\"macrosType\\\":2}}},\\\"logicalOperation\\\":0,\\\"isEnabled\\\":true,\\\"filterType\\\":6,\\\"rootSchemaName\\\":\\\"Activity\\\",\\\"key\\\":\\\"\\\"}\",\"aggregationType\":1,\"style\":\"widget-coral\",\"fontStyle\":\"default-indicator-font-size\",\"format\":{\"textDecorator\":\"{0}\",\"type\":4,\"decimalPrecision\":0}},\"widgetType\":\"Indicator\"},\"Indicator1\":{\"parameters\":{\"caption\":\"Number of active opportunities\",\"entitySchemaName\":\"Opportunity\",\"filterData\":\"{\\\"className\\\":\\\"Terrasoft.FilterGroup\\\",\\\"items\\\":{\\\"b6bb6c24-7b03-44ae-917b-afea934b35cc\\\":{\\\"className\\\":\\\"Terrasoft.InFilter\\\",\\\"filterType\\\":4,\\\"comparisonType\\\":4,\\\"isEnabled\\\":true,\\\"trimDateTimeParameterToDate\\\":false,\\\"leftExpression\\\":{\\\"className\\\":\\\"Terrasoft.ColumnExpression\\\",\\\"expressionType\\\":0,\\\"columnPath\\\":\\\"Stage\\\"},\\\"isAggregative\\\":false,\\\"key\\\":\\\"b6bb6c24-7b03-44ae-917b-afea934b35cc\\\",\\\"dataValueType\\\":10,\\\"leftExpressionCaption\\\":\\\"Stage\\\",\\\"referenceSchemaName\\\":\\\"OpportunityStage\\\",\\\"rightExpressions\\\":[{\\\"className\\\":\\\"Terrasoft.ParameterExpression\\\",\\\"expressionType\\\":2,\\\"parameter\\\":{\\\"className\\\":\\\"Terrasoft.Parameter\\\",\\\"dataValueType\\\":10,\\\"value\\\":{\\\"Name\\\":\\\"Closed lost\\\",\\\"Id\\\":\\\"a9aafdfe-2242-4f42-8cd5-2ae3b9556d79\\\",\\\"value\\\":\\\"a9aafdfe-2242-4f42-8cd5-2ae3b9556d79\\\",\\\"displayValue\\\":\\\"Closed lost\\\"}}},{\\\"className\\\":\\\"Terrasoft.ParameterExpression\\\",\\\"expressionType\\\":2,\\\"parameter\\\":{\\\"className\\\":\\\"Terrasoft.Parameter\\\",\\\"dataValueType\\\":10,\\\"value\\\":{\\\"Name\\\":\\\"Closed won\\\",\\\"Id\\\":\\\"60d5310c-5be6-df11-971b-001d60e938c6\\\",\\\"value\\\":\\\"60d5310c-5be6-df11-971b-001d60e938c6\\\",\\\"displayValue\\\":\\\"Closed won\\\"}}},{\\\"className\\\":\\\"Terrasoft.ParameterExpression\\\",\\\"expressionType\\\":2,\\\"parameter\\\":{\\\"className\\\":\\\"Terrasoft.Parameter\\\",\\\"dataValueType\\\":10,\\\"value\\\":{\\\"Name\\\":\\\"Closed rejected\\\",\\\"Id\\\":\\\"736f54fd-e240-46f8-8c7c-9066c30aff59\\\",\\\"value\\\":\\\"736f54fd-e240-46f8-8c7c-9066c30aff59\\\",\\\"displayValue\\\":\\\"Closed rejected\\\"}}},{\\\"className\\\":\\\"Terrasoft.ParameterExpression\\\",\\\"expressionType\\\":2,\\\"parameter\\\":{\\\"className\\\":\\\"Terrasoft.Parameter\\\",\\\"dataValueType\\\":10,\\\"value\\\":{\\\"Name\\\":\\\"Closed rerouted\\\",\\\"Id\\\":\\\"9abf243c-fc00-45cf-8e28-cdb66c9208b0\\\",\\\"value\\\":\\\"9abf243c-fc00-45cf-8e28-cdb66c9208b0\\\",\\\"displayValue\\\":\\\"Closed rerouted\\\"}}}]},\\\"fb54caef-e1ad-4b42-a8d9-a2aab69c1396\\\":{\\\"className\\\":\\\"Terrasoft.CompareFilter\\\",\\\"filterType\\\":1,\\\"comparisonType\\\":3,\\\"isEnabled\\\":true,\\\"trimDateTimeParameterToDate\\\":false,\\\"leftExpression\\\":{\\\"className\\\":\\\"Terrasoft.ColumnExpression\\\",\\\"expressionType\\\":0,\\\"columnPath\\\":\\\"Owner\\\"},\\\"isAggregative\\\":false,\\\"key\\\":\\\"fb54caef-e1ad-4b42-a8d9-a2aab69c1396\\\",\\\"dataValueType\\\":10,\\\"leftExpressionCaption\\\":\\\"Owner\\\",\\\"referenceSchemaName\\\":\\\"Contact\\\",\\\"rightExpression\\\":{\\\"className\\\":\\\"Terrasoft.FunctionExpression\\\",\\\"expressionType\\\":1,\\\"functionType\\\":1,\\\"macrosType\\\":2}}},\\\"logicalOperation\\\":0,\\\"isEnabled\\\":true,\\\"filterType\\\":6,\\\"rootSchemaName\\\":\\\"Opportunity\\\",\\\"key\\\":\\\"\\\"}\",\"aggregationType\":1,\"style\":\"widget-coral\",\"fontStyle\":\"default-indicator-font-size\",\"format\":{\"textDecorator\":\"{0}\",\"type\":4,\"decimalPrecision\":0}},\"widgetType\":\"Indicator\"},\"Indicator2\":{\"parameters\":{\"caption\":\"Number of calls this month\",\"entitySchemaName\":\"Activity\",\"filterData\":\"{\\\"className\\\":\\\"Terrasoft.FilterGroup\\\",\\\"items\\\":{\\\"38f1f233-391c-47ad-bf69-3b3551fcdb75\\\":{\\\"className\\\":\\\"Terrasoft.InFilter\\\",\\\"filterType\\\":4,\\\"comparisonType\\\":3,\\\"isEnabled\\\":true,\\\"trimDateTimeParameterToDate\\\":false,\\\"leftExpression\\\":{\\\"className\\\":\\\"Terrasoft.ColumnExpression\\\",\\\"expressionType\\\":0,\\\"columnPath\\\":\\\"ActivityCategory\\\"},\\\"isAggregative\\\":false,\\\"key\\\":\\\"38f1f233-391c-47ad-bf69-3b3551fcdb75\\\",\\\"dataValueType\\\":10,\\\"leftExpressionCaption\\\":\\\"Category\\\",\\\"referenceSchemaName\\\":\\\"ActivityCategory\\\",\\\"rightExpressions\\\":[{\\\"className\\\":\\\"Terrasoft.ParameterExpression\\\",\\\"expressionType\\\":2,\\\"parameter\\\":{\\\"className\\\":\\\"Terrasoft.Parameter\\\",\\\"dataValueType\\\":10,\\\"value\\\":{\\\"Name\\\":\\\"Call\\\",\\\"Id\\\":\\\"e52bd583-7825-e011-8165-00155d043204\\\",\\\"value\\\":\\\"e52bd583-7825-e011-8165-00155d043204\\\",\\\"displayValue\\\":\\\"Call\\\"}}},{\\\"className\\\":\\\"Terrasoft.ParameterExpression\\\",\\\"expressionType\\\":2,\\\"parameter\\\":{\\\"className\\\":\\\"Terrasoft.Parameter\\\",\\\"dataValueType\\\":10,\\\"value\\\":{\\\"Name\\\":\\\"Call\\\",\\\"Id\\\":\\\"03df85bf-6b19-4dea-8463-d5d49b80bb28\\\",\\\"value\\\":\\\"03df85bf-6b19-4dea-8463-d5d49b80bb28\\\",\\\"displayValue\\\":\\\"Call\\\"}}}]},\\\"1a1db0c2-20b8-40cc-8362-672ee46887de\\\":{\\\"className\\\":\\\"Terrasoft.CompareFilter\\\",\\\"filterType\\\":1,\\\"comparisonType\\\":3,\\\"isEnabled\\\":true,\\\"trimDateTimeParameterToDate\\\":false,\\\"leftExpression\\\":{\\\"className\\\":\\\"Terrasoft.ColumnExpression\\\",\\\"expressionType\\\":0,\\\"columnPath\\\":\\\"Owner\\\"},\\\"isAggregative\\\":false,\\\"key\\\":\\\"1a1db0c2-20b8-40cc-8362-672ee46887de\\\",\\\"dataValueType\\\":10,\\\"leftExpressionCaption\\\":\\\"Owner\\\",\\\"referenceSchemaName\\\":\\\"Contact\\\",\\\"rightExpression\\\":{\\\"className\\\":\\\"Terrasoft.FunctionExpression\\\",\\\"expressionType\\\":1,\\\"functionType\\\":1,\\\"macrosType\\\":2}},\\\"5597624c-0871-47fd-8c20-ae4cc486a07c\\\":{\\\"className\\\":\\\"Terrasoft.CompareFilter\\\",\\\"filterType\\\":1,\\\"comparisonType\\\":3,\\\"isEnabled\\\":true,\\\"trimDateTimeParameterToDate\\\":true,\\\"leftExpression\\\":{\\\"className\\\":\\\"Terrasoft.ColumnExpression\\\",\\\"expressionType\\\":0,\\\"columnPath\\\":\\\"DueDate\\\"},\\\"isAggregative\\\":false,\\\"key\\\":\\\"5597624c-0871-47fd-8c20-ae4cc486a07c\\\",\\\"dataValueType\\\":7,\\\"leftExpressionCaption\\\":\\\"Due\\\",\\\"rightExpression\\\":{\\\"className\\\":\\\"Terrasoft.FunctionExpression\\\",\\\"expressionType\\\":1,\\\"functionType\\\":1,\\\"macrosType\\\":10}},\\\"e6f783dc-ad5c-423f-b530-7094b6825285\\\":{\\\"className\\\":\\\"Terrasoft.InFilter\\\",\\\"filterType\\\":4,\\\"comparisonType\\\":3,\\\"isEnabled\\\":true,\\\"trimDateTimeParameterToDate\\\":false,\\\"leftExpression\\\":{\\\"className\\\":\\\"Terrasoft.ColumnExpression\\\",\\\"expressionType\\\":0,\\\"columnPath\\\":\\\"Status\\\"},\\\"isAggregative\\\":false,\\\"key\\\":\\\"e6f783dc-ad5c-423f-b530-7094b6825285\\\",\\\"dataValueType\\\":10,\\\"leftExpressionCaption\\\":\\\"Status\\\",\\\"referenceSchemaName\\\":\\\"ActivityStatus\\\",\\\"rightExpressions\\\":[{\\\"className\\\":\\\"Terrasoft.ParameterExpression\\\",\\\"expressionType\\\":2,\\\"parameter\\\":{\\\"className\\\":\\\"Terrasoft.Parameter\\\",\\\"dataValueType\\\":10,\\\"value\\\":{\\\"Name\\\":\\\"Completed\\\",\\\"Id\\\":\\\"4bdbb88f-58e6-df11-971b-001d60e938c6\\\",\\\"value\\\":\\\"4bdbb88f-58e6-df11-971b-001d60e938c6\\\",\\\"displayValue\\\":\\\"Completed\\\"}}}]}},\\\"logicalOperation\\\":0,\\\"isEnabled\\\":true,\\\"filterType\\\":6,\\\"rootSchemaName\\\":\\\"Activity\\\",\\\"key\\\":\\\"\\\"}\",\"aggregationType\":1,\"style\":\"widget-orange\",\"fontStyle\":\"default-indicator-font-size\",\"format\":{\"textDecorator\":\"{0}\",\"type\":4,\"decimalPrecision\":0}},\"widgetType\":\"Indicator\"},\"Indicator3\":{\"parameters\":{\"caption\":\"Number of meetings this month\",\"entitySchemaName\":\"Activity\",\"filterData\":\"{\\\"className\\\":\\\"Terrasoft.FilterGroup\\\",\\\"items\\\":{\\\"f4cbfd8d-c93d-426c-9aab-593dcedf0138\\\":{\\\"className\\\":\\\"Terrasoft.InFilter\\\",\\\"filterType\\\":4,\\\"comparisonType\\\":3,\\\"isEnabled\\\":true,\\\"trimDateTimeParameterToDate\\\":false,\\\"leftExpression\\\":{\\\"className\\\":\\\"Terrasoft.ColumnExpression\\\",\\\"expressionType\\\":0,\\\"columnPath\\\":\\\"ActivityCategory\\\"},\\\"isAggregative\\\":false,\\\"key\\\":\\\"f4cbfd8d-c93d-426c-9aab-593dcedf0138\\\",\\\"dataValueType\\\":10,\\\"leftExpressionCaption\\\":\\\"Category\\\",\\\"referenceSchemaName\\\":\\\"ActivityCategory\\\",\\\"rightExpressions\\\":[{\\\"className\\\":\\\"Terrasoft.ParameterExpression\\\",\\\"expressionType\\\":2,\\\"parameter\\\":{\\\"className\\\":\\\"Terrasoft.Parameter\\\",\\\"dataValueType\\\":10,\\\"value\\\":{\\\"Name\\\":\\\"Meeting\\\",\\\"Id\\\":\\\"42c74c49-58e6-df11-971b-001d60e938c6\\\",\\\"value\\\":\\\"42c74c49-58e6-df11-971b-001d60e938c6\\\",\\\"displayValue\\\":\\\"Meeting\\\"}}}]},\\\"67a7834c-7d43-4ddb-b937-fca11b71bee3\\\":{\\\"className\\\":\\\"Terrasoft.CompareFilter\\\",\\\"filterType\\\":1,\\\"comparisonType\\\":3,\\\"isEnabled\\\":true,\\\"trimDateTimeParameterToDate\\\":false,\\\"leftExpression\\\":{\\\"className\\\":\\\"Terrasoft.ColumnExpression\\\",\\\"expressionType\\\":0,\\\"columnPath\\\":\\\"Owner\\\"},\\\"isAggregative\\\":false,\\\"key\\\":\\\"67a7834c-7d43-4ddb-b937-fca11b71bee3\\\",\\\"dataValueType\\\":10,\\\"leftExpressionCaption\\\":\\\"Owner\\\",\\\"referenceSchemaName\\\":\\\"Contact\\\",\\\"rightExpression\\\":{\\\"className\\\":\\\"Terrasoft.FunctionExpression\\\",\\\"expressionType\\\":1,\\\"functionType\\\":1,\\\"macrosType\\\":2}},\\\"e69a2f11-1064-4201-820d-22dad731853b\\\":{\\\"className\\\":\\\"Terrasoft.CompareFilter\\\",\\\"filterType\\\":1,\\\"comparisonType\\\":3,\\\"isEnabled\\\":true,\\\"trimDateTimeParameterToDate\\\":true,\\\"leftExpression\\\":{\\\"className\\\":\\\"Terrasoft.ColumnExpression\\\",\\\"expressionType\\\":0,\\\"columnPath\\\":\\\"DueDate\\\"},\\\"isAggregative\\\":false,\\\"key\\\":\\\"e69a2f11-1064-4201-820d-22dad731853b\\\",\\\"dataValueType\\\":7,\\\"leftExpressionCaption\\\":\\\"Due\\\",\\\"rightExpression\\\":{\\\"className\\\":\\\"Terrasoft.FunctionExpression\\\",\\\"expressionType\\\":1,\\\"functionType\\\":1,\\\"macrosType\\\":10}},\\\"3eef3ff4-dfca-463b-bafd-ed5b4231f02e\\\":{\\\"className\\\":\\\"Terrasoft.InFilter\\\",\\\"filterType\\\":4,\\\"comparisonType\\\":3,\\\"isEnabled\\\":true,\\\"trimDateTimeParameterToDate\\\":false,\\\"leftExpression\\\":{\\\"className\\\":\\\"Terrasoft.ColumnExpression\\\",\\\"expressionType\\\":0,\\\"columnPath\\\":\\\"Status\\\"},\\\"isAggregative\\\":false,\\\"key\\\":\\\"3eef3ff4-dfca-463b-bafd-ed5b4231f02e\\\",\\\"dataValueType\\\":10,\\\"leftExpressionCaption\\\":\\\"Status\\\",\\\"referenceSchemaName\\\":\\\"ActivityStatus\\\",\\\"rightExpressions\\\":[{\\\"className\\\":\\\"Terrasoft.ParameterExpression\\\",\\\"expressionType\\\":2,\\\"parameter\\\":{\\\"className\\\":\\\"Terrasoft.Parameter\\\",\\\"dataValueType\\\":10,\\\"value\\\":{\\\"Name\\\":\\\"Completed\\\",\\\"Id\\\":\\\"4bdbb88f-58e6-df11-971b-001d60e938c6\\\",\\\"value\\\":\\\"4bdbb88f-58e6-df11-971b-001d60e938c6\\\",\\\"displayValue\\\":\\\"Completed\\\"}}}]}},\\\"logicalOperation\\\":0,\\\"isEnabled\\\":true,\\\"filterType\\\":6,\\\"rootSchemaName\\\":\\\"Activity\\\",\\\"key\\\":\\\"\\\"}\",\"aggregationType\":1,\"style\":\"widget-violet\",\"fontStyle\":\"default-indicator-font-size\",\"format\":{\"textDecorator\":\"{0}\",\"type\":4,\"decimalPrecision\":0}},\"widgetType\":\"Indicator\"},\"DashboardGrid\":{\"parameters\":{\"caption\":\"Top 5 opportunities to close\",\"entitySchemaName\":\"Opportunity\",\"filterData\":\"{\\\"className\\\":\\\"Terrasoft.FilterGroup\\\",\\\"items\\\":{\\\"5b47e717-9031-4510-85b2-2458a4beab50\\\":{\\\"className\\\":\\\"Terrasoft.CompareFilter\\\",\\\"filterType\\\":1,\\\"comparisonType\\\":8,\\\"isEnabled\\\":true,\\\"trimDateTimeParameterToDate\\\":false,\\\"leftExpression\\\":{\\\"className\\\":\\\"Terrasoft.ColumnExpression\\\",\\\"expressionType\\\":0,\\\"columnPath\\\":\\\"Probability\\\"},\\\"isAggregative\\\":false,\\\"key\\\":\\\"5b47e717-9031-4510-85b2-2458a4beab50\\\",\\\"dataValueType\\\":4,\\\"leftExpressionCaption\\\":\\\"Probability, %\\\",\\\"rightExpression\\\":{\\\"className\\\":\\\"Terrasoft.ParameterExpression\\\",\\\"expressionType\\\":2,\\\"parameter\\\":{\\\"className\\\":\\\"Terrasoft.Parameter\\\",\\\"dataValueType\\\":4,\\\"value\\\":70}}},\\\"991bb89b-65af-4a20-8e18-7934e6fcd08e\\\":{\\\"className\\\":\\\"Terrasoft.CompareFilter\\\",\\\"filterType\\\":1,\\\"comparisonType\\\":3,\\\"isEnabled\\\":true,\\\"trimDateTimeParameterToDate\\\":false,\\\"leftExpression\\\":{\\\"className\\\":\\\"Terrasoft.ColumnExpression\\\",\\\"expressionType\\\":0,\\\"columnPath\\\":\\\"Owner\\\"},\\\"isAggregative\\\":false,\\\"key\\\":\\\"991bb89b-65af-4a20-8e18-7934e6fcd08e\\\",\\\"dataValueType\\\":10,\\\"leftExpressionCaption\\\":\\\"Owner\\\",\\\"referenceSchemaName\\\":\\\"Contact\\\",\\\"rightExpression\\\":{\\\"className\\\":\\\"Terrasoft.FunctionExpression\\\",\\\"expressionType\\\":1,\\\"functionType\\\":1,\\\"macrosType\\\":2}},\\\"98d6a074-b821-483f-b701-e8c08fc7bcf2\\\":{\\\"className\\\":\\\"Terrasoft.InFilter\\\",\\\"filterType\\\":4,\\\"comparisonType\\\":4,\\\"isEnabled\\\":true,\\\"trimDateTimeParameterToDate\\\":false,\\\"leftExpression\\\":{\\\"className\\\":\\\"Terrasoft.ColumnExpression\\\",\\\"expressionType\\\":0,\\\"columnPath\\\":\\\"Stage\\\"},\\\"isAggregative\\\":false,\\\"key\\\":\\\"98d6a074-b821-483f-b701-e8c08fc7bcf2\\\",\\\"dataValueType\\\":10,\\\"leftExpressionCaption\\\":\\\"Stage\\\",\\\"referenceSchemaName\\\":\\\"OpportunityStage\\\",\\\"rightExpressions\\\":[{\\\"className\\\":\\\"Terrasoft.ParameterExpression\\\",\\\"expressionType\\\":2,\\\"parameter\\\":{\\\"className\\\":\\\"Terrasoft.Parameter\\\",\\\"dataValueType\\\":10,\\\"value\\\":{\\\"Name\\\":\\\"Closed won\\\",\\\"Id\\\":\\\"60d5310c-5be6-df11-971b-001d60e938c6\\\",\\\"value\\\":\\\"60d5310c-5be6-df11-971b-001d60e938c6\\\",\\\"displayValue\\\":\\\"Closed won\\\"}}},{\\\"className\\\":\\\"Terrasoft.ParameterExpression\\\",\\\"expressionType\\\":2,\\\"parameter\\\":{\\\"className\\\":\\\"Terrasoft.Parameter\\\",\\\"dataValueType\\\":10,\\\"value\\\":{\\\"Name\\\":\\\"Closed lost\\\",\\\"Id\\\":\\\"a9aafdfe-2242-4f42-8cd5-2ae3b9556d79\\\",\\\"value\\\":\\\"a9aafdfe-2242-4f42-8cd5-2ae3b9556d79\\\",\\\"displayValue\\\":\\\"Closed lost\\\"}}},{\\\"className\\\":\\\"Terrasoft.ParameterExpression\\\",\\\"expressionType\\\":2,\\\"parameter\\\":{\\\"className\\\":\\\"Terrasoft.Parameter\\\",\\\"dataValueType\\\":10,\\\"value\\\":{\\\"Name\\\":\\\"Closed rejected\\\",\\\"Id\\\":\\\"736f54fd-e240-46f8-8c7c-9066c30aff59\\\",\\\"value\\\":\\\"736f54fd-e240-46f8-8c7c-9066c30aff59\\\",\\\"displayValue\\\":\\\"Closed rejected\\\"}}},{\\\"className\\\":\\\"Terrasoft.ParameterExpression\\\",\\\"expressionType\\\":2,\\\"parameter\\\":{\\\"className\\\":\\\"Terrasoft.Parameter\\\",\\\"dataValueType\\\":10,\\\"value\\\":{\\\"Name\\\":\\\"Closed rerouted\\\",\\\"Id\\\":\\\"9abf243c-fc00-45cf-8e28-cdb66c9208b0\\\",\\\"value\\\":\\\"9abf243c-fc00-45cf-8e28-cdb66c9208b0\\\",\\\"displayValue\\\":\\\"Closed rerouted\\\"}}}]}},\\\"logicalOperation\\\":0,\\\"isEnabled\\\":true,\\\"filterType\\\":6,\\\"rootSchemaName\\\":\\\"Opportunity\\\",\\\"key\\\":\\\"\\\"}\",\"style\":\"widget-green\",\"rowCount\":5,\"gridConfig\":{\"items\":[{\"bindTo\":\"Title\",\"caption\":\"Name\",\"type\":\"link\",\"position\":{\"column\":0,\"colSpan\":13,\"row\":1},\"aggregationType\":\"\",\"metaCaptionPath\":\"Name\",\"metaPath\":\"Title\",\"serializedFilter\":\"{\\\"className\\\":\\\"Terrasoft.FilterGroup\\\",\\\"items\\\":{},\\\"logicalOperation\\\":0,\\\"isEnabled\\\":true,\\\"filterType\\\":6,\\\"key\\\":\\\"\\\"}\"},{\"bindTo\":\"Account\",\"caption\":\"Account\",\"type\":\"link\",\"position\":{\"column\":13,\"colSpan\":6,\"row\":1},\"dataValueType\":10,\"aggregationType\":\"\",\"metaCaptionPath\":\"Account\",\"metaPath\":\"Account\",\"serializedFilter\":\"{\\\"className\\\":\\\"Terrasoft.FilterGroup\\\",\\\"items\\\":{},\\\"logicalOperation\\\":0,\\\"isEnabled\\\":true,\\\"filterType\\\":6,\\\"key\\\":\\\"\\\"}\"},{\"bindTo\":\"Budget\",\"caption\":\"Budget\",\"position\":{\"column\":19,\"colSpan\":5,\"row\":1},\"dataValueType\":5,\"aggregationType\":\"\",\"metaPath\":\"Budget\",\"serializedFilter\":\"{\\\"className\\\":\\\"Terrasoft.FilterGroup\\\",\\\"items\\\":{},\\\"logicalOperation\\\":0,\\\"isEnabled\\\":true,\\\"filterType\\\":6,\\\"key\\\":\\\"\\\"}\",\"orderDirection\":2,\"orderPosition\":1}]}},\"widgetType\":\"DashboardGrid\"},\"DashboardGrid1\":{\"parameters\":{\"caption\":\"Top 5 unpaid invoices\",\"entitySchemaName\":\"Invoice\",\"filterData\":\"{\\\"className\\\":\\\"Terrasoft.FilterGroup\\\",\\\"items\\\":{\\\"f17d0c6e-1378-437e-b1ef-2ce6825560e3\\\":{\\\"className\\\":\\\"Terrasoft.InFilter\\\",\\\"filterType\\\":4,\\\"comparisonType\\\":3,\\\"isEnabled\\\":true,\\\"trimDateTimeParameterToDate\\\":false,\\\"leftExpression\\\":{\\\"className\\\":\\\"Terrasoft.ColumnExpression\\\",\\\"expressionType\\\":0,\\\"columnPath\\\":\\\"PaymentStatus\\\"},\\\"isAggregative\\\":false,\\\"key\\\":\\\"f17d0c6e-1378-437e-b1ef-2ce6825560e3\\\",\\\"dataValueType\\\":10,\\\"leftExpressionCaption\\\":\\\"Payment status\\\",\\\"referenceSchemaName\\\":\\\"InvoicePaymentStatus\\\",\\\"rightExpressions\\\":[{\\\"className\\\":\\\"Terrasoft.ParameterExpression\\\",\\\"expressionType\\\":2,\\\"parameter\\\":{\\\"className\\\":\\\"Terrasoft.Parameter\\\",\\\"dataValueType\\\":10,\\\"value\\\":{\\\"Name\\\":\\\"Unpaid\\\",\\\"Id\\\":\\\"36319d13-98e6-df11-971b-001d60e938c6\\\",\\\"value\\\":\\\"36319d13-98e6-df11-971b-001d60e938c6\\\",\\\"displayValue\\\":\\\"Unpaid\\\"}}},{\\\"className\\\":\\\"Terrasoft.ParameterExpression\\\",\\\"expressionType\\\":2,\\\"parameter\\\":{\\\"className\\\":\\\"Terrasoft.Parameter\\\",\\\"dataValueType\\\":10,\\\"value\\\":{\\\"Name\\\":\\\"Partially paid\\\",\\\"Id\\\":\\\"03794bf5-52e6-df11-971b-001d60e938c6\\\",\\\"value\\\":\\\"03794bf5-52e6-df11-971b-001d60e938c6\\\",\\\"displayValue\\\":\\\"Partially paid\\\"}}}]},\\\"f7f04933-2ca7-4897-a8ef-1af0b6e96082\\\":{\\\"className\\\":\\\"Terrasoft.CompareFilter\\\",\\\"filterType\\\":1,\\\"comparisonType\\\":3,\\\"isEnabled\\\":true,\\\"trimDateTimeParameterToDate\\\":false,\\\"leftExpression\\\":{\\\"className\\\":\\\"Terrasoft.ColumnExpression\\\",\\\"expressionType\\\":0,\\\"columnPath\\\":\\\"Owner\\\"},\\\"isAggregative\\\":false,\\\"key\\\":\\\"f7f04933-2ca7-4897-a8ef-1af0b6e96082\\\",\\\"dataValueType\\\":10,\\\"leftExpressionCaption\\\":\\\"Owner\\\",\\\"referenceSchemaName\\\":\\\"Contact\\\",\\\"rightExpression\\\":{\\\"className\\\":\\\"Terrasoft.FunctionExpression\\\",\\\"expressionType\\\":1,\\\"functionType\\\":1,\\\"macrosType\\\":2}}},\\\"logicalOperation\\\":0,\\\"isEnabled\\\":true,\\\"filterType\\\":6,\\\"rootSchemaName\\\":\\\"Invoice\\\",\\\"key\\\":\\\"\\\"}\",\"style\":\"widget-coral\",\"rowCount\":5,\"gridConfig\":{\"items\":[{\"bindTo\":\"Number\",\"caption\":\"Number\",\"type\":\"link\",\"position\":{\"column\":0,\"colSpan\":8,\"row\":1},\"aggregationType\":\"\",\"metaCaptionPath\":\"Number\",\"metaPath\":\"Number\",\"serializedFilter\":\"{\\\"className\\\":\\\"Terrasoft.FilterGroup\\\",\\\"items\\\":{},\\\"logicalOperation\\\":0,\\\"isEnabled\\\":true,\\\"filterType\\\":6,\\\"key\\\":\\\"\\\"}\"},{\"bindTo\":\"Account\",\"caption\":\"Account\",\"type\":\"link\",\"position\":{\"column\":8,\"colSpan\":11,\"row\":1},\"dataValueType\":10,\"aggregationType\":\"\",\"metaCaptionPath\":\"Account\",\"metaPath\":\"Account\",\"serializedFilter\":\"{\\\"className\\\":\\\"Terrasoft.FilterGroup\\\",\\\"items\\\":{},\\\"logicalOperation\\\":0,\\\"isEnabled\\\":true,\\\"filterType\\\":6,\\\"key\\\":\\\"\\\"}\"},{\"bindTo\":\"PrimaryAmount\",\"caption\":\"Amount, base currency\",\"position\":{\"column\":19,\"colSpan\":5,\"row\":1},\"dataValueType\":6,\"metaPath\":\"PrimaryAmount\",\"orderDirection\":2,\"orderPosition\":1}]}},\"widgetType\":\"DashboardGrid\"},\"DashboardGrid2\":{\"parameters\":{\"caption\":\"Opportunities to close this month\",\"entitySchemaName\":\"Opportunity\",\"filterData\":\"{\\\"className\\\":\\\"Terrasoft.FilterGroup\\\",\\\"items\\\":{\\\"123670fe-aae0-41ca-8f02-d7eb4bee3a88\\\":{\\\"className\\\":\\\"Terrasoft.CompareFilter\\\",\\\"filterType\\\":1,\\\"comparisonType\\\":3,\\\"isEnabled\\\":true,\\\"trimDateTimeParameterToDate\\\":false,\\\"leftExpression\\\":{\\\"className\\\":\\\"Terrasoft.ColumnExpression\\\",\\\"expressionType\\\":0,\\\"columnPath\\\":\\\"Owner\\\"},\\\"isAggregative\\\":false,\\\"key\\\":\\\"123670fe-aae0-41ca-8f02-d7eb4bee3a88\\\",\\\"dataValueType\\\":10,\\\"leftExpressionCaption\\\":\\\"Owner\\\",\\\"referenceSchemaName\\\":\\\"Contact\\\",\\\"rightExpression\\\":{\\\"className\\\":\\\"Terrasoft.FunctionExpression\\\",\\\"expressionType\\\":1,\\\"functionType\\\":1,\\\"macrosType\\\":2}},\\\"72989961-ac67-49e0-89d3-2577e3c2f341\\\":{\\\"className\\\":\\\"Terrasoft.CompareFilter\\\",\\\"filterType\\\":1,\\\"comparisonType\\\":3,\\\"isEnabled\\\":true,\\\"trimDateTimeParameterToDate\\\":true,\\\"leftExpression\\\":{\\\"className\\\":\\\"Terrasoft.ColumnExpression\\\",\\\"expressionType\\\":0,\\\"columnPath\\\":\\\"DueDate\\\"},\\\"isAggregative\\\":false,\\\"key\\\":\\\"72989961-ac67-49e0-89d3-2577e3c2f341\\\",\\\"dataValueType\\\":7,\\\"leftExpressionCaption\\\":\\\"Closed on\\\",\\\"rightExpression\\\":{\\\"className\\\":\\\"Terrasoft.FunctionExpression\\\",\\\"expressionType\\\":1,\\\"functionType\\\":1,\\\"macrosType\\\":10}},\\\"8e82eb8b-df49-413a-a8a7-17069b0f3076\\\":{\\\"className\\\":\\\"Terrasoft.InFilter\\\",\\\"filterType\\\":4,\\\"comparisonType\\\":4,\\\"isEnabled\\\":true,\\\"trimDateTimeParameterToDate\\\":false,\\\"leftExpression\\\":{\\\"className\\\":\\\"Terrasoft.ColumnExpression\\\",\\\"expressionType\\\":0,\\\"columnPath\\\":\\\"Stage\\\"},\\\"isAggregative\\\":false,\\\"key\\\":\\\"8e82eb8b-df49-413a-a8a7-17069b0f3076\\\",\\\"dataValueType\\\":10,\\\"leftExpressionCaption\\\":\\\"Stage\\\",\\\"referenceSchemaName\\\":\\\"OpportunityStage\\\",\\\"rightExpressions\\\":[{\\\"className\\\":\\\"Terrasoft.ParameterExpression\\\",\\\"expressionType\\\":2,\\\"parameter\\\":{\\\"className\\\":\\\"Terrasoft.Parameter\\\",\\\"dataValueType\\\":10,\\\"value\\\":{\\\"Name\\\":\\\"Closed won\\\",\\\"Id\\\":\\\"60d5310c-5be6-df11-971b-001d60e938c6\\\",\\\"value\\\":\\\"60d5310c-5be6-df11-971b-001d60e938c6\\\",\\\"displayValue\\\":\\\"Closed won\\\"}}},{\\\"className\\\":\\\"Terrasoft.ParameterExpression\\\",\\\"expressionType\\\":2,\\\"parameter\\\":{\\\"className\\\":\\\"Terrasoft.Parameter\\\",\\\"dataValueType\\\":10,\\\"value\\\":{\\\"Name\\\":\\\"Closed lost\\\",\\\"Id\\\":\\\"a9aafdfe-2242-4f42-8cd5-2ae3b9556d79\\\",\\\"value\\\":\\\"a9aafdfe-2242-4f42-8cd5-2ae3b9556d79\\\",\\\"displayValue\\\":\\\"Closed lost\\\"}}},{\\\"className\\\":\\\"Terrasoft.ParameterExpression\\\",\\\"expressionType\\\":2,\\\"parameter\\\":{\\\"className\\\":\\\"Terrasoft.Parameter\\\",\\\"dataValueType\\\":10,\\\"value\\\":{\\\"Name\\\":\\\"Closed rejected\\\",\\\"Id\\\":\\\"736f54fd-e240-46f8-8c7c-9066c30aff59\\\",\\\"value\\\":\\\"736f54fd-e240-46f8-8c7c-9066c30aff59\\\",\\\"displayValue\\\":\\\"Closed rejected\\\"}}},{\\\"className\\\":\\\"Terrasoft.ParameterExpression\\\",\\\"expressionType\\\":2,\\\"parameter\\\":{\\\"className\\\":\\\"Terrasoft.Parameter\\\",\\\"dataValueType\\\":10,\\\"value\\\":{\\\"Name\\\":\\\"Closed rerouted\\\",\\\"Id\\\":\\\"9abf243c-fc00-45cf-8e28-cdb66c9208b0\\\",\\\"value\\\":\\\"9abf243c-fc00-45cf-8e28-cdb66c9208b0\\\",\\\"displayValue\\\":\\\"Closed rerouted\\\"}}}]}},\\\"logicalOperation\\\":0,\\\"isEnabled\\\":true,\\\"filterType\\\":6,\\\"rootSchemaName\\\":\\\"Opportunity\\\",\\\"key\\\":\\\"\\\"}\",\"style\":\"widget-orange\",\"rowCount\":8,\"gridConfig\":{\"items\":[{\"bindTo\":\"Title\",\"caption\":\"Name\",\"type\":\"link\",\"position\":{\"column\":0,\"colSpan\":11,\"row\":1},\"aggregationType\":\"\",\"metaCaptionPath\":\"Name\",\"metaPath\":\"Title\",\"serializedFilter\":\"{\\\"className\\\":\\\"Terrasoft.FilterGroup\\\",\\\"items\\\":{},\\\"logicalOperation\\\":0,\\\"isEnabled\\\":true,\\\"filterType\\\":6,\\\"key\\\":\\\"\\\"}\"},{\"bindTo\":\"Account\",\"caption\":\"Account\",\"type\":\"link\",\"position\":{\"column\":11,\"colSpan\":7,\"row\":1},\"dataValueType\":10,\"aggregationType\":\"\",\"metaCaptionPath\":\"Account\",\"metaPath\":\"Account\",\"serializedFilter\":\"{\\\"className\\\":\\\"Terrasoft.FilterGroup\\\",\\\"items\\\":{},\\\"logicalOperation\\\":0,\\\"isEnabled\\\":true,\\\"filterType\\\":6,\\\"key\\\":\\\"\\\"}\"},{\"bindTo\":\"DueDate\",\"caption\":\"Closed on\",\"position\":{\"column\":18,\"colSpan\":6,\"row\":1},\"dataValueType\":7,\"metaPath\":\"DueDate\",\"orderDirection\":1,\"orderPosition\":1}]}},\"widgetType\":\"DashboardGrid\"},\"DashboardGrid3\":{\"parameters\":{\"caption\":\"Upcoming payments\",\"entitySchemaName\":\"Invoice\",\"filterData\":\"{\\\"className\\\":\\\"Terrasoft.FilterGroup\\\",\\\"items\\\":{\\\"f17d0c6e-1378-437e-b1ef-2ce6825560e3\\\":{\\\"className\\\":\\\"Terrasoft.InFilter\\\",\\\"filterType\\\":4,\\\"comparisonType\\\":3,\\\"isEnabled\\\":true,\\\"trimDateTimeParameterToDate\\\":false,\\\"leftExpression\\\":{\\\"className\\\":\\\"Terrasoft.ColumnExpression\\\",\\\"expressionType\\\":0,\\\"columnPath\\\":\\\"PaymentStatus\\\"},\\\"isAggregative\\\":false,\\\"key\\\":\\\"f17d0c6e-1378-437e-b1ef-2ce6825560e3\\\",\\\"dataValueType\\\":10,\\\"leftExpressionCaption\\\":\\\"Payment status\\\",\\\"referenceSchemaName\\\":\\\"InvoicePaymentStatus\\\",\\\"rightExpressions\\\":[{\\\"className\\\":\\\"Terrasoft.ParameterExpression\\\",\\\"expressionType\\\":2,\\\"parameter\\\":{\\\"className\\\":\\\"Terrasoft.Parameter\\\",\\\"dataValueType\\\":10,\\\"value\\\":{\\\"Name\\\":\\\"Unpaid\\\",\\\"Id\\\":\\\"36319d13-98e6-df11-971b-001d60e938c6\\\",\\\"value\\\":\\\"36319d13-98e6-df11-971b-001d60e938c6\\\",\\\"displayValue\\\":\\\"Unpaid\\\"}}},{\\\"className\\\":\\\"Terrasoft.ParameterExpression\\\",\\\"expressionType\\\":2,\\\"parameter\\\":{\\\"className\\\":\\\"Terrasoft.Parameter\\\",\\\"dataValueType\\\":10,\\\"value\\\":{\\\"Name\\\":\\\"Partially paid\\\",\\\"Id\\\":\\\"03794bf5-52e6-df11-971b-001d60e938c6\\\",\\\"value\\\":\\\"03794bf5-52e6-df11-971b-001d60e938c6\\\",\\\"displayValue\\\":\\\"Partially paid\\\"}}},{\\\"className\\\":\\\"Terrasoft.ParameterExpression\\\",\\\"expressionType\\\":2,\\\"parameter\\\":{\\\"className\\\":\\\"Terrasoft.Parameter\\\",\\\"dataValueType\\\":10,\\\"value\\\":{\\\"Name\\\":\\\"Draft\\\",\\\"Id\\\":\\\"02794bf5-52e6-df11-971b-001d60e938c6\\\",\\\"value\\\":\\\"02794bf5-52e6-df11-971b-001d60e938c6\\\",\\\"displayValue\\\":\\\"Draft\\\"}}}]},\\\"f7f04933-2ca7-4897-a8ef-1af0b6e96082\\\":{\\\"className\\\":\\\"Terrasoft.CompareFilter\\\",\\\"filterType\\\":1,\\\"comparisonType\\\":3,\\\"isEnabled\\\":true,\\\"trimDateTimeParameterToDate\\\":false,\\\"leftExpression\\\":{\\\"className\\\":\\\"Terrasoft.ColumnExpression\\\",\\\"expressionType\\\":0,\\\"columnPath\\\":\\\"Owner\\\"},\\\"isAggregative\\\":false,\\\"key\\\":\\\"f7f04933-2ca7-4897-a8ef-1af0b6e96082\\\",\\\"dataValueType\\\":10,\\\"leftExpressionCaption\\\":\\\"Owner\\\",\\\"referenceSchemaName\\\":\\\"Contact\\\",\\\"rightExpression\\\":{\\\"className\\\":\\\"Terrasoft.FunctionExpression\\\",\\\"expressionType\\\":1,\\\"functionType\\\":1,\\\"macrosType\\\":2}},\\\"ad167659-2c4e-4b4e-a45c-13e73ef99b08\\\":{\\\"className\\\":\\\"Terrasoft.CompareFilter\\\",\\\"filterType\\\":1,\\\"comparisonType\\\":8,\\\"isEnabled\\\":true,\\\"trimDateTimeParameterToDate\\\":false,\\\"leftExpression\\\":{\\\"className\\\":\\\"Terrasoft.ColumnExpression\\\",\\\"expressionType\\\":0,\\\"columnPath\\\":\\\"DueDate\\\"},\\\"isAggregative\\\":false,\\\"key\\\":\\\"ad167659-2c4e-4b4e-a45c-13e73ef99b08\\\",\\\"dataValueType\\\":8,\\\"leftExpressionCaption\\\":\\\"Paid on\\\",\\\"rightExpression\\\":{\\\"className\\\":\\\"Terrasoft.FunctionExpression\\\",\\\"expressionType\\\":1,\\\"functionType\\\":1,\\\"macrosType\\\":4}}},\\\"logicalOperation\\\":0,\\\"isEnabled\\\":true,\\\"filterType\\\":6,\\\"rootSchemaName\\\":\\\"Invoice\\\",\\\"key\\\":\\\"\\\"}\",\"style\":\"widget-turquoise\",\"rowCount\":5,\"gridConfig\":{\"items\":[{\"bindTo\":\"Number\",\"caption\":\"Number\",\"type\":\"link\",\"position\":{\"column\":0,\"colSpan\":5,\"row\":1},\"aggregationType\":\"\",\"metaCaptionPath\":\"Number\",\"metaPath\":\"Number\",\"serializedFilter\":\"{\\\"className\\\":\\\"Terrasoft.FilterGroup\\\",\\\"items\\\":{},\\\"logicalOperation\\\":0,\\\"isEnabled\\\":true,\\\"filterType\\\":6,\\\"key\\\":\\\"\\\"}\"},{\"bindTo\":\"Account\",\"caption\":\"Account\",\"type\":\"link\",\"position\":{\"column\":5,\"colSpan\":9,\"row\":1},\"dataValueType\":10,\"aggregationType\":\"\",\"metaCaptionPath\":\"Account\",\"metaPath\":\"Account\",\"serializedFilter\":\"{\\\"className\\\":\\\"Terrasoft.FilterGroup\\\",\\\"items\\\":{},\\\"logicalOperation\\\":0,\\\"isEnabled\\\":true,\\\"filterType\\\":6,\\\"key\\\":\\\"\\\"}\"},{\"bindTo\":\"DueDate\",\"caption\":\"Paid on\",\"position\":{\"column\":14,\"colSpan\":5,\"row\":1},\"dataValueType\":8,\"metaPath\":\"DueDate\",\"orderDirection\":1,\"orderPosition\":1},{\"bindTo\":\"PrimaryAmount\",\"caption\":\"Amount, base currency\",\"position\":{\"column\":19,\"colSpan\":5,\"row\":1},\"dataValueType\":6,\"metaPath\":\"PrimaryAmount\"}]}},\"widgetType\":\"DashboardGrid\"},\"Chart\":{\"parameters\":{\"seriesConfig\":[],\"orderDirection\":\"Ascending\",\"caption\":\"Current month invoices by status\",\"primaryColumnName\":\"Id\",\"yAxisConfig\":{\"position\":0},\"schemaName\":\"Invoice\",\"func\":2,\"type\":\"pie\",\"xAxisColumn\":\"PaymentStatus\",\"yAxisColumn\":\"PrimaryAmount\",\"YAxisCaption\":\"Invoices amount\",\"styleColor\":\"widget-navy\",\"filterData\":\"{\\\"className\\\":\\\"Terrasoft.FilterGroup\\\",\\\"items\\\":{\\\"5e8841f0-91cb-4b7d-b380-a61e616edf02\\\":{\\\"className\\\":\\\"Terrasoft.CompareFilter\\\",\\\"filterType\\\":1,\\\"comparisonType\\\":3,\\\"isEnabled\\\":true,\\\"trimDateTimeParameterToDate\\\":false,\\\"leftExpression\\\":{\\\"className\\\":\\\"Terrasoft.ColumnExpression\\\",\\\"expressionType\\\":0,\\\"columnPath\\\":\\\"DueDate\\\"},\\\"isAggregative\\\":false,\\\"key\\\":\\\"5e8841f0-91cb-4b7d-b380-a61e616edf02\\\",\\\"dataValueType\\\":8,\\\"leftExpressionCaption\\\":\\\"Paid on\\\",\\\"rightExpression\\\":{\\\"className\\\":\\\"Terrasoft.FunctionExpression\\\",\\\"expressionType\\\":1,\\\"functionType\\\":1,\\\"macrosType\\\":10}},\\\"89bc3695-d642-460f-a584-2dbfd4e8aa87\\\":{\\\"className\\\":\\\"Terrasoft.CompareFilter\\\",\\\"filterType\\\":1,\\\"comparisonType\\\":3,\\\"isEnabled\\\":true,\\\"trimDateTimeParameterToDate\\\":false,\\\"leftExpression\\\":{\\\"className\\\":\\\"Terrasoft.ColumnExpression\\\",\\\"expressionType\\\":0,\\\"columnPath\\\":\\\"Owner\\\"},\\\"isAggregative\\\":false,\\\"key\\\":\\\"89bc3695-d642-460f-a584-2dbfd4e8aa87\\\",\\\"dataValueType\\\":0,\\\"leftExpressionCaption\\\":\\\"Owner\\\",\\\"referenceSchemaName\\\":\\\"Contact\\\",\\\"rightExpression\\\":{\\\"className\\\":\\\"Terrasoft.FunctionExpression\\\",\\\"expressionType\\\":1,\\\"functionType\\\":1,\\\"macrosType\\\":2}}},\\\"logicalOperation\\\":0,\\\"isEnabled\\\":true,\\\"filterType\\\":6,\\\"rootSchemaName\\\":\\\"Invoice\\\",\\\"key\\\":\\\"\\\"}\"},\"widgetType\":\"Chart\"},\"DashboardGrid4\":{\"parameters\":{\"caption\":\"Upcoming noteworthy events\",\"entitySchemaName\":\"VwAnniversary\",\"filterData\":\"{\\\"className\\\":\\\"Terrasoft.FilterGroup\\\",\\\"items\\\":{\\\"bc58fcd7-dd72-4eae-baab-86cc4b7d673c\\\":{\\\"className\\\":\\\"Terrasoft.CompareFilter\\\",\\\"filterType\\\":1,\\\"comparisonType\\\":3,\\\"isEnabled\\\":true,\\\"trimDateTimeParameterToDate\\\":false,\\\"leftExpression\\\":{\\\"className\\\":\\\"Terrasoft.FunctionExpression\\\",\\\"expressionType\\\":1,\\\"functionType\\\":3,\\\"functionArgument\\\":{\\\"className\\\":\\\"Terrasoft.ColumnExpression\\\",\\\"expressionType\\\":0,\\\"columnPath\\\":\\\"Date\\\"},\\\"datePartType\\\":3},\\\"isAggregative\\\":false,\\\"key\\\":\\\"bc58fcd7-dd72-4eae-baab-86cc4b7d673c\\\",\\\"dataValueType\\\":8,\\\"leftExpressionCaption\\\":\\\"Date\\\",\\\"rightExpression\\\":{\\\"className\\\":\\\"Terrasoft.ParameterExpression\\\",\\\"expressionType\\\":2,\\\"parameter\\\":{\\\"className\\\":\\\"Terrasoft.Parameter\\\",\\\"dataValueType\\\":4,\\\"value\\\":9}}}},\\\"logicalOperation\\\":0,\\\"isEnabled\\\":true,\\\"filterType\\\":6,\\\"rootSchemaName\\\":\\\"VwAnniversary\\\",\\\"key\\\":\\\"\\\"}\",\"style\":\"widget-green\",\"rowCount\":5,\"gridConfig\":{\"items\":[{\"bindTo\":\"Contact\",\"caption\":\"Contact\",\"type\":\"link\",\"position\":{\"column\":0,\"colSpan\":8,\"row\":1},\"dataValueType\":10,\"aggregationType\":\"\",\"metaCaptionPath\":\"Contact\",\"metaPath\":\"Contact\",\"serializedFilter\":\"{\\\"className\\\":\\\"Terrasoft.FilterGroup\\\",\\\"items\\\":{},\\\"logicalOperation\\\":0,\\\"isEnabled\\\":true,\\\"filterType\\\":6,\\\"key\\\":\\\"\\\"}\"},{\"bindTo\":\"Account\",\"caption\":\"Account\",\"type\":\"link\",\"position\":{\"column\":8,\"colSpan\":7,\"row\":1},\"dataValueType\":10,\"aggregationType\":\"\",\"metaCaptionPath\":\"Account\",\"metaPath\":\"Account\",\"serializedFilter\":\"{\\\"className\\\":\\\"Terrasoft.FilterGroup\\\",\\\"items\\\":{},\\\"logicalOperation\\\":0,\\\"isEnabled\\\":true,\\\"filterType\\\":6,\\\"key\\\":\\\"\\\"}\"},{\"bindTo\":\"AnniversaryType\",\"caption\":\"Noteworthy event type\",\"position\":{\"column\":15,\"colSpan\":5,\"row\":1},\"dataValueType\":10,\"metaPath\":\"AnniversaryType\"},{\"bindTo\":\"Date\",\"caption\":\"Date\",\"position\":{\"column\":20,\"colSpan\":4,\"row\":1},\"orderDirection\":1,\"orderPosition\":1,\"dataValueType\":8,\"metaPath\":\"Date\"}]}},\"widgetType\":\"DashboardGrid\"},\"DashboardGrid5\":{\"parameters\":{\"caption\":\"My overdue tasks\",\"entitySchemaName\":\"Activity\",\"filterData\":\"{\\\"className\\\":\\\"Terrasoft.FilterGroup\\\",\\\"items\\\":{\\\"6008a4bc-95ab-4b03-b535-4c0212ead359\\\":{\\\"className\\\":\\\"Terrasoft.CompareFilter\\\",\\\"filterType\\\":1,\\\"comparisonType\\\":5,\\\"isEnabled\\\":true,\\\"trimDateTimeParameterToDate\\\":true,\\\"leftExpression\\\":{\\\"className\\\":\\\"Terrasoft.ColumnExpression\\\",\\\"expressionType\\\":0,\\\"columnPath\\\":\\\"DueDate\\\"},\\\"isAggregative\\\":false,\\\"key\\\":\\\"6008a4bc-95ab-4b03-b535-4c0212ead359\\\",\\\"dataValueType\\\":7,\\\"leftExpressionCaption\\\":\\\"Due\\\",\\\"rightExpression\\\":{\\\"className\\\":\\\"Terrasoft.FunctionExpression\\\",\\\"expressionType\\\":1,\\\"functionType\\\":1,\\\"macrosType\\\":21}},\\\"4e25deb6-6d2c-41c6-94c1-dc23abbeea00\\\":{\\\"className\\\":\\\"Terrasoft.CompareFilter\\\",\\\"filterType\\\":1,\\\"comparisonType\\\":3,\\\"isEnabled\\\":true,\\\"trimDateTimeParameterToDate\\\":false,\\\"leftExpression\\\":{\\\"className\\\":\\\"Terrasoft.ColumnExpression\\\",\\\"expressionType\\\":0,\\\"columnPath\\\":\\\"Owner\\\"},\\\"isAggregative\\\":false,\\\"key\\\":\\\"4e25deb6-6d2c-41c6-94c1-dc23abbeea00\\\",\\\"dataValueType\\\":10,\\\"leftExpressionCaption\\\":\\\"Owner\\\",\\\"referenceSchemaName\\\":\\\"Contact\\\",\\\"rightExpression\\\":{\\\"className\\\":\\\"Terrasoft.FunctionExpression\\\",\\\"expressionType\\\":1,\\\"functionType\\\":1,\\\"macrosType\\\":2}},\\\"914c8f2d-a6b6-429d-9b46-1ce562ba3fe4\\\":{\\\"className\\\":\\\"Terrasoft.InFilter\\\",\\\"filterType\\\":4,\\\"comparisonType\\\":4,\\\"isEnabled\\\":true,\\\"trimDateTimeParameterToDate\\\":false,\\\"leftExpression\\\":{\\\"className\\\":\\\"Terrasoft.ColumnExpression\\\",\\\"expressionType\\\":0,\\\"columnPath\\\":\\\"Status\\\"},\\\"isAggregative\\\":false,\\\"key\\\":\\\"914c8f2d-a6b6-429d-9b46-1ce562ba3fe4\\\",\\\"dataValueType\\\":10,\\\"leftExpressionCaption\\\":\\\"Status\\\",\\\"referenceSchemaName\\\":\\\"ActivityStatus\\\",\\\"rightExpressions\\\":[{\\\"className\\\":\\\"Terrasoft.ParameterExpression\\\",\\\"expressionType\\\":2,\\\"parameter\\\":{\\\"className\\\":\\\"Terrasoft.Parameter\\\",\\\"dataValueType\\\":10,\\\"value\\\":{\\\"Name\\\":\\\"Completed\\\",\\\"Id\\\":\\\"4bdbb88f-58e6-df11-971b-001d60e938c6\\\",\\\"value\\\":\\\"4bdbb88f-58e6-df11-971b-001d60e938c6\\\",\\\"displayValue\\\":\\\"Completed\\\"}}},{\\\"className\\\":\\\"Terrasoft.ParameterExpression\\\",\\\"expressionType\\\":2,\\\"parameter\\\":{\\\"className\\\":\\\"Terrasoft.Parameter\\\",\\\"dataValueType\\\":10,\\\"value\\\":{\\\"Name\\\":\\\"Canceled\\\",\\\"Id\\\":\\\"201cfba8-58e6-df11-971b-001d60e938c6\\\",\\\"value\\\":\\\"201cfba8-58e6-df11-971b-001d60e938c6\\\",\\\"displayValue\\\":\\\"Canceled\\\"}}}]}},\\\"logicalOperation\\\":0,\\\"isEnabled\\\":true,\\\"filterType\\\":6,\\\"rootSchemaName\\\":\\\"Activity\\\",\\\"key\\\":\\\"\\\"}\",\"style\":\"widget-coral\",\"rowCount\":15,\"gridConfig\":{\"items\":[{\"bindTo\":\"Title\",\"caption\":\"Title\",\"type\":\"link\",\"position\":{\"column\":0,\"colSpan\":12,\"row\":1},\"aggregationType\":\"\",\"metaCaptionPath\":\"Title\",\"metaPath\":\"Title\",\"serializedFilter\":\"{\\\"className\\\":\\\"Terrasoft.FilterGroup\\\",\\\"items\\\":{},\\\"logicalOperation\\\":0,\\\"isEnabled\\\":true,\\\"filterType\\\":6,\\\"key\\\":\\\"\\\"}\"},{\"bindTo\":\"Account\",\"caption\":\"Account\",\"type\":\"link\",\"position\":{\"column\":12,\"colSpan\":7,\"row\":1},\"dataValueType\":10,\"aggregationType\":\"\",\"metaCaptionPath\":\"Account\",\"metaPath\":\"Account\",\"serializedFilter\":\"{\\\"className\\\":\\\"Terrasoft.FilterGroup\\\",\\\"items\\\":{},\\\"logicalOperation\\\":0,\\\"isEnabled\\\":true,\\\"filterType\\\":6,\\\"key\\\":\\\"\\\"}\"},{\"bindTo\":\"DueDate\",\"caption\":\"Due\",\"position\":{\"column\":19,\"colSpan\":5,\"row\":1},\"dataValueType\":7,\"metaPath\":\"DueDate\",\"orderDirection\":1,\"orderPosition\":1}]}},\"widgetType\":\"DashboardGrid\"},\"Chart1\":{\"parameters\":{\"seriesConfig\":[],\"orderBy\":\"ChartEntityColumn:0\",\"orderDirection\":\"Descending\",\"dateTimeFormat\":null,\"caption\":\"Current month invoices by status\",\"primaryColumnName\":\"Id\",\"yAxisConfig\":{\"position\":0},\"schemaName\":\"Invoice\",\"sectionBindingColumn\":null,\"func\":2,\"type\":\"pie\",\"xAxisColumn\":\"PaymentStatus\",\"yAxisColumn\":\"PrimaryAmount\",\"YAxisCaption\":\"Invoices amount\",\"styleColor\":\"widget-navy\",\"filterData\":\"{\\\"className\\\":\\\"Terrasoft.FilterGroup\\\",\\\"items\\\":{\\\"e24e8d5b-e865-4a77-8a12-fad7c11c9946\\\":{\\\"className\\\":\\\"Terrasoft.CompareFilter\\\",\\\"filterType\\\":1,\\\"comparisonType\\\":3,\\\"isEnabled\\\":true,\\\"trimDateTimeParameterToDate\\\":false,\\\"leftExpression\\\":{\\\"className\\\":\\\"Terrasoft.ColumnExpression\\\",\\\"expressionType\\\":0,\\\"columnPath\\\":\\\"Owner\\\"},\\\"isAggregative\\\":false,\\\"key\\\":\\\"e24e8d5b-e865-4a77-8a12-fad7c11c9946\\\",\\\"dataValueType\\\":0,\\\"leftExpressionCaption\\\":\\\"Owner\\\",\\\"referenceSchemaName\\\":\\\"Contact\\\",\\\"rightExpression\\\":{\\\"className\\\":\\\"Terrasoft.FunctionExpression\\\",\\\"expressionType\\\":1,\\\"functionType\\\":1,\\\"macrosType\\\":2}},\\\"93d51a90-a083-4419-8d54-99d95bdb6078\\\":{\\\"className\\\":\\\"Terrasoft.CompareFilter\\\",\\\"filterType\\\":1,\\\"comparisonType\\\":3,\\\"isEnabled\\\":true,\\\"trimDateTimeParameterToDate\\\":false,\\\"leftExpression\\\":{\\\"className\\\":\\\"Terrasoft.ColumnExpression\\\",\\\"expressionType\\\":0,\\\"columnPath\\\":\\\"DueDate\\\"},\\\"isAggregative\\\":false,\\\"key\\\":\\\"93d51a90-a083-4419-8d54-99d95bdb6078\\\",\\\"dataValueType\\\":8,\\\"leftExpressionCaption\\\":\\\"Paid on\\\",\\\"rightExpression\\\":{\\\"className\\\":\\\"Terrasoft.FunctionExpression\\\",\\\"expressionType\\\":1,\\\"functionType\\\":1,\\\"macrosType\\\":10}}},\\\"logicalOperation\\\":0,\\\"isEnabled\\\":true,\\\"filterType\\\":6,\\\"rootSchemaName\\\":\\\"Invoice\\\",\\\"key\\\":\\\"\\\"}\"},\"widgetType\":\"Chart\"}}"
        }
      ]
    }
  ]
}