﻿{
  "MetaData": {
    "Schema": {
      "ManagerName": "ClientUnitSchemaManager",
      "UId": "7e9c68d8-86e4-4632-9932-2285a3bdad91",
      "A2": "ITJsGeneralClientInfo",
      "A5": "ecbec4aa-562d-462c-bd2c-6eec5e902a26",
      "B1": [],
      "B2": [],
      "B3": [],
      "B6": "692ca908-cbe2-47bc-a359-d55c4a5fcaea",
      "B8": "7.8.3.1978",
      "HD1": "50e3acc0-26fc-4237-a095-849a1d534bd3",
      "HD4": 1,
      "HD6": "null",
      "HD5": [],
      "HD7": [],
      "HD8": [],
      "HD11": []
    }
  }