﻿{
  "MetaData": {
    "Schema": {
      "ManagerName": "SourceCodeSchemaManager",
      "UId": "f5c26bad-86ea-453c-ab91-0aba589aa335",
      "A2": "TsOppExceedStageDurationHelper",
      "A5": "75e569ae-6a75-4d10-be93-6e3ad2bdca7e",
      "B1": [],
      "B2": [
        {
          "UId": "8a156794-516e-460c-81d0-8aa890a72591",
          "A2": "HeadEmailColumnName",
          "A3": "f5c26bad-86ea-453c-ab91-0aba589aa335",
          "A4": "f5c26bad-86ea-453c-ab91-0aba589aa335",
          "A5": "75e569ae-6a75-4d10-be93-6e3ad2bdca7e"
        },
        {
          "UId": "db03c24f-e782-44ab-8288-7e8359dd8a09",
          "A2": "DataObjectName",
          "A3": "f5c26bad-86ea-453c-ab91-0aba589aa335",
          "A4": "f5c26bad-86ea-453c-ab91-0aba589aa335",
          "A5": "75e569ae-6a75-4d10-be93-6e3ad2bdca7e"
        },
        {
          "UId": "74c7c5ec-991f-416d-a4e2-9a374b276dee",
          "A2": "EmailRowView",
          "A3": "f5c26bad-86ea-453c-ab91-0aba589aa335",
          "A4": "f5c26bad-86ea-453c-ab91-0aba589aa335",
          "A5": "75e569ae-6a75-4d10-be93-6e3ad2bdca7e"
        },
        {
          "UId": "8a90a7ca-aa21-45a8-b1a2-ab728eb87a8a",
          "A2": "EmailTableView",
          "A3": "f5c26bad-86ea-453c-ab91-0aba589aa335",
          "A4": "f5c26bad-86ea-453c-ab91-0aba589aa335",
          "A5": "75e569ae-6a75-4d10-be93-6e3ad2bdca7e"
        },
        {
          "UId": "4c9f6254-82f3-4897-bd40-5136e93f25d5",
          "A2": "Subject",
          "A3": "f5c26bad-86ea-453c-ab91-0aba589aa335",
          "A4": "f5c26bad-86ea-453c-ab91-0aba589aa335",
          "A5": "75e569ae-6a75-4d10-be93-6e3ad2bdca7e"
        }
      ],
      "B3": [],
      "B6": "12ec0688-188b-44d9-99c0-af66d25810d7",
      "B8": "7.8.1.1035",
      "HD1": "50e3acc0-26fc-4237-a095-849a1d534bd3"
    }
  }