﻿{
  "Descriptor": {
    "UId": "96487878-8c6f-459c-9c2d-1f57c188ebe7",
    "Name": "OpportunityContact",
    "ModifiedOnUtc": "\/Date(1478711337000)\/",
    "Parent": {
      "UId": "fa274f3d-57a3-44ee-b644-d93441a31de2",
      "Name": "OpportunityContact"
    },
    "ExtendParent": true,
    "ManagerName": "EntitySchemaManager",
    "Caption": "Контакт в Продаже",
    "DependsOn": []
  }
}