﻿{
  "PackageData": [
    {
      "Row": [
        {
          "SchemaColumnUId": "ae0e45ca-c495-4fe7-a39d-3ab7278e1617",
          "Value": "39679ee8-b44c-4c49-aa56-d523d2d6ec12"
        },
        {
          "SchemaColumnUId": "c3cce05b-84ce-4d10-ad34-8d9cc9a35abf",
          "Value": 0
        },
        {
          "SchemaColumnUId": "f83ff4ec-8cda-4067-9262-b71bc587746d",
          "Value": "#8ecb60"
        },
        {
          "SchemaColumnUId": "c4e29fea-f73c-4780-91c1-995285f7397a",
          "Value": true
        },
        {
          "SchemaColumnUId": "eb37a354-ec7b-4077-a79d-5ff3cc521b99",
          "Value": 4
        },
        {
          "SchemaColumnUId": "58c481ee-ed40-4e89-98a1-11ce7d3bdff3",
          "Value": 3
        },
        {
          "SchemaColumnUId": "b40801fd-7858-4a95-8d35-0fee83285cb2",
          "Value": false
        }
      ]
    }
  ]
}