﻿{
  "Descriptor": {
    "UId": "fd3debc6-cf6f-4fcf-8648-76bed18b921e",
    "Name": "DuplicatesRule_AccountInnKppBik",
    "ModifiedOnUtc": "\/Date(1480514256000)\/",
    "InstallType": 0,
    "Schema": {
      "UId": "f9838ef2-f0f9-448c-b968-e36103b33919",
      "Name": "DuplicatesRule"
    },
    "Columns": [
      {
        "ColumnUId": "ae0e45ca-c495-4fe7-a39d-3ab7278e1617",
        "IsForceUpdate": false,
        "IsKey": true,
        "ColumnName": "Id",
        "DataTypeValueUId": "23018567-a13c-4320-8687-fd6f9e3699bd"
      },
      {
        "ColumnUId": "177e3690-29ef-4af4-8879-e9b925c47bda",
        "IsForceUpdate": false,
        "IsKey": false,
        "ColumnName": "Name",
        "DataTypeValueUId": "ddb3a1ee-07e8-4d62-b7a9-d0e618b00fbd"
      },
      {
        "ColumnUId": "c5b7aaf3-72ad-43e0-bcbf-bfac66d50e2a",
        "IsForceUpdate": false,
        "IsKey": false,
        "ColumnName": "IsActive",
        "DataTypeValueUId": "90b65bf8-0ffc-4141-8779-2420877af907"
      },
      {
        "ColumnUId": "dfa9bd8a-dbc4-405a-9c29-701dc6bc6599",
        "IsForceUpdate": false,
        "IsKey": false,
        "ColumnName": "Object",
        "DataTypeValueUId": "b295071f-7ea9-4e62-8d1a-919bf3732ff2"
      },
      {
        "ColumnUId": "931042d0-27db-46dd-b76f-9316a51f2af2",
        "IsForceUpdate": false,
        "IsKey": false,
        "ColumnName": "RuleBody",
        "DataTypeValueUId": "c0f04627-4620-4bc0-84e5-9419dc8516b1"
      },
      {
        "ColumnUId": "2739c1c8-709b-477a-bf07-f85fc4c70d31",
        "IsForceUpdate": false,
        "IsKey": false,
        "ColumnName": "ProcedureName",
        "DataTypeValueUId": "ddb3a1ee-07e8-4d62-b7a9-d0e618b00fbd"
      }
    ]
  }
}