﻿{
  "Descriptor": {
    "UId": "86611716-54c4-4e75-ac40-7b48d937c34d",
    "Name": "ITAccountCateg",
    "ModifiedOnUtc": "\/Date(1488207251000)\/",
    "Parent": {
      "UId": "1bab9dcf-17d5-49f8-9536-8e0064f1dce0",
      "Name": "BaseEntity"
    },
    "ManagerName": "EntitySchemaManager",
    "Caption": "Категоризация контрагента",
    "DependsOn": []
  }
}