﻿{
  "PackageData": [
    {
      "Row": [
        {
          "SchemaColumnUId": "ae0e45ca-c495-4fe7-a39d-3ab7278e1617",
          "ColumnName": "Id",
          "Value": "19bee1a0-e9ed-41f8-93ab-6576dddf85f7"
        },
        {
          "SchemaColumnUId": "ce1827f9-db39-4ae9-bf8d-a389242bf4b7",
          "ColumnName": "Name",
          "Value": "Category"
        }
      ]
    },
    {
      "Row": [
        {
          "SchemaColumnUId": "ae0e45ca-c495-4fe7-a39d-3ab7278e1617",
          "ColumnName": "Id",
          "Value": "a5d3d865-9d98-4fca-925d-2457e2f76283"
        },
        {
          "SchemaColumnUId": "ce1827f9-db39-4ae9-bf8d-a389242bf4b7",
          "ColumnName": "Name",
          "Value": "Detail \"Account addresses\" - Actual"
        }
      ]
    },
    {
      "Row": [
        {
          "SchemaColumnUId": "ae0e45ca-c495-4fe7-a39d-3ab7278e1617",
          "ColumnName": "Id",
          "Value": "f06aea2b-8430-4888-b01a-e4f36d0e6587"
        },
        {
          "SchemaColumnUId": "ce1827f9-db39-4ae9-bf8d-a389242bf4b7",
          "ColumnName": "Name",
          "Value": "Detail \"Account communication options\" - Alternate phone"
        }
      ]
    },
    {
      "Row": [
        {
          "SchemaColumnUId": "ae0e45ca-c495-4fe7-a39d-3ab7278e1617",
          "ColumnName": "Id",
          "Value": "7df5260f-8743-461f-8746-f9b3ec6feec4"
        },
        {
          "SchemaColumnUId": "ce1827f9-db39-4ae9-bf8d-a389242bf4b7",
          "ColumnName": "Name",
          "Value": "Detail \"Account communication options\" - Primary phone"
        }
      ]
    },
    {
      "Row": [
        {
          "SchemaColumnUId": "ae0e45ca-c495-4fe7-a39d-3ab7278e1617",
          "ColumnName": "Id",
          "Value": "cb0fe928-a9be-480b-92c9-8b2839b20fed"
        },
        {
          "SchemaColumnUId": "ce1827f9-db39-4ae9-bf8d-a389242bf4b7",
          "ColumnName": "Name",
          "Value": "Detail \"Account communication options\" - Web"
        }
      ]
    },
    {
      "Row": [
        {
          "SchemaColumnUId": "ae0e45ca-c495-4fe7-a39d-3ab7278e1617",
          "ColumnName": "Id",
          "Value": "89205b27-2bb6-4ef6-a4db-f5d7687c4cea"
        },
        {
          "SchemaColumnUId": "ce1827f9-db39-4ae9-bf8d-a389242bf4b7",
          "ColumnName": "Name",
          "Value": "Industry"
        }
      ]
    },
    {
      "Row": [
        {
          "SchemaColumnUId": "ae0e45ca-c495-4fe7-a39d-3ab7278e1617",
          "ColumnName": "Id",
          "Value": "f80dfd5e-7ee5-44c5-ac95-9425b64dfe23"
        },
        {
          "SchemaColumnUId": "ce1827f9-db39-4ae9-bf8d-a389242bf4b7",
          "ColumnName": "Name",
          "Value": "Name"
        }
      ]
    },
    {
      "Row": [
        {
          "SchemaColumnUId": "ae0e45ca-c495-4fe7-a39d-3ab7278e1617",
          "ColumnName": "Id",
          "Value": "00b9bd82-b454-4094-96cc-82213c23071d"
        },
        {
          "SchemaColumnUId": "ce1827f9-db39-4ae9-bf8d-a389242bf4b7",
          "ColumnName": "Name",
          "Value": "Type"
        }
      ]
    },
    {
      "Row": [
        {
          "SchemaColumnUId": "ae0e45ca-c495-4fe7-a39d-3ab7278e1617",
          "ColumnName": "Id",
          "Value": "aa3c4b9f-af44-45b1-a62f-c2a2c5fc6392"
        },
        {
          "SchemaColumnUId": "ce1827f9-db39-4ae9-bf8d-a389242bf4b7",
          "ColumnName": "Name",
          "Value": "Вид взаимодействия"
        }
      ]
    },
    {
      "Row": [
        {
          "SchemaColumnUId": "ae0e45ca-c495-4fe7-a39d-3ab7278e1617",
          "ColumnName": "Id",
          "Value": "fc4e8ba1-06dc-41a4-a4e0-09121b10ec39"
        },
        {
          "SchemaColumnUId": "ce1827f9-db39-4ae9-bf8d-a389242bf4b7",
          "ColumnName": "Name",
          "Value": "Главный бухгалтер"
        }
      ]
    },
    {
      "Row": [
        {
          "SchemaColumnUId": "ae0e45ca-c495-4fe7-a39d-3ab7278e1617",
          "ColumnName": "Id",
          "Value": "b6f05420-233c-4fa2-bc8f-9811f862cf1a"
        },
        {
          "SchemaColumnUId": "ce1827f9-db39-4ae9-bf8d-a389242bf4b7",
          "ColumnName": "Name",
          "Value": "Годовой оборот"
        }
      ]
    },
    {
      "Row": [
        {
          "SchemaColumnUId": "ae0e45ca-c495-4fe7-a39d-3ab7278e1617",
          "ColumnName": "Id",
          "Value": "0921ff86-47c1-4afc-86cd-64fd97ff2833"
        },
        {
          "SchemaColumnUId": "ce1827f9-db39-4ae9-bf8d-a389242bf4b7",
          "ColumnName": "Name",
          "Value": "Дата завершения"
        }
      ]
    },
    {
      "Row": [
        {
          "SchemaColumnUId": "ae0e45ca-c495-4fe7-a39d-3ab7278e1617",
          "ColumnName": "Id",
          "Value": "52fe0991-0602-423a-953f-38f1b1235739"
        },
        {
          "SchemaColumnUId": "ce1827f9-db39-4ae9-bf8d-a389242bf4b7",
          "ColumnName": "Name",
          "Value": "Дата подписания"
        }
      ]
    },
    {
      "Row": [
        {
          "SchemaColumnUId": "ae0e45ca-c495-4fe7-a39d-3ab7278e1617",
          "ColumnName": "Id",
          "Value": "ae1aa8c8-4278-4fec-8c6f-874c7b4d302a"
        },
        {
          "SchemaColumnUId": "ce1827f9-db39-4ae9-bf8d-a389242bf4b7",
          "ColumnName": "Name",
          "Value": "Деталь \"Адреса Контрагента\" - Основной адрес"
        }
      ]
    },
    {
      "Row": [
        {
          "SchemaColumnUId": "ae0e45ca-c495-4fe7-a39d-3ab7278e1617",
          "ColumnName": "Id",
          "Value": "2086e35d-324b-433d-a439-4d76dd4deee3"
        },
        {
          "SchemaColumnUId": "ce1827f9-db39-4ae9-bf8d-a389242bf4b7",
          "ColumnName": "Name",
          "Value": "Деталь \"Адреса Контрагента\" - Почтовый"
        }
      ]
    },
    {
      "Row": [
        {
          "SchemaColumnUId": "ae0e45ca-c495-4fe7-a39d-3ab7278e1617",
          "ColumnName": "Id",
          "Value": "30023046-1d52-44af-a4a0-6f5e59158f8f"
        },
        {
          "SchemaColumnUId": "ce1827f9-db39-4ae9-bf8d-a389242bf4b7",
          "ColumnName": "Name",
          "Value": "Деталь \"Ответственные в направлениях бизнеса\""
        }
      ]
    },
    {
      "Row": [
        {
          "SchemaColumnUId": "ae0e45ca-c495-4fe7-a39d-3ab7278e1617",
          "ColumnName": "Id",
          "Value": "3b55aa7a-8d5f-43c4-a7d3-0660874e1a31"
        },
        {
          "SchemaColumnUId": "ce1827f9-db39-4ae9-bf8d-a389242bf4b7",
          "ColumnName": "Name",
          "Value": "Деталь \"Платежные реквизиты\""
        }
      ]
    },
    {
      "Row": [
        {
          "SchemaColumnUId": "ae0e45ca-c495-4fe7-a39d-3ab7278e1617",
          "ColumnName": "Id",
          "Value": "25aecfa2-c3b2-44f3-81e4-724c9ca02686"
        },
        {
          "SchemaColumnUId": "ce1827f9-db39-4ae9-bf8d-a389242bf4b7",
          "ColumnName": "Name",
          "Value": "Деталь \"Средства связи Контрагента\" - Email"
        }
      ]
    },
    {
      "Row": [
        {
          "SchemaColumnUId": "ae0e45ca-c495-4fe7-a39d-3ab7278e1617",
          "ColumnName": "Id",
          "Value": "65ff2212-7d78-47b3-8e38-aa6d3e2b087f"
        },
        {
          "SchemaColumnUId": "ce1827f9-db39-4ae9-bf8d-a389242bf4b7",
          "ColumnName": "Name",
          "Value": "ИНН"
        }
      ]
    },
    {
      "Row": [
        {
          "SchemaColumnUId": "ae0e45ca-c495-4fe7-a39d-3ab7278e1617",
          "ColumnName": "Id",
          "Value": "343b3a41-37d7-43c1-b825-5dde4d6974a7"
        },
        {
          "SchemaColumnUId": "ce1827f9-db39-4ae9-bf8d-a389242bf4b7",
          "ColumnName": "Name",
          "Value": "Клиент"
        }
      ]
    },
    {
      "Row": [
        {
          "SchemaColumnUId": "ae0e45ca-c495-4fe7-a39d-3ab7278e1617",
          "ColumnName": "Id",
          "Value": "64667c05-e818-4bc6-b62a-ea587afacc49"
        },
        {
          "SchemaColumnUId": "ce1827f9-db39-4ae9-bf8d-a389242bf4b7",
          "ColumnName": "Name",
          "Value": "Количество сотрудников"
        }
      ]
    },
    {
      "Row": [
        {
          "SchemaColumnUId": "ae0e45ca-c495-4fe7-a39d-3ab7278e1617",
          "ColumnName": "Id",
          "Value": "fbf3f18d-ffa8-4153-8552-a9657be09d54"
        },
        {
          "SchemaColumnUId": "ce1827f9-db39-4ae9-bf8d-a389242bf4b7",
          "ColumnName": "Name",
          "Value": "КПП"
        }
      ]
    },
    {
      "Row": [
        {
          "SchemaColumnUId": "ae0e45ca-c495-4fe7-a39d-3ab7278e1617",
          "ColumnName": "Id",
          "Value": "c0be2b36-d5d4-49ca-8226-76fc2b1eae17"
        },
        {
          "SchemaColumnUId": "ce1827f9-db39-4ae9-bf8d-a389242bf4b7",
          "ColumnName": "Name",
          "Value": "Масштаб деятельности компании"
        }
      ]
    },
    {
      "Row": [
        {
          "SchemaColumnUId": "ae0e45ca-c495-4fe7-a39d-3ab7278e1617",
          "ColumnName": "Id",
          "Value": "aefffd6f-c9e0-4b07-a464-f3e79c1311ab"
        },
        {
          "SchemaColumnUId": "ce1827f9-db39-4ae9-bf8d-a389242bf4b7",
          "ColumnName": "Name",
          "Value": "Номер"
        }
      ]
    },
    {
      "Row": [
        {
          "SchemaColumnUId": "ae0e45ca-c495-4fe7-a39d-3ab7278e1617",
          "ColumnName": "Id",
          "Value": "d8adff06-440a-4eb6-9339-245fc351cfc4"
        },
        {
          "SchemaColumnUId": "ce1827f9-db39-4ae9-bf8d-a389242bf4b7",
          "ColumnName": "Name",
          "Value": "Подсегмент"
        }
      ]
    },
    {
      "Row": [
        {
          "SchemaColumnUId": "ae0e45ca-c495-4fe7-a39d-3ab7278e1617",
          "ColumnName": "Id",
          "Value": "29031b6c-5f31-4a62-b323-f13d113789d7"
        },
        {
          "SchemaColumnUId": "ce1827f9-db39-4ae9-bf8d-a389242bf4b7",
          "ColumnName": "Name",
          "Value": "Принцип бюджетирования"
        }
      ]
    },
    {
      "Row": [
        {
          "SchemaColumnUId": "ae0e45ca-c495-4fe7-a39d-3ab7278e1617",
          "ColumnName": "Id",
          "Value": "d8015196-6567-4450-87f5-46f9b56d4505"
        },
        {
          "SchemaColumnUId": "ce1827f9-db39-4ae9-bf8d-a389242bf4b7",
          "ColumnName": "Name",
          "Value": "Регион"
        }
      ]
    },
    {
      "Row": [
        {
          "SchemaColumnUId": "ae0e45ca-c495-4fe7-a39d-3ab7278e1617",
          "ColumnName": "Id",
          "Value": "6d3aa3c8-fa93-4eb4-b0f1-a15f08c18d25"
        },
        {
          "SchemaColumnUId": "ce1827f9-db39-4ae9-bf8d-a389242bf4b7",
          "ColumnName": "Name",
          "Value": "Руководитель"
        }
      ]
    },
    {
      "Row": [
        {
          "SchemaColumnUId": "ae0e45ca-c495-4fe7-a39d-3ab7278e1617",
          "ColumnName": "Id",
          "Value": "9ac7afa0-d8ca-4d26-986f-3193c1d9f399"
        },
        {
          "SchemaColumnUId": "ce1827f9-db39-4ae9-bf8d-a389242bf4b7",
          "ColumnName": "Name",
          "Value": "Сектор"
        }
      ]
    },
    {
      "Row": [
        {
          "SchemaColumnUId": "ae0e45ca-c495-4fe7-a39d-3ab7278e1617",
          "ColumnName": "Id",
          "Value": "ca8af5a0-4545-43a2-b3f6-f7058129d509"
        },
        {
          "SchemaColumnUId": "ce1827f9-db39-4ae9-bf8d-a389242bf4b7",
          "ColumnName": "Name",
          "Value": "Состояние документа"
        }
      ]
    },
    {
      "Row": [
        {
          "SchemaColumnUId": "ae0e45ca-c495-4fe7-a39d-3ab7278e1617",
          "ColumnName": "Id",
          "Value": "c5cba15a-e311-4ab0-9e44-9184fddbac5d"
        },
        {
          "SchemaColumnUId": "ce1827f9-db39-4ae9-bf8d-a389242bf4b7",
          "ColumnName": "Name",
          "Value": "Состояние оплаты"
        }
      ]
    },
    {
      "Row": [
        {
          "SchemaColumnUId": "ae0e45ca-c495-4fe7-a39d-3ab7278e1617",
          "ColumnName": "Id",
          "Value": "67daf356-b3bb-42ff-91af-8e7a5c4b996e"
        },
        {
          "SchemaColumnUId": "ce1827f9-db39-4ae9-bf8d-a389242bf4b7",
          "ColumnName": "Name",
          "Value": "Сумма, б.в."
        }
      ]
    },
    {
      "Row": [
        {
          "SchemaColumnUId": "ae0e45ca-c495-4fe7-a39d-3ab7278e1617",
          "ColumnName": "Id",
          "Value": "48643a30-daca-42b1-9116-53b026da39cc"
        },
        {
          "SchemaColumnUId": "ce1827f9-db39-4ae9-bf8d-a389242bf4b7",
          "ColumnName": "Name",
          "Value": "Тип бизнеса"
        }
      ]
    },
    {
      "Row": [
        {
          "SchemaColumnUId": "ae0e45ca-c495-4fe7-a39d-3ab7278e1617",
          "ColumnName": "Id",
          "Value": "3f9770c0-03e9-433d-a5ff-3f2f1bb9bcec"
        },
        {
          "SchemaColumnUId": "ce1827f9-db39-4ae9-bf8d-a389242bf4b7",
          "ColumnName": "Name",
          "Value": "Тип договора"
        }
      ]
    },
    {
      "Row": [
        {
          "SchemaColumnUId": "ae0e45ca-c495-4fe7-a39d-3ab7278e1617",
          "ColumnName": "Id",
          "Value": "0d2b2fb4-08d9-4711-be75-76d582b5f78e"
        },
        {
          "SchemaColumnUId": "ce1827f9-db39-4ae9-bf8d-a389242bf4b7",
          "ColumnName": "Name",
          "Value": "Форма собственности"
        }
      ]
    }
  ]
}