﻿{
  "Descriptor": {
    "UId": "ac3bdb25-eb02-430e-8e3a-198ed1e0ff41",
    "Name": "AccountOwnership",
    "ModifiedOnUtc": "\/Date(1474472329000)\/",
    "InstallType": 0,
    "Schema": {
      "UId": "ce243c2c-b7d3-4dc4-b474-ab24c677801b",
      "Name": "AccountOwnership"
    },
    "Columns": [
      {
        "ColumnUId": "ae0e45ca-c495-4fe7-a39d-3ab7278e1617",
        "IsForceUpdate": false,
        "IsKey": true,
        "ColumnName": "Id",
        "DataTypeValueUId": "23018567-a13c-4320-8687-fd6f9e3699bd"
      },
      {
        "ColumnUId": "736c30a7-c0ec-4fa9-b034-2552b319b633",
        "IsForceUpdate": false,
        "IsKey": false,
        "ColumnName": "Name",
        "DataTypeValueUId": "ddb3a1ee-07e8-4d62-b7a9-d0e618b00fbd"
      },
      {
        "ColumnUId": "9e53fd7c-dde4-4502-a64c-b9e34148108b",
        "IsForceUpdate": false,
        "IsKey": false,
        "ColumnName": "Description",
        "DataTypeValueUId": "ddb3a1ee-07e8-4d62-b7a9-d0e618b00fbd"
      },
      {
        "ColumnUId": "bd9ec46e-6371-466e-87ec-1adf995e47c7",
        "IsForceUpdate": false,
        "IsKey": false,
        "ColumnName": "Country",
        "DataTypeValueUId": "b295071f-7ea9-4e62-8d1a-919bf3732ff2"
      }
    ]
  }
}