﻿{
  "PackageData": [
    {
      "Row": [
        {
          "SchemaColumnUId": "ae0e45ca-c495-4fe7-a39d-3ab7278e1617",
          "Value": "56ad908e-de64-420b-9ac3-6d75e4b7059c"
        },
        {
          "SchemaColumnUId": "0fde6f1e-22c5-48c7-9c89-6f0031e270de",
          "Value": "71ae53d8-6d4c-4777-88d3-cc870aa0f6b6",
          "DisplayValue": "Базовый адрес сайта"
        },
        {
          "SchemaColumnUId": "8f1984bb-7bef-4220-9b49-9a12d0ebcd68",
          "Value": "a29a3ba5-4b0d-de11-9a51-005056c00008",
          "DisplayValue": "Все сотрудники компании"
        },
        {
          "SchemaColumnUId": "55472376-a4dd-40da-86c6-975ce4b898fa",
          "Value": true
        },
        {
          "SchemaColumnUId": "af6013ce-7387-4619-b4f4-30c4276fcfac",
          "Value": ""
        },
        {
          "SchemaColumnUId": "b36bfa07-34c7-45b1-a2ee-39e653034ba0",
          "Value": 0
        },
        {
          "SchemaColumnUId": "b1ffd2d8-2bd3-4c46-b9c0-782afb0996c0",
          "Value": 0.00
        },
        {
          "SchemaColumnUId": "297f4697-d071-4be2-8509-9090c07dfe18",
          "Value": false
        },
        {
          "SchemaColumnUId": "34f73492-296e-4a73-95f7-e7de5a3b3509",
          "Value": "null"
        },
        {
          "SchemaColumnUId": "23c7dde8-7cf5-4f18-9d76-0fa4179ee931",
          "Value": "null"
        },
        {
          "SchemaColumnUId": "ffd545dd-d2de-40d7-8b07-20654613bb20",
          "Value": "null"
        },
        {
          "SchemaColumnUId": "f1bc0b27-2c46-4cae-ad23-3b8940587d4f",
          "Value": 2147483647
        }
      ]
    }
  ]
}