﻿{
  "Descriptor": {
    "UId": "de463996-0ad8-4ac3-bbbf-e199698ded23",
    "Name": "ITCodeTypePackData",
    "ModifiedOnUtc": "\/Date(1488381978000)\/",
    "InstallType": 0,
    "Schema": {
      "UId": "36cd4c98-b75d-486e-b6f1-cde0df643eb2",
      "Name": "ITCodeTypePack"
    },
    "Columns": [
      {
        "ColumnUId": "ae0e45ca-c495-4fe7-a39d-3ab7278e1617",
        "IsForceUpdate": false,
        "IsKey": true,
        "ColumnName": "Id",
        "DataTypeValueUId": "23018567-a13c-4320-8687-fd6f9e3699bd"
      },
      {
        "ColumnUId": "736c30a7-c0ec-4fa9-b034-2552b319b633",
        "IsForceUpdate": false,
        "IsKey": false,
        "ColumnName": "Name",
        "DataTypeValueUId": "ddb3a1ee-07e8-4d62-b7a9-d0e618b00fbd"
      },
      {
        "ColumnUId": "9e53fd7c-dde4-4502-a64c-b9e34148108b",
        "IsForceUpdate": false,
        "IsKey": false,
        "ColumnName": "Description",
        "DataTypeValueUId": "ddb3a1ee-07e8-4d62-b7a9-d0e618b00fbd"
      },
      {
        "ColumnUId": "ed3846c2-3783-4ab6-bc3a-b7b79c1d170e",
        "IsForceUpdate": false,
        "IsKey": false,
        "ColumnName": "ITType",
        "DataTypeValueUId": "325a73b8-0f47-44a0-8412-7606f78003ac"
      },
      {
        "ColumnUId": "9f81a7f2-3b0c-4c85-8624-75aeb0025278",
        "IsForceUpdate": false,
        "IsKey": false,
        "ColumnName": "ITCode",
        "DataTypeValueUId": "6b6b74e2-820d-490e-a017-2b73d4ccf2b0"
      }
    ]
  }
}