﻿{
  "Descriptor": {
    "UId": "aa96cb85-f872-4eb9-8048-33bffa48af69",
    "Name": "LeadManagementDistributionPageV2",
    "ModifiedOnUtc": "\/Date(1498475833000)\/",
    "Parent": {
      "UId": "65a13f26-c1c8-49e6-9744-ce1c028164df",
      "Name": "LeadManagementDistributionPageV2"
    },
    "ExtendParent": true,
    "ManagerName": "ClientUnitSchemaManager",
    "Caption": "Управление Лидами: Распределение ",
    "DependsOn": []
  }
}