﻿{
  "Descriptor": {
    "UId": "a22e2014-d204-4d1a-9c72-f151681ce288",
    "Name": "TsDiscountInAccountDetailV2",
    "ModifiedOnUtc": "\/Date(1476369498000)\/",
    "Parent": {
      "UId": "01eb38ee-668a-42f0-999d-c2534f979089",
      "Name": "BaseGridDetailV2"
    },
    "ManagerName": "ClientUnitSchemaManager",
    "Caption": "Схема детали: \"Скидки\"",
    "DependsOn": []
  }
}