﻿{
  "SqlScript": {
    "UId": "f27a9a11-6ca0-4437-a1d3-4e6f52735d67",
    "Name": "ITVwOppStageDuration",
    "DBEngineType": 0,
    "InstallType": 0,
    "ModifiedOnUtc": "\/Date(1488373061000)\/",
    "DependsOn": []
  }
}