﻿{
  "Descriptor": {
    "UId": "47c6ce6e-7fe6-4391-b4d3-c0ca72b7bffa",
    "Name": "ITClientPrePage",
    "ModifiedOnUtc": "\/Date(1505991286000)\/",
    "Parent": {
      "UId": "d3cc497c-f286-4f13-99c1-751c468733c0",
      "Name": "BasePageV2"
    },
    "ManagerName": "ClientUnitSchemaManager",
    "Caption": "Выбор ответственного в печатном сервисе",
    "DependsOn": []
  }
}