﻿{
  "Descriptor": {
    "UId": "43100543-4aec-426e-89fb-0b174ed50acf",
    "Name": "ITErrorsInfoPrePage",
    "ModifiedOnUtc": "\/Date(1506278651000)\/",
    "Parent": {
      "UId": "d3cc497c-f286-4f13-99c1-751c468733c0",
      "Name": "BasePageV2"
    },
    "ManagerName": "ClientUnitSchemaManager",
    "Caption": "Укажите информацию по ошибкам",
    "DependsOn": []
  }
}