﻿{
  "Descriptor": {
    "UId": "5d98c7b8-ce26-49c3-bd8d-2fe64242eb4a",
    "Name": "TsOurStrongSides",
    "ModifiedOnUtc": "\/Date(1474985541000)\/",
    "Parent": {
      "UId": "04f67f0c-0a27-4616-987e-60e378854b0f",
      "Name": "BaseValueLookup"
    },
    "ManagerName": "EntitySchemaManager",
    "Caption": "Сильные стороны",
    "DependsOn": []
  }
}