﻿{
  "Descriptor": {
    "UId": "b25c218a-bd70-4dbd-84f7-77cd706de47c",
    "Name": "ITDelayDatePrePage",
    "ModifiedOnUtc": "\/Date(1504889194000)\/",
    "Parent": {
      "UId": "d3cc497c-f286-4f13-99c1-751c468733c0",
      "Name": "BasePageV2"
    },
    "ManagerName": "ClientUnitSchemaManager",
    "Caption": "Перенос даты продажи в посылочном блоке",
    "DependsOn": []
  }
}