﻿{
  "Descriptor": {
    "UId": "c02608cd-bed0-4688-a021-b421f45b0c38",
    "Name": "OpportunityProductDetailV2",
    "ModifiedOnUtc": "\/Date(1474910399000)\/",
    "Parent": {
      "UId": "8567b9b8-fee5-4cdf-b7c8-6229f4682222",
      "Name": "OpportunityProductDetailV2"
    },
    "ExtendParent": true,
    "ManagerName": "ClientUnitSchemaManager",
    "Caption": "OpportunityProductDetailV2",
    "DependsOn": []
  }
}