﻿{
  "Descriptor": {
    "UId": "7da213e3-6586-4d9c-93bb-1477ffc9c364",
    "Name": "AccountBillingInfoPageV2",
    "ModifiedOnUtc": "\/Date(1501596499000)\/",
    "Parent": {
      "UId": "625e1d4c-bc26-4872-b76e-267c473ecdcc",
      "Name": "AccountBillingInfoPageV2"
    },
    "ExtendParent": true,
    "ManagerName": "ClientUnitSchemaManager",
    "Caption": "AccountBillingInfoPageV2",
    "DependsOn": []
  }
}