﻿{
  "Descriptor": {
    "UId": "7e258f0c-b8a4-490d-8541-7468b049a65a",
    "Name": "ITClientProgramLookup_Data",
    "ModifiedOnUtc": "\/Date(1506081639000)\/",
    "InstallType": 0,
    "Schema": {
      "UId": "88ee4ba0-b0eb-4c88-98f8-b99b955aa2ea",
      "Name": "ITClientProgramLookup"
    },
    "Columns": [
      {
        "ColumnUId": "ae0e45ca-c495-4fe7-a39d-3ab7278e1617",
        "IsForceUpdate": false,
        "IsKey": true,
        "ColumnName": "Id",
        "DataTypeValueUId": "23018567-a13c-4320-8687-fd6f9e3699bd"
      },
      {
        "ColumnUId": "736c30a7-c0ec-4fa9-b034-2552b319b633",
        "IsForceUpdate": false,
        "IsKey": false,
        "ColumnName": "Name",
        "DataTypeValueUId": "ddb3a1ee-07e8-4d62-b7a9-d0e618b00fbd"
      },
      {
        "ColumnUId": "9e53fd7c-dde4-4502-a64c-b9e34148108b",
        "IsForceUpdate": false,
        "IsKey": false,
        "ColumnName": "Description",
        "DataTypeValueUId": "ddb3a1ee-07e8-4d62-b7a9-d0e618b00fbd"
      },
      {
        "ColumnUId": "321bb99f-ca02-4514-b795-93102ab44428",
        "IsForceUpdate": false,
        "IsKey": false,
        "ColumnName": "ITOrderNumber",
        "DataTypeValueUId": "6b6b74e2-820d-490e-a017-2b73d4ccf2b0"
      }
    ]
  }
}