﻿{
  "Descriptor": {
    "UId": "ac9b73d3-62c0-4d51-97d0-7d3865b509d9",
    "Name": "ITDeliveryPointSection",
    "ModifiedOnUtc": "\/Date(1507562581000)\/",
    "Parent": {
      "UId": "7912fb69-4fee-429f-8b23-93943c35d66d",
      "Name": "BaseSectionV2"
    },
    "ManagerName": "ClientUnitSchemaManager",
    "Caption": "Схема раздела \"Точка сдачи\"",
    "DependsOn": []
  }
}