﻿{
  "Descriptor": {
    "UId": "30f9a634-3bd4-4d9c-a795-2f16616943da",
    "Name": "ITProcess1",
    "ModifiedOnUtc": "\/Date(1507620052000)\/",
    "ManagerName": "ProcessSchemaManager",
    "Caption": "Бизнес-процесс 1",
    "DependsOn": []
  }
}