﻿{
  "Descriptor": {
    "UId": "05385902-42b0-423d-bc18-05208da556a5",
    "Name": "TsOpportunityManagement",
    "ModifiedOnUtc": "\/Date(1478528122000)\/",
    "ManagerName": "ProcessSchemaManager",
    "Caption": "Корпоративная продажа - TsBase",
    "DependsOn": []
  }
}