﻿{
  "Properties": {
    "AdministratedByColumns": "False",
    "AdministratedByOperations": "False",
    "AdministratedByRecords": "False",
    "CreatedInVersion": "7.8.3.1978",
    "IsTrackChangesInDB": "False",
    "IsVirtual": "False"
  }
}