﻿{
  "Descriptor": {
    "UId": "c5cd5015-64b3-440f-b4e8-1bdd56130034",
    "Name": "TsPaymentCondition",
    "ModifiedOnUtc": "\/Date(1478710468000)\/",
    "Parent": {
      "UId": "11ab4bcb-9b23-4b6d-9c86-520fae925d75",
      "Name": "BaseLookup"
    },
    "ManagerName": "EntitySchemaManager",
    "Caption": "Условие оплаты",
    "DependsOn": []
  }
}