﻿{
  "Descriptor": {
    "UId": "48ec7cb0-ee29-4e8d-9102-578b50d862d3",
    "Name": "OpportunityActionsDashboard",
    "ModifiedOnUtc": "\/Date(1477057064000)\/",
    "Parent": {
      "UId": "ff21ce44-069a-49c8-89b0-83d2f3472ce3",
      "Name": "OpportunityActionsDashboard"
    },
    "ExtendParent": true,
    "ManagerName": "ClientUnitSchemaManager",
    "Caption": "OpportunityActionsDashboard",
    "DependsOn": []
  }
}