﻿{
  "Descriptor": {
    "UId": "cbf3cc4e-cc74-4942-b6df-c7960c559903",
    "Name": "TsParcelUnitSupporting",
    "ModifiedOnUtc": "\/Date(1477571683000)\/",
    "ManagerName": "ProcessSchemaManager",
    "Caption": "Процесс сопровождение посылочного блока",
    "DependsOn": []
  }
}