﻿{
  "Descriptor": {
    "UId": "5305e85d-25ea-422f-8cec-de22bd0d8857",
    "Name": "Account",
    "ModifiedOnUtc": "\/Date(1504258135000)\/",
    "Parent": {
      "UId": "25d7c1ab-1de0-4501-b402-02e0e5a72d6e",
      "Name": "Account"
    },
    "ExtendParent": true,
    "ManagerName": "EntitySchemaManager",
    "Caption": "Контрагент ",
    "DependsOn": []
  }
}