﻿{
  "Descriptor": {
    "UId": "1aa58231-f54d-4652-98a9-07544561e32d",
    "Name": "ITTarificatorService",
    "ModifiedOnUtc": "\/Date(1504513201000)\/",
    "ManagerName": "SourceCodeSchemaManager",
    "Caption": "ITTarificatorService",
    "DependsOn": []
  }
}