﻿{
  "SqlScript": {
    "UId": "fadfe724-f861-4f3e-87ce-ede3518e0179",
    "Name": "TsUpdateContractTypes",
    "DBEngineType": 0,
    "InstallType": 2,
    "ModifiedOnUtc": "\/Date(1474886139000)\/",
    "DependsOn": []
  }
}