﻿{
  "SqlScript": {
    "UId": "6ccb931f-dea6-4f86-a1e9-4dbba184c3bc",
    "Name": "ITAccountOwnerDetail_reg",
    "DBEngineType": 0,
    "InstallType": 2,
    "ModifiedOnUtc": "\/Date(1502786359000)\/",
    "DependsOn": []
  }
}