﻿{
  "Descriptor": {
    "UId": "f139b03e-0094-42f3-9ea3-d8da31b7109e",
    "Name": "ITJsActivityConsts",
    "ModifiedOnUtc": "\/Date(1502379328000)\/",
    "ManagerName": "ClientUnitSchemaManager",
    "Caption": "ITJsActivityConsts",
    "DependsOn": []
  }
}