﻿{
  "MetaData": {
    "Schema": {
      "ManagerName": "ClientUnitSchemaManager",
      "UId": "f139b03e-0094-42f3-9ea3-d8da31b7109e",
      "A2": "ITJsActivityConsts",
      "A5": "c96c2ab3-b60e-4151-bd60-9c2b786df0f0",
      "B1": [],
      "B2": [],
      "B3": [],
      "B6": "b18a0f67-6bd3-4ff3-8fa3-c759fb72d073",
      "B8": "7.8.3.1978",
      "HD1": "50e3acc0-26fc-4237-a095-849a1d534bd3",
      "HD4": 1,
      "HD6": "null",
      "HD5": [],
      "HD7": [],
      "HD8": [],
      "HD11": []
    }
  }