﻿{
  "MetaData": {
    "Schema": {
      "ManagerName": "ClientUnitSchemaManager",
      "UId": "7793e2fc-3e1e-4cab-827d-59341deb8c2f",
      "A2": "TsCommandLine",
      "A5": "a58d8f82-abff-4804-b670-077483f19fea",
      "B1": [],
      "B2": [],
      "B3": [],
      "B6": "12ec0688-188b-44d9-99c0-af66d25810d7",
      "B8": "7.8.1.1035",
      "HD1": "50e3acc0-26fc-4237-a095-849a1d534bd3",
      "HD4": 1,
      "HD6": "null",
      "HD5": [],
      "HD7": [],
      "HD8": [],
      "HD11": []
    }
  }