{
  "MetaData": {
    "Schema": {
      "ManagerName": "ProcessSchemaManager",
      "UId": "79583724-4dd2-42ef-9e4b-9cc594613393",
      "A2": "TsLeadExceedStageDurationProcess",
      "A5": "75e569ae-6a75-4d10-be93-6e3ad2bdca7e",
      "B1": [],
      "B2": [],
      "B3": [
        {
          "UId": "6b7c9c28-c567-472d-a65d-47f24d2d0fac",
          "A2": "Terrasoft.Core.Factories",
          "A3": "79583724-4dd2-42ef-9e4b-9cc594613393",
          "A4": "79583724-4dd2-42ef-9e4b-9cc594613393",
          "A5": "75e569ae-6a75-4d10-be93-6e3ad2bdca7e",
          "GF1": "null"
        },
        {
          "UId": "2eef2fde-3afc-4036-a89f-d37c98840610",
          "A2": "Terrasoft.Configuration.TsBase",
          "A3": "79583724-4dd2-42ef-9e4b-9cc594613393",
          "A4": "79583724-4dd2-42ef-9e4b-9cc594613393",
          "A5": "75e569ae-6a75-4d10-be93-6e3ad2bdca7e",
          "GF1": "null"
        }
      ],
      "B6": "12ec0688-188b-44d9-99c0-af66d25810d7",
      "B8": "7.8.1.1035",
      "FJ1": [],
      "BK1": "FFFFFFFF",
      "BK2": "FFBBBBBB",
      "BK3": [
        {
          "BL1": "Terrasoft.Core.Process.ProcessSchemaLaneSet",
          "UId": "735451a3-f587-41f9-aa52-2bd389ad03b1",
          "A2": "LaneSet1",
          "A3": "79583724-4dd2-42ef-9e4b-9cc594613393",
          "A4": "79583724-4dd2-42ef-9e4b-9cc594613393",
          "A5": "12ec0688-188b-44d9-99c0-af66d25810d7",
          "BL7": "11a47caf-a0d5-41fa-a274-a0b11f77447a",
          "BL8": "79583724-4dd2-42ef-9e4b-9cc594613393",
          "BM4": [
            {
              "BL1": "Terrasoft.Core.Process.ProcessSchemaLane",
              "UId": "76fdc6e7-5df8-41ab-88b5-9f06aa805d10",
              "A2": "Lane1",
              "A3": "79583724-4dd2-42ef-9e4b-9cc594613393",
              "A4": "79583724-4dd2-42ef-9e4b-9cc594613393",
              "A5": "12ec0688-188b-44d9-99c0-af66d25810d7",
              "BL4": "735451a3-f587-41f9-aa52-2bd389ad03b1",
              "BL7": "abcd74b9-5912-414b-82ac-f1aa4dcd554e",
              "BL8": "79583724-4dd2-42ef-9e4b-9cc594613393",
              "CD1": [],
              "CD2": [],
              "CD4": "735451a3-f587-41f9-aa52-2bd389ad03b1",
              "CD7": []
            }
          ]
        }
      ],
      "BK5": [],
      "BK4": [
        {
          "BL1": "Terrasoft.Core.Process.ProcessSchemaStartEvent",
          "UId": "083363d9-801c-45c8-895d-d3343af17f30",
          "A2": "StartEvent1",
          "A3": "79583724-4dd2-42ef-9e4b-9cc594613393",
          "A4": "79583724-4dd2-42ef-9e4b-9cc594613393",
          "A5": "12ec0688-188b-44d9-99c0-af66d25810d7",
          "BL3": "50;184",
          "BL4": "76fdc6e7-5df8-41ab-88b5-9f06aa805d10",
          "BL7": "53818048-7868-48f6-ada0-0ebaa65af628",
          "BL8": "79583724-4dd2-42ef-9e4b-9cc594613393",
          "BN2": "27;27",
          "BO3": true,
          "FC1": []
        },
        {
          "BL1": "Terrasoft.Core.Process.ProcessSchemaTerminateEvent",
          "UId": "42da000f-16cb-4355-b69f-b25dfc89a3ff",
          "A2": "TerminateEvent1",
          "A3": "79583724-4dd2-42ef-9e4b-9cc594613393",
          "A4": "79583724-4dd2-42ef-9e4b-9cc594613393",
          "A5": "12ec0688-188b-44d9-99c0-af66d25810d7",
          "BL3": "600;184",
          "BL4": "76fdc6e7-5df8-41ab-88b5-9f06aa805d10",
          "BL7": "1bd93619-0574-454e-bb4e-cf53b9eb9470",
          "BL8": "79583724-4dd2-42ef-9e4b-9cc594613393",
          "BN2": "27;27",
          "BO3": true,
          "FC1": []
        },
        {
          "BL1": "Terrasoft.Core.Process.ProcessSchemaScriptTask",
          "UId": "a46cf8ab-52e7-4afe-b36e-375428ffa2be",
          "A2": "ScriptTask1",
          "A3": "79583724-4dd2-42ef-9e4b-9cc594613393",
          "A4": "79583724-4dd2-42ef-9e4b-9cc594613393",
          "A5": "12ec0688-188b-44d9-99c0-af66d25810d7",
          "BL3": "280;170",
          "BL4": "76fdc6e7-5df8-41ab-88b5-9f06aa805d10",
          "BL7": "0e490dda-e140-4441-b600-6f5c64d024df",
          "BL8": "79583724-4dd2-42ef-9e4b-9cc594613393",
          "BN2": "69;55",
          "BO3": true,
          "BP2": [],
          "CL2": "FFFFFFFF",
          "CH1": "var helper = ClassFactory.Get<TsLeadExceedStageDurationHelper>(new ConstructorArgument(\"userConnection\", Get<UserConnection>(\"UserConnection\")));\nhelper.DoCheckAndSendEmails();\nreturn true;",
          "CH2": true
        },
        {
          "BL1": "Terrasoft.Core.Process.ProcessSchemaSequenceFlow",
          "UId": "6528576c-ab60-4142-b449-548d1d08c792",
          "A2": "SequenceFlow1",
          "A3": "79583724-4dd2-42ef-9e4b-9cc594613393",
          "A4": "79583724-4dd2-42ef-9e4b-9cc594613393",
          "A5": "12ec0688-188b-44d9-99c0-af66d25810d7",
          "BL7": "0d8351f6-c2f4-4737-bdd9-6fbfe0837fec",
          "BL8": "79583724-4dd2-42ef-9e4b-9cc594613393",
          "CI1": "083363d9-801c-45c8-895d-d3343af17f30",
          "CI2": "a46cf8ab-52e7-4afe-b36e-375428ffa2be",
          "CI3": "null",
          "CI5": "FF939598",
          "CI6": 1,
          "CI8": "-1;0"
        },
        {
          "BL1": "Terrasoft.Core.Process.ProcessSchemaSequenceFlow",
          "UId": "b80a4e73-b1d4-4d47-aa24-a4fca8ff99e2",
          "A2": "SequenceFlow2",
          "A3": "79583724-4dd2-42ef-9e4b-9cc594613393",
          "A4": "79583724-4dd2-42ef-9e4b-9cc594613393",
          "A5": "12ec0688-188b-44d9-99c0-af66d25810d7",
          "BL7": "0d8351f6-c2f4-4737-bdd9-6fbfe0837fec",
          "BL8": "79583724-4dd2-42ef-9e4b-9cc594613393",
          "CI1": "a46cf8ab-52e7-4afe-b36e-375428ffa2be",
          "CI2": "42da000f-16cb-4355-b69f-b25dfc89a3ff",
          "CI3": "null",
          "CI5": "FF939598",
          "CI6": 1,
          "CI7": "1;0"
        }
      ],
      "BK9": [],
      "BK8": "bb4d6607-026b-4b27-b640-8f5c77c1e89d",
      "BK18": "Business Process",
      "BK15": [],
      "BK29": true,
      "BK30": true,
      "BK34": "null",
      "BK24": []
    }
  }