﻿{
  "Descriptor": {
    "UId": "a8fa3cf5-3c09-4873-b37f-0031cc2697b5",
    "Name": "TsBusinessTypeInProduct",
    "ModifiedOnUtc": "\/Date(1475060614000)\/",
    "Parent": {
      "UId": "1bab9dcf-17d5-49f8-9536-8e0064f1dce0",
      "Name": "BaseEntity"
    },
    "ManagerName": "EntitySchemaManager",
    "Caption": "Тип бизнеса в услуге",
    "DependsOn": []
  }
}