﻿{
  "Descriptor": {
    "UId": "baf43c75-4041-466c-8b0c-fe67f1ae5e6c",
    "Name": "InvoiceProduct",
    "ModifiedOnUtc": "\/Date(1476170524000)\/",
    "Parent": {
      "UId": "732baa21-890b-4894-a457-623630e33a6f",
      "Name": "InvoiceProduct"
    },
    "ExtendParent": true,
    "ManagerName": "EntitySchemaManager",
    "Caption": "Продукт в счете",
    "DependsOn": []
  }
}