﻿{
  "Descriptor": {
    "UId": "7dea6ce5-b1d8-4f6e-bae1-1fb76224f716",
    "Name": "TsLeadExceedStageDurationHelper",
    "ModifiedOnUtc": "\/Date(1477064064000)\/",
    "ManagerName": "SourceCodeSchemaManager",
    "Caption": "TsLeadExceedStageDurationHelper",
    "DependsOn": []
  }
}