﻿{
  "MetaData": {
    "Schema": {
      "ManagerName": "SourceCodeSchemaManager",
      "UId": "7dea6ce5-b1d8-4f6e-bae1-1fb76224f716",
      "A2": "TsLeadExceedStageDurationHelper",
      "A5": "75e569ae-6a75-4d10-be93-6e3ad2bdca7e",
      "B1": [],
      "B2": [
        {
          "UId": "cec02dc0-9ccd-4341-ac79-5d9a9f9e283a",
          "A2": "HeadEmailColumnName",
          "A3": "7dea6ce5-b1d8-4f6e-bae1-1fb76224f716",
          "A4": "7dea6ce5-b1d8-4f6e-bae1-1fb76224f716",
          "A5": "75e569ae-6a75-4d10-be93-6e3ad2bdca7e"
        },
        {
          "UId": "f93fe4ab-9997-4b97-bf57-1ee72dd602e2",
          "A2": "DataObjectName",
          "A3": "7dea6ce5-b1d8-4f6e-bae1-1fb76224f716",
          "A4": "7dea6ce5-b1d8-4f6e-bae1-1fb76224f716",
          "A5": "75e569ae-6a75-4d10-be93-6e3ad2bdca7e"
        },
        {
          "UId": "7c4ecd78-53e7-41fa-9406-e02313005def",
          "A2": "EmailRowView",
          "A3": "7dea6ce5-b1d8-4f6e-bae1-1fb76224f716",
          "A4": "7dea6ce5-b1d8-4f6e-bae1-1fb76224f716",
          "A5": "75e569ae-6a75-4d10-be93-6e3ad2bdca7e"
        },
        {
          "UId": "5dce61a8-5ce1-473f-a08d-89e40450e1bb",
          "A2": "EmailTableView",
          "A3": "7dea6ce5-b1d8-4f6e-bae1-1fb76224f716",
          "A4": "7dea6ce5-b1d8-4f6e-bae1-1fb76224f716",
          "A5": "75e569ae-6a75-4d10-be93-6e3ad2bdca7e"
        },
        {
          "UId": "966edf9c-a3da-4a86-980a-56937e6ea34a",
          "A2": "Subject",
          "A3": "7dea6ce5-b1d8-4f6e-bae1-1fb76224f716",
          "A4": "7dea6ce5-b1d8-4f6e-bae1-1fb76224f716",
          "A5": "75e569ae-6a75-4d10-be93-6e3ad2bdca7e"
        }
      ],
      "B3": [],
      "B6": "12ec0688-188b-44d9-99c0-af66d25810d7",
      "B8": "7.8.1.1035",
      "HD1": "50e3acc0-26fc-4237-a095-849a1d534bd3"
    }
  }