﻿{
  "Descriptor": {
    "UId": "3a743b86-f71c-4b37-bf2f-bcaf602e766f",
    "Name": "ITAccountDeliveryUnitSupporting",
    "ModifiedOnUtc": "\/Date(1499865304000)\/",
    "ManagerName": "ProcessSchemaManager",
    "Caption": "Процесс сопровождения доставки счетов - ITBase",
    "DependsOn": []
  }
}