﻿{
  "SqlScript": {
    "UId": "dbcd1c31-6c34-4482-8495-861303f46790",
    "Name": "tsp_FindDuplicate_ovr",
    "DBEngineType": 0,
    "InstallType": 1,
    "ModifiedOnUtc": "\/Date(1480945811000)\/",
    "DependsOn": [
      {
        "UId": "6f435d6d-c0a4-40c9-bedc-61cb83205103",
        "Name": "Fix_tsp_FindDuplicate"
      }
    ]
  }
}