﻿{
  "Descriptor": {
    "UId": "de404b7a-83e0-4cd5-95ce-b4eca2fb8533",
    "Name": "AccountPageV2",
    "ModifiedOnUtc": "\/Date(1477577656000)\/",
    "Parent": {
      "UId": "f5edc79d-8d39-4e51-a255-57ccf3f1349e",
      "Name": "AccountPageV2"
    },
    "ExtendParent": true,
    "ManagerName": "ClientUnitSchemaManager",
    "Caption": "Страница редактирования контрагента",
    "DependsOn": []
  }
}