﻿{
  "Descriptor": {
    "UId": "cfb2c5c9-3315-4529-be59-38e36924cc3b",
    "Name": "ITDuplicationSearch",
    "ModifiedOnUtc": "\/Date(1507107296000)\/",
    "ManagerName": "SourceCodeSchemaManager",
    "Caption": "Поиск дублей при создании нового контрагента",
    "DependsOn": []
  }
}