﻿{
  "MetaData": {
    "Schema": {
      "ManagerName": "SourceCodeSchemaManager",
      "UId": "cfb2c5c9-3315-4529-be59-38e36924cc3b",
      "A2": "ITDuplicationSearch",
      "A5": "c96c2ab3-b60e-4151-bd60-9c2b786df0f0",
      "B1": [],
      "B2": [],
      "B3": [],
      "B6": "b18a0f67-6bd3-4ff3-8fa3-c759fb72d073",
      "B8": "7.8.3.1978",
      "HD1": "50e3acc0-26fc-4237-a095-849a1d534bd3"
    }
  }