﻿{
  "SqlScript": {
    "UId": "830eb54f-1b0a-4302-8a42-6e08dd3f9908",
    "Name": "Delete_data_from_SysProfileData_AccountPageV2ITAccountCategDetail",
    "DBEngineType": 0,
    "InstallType": 1,
    "ModifiedOnUtc": "\/Date(1501246611000)\/",
    "DependsOn": []
  }
}