﻿{
  "PackageData": [
    {
      "Row": [
        {
          "SchemaColumnUId": "d27e9964-a7a6-46dd-9f9a-7cb470c33b98",
          "Value": "a29a3ba5-4b0d-de11-9a51-005056c00008",
          "DisplayValue": "Все сотрудники компании"
        },
        {
          "SchemaColumnUId": "a3dc68d6-f74e-4a57-8411-77a88dfe0bbb",
          "Value": true
        },
        {
          "SchemaColumnUId": "21a61238-45dc-4089-9882-cc1be097cbf8",
          "Value": false
        },
        {
          "SchemaColumnUId": "379b41a2-dfb5-4069-a267-88ec0653e391",
          "Value": false
        },
        {
          "SchemaColumnUId": "2cda2c20-d48a-44d0-b266-5542730b1ad9",
          "Value": false
        },
        {
          "SchemaColumnUId": "a72532ba-4755-4b2f-8079-c382ae6d0e9a",
          "Value": 3
        },
        {
          "SchemaColumnUId": "134c280f-f7a7-4ac5-beeb-4ab1ed9e4ff5",
          "Value": "4c7a6ead-4eb8-4fc0-863e-98a664569fed"
        },
        {
          "SchemaColumnUId": "ae0e45ca-c495-4fe7-a39d-3ab7278e1617",
          "Value": "7aa2e9b7-baa9-4451-807f-cfdf07c03a3a"
        }
      ]
    }
  ]
}