﻿{
  "PackageData": [
    {
      "Row": [
        {
          "SchemaColumnUId": "ae0e45ca-c495-4fe7-a39d-3ab7278e1617",
          "ColumnName": "Id",
          "Value": "a19fa62a-0344-46f2-b2b1-593ca493bafe"
        },
        {
          "SchemaColumnUId": "a215f575-7283-41bd-8852-b2415a935051",
          "ColumnName": "Caption",
          "Value": "Воронка лидов"
        },
        {
          "SchemaColumnUId": "551ce105-25dc-4a76-b318-cf37635e88c3",
          "ColumnName": "Items",
          "Value": "{\"Indicator\":{\"parameters\":{\"caption\":\"Количество лидов в воронке\",\"sectionBindingColumn\":\"Id\",\"sectionId\":\"7f3f22d6-f36b-1410-6584-1c6f65e16a07\",\"entitySchemaName\":\"Lead\",\"filterData\":\"{\\\"className\\\":\\\"Terrasoft.FilterGroup\\\",\\\"items\\\":{\\\"ea366624-79c9-4f1c-b4be-cd93e761beb9\\\":{\\\"className\\\":\\\"Terrasoft.InFilter\\\",\\\"filterType\\\":4,\\\"comparisonType\\\":4,\\\"isEnabled\\\":true,\\\"trimDateTimeParameterToDate\\\":false,\\\"leftExpression\\\":{\\\"className\\\":\\\"Terrasoft.ColumnExpression\\\",\\\"expressionType\\\":0,\\\"columnPath\\\":\\\"QualifyStatus\\\"},\\\"isAggregative\\\":false,\\\"key\\\":\\\"ea366624-79c9-4f1c-b4be-cd93e761beb9\\\",\\\"dataValueType\\\":10,\\\"leftExpressionCaption\\\":\\\"Стадия лида\\\",\\\"referenceSchemaName\\\":\\\"QualifyStatus\\\",\\\"rightExpressions\\\":[{\\\"className\\\":\\\"Terrasoft.ParameterExpression\\\",\\\"expressionType\\\":2,\\\"parameter\\\":{\\\"className\\\":\\\"Terrasoft.Parameter\\\",\\\"dataValueType\\\":10,\\\"value\\\":{\\\"Name\\\":\\\"Дисквалифицирован\\\",\\\"Id\\\":\\\"128c3718-771a-4d1e-9035-6fa135ca5f70\\\",\\\"value\\\":\\\"128c3718-771a-4d1e-9035-6fa135ca5f70\\\",\\\"displayValue\\\":\\\"Дисквалифицирован\\\"}}},{\\\"className\\\":\\\"Terrasoft.ParameterExpression\\\",\\\"expressionType\\\":2,\\\"parameter\\\":{\\\"className\\\":\\\"Terrasoft.Parameter\\\",\\\"dataValueType\\\":10,\\\"value\\\":{\\\"Name\\\":\\\"Потребность отсутствует\\\",\\\"Id\\\":\\\"51adc3ec-3503-4b10-a00b-8be3b0e11f08\\\",\\\"value\\\":\\\"51adc3ec-3503-4b10-a00b-8be3b0e11f08\\\",\\\"displayValue\\\":\\\"Потребность отсутствует\\\"}}}]}},\\\"logicalOperation\\\":0,\\\"isEnabled\\\":true,\\\"filterType\\\":6,\\\"rootSchemaName\\\":\\\"Lead\\\",\\\"key\\\":\\\"\\\"}\",\"aggregationType\":1,\"style\":\"widget-blue\",\"fontStyle\":\"big-indicator-font-size\",\"format\":\"@{textDecorator={0}; type=4; decimalPrecision=0}\"},\"widgetType\":\"Indicator\"},\"Indicator1\":{\"parameters\":{\"caption\":\"Количество переведенных в продажу лидов в текущем месяце\",\"sectionId\":\"7f3f22d6-f36b-1410-6584-1c6f65e16a07\",\"entitySchemaName\":\"SysProcessLog\",\"filterData\":\"{\\\"className\\\":\\\"Terrasoft.FilterGroup\\\",\\\"items\\\":{\\\"4b296d25-5bb8-4ff8-be70-883c1e395bed\\\":{\\\"className\\\":\\\"Terrasoft.CompareFilter\\\",\\\"filterType\\\":1,\\\"comparisonType\\\":3,\\\"isEnabled\\\":true,\\\"trimDateTimeParameterToDate\\\":false,\\\"leftExpression\\\":{\\\"className\\\":\\\"Terrasoft.ColumnExpression\\\",\\\"expressionType\\\":0,\\\"columnPath\\\":\\\"Name\\\"},\\\"isAggregative\\\":false,\\\"key\\\":\\\"4b296d25-5bb8-4ff8-be70-883c1e395bed\\\",\\\"dataValueType\\\":1,\\\"leftExpressionCaption\\\":\\\"Заголовок\\\",\\\"rightExpression\\\":{\\\"className\\\":\\\"Terrasoft.ParameterExpression\\\",\\\"expressionType\\\":2,\\\"parameter\\\":{\\\"className\\\":\\\"Terrasoft.Parameter\\\",\\\"dataValueType\\\":1,\\\"value\\\":\\\"Ожидание продажи\\\"}}},\\\"80e2b0be-4b46-495f-b8f2-41b6761334a7\\\":{\\\"className\\\":\\\"Terrasoft.CompareFilter\\\",\\\"filterType\\\":1,\\\"comparisonType\\\":3,\\\"isEnabled\\\":true,\\\"trimDateTimeParameterToDate\\\":true,\\\"leftExpression\\\":{\\\"className\\\":\\\"Terrasoft.ColumnExpression\\\",\\\"expressionType\\\":0,\\\"columnPath\\\":\\\"StartDate\\\"},\\\"isAggregative\\\":false,\\\"key\\\":\\\"80e2b0be-4b46-495f-b8f2-41b6761334a7\\\",\\\"dataValueType\\\":7,\\\"leftExpressionCaption\\\":\\\"Дата начала\\\",\\\"rightExpression\\\":{\\\"className\\\":\\\"Terrasoft.FunctionExpression\\\",\\\"expressionType\\\":1,\\\"functionType\\\":1,\\\"macrosType\\\":10}}},\\\"logicalOperation\\\":0,\\\"isEnabled\\\":true,\\\"filterType\\\":6,\\\"rootSchemaName\\\":\\\"SysProcessLog\\\",\\\"key\\\":\\\"\\\"}\",\"aggregationType\":1,\"style\":\"widget-green\",\"fontStyle\":\"default-indicator-font-size\",\"format\":\"@{textDecorator={0}; type=4; decimalPrecision=0}\"},\"widgetType\":\"Indicator\"},\"Module\":{\"parameters\":{\"moduleName\":\"ChartModule\",\"caption\":\"Модуль построения графиков\",\"parameters\":{\"seriesConfig\":[],\"orderBy\":\"QualifyStatus.StageNumber\",\"orderDirection\":\"Ascending\",\"caption\":\"Воронка лидов\",\"sectionId\":\"7f3f22d6-f36b-1410-6584-1c6f65e16a07\",\"primaryColumnName\":\"Id\",\"yAxisConfig\":{\"position\":0},\"schemaName\":\"Lead\",\"sectionBindingColumn\":\"Id\",\"func\":1,\"type\":\"funnel\",\"xAxisColumn\":\"QualifyStatus\",\"YAxisCaption\":\"Лидов\",\"styleColor\":\"widget-coral\",\"filterData\":\"{\\\"className\\\":\\\"Terrasoft.FilterGroup\\\",\\\"items\\\":{\\\"53e3b5d1-690f-4fc2-9d45-dedb87f66279\\\":{\\\"className\\\":\\\"Terrasoft.InFilter\\\",\\\"filterType\\\":4,\\\"comparisonType\\\":4,\\\"isEnabled\\\":true,\\\"trimDateTimeParameterToDate\\\":false,\\\"leftExpression\\\":{\\\"className\\\":\\\"Terrasoft.ColumnExpression\\\",\\\"expressionType\\\":0,\\\"columnPath\\\":\\\"QualifyStatus\\\"},\\\"isAggregative\\\":false,\\\"key\\\":\\\"53e3b5d1-690f-4fc2-9d45-dedb87f66279\\\",\\\"dataValueType\\\":10,\\\"leftExpressionCaption\\\":\\\"Стадия лида\\\",\\\"referenceSchemaName\\\":\\\"QualifyStatus\\\",\\\"rightExpressions\\\":[{\\\"className\\\":\\\"Terrasoft.ParameterExpression\\\",\\\"expressionType\\\":2,\\\"parameter\\\":{\\\"className\\\":\\\"Terrasoft.Parameter\\\",\\\"dataValueType\\\":10,\\\"value\\\":{\\\"Name\\\":\\\"Потребность отсутствует\\\",\\\"Id\\\":\\\"51adc3ec-3503-4b10-a00b-8be3b0e11f08\\\",\\\"value\\\":\\\"51adc3ec-3503-4b10-a00b-8be3b0e11f08\\\",\\\"displayValue\\\":\\\"Потребность отсутствует\\\"}}},{\\\"className\\\":\\\"Terrasoft.ParameterExpression\\\",\\\"expressionType\\\":2,\\\"parameter\\\":{\\\"className\\\":\\\"Terrasoft.Parameter\\\",\\\"dataValueType\\\":10,\\\"value\\\":{\\\"Name\\\":\\\"Дисквалифицирован\\\",\\\"Id\\\":\\\"128c3718-771a-4d1e-9035-6fa135ca5f70\\\",\\\"value\\\":\\\"128c3718-771a-4d1e-9035-6fa135ca5f70\\\",\\\"displayValue\\\":\\\"Дисквалифицирован\\\"}}}]}},\\\"logicalOperation\\\":0,\\\"isEnabled\\\":true,\\\"filterType\\\":6,\\\"rootSchemaName\\\":\\\"Lead\\\",\\\"key\\\":\\\"\\\"}\"},\"configurationMessage\":\"GetChartConfig\"},\"widgetType\":\"Module\"}}"
        }
      ]
    }
  ]
}