﻿{
  "PackageData": [
    {
      "Row": [
        {
          "SchemaColumnUId": "ae0e45ca-c495-4fe7-a39d-3ab7278e1617",
          "Value": "bf023d5c-93cf-4146-8b46-8aa308105c21"
        },
        {
          "SchemaColumnUId": "78ed4015-b81f-49fc-9d50-847cf8df5e6c",
          "Value": 0
        },
        {
          "SchemaColumnUId": "fb750eb9-35b6-463e-b3b8-1a69ec871e43",
          "Value": "[{\"layout\":{\"column\":19,\"row\":3,\"colSpan\":5,\"rowSpan\":3},\"name\":\"Indicator\",\"itemType\":4},{\"layout\":{\"column\":0,\"row\":6,\"colSpan\":12,\"rowSpan\":5},\"name\":\"Chart1\",\"itemType\":4},{\"layout\":{\"column\":12,\"row\":6,\"colSpan\":12,\"rowSpan\":5},\"name\":\"Chart2\",\"itemType\":4},{\"layout\":{\"column\":19,\"row\":0,\"colSpan\":5,\"rowSpan\":3},\"name\":\"Indicator1\",\"itemType\":4},{\"layout\":{\"column\":0,\"row\":0,\"colSpan\":19,\"rowSpan\":6},\"name\":\"Module\",\"itemType\":4}]"
        },
        {
          "SchemaColumnUId": "9eedf8ab-d02e-4a4a-9f9d-19ede1c873bc",
          "Value": "null",
          "DisplayValue": ""
        }
      ]
    }
  ]
}