﻿{
  "PackageData": [
    {
      "Row": [
        {
          "SchemaColumnUId": "ae0e45ca-c495-4fe7-a39d-3ab7278e1617",
          "ColumnName": "Id",
          "Value": "6586e67e-38b1-4d26-93f1-ae5b563d611d"
        },
        {
          "SchemaColumnUId": "a215f575-7283-41bd-8852-b2415a935051",
          "ColumnName": "Caption",
          "Value": "Анализ продаж"
        },
        {
          "SchemaColumnUId": "551ce105-25dc-4a76-b318-cf37635e88c3",
          "ColumnName": "Items",
          "Value": "{\"Chart\":{\"parameters\":{\"seriesConfig\":\"\",\"orderBy\":\"GroupByField\",\"orderDirection\":\"Ascending\",\"dateTimeFormat\":\"Month;Year\",\"caption\":\"Динамика продаж по месяцам\",\"sectionId\":\"075063c9-8180-e011-afbc-00155d04320c\",\"primaryColumnName\":\"Id\",\"yAxisConfig\":\"@{position=0}\",\"schemaName\":\"Opportunity\",\"sectionBindingColumn\":\"Id\",\"func\":2,\"type\":\"column\",\"xAxisColumn\":\"DueDate\",\"yAxisColumn\":\"Amount\",\"YAxisCaption\":\"Объем новых продаж\",\"styleColor\":\"widget-green\",\"filterData\":\"{\\\"className\\\":\\\"Terrasoft.FilterGroup\\\",\\\"items\\\":{\\\"8e5b0b42-0f8a-43c2-bb12-3487c2662450\\\":{\\\"className\\\":\\\"Terrasoft.InFilter\\\",\\\"filterType\\\":4,\\\"comparisonType\\\":3,\\\"isEnabled\\\":true,\\\"trimDateTimeParameterToDate\\\":false,\\\"leftExpression\\\":{\\\"className\\\":\\\"Terrasoft.ColumnExpression\\\",\\\"expressionType\\\":0,\\\"columnPath\\\":\\\"Stage\\\"},\\\"isAggregative\\\":false,\\\"key\\\":\\\"8e5b0b42-0f8a-43c2-bb12-3487c2662450\\\",\\\"dataValueType\\\":10,\\\"leftExpressionCaption\\\":\\\"Стадия\\\",\\\"referenceSchemaName\\\":\\\"OpportunityStage\\\",\\\"rightExpressions\\\":[{\\\"className\\\":\\\"Terrasoft.ParameterExpression\\\",\\\"expressionType\\\":2,\\\"parameter\\\":{\\\"className\\\":\\\"Terrasoft.Parameter\\\",\\\"dataValueType\\\":10,\\\"value\\\":{\\\"Name\\\":\\\"Завершена с победой\\\",\\\"Id\\\":\\\"60d5310c-5be6-df11-971b-001d60e938c6\\\",\\\"value\\\":\\\"60d5310c-5be6-df11-971b-001d60e938c6\\\",\\\"displayValue\\\":\\\"Завершена с победой\\\"}}}]},\\\"bc3335b3-4d5f-492c-88fb-6d302eac9048\\\":{\\\"className\\\":\\\"Terrasoft.CompareFilter\\\",\\\"filterType\\\":1,\\\"comparisonType\\\":3,\\\"isEnabled\\\":true,\\\"trimDateTimeParameterToDate\\\":false,\\\"leftExpression\\\":{\\\"className\\\":\\\"Terrasoft.ColumnExpression\\\",\\\"expressionType\\\":0,\\\"columnPath\\\":\\\"IsPrimary\\\"},\\\"isAggregative\\\":false,\\\"key\\\":\\\"bc3335b3-4d5f-492c-88fb-6d302eac9048\\\",\\\"dataValueType\\\":12,\\\"leftExpressionCaption\\\":\\\"Первая продажа данному клиенту\\\",\\\"rightExpression\\\":{\\\"className\\\":\\\"Terrasoft.ParameterExpression\\\",\\\"expressionType\\\":2,\\\"parameter\\\":{\\\"className\\\":\\\"Terrasoft.Parameter\\\",\\\"dataValueType\\\":12,\\\"value\\\":true}}}},\\\"logicalOperation\\\":0,\\\"isEnabled\\\":true,\\\"filterType\\\":6,\\\"rootSchemaName\\\":\\\"Opportunity\\\",\\\"key\\\":\\\"\\\"}\"},\"widgetType\":\"Chart\"},\"Chart1\":{\"parameters\":{\"seriesConfig\":\"\",\"orderBy\":\"GroupByField\",\"orderDirection\":\"Ascending\",\"dateTimeFormat\":\"Month;Year\",\"caption\":\"Динамика дохода по месяцам\",\"sectionId\":\"075063c9-8180-e011-afbc-00155d04320c\",\"primaryColumnName\":\"Id\",\"yAxisConfig\":\"@{position=0}\",\"schemaName\":\"Invoice\",\"sectionBindingColumn\":\"Opportunity\",\"func\":2,\"type\":\"column\",\"xAxisColumn\":\"DueDate\",\"yAxisColumn\":\"PrimaryPaymentAmount\",\"YAxisCaption\":\"Сумма оплат\",\"styleColor\":\"widget-coral\",\"filterData\":\"{\\\"className\\\":\\\"Terrasoft.FilterGroup\\\",\\\"items\\\":{\\\"3d99f740-1e6e-4d9c-8a40-46f2de04b4cd\\\":{\\\"className\\\":\\\"Terrasoft.CompareFilter\\\",\\\"filterType\\\":1,\\\"comparisonType\\\":8,\\\"isEnabled\\\":true,\\\"trimDateTimeParameterToDate\\\":true,\\\"leftExpression\\\":{\\\"className\\\":\\\"Terrasoft.ColumnExpression\\\",\\\"expressionType\\\":0,\\\"columnPath\\\":\\\"DueDate\\\"},\\\"isAggregative\\\":false,\\\"key\\\":\\\"3d99f740-1e6e-4d9c-8a40-46f2de04b4cd\\\",\\\"dataValueType\\\":8,\\\"leftExpressionCaption\\\":\\\"Дата оплаты\\\",\\\"rightExpression\\\":{\\\"className\\\":\\\"Terrasoft.FunctionExpression\\\",\\\"expressionType\\\":1,\\\"functionType\\\":1,\\\"macrosType\\\":15}}},\\\"logicalOperation\\\":1,\\\"isEnabled\\\":true,\\\"filterType\\\":6,\\\"rootSchemaName\\\":\\\"Invoice\\\",\\\"key\\\":\\\"\\\"}\"},\"widgetType\":\"Chart\"},\"Chart3\":{\"parameters\":{\"seriesConfig\":\"\",\"orderBy\":\"GroupByField\",\"orderDirection\":\"Ascending\",\"dateTimeFormat\":\"Month;Year\",\"caption\":\"Динамика результатов завершенных сделок\",\"sectionId\":\"075063c9-8180-e011-afbc-00155d04320c\",\"primaryColumnName\":\"Id\",\"yAxisConfig\":\"@{position=0}\",\"schemaName\":\"Opportunity\",\"sectionBindingColumn\":\"Id\",\"func\":1,\"type\":\"column\",\"xAxisColumn\":\"DueDate\",\"YAxisCaption\":\"Выиграно продаж\",\"styleColor\":\"widget-green\",\"filterData\":\"{\\\"className\\\":\\\"Terrasoft.FilterGroup\\\",\\\"items\\\":{\\\"34bf4844-0f1e-423e-b67a-a6c9f267a424\\\":{\\\"className\\\":\\\"Terrasoft.InFilter\\\",\\\"filterType\\\":4,\\\"comparisonType\\\":3,\\\"isEnabled\\\":true,\\\"trimDateTimeParameterToDate\\\":false,\\\"leftExpression\\\":{\\\"className\\\":\\\"Terrasoft.ColumnExpression\\\",\\\"expressionType\\\":0,\\\"columnPath\\\":\\\"Stage\\\"},\\\"isAggregative\\\":false,\\\"key\\\":\\\"34bf4844-0f1e-423e-b67a-a6c9f267a424\\\",\\\"dataValueType\\\":10,\\\"leftExpressionCaption\\\":\\\"Стадия\\\",\\\"referenceSchemaName\\\":\\\"OpportunityStage\\\",\\\"rightExpressions\\\":[{\\\"className\\\":\\\"Terrasoft.ParameterExpression\\\",\\\"expressionType\\\":2,\\\"parameter\\\":{\\\"className\\\":\\\"Terrasoft.Parameter\\\",\\\"dataValueType\\\":10,\\\"value\\\":{\\\"Name\\\":\\\"Завершена с победой\\\",\\\"Id\\\":\\\"60d5310c-5be6-df11-971b-001d60e938c6\\\",\\\"value\\\":\\\"60d5310c-5be6-df11-971b-001d60e938c6\\\",\\\"displayValue\\\":\\\"Завершена с победой\\\"}}}]},\\\"c353b4c7-c463-4297-8a82-7a13db3b2179\\\":{\\\"className\\\":\\\"Terrasoft.CompareFilter\\\",\\\"filterType\\\":1,\\\"comparisonType\\\":8,\\\"isEnabled\\\":true,\\\"trimDateTimeParameterToDate\\\":true,\\\"leftExpression\\\":{\\\"className\\\":\\\"Terrasoft.ColumnExpression\\\",\\\"expressionType\\\":0,\\\"columnPath\\\":\\\"DueDate\\\"},\\\"isAggregative\\\":false,\\\"key\\\":\\\"c353b4c7-c463-4297-8a82-7a13db3b2179\\\",\\\"dataValueType\\\":7,\\\"leftExpressionCaption\\\":\\\"Дата закрытия\\\",\\\"rightExpression\\\":{\\\"className\\\":\\\"Terrasoft.FunctionExpression\\\",\\\"expressionType\\\":1,\\\"functionType\\\":1,\\\"macrosType\\\":15}}},\\\"logicalOperation\\\":0,\\\"isEnabled\\\":true,\\\"filterType\\\":6,\\\"rootSchemaName\\\":\\\"Opportunity\\\",\\\"key\\\":\\\"\\\"}\"},\"widgetType\":\"Chart\"},\"Chart2b45adbdba97\":{\"parameters\":{\"seriesConfig\":\"\",\"orderBy\":\"GroupByField\",\"orderDirection\":\"Ascending\",\"dateTimeFormat\":\"Month;Year\",\"caption\":\"Диаграмма продаж по состоянию по месяцам\",\"sectionId\":\"075063c9-8180-e011-afbc-00155d04320c\",\"xAxisDefaultCaption\":null,\"yAxisDefaultCaption\":\"Количество продаж\",\"primaryColumnName\":\"Id\",\"yAxisConfig\":\"@{position=0}\",\"schemaName\":\"Opportunity\",\"sectionBindingColumn\":\"Id\",\"func\":1,\"type\":\"column\",\"xAxisColumn\":\"DueDate\",\"styleColor\":\"widget-green\",\"filterData\":\"{\\\"className\\\":\\\"Terrasoft.FilterGroup\\\",\\\"items\\\":{\\\"b65c4dac-2c7a-427b-a10a-bc592e2f6149\\\":{\\\"className\\\":\\\"Terrasoft.InFilter\\\",\\\"filterType\\\":4,\\\"comparisonType\\\":3,\\\"isEnabled\\\":true,\\\"trimDateTimeParameterToDate\\\":false,\\\"leftExpression\\\":{\\\"className\\\":\\\"Terrasoft.ColumnExpression\\\",\\\"expressionType\\\":0,\\\"columnPath\\\":\\\"Stage\\\"},\\\"isAggregative\\\":false,\\\"key\\\":\\\"b65c4dac-2c7a-427b-a10a-bc592e2f6149\\\",\\\"dataValueType\\\":10,\\\"leftExpressionCaption\\\":\\\"Стадия\\\",\\\"referenceSchemaName\\\":\\\"OpportunityStage\\\",\\\"rightExpressions\\\":[{\\\"className\\\":\\\"Terrasoft.ParameterExpression\\\",\\\"expressionType\\\":2,\\\"parameter\\\":{\\\"className\\\":\\\"Terrasoft.Parameter\\\",\\\"dataValueType\\\":10,\\\"value\\\":{\\\"Name\\\":\\\"Завершена с победой\\\",\\\"Id\\\":\\\"60d5310c-5be6-df11-971b-001d60e938c6\\\",\\\"value\\\":\\\"60d5310c-5be6-df11-971b-001d60e938c6\\\",\\\"displayValue\\\":\\\"Завершена с победой\\\"}}}]},\\\"26d5d6f6-4b26-43cd-8c22-5ab0b52e6374\\\":{\\\"className\\\":\\\"Terrasoft.CompareFilter\\\",\\\"filterType\\\":1,\\\"comparisonType\\\":3,\\\"isEnabled\\\":true,\\\"trimDateTimeParameterToDate\\\":true,\\\"leftExpression\\\":{\\\"className\\\":\\\"Terrasoft.ColumnExpression\\\",\\\"expressionType\\\":0,\\\"columnPath\\\":\\\"DueDate\\\"},\\\"isAggregative\\\":false,\\\"key\\\":\\\"26d5d6f6-4b26-43cd-8c22-5ab0b52e6374\\\",\\\"dataValueType\\\":7,\\\"leftExpressionCaption\\\":\\\"Дата закрытия\\\",\\\"rightExpression\\\":{\\\"className\\\":\\\"Terrasoft.FunctionExpression\\\",\\\"expressionType\\\":1,\\\"functionType\\\":1,\\\"macrosType\\\":19}}},\\\"logicalOperation\\\":0,\\\"isEnabled\\\":true,\\\"filterType\\\":6,\\\"rootSchemaName\\\":\\\"Opportunity\\\",\\\"key\\\":\\\"\\\"}\"},\"widgetType\":\"Chart\"},\"Chart874d5609b605\":{\"parameters\":{\"seriesConfig\":[],\"orderBy\":\"GroupByField\",\"orderDirection\":\"Ascending\",\"dateTimeFormat\":null,\"caption\":\"Отчет продажи по причинам неуспеха за текущий год\",\"sectionId\":\"075063c9-8180-e011-afbc-00155d04320c\",\"xAxisDefaultCaption\":null,\"yAxisDefaultCaption\":\"Причина неуспеха\",\"primaryColumnName\":\"Id\",\"yAxisConfig\":{\"position\":0},\"schemaName\":\"Opportunity\",\"sectionBindingColumn\":\"Id\",\"func\":1,\"type\":\"pie\",\"xAxisColumn\":\"CloseReason\",\"styleColor\":\"widget-green\",\"filterData\":\"{\\\"className\\\":\\\"Terrasoft.FilterGroup\\\",\\\"items\\\":{\\\"4b782299-2df7-4725-9972-9493fc459027\\\":{\\\"className\\\":\\\"Terrasoft.InFilter\\\",\\\"filterType\\\":4,\\\"comparisonType\\\":3,\\\"isEnabled\\\":true,\\\"trimDateTimeParameterToDate\\\":false,\\\"leftExpression\\\":{\\\"className\\\":\\\"Terrasoft.ColumnExpression\\\",\\\"expressionType\\\":0,\\\"columnPath\\\":\\\"Stage\\\"},\\\"isAggregative\\\":false,\\\"key\\\":\\\"4b782299-2df7-4725-9972-9493fc459027\\\",\\\"dataValueType\\\":10,\\\"leftExpressionCaption\\\":\\\"Стадия\\\",\\\"referenceSchemaName\\\":\\\"OpportunityStage\\\",\\\"rightExpressions\\\":[{\\\"className\\\":\\\"Terrasoft.ParameterExpression\\\",\\\"expressionType\\\":2,\\\"parameter\\\":{\\\"className\\\":\\\"Terrasoft.Parameter\\\",\\\"dataValueType\\\":10,\\\"value\\\":{\\\"Name\\\":\\\"Завершена с проигрышем\\\",\\\"Id\\\":\\\"a9aafdfe-2242-4f42-8cd5-2ae3b9556d79\\\",\\\"value\\\":\\\"a9aafdfe-2242-4f42-8cd5-2ae3b9556d79\\\",\\\"displayValue\\\":\\\"Завершена с проигрышем\\\"}}},{\\\"className\\\":\\\"Terrasoft.ParameterExpression\\\",\\\"expressionType\\\":2,\\\"parameter\\\":{\\\"className\\\":\\\"Terrasoft.Parameter\\\",\\\"dataValueType\\\":10,\\\"value\\\":{\\\"Name\\\":\\\"Отклонена нами\\\",\\\"Id\\\":\\\"736f54fd-e240-46f8-8c7c-9066c30aff59\\\",\\\"value\\\":\\\"736f54fd-e240-46f8-8c7c-9066c30aff59\\\",\\\"displayValue\\\":\\\"Отклонена нами\\\"}}}]},\\\"e8540120-45fb-42c3-9e3b-0edbb1806c23\\\":{\\\"className\\\":\\\"Terrasoft.CompareFilter\\\",\\\"filterType\\\":1,\\\"comparisonType\\\":3,\\\"isEnabled\\\":true,\\\"trimDateTimeParameterToDate\\\":true,\\\"leftExpression\\\":{\\\"className\\\":\\\"Terrasoft.ColumnExpression\\\",\\\"expressionType\\\":0,\\\"columnPath\\\":\\\"DueDate\\\"},\\\"isAggregative\\\":false,\\\"key\\\":\\\"e8540120-45fb-42c3-9e3b-0edbb1806c23\\\",\\\"dataValueType\\\":7,\\\"leftExpressionCaption\\\":\\\"Дата закрытия\\\",\\\"rightExpression\\\":{\\\"className\\\":\\\"Terrasoft.FunctionExpression\\\",\\\"expressionType\\\":1,\\\"functionType\\\":1,\\\"macrosType\\\":19}}},\\\"logicalOperation\\\":0,\\\"isEnabled\\\":true,\\\"filterType\\\":6,\\\"rootSchemaName\\\":\\\"Opportunity\\\",\\\"key\\\":\\\"\\\"}\"},\"widgetType\":\"Chart\"},\"DashboardGrid9554ecfb3deb\":{\"parameters\":{\"caption\":\"Новые клиенты, кол-во продаж, объем продаж\",\"sectionId\":\"075063c9-8180-e011-afbc-00155d04320c\",\"entitySchemaName\":\"Account\",\"filterData\":\"{\\\"className\\\":\\\"Terrasoft.FilterGroup\\\",\\\"items\\\":{\\\"706ac3f8-a2cb-48f9-9b7e-44aace5b6aa3\\\":{\\\"className\\\":\\\"Terrasoft.CompareFilter\\\",\\\"filterType\\\":1,\\\"comparisonType\\\":3,\\\"isEnabled\\\":true,\\\"trimDateTimeParameterToDate\\\":true,\\\"leftExpression\\\":{\\\"className\\\":\\\"Terrasoft.ColumnExpression\\\",\\\"expressionType\\\":0,\\\"columnPath\\\":\\\"CreatedOn\\\"},\\\"isAggregative\\\":false,\\\"key\\\":\\\"706ac3f8-a2cb-48f9-9b7e-44aace5b6aa3\\\",\\\"dataValueType\\\":7,\\\"leftExpressionCaption\\\":\\\"Дата создания\\\",\\\"rightExpression\\\":{\\\"className\\\":\\\"Terrasoft.FunctionExpression\\\",\\\"expressionType\\\":1,\\\"functionType\\\":1,\\\"macrosType\\\":10}}},\\\"logicalOperation\\\":0,\\\"isEnabled\\\":true,\\\"filterType\\\":6,\\\"rootSchemaName\\\":\\\"Account\\\",\\\"key\\\":\\\"\\\"}\",\"style\":\"widget-green\",\"orderDirection\":2,\"orderColumn\":\"[Opportunity:Account].Amount\",\"rowCount\":10,\"gridConfig\":{\"items\":[{\"bindTo\":\"Name\",\"caption\":\"Название\",\"type\":\"title\",\"position\":{\"column\":0,\"colSpan\":12,\"row\":1},\"metaPath\":\"Name\",\"path\":\"Name\"},{\"bindTo\":\"[Opportunity:Account].Id\",\"caption\":\"Продажа (по колонке Контрагент)\",\"type\":\"text\",\"position\":{\"column\":12,\"colSpan\":7,\"row\":1},\"dataValueType\":4,\"aggregationType\":1,\"isBackward\":true,\"metaCaptionPath\":\"Продажа (по колонке Контрагент)\",\"metaPath\":\"[Opportunity:Account].Id\",\"path\":\"[Opportunity:Account].Id\",\"referenceSchemaName\":\"Opportunity\",\"serializedFilter\":\"{\\\"className\\\":\\\"Terrasoft.FilterGroup\\\",\\\"items\\\":{},\\\"logicalOperation\\\":0,\\\"isEnabled\\\":true,\\\"filterType\\\":6,\\\"rootSchemaName\\\":\\\"Opportunity\\\",\\\"key\\\":\\\"\\\"}\"},{\"bindTo\":\"[Opportunity:Account].Amount\",\"caption\":\"Продажа (по колонке Контрагент).Сумма продажи\",\"type\":\"text\",\"position\":{\"column\":19,\"colSpan\":4,\"row\":1},\"dataValueType\":5,\"aggregationType\":2,\"isBackward\":true,\"metaCaptionPath\":\"Продажа (по колонке Контрагент).Сумма продажи\",\"metaPath\":\"[Opportunity:Account].Amount\",\"path\":\"[Opportunity:Account].Amount\",\"referenceSchemaName\":\"Opportunity\",\"serializedFilter\":\"{\\\"className\\\":\\\"Terrasoft.FilterGroup\\\",\\\"items\\\":{},\\\"logicalOperation\\\":0,\\\"isEnabled\\\":true,\\\"filterType\\\":6,\\\"rootSchemaName\\\":\\\"Opportunity\\\",\\\"key\\\":\\\"\\\"}\",\"orderDirection\":2,\"orderPosition\":1}]}},\"widgetType\":\"DashboardGrid\"},\"Charte3a76f8bf274\":{\"parameters\":{\"seriesConfig\":[],\"orderBy\":\"GroupByField\",\"orderDirection\":\"Ascending\",\"dateTimeFormat\":null,\"caption\":\"Количество успешных/неуспешных продаж\",\"sectionId\":\"075063c9-8180-e011-afbc-00155d04320c\",\"xAxisDefaultCaption\":null,\"yAxisDefaultCaption\":null,\"primaryColumnName\":\"Id\",\"yAxisConfig\":{\"position\":0},\"schemaName\":\"Opportunity\",\"sectionBindingColumn\":\"Id\",\"func\":1,\"isPercentageMode\":false,\"type\":\"pie\",\"xAxisColumn\":\"Stage\",\"yAxisColumn\":null,\"YAxisCaption\":\"Количество продаж\",\"styleColor\":\"widget-navy\",\"filterData\":\"{\\\"className\\\":\\\"Terrasoft.FilterGroup\\\",\\\"items\\\":{\\\"ce3eb1fb-4e85-4409-8784-1ffe502d4b31\\\":{\\\"className\\\":\\\"Terrasoft.InFilter\\\",\\\"filterType\\\":4,\\\"comparisonType\\\":3,\\\"isEnabled\\\":true,\\\"trimDateTimeParameterToDate\\\":false,\\\"leftExpression\\\":{\\\"className\\\":\\\"Terrasoft.ColumnExpression\\\",\\\"expressionType\\\":0,\\\"columnPath\\\":\\\"Stage\\\"},\\\"isAggregative\\\":false,\\\"key\\\":\\\"ce3eb1fb-4e85-4409-8784-1ffe502d4b31\\\",\\\"dataValueType\\\":10,\\\"leftExpressionCaption\\\":\\\"Стадия\\\",\\\"referenceSchemaName\\\":\\\"OpportunityStage\\\",\\\"rightExpressions\\\":[{\\\"className\\\":\\\"Terrasoft.ParameterExpression\\\",\\\"expressionType\\\":2,\\\"parameter\\\":{\\\"className\\\":\\\"Terrasoft.Parameter\\\",\\\"dataValueType\\\":10,\\\"value\\\":{\\\"Name\\\":\\\"Завершена с победой\\\",\\\"Id\\\":\\\"60d5310c-5be6-df11-971b-001d60e938c6\\\",\\\"value\\\":\\\"60d5310c-5be6-df11-971b-001d60e938c6\\\",\\\"displayValue\\\":\\\"Завершена с победой\\\"}}}]},\\\"66215f6b-14c6-4610-8491-41d3a0c1b1f9\\\":{\\\"className\\\":\\\"Terrasoft.InFilter\\\",\\\"filterType\\\":4,\\\"comparisonType\\\":3,\\\"isEnabled\\\":true,\\\"trimDateTimeParameterToDate\\\":false,\\\"leftExpression\\\":{\\\"className\\\":\\\"Terrasoft.ColumnExpression\\\",\\\"expressionType\\\":0,\\\"columnPath\\\":\\\"Stage\\\"},\\\"isAggregative\\\":false,\\\"key\\\":\\\"66215f6b-14c6-4610-8491-41d3a0c1b1f9\\\",\\\"dataValueType\\\":10,\\\"leftExpressionCaption\\\":\\\"Стадия\\\",\\\"referenceSchemaName\\\":\\\"OpportunityStage\\\",\\\"rightExpressions\\\":[{\\\"className\\\":\\\"Terrasoft.ParameterExpression\\\",\\\"expressionType\\\":2,\\\"parameter\\\":{\\\"className\\\":\\\"Terrasoft.Parameter\\\",\\\"dataValueType\\\":10,\\\"value\\\":{\\\"Name\\\":\\\"Завершена с проигрышем\\\",\\\"Id\\\":\\\"a9aafdfe-2242-4f42-8cd5-2ae3b9556d79\\\",\\\"value\\\":\\\"a9aafdfe-2242-4f42-8cd5-2ae3b9556d79\\\",\\\"displayValue\\\":\\\"Завершена с проигрышем\\\"}}}]}},\\\"logicalOperation\\\":1,\\\"isEnabled\\\":true,\\\"filterType\\\":6,\\\"rootSchemaName\\\":\\\"Opportunity\\\",\\\"key\\\":\\\"\\\"}\"},\"widgetType\":\"Chart\"}}"
        }
      ]
    }
  ]
}