﻿{
  "PackageData": [
    {
      "Row": [
        {
          "SchemaColumnUId": "ae0e45ca-c495-4fe7-a39d-3ab7278e1617",
          "ColumnName": "Id",
          "Value": "6586e67e-38b1-4d26-93f1-ae5b563d611d"
        },
        {
          "SchemaColumnUId": "a215f575-7283-41bd-8852-b2415a935051",
          "ColumnName": "Caption",
          "Value": "Opportunity analytics"
        },
        {
          "SchemaColumnUId": "551ce105-25dc-4a76-b318-cf37635e88c3",
          "ColumnName": "Items",
          "Value": "{\r\n\t\"Chart\": {\r\n\t\t\"parameters\": {\r\n\t\t\t\"seriesConfig\": [{\r\n\t\t\t\t\"primaryColumnName\": \"Id\",\r\n\t\t\t\t\"yAxisConfig\": {\r\n\t\t\t\t\t\"position\": 0\r\n\t\t\t\t},\r\n\t\t\t\t\"schemaName\": \"Opportunity\",\r\n\t\t\t\t\"sectionBindingColumn\": \"Id\",\r\n\t\t\t\t\"func\": 2,\r\n\t\t\t\t\"type\": \"column\",\r\n\t\t\t\t\"xAxisColumn\": \"DueDate\",\r\n\t\t\t\t\"yAxisColumn\": \"Amount\",\r\n\t\t\t\t\"YAxisCaption\": \"Amount of sales to existing customers\",\r\n\t\t\t\t\"styleColor\": \"widget-orange\",\r\n\t\t\t\t\"filterData\": \"{\\\"className\\\":\\\"Terrasoft.FilterGroup\\\",\\\"items\\\":{\\\"dd6ac639-ab12-46cc-aef8-789ba3d914b1\\\":{\\\"className\\\":\\\"Terrasoft.InFilter\\\",\\\"filterType\\\":4,\\\"comparisonType\\\":3,\\\"isEnabled\\\":true,\\\"trimDateTimeParameterToDate\\\":false,\\\"leftExpression\\\":{\\\"className\\\":\\\"Terrasoft.ColumnExpression\\\",\\\"expressionType\\\":0,\\\"columnPath\\\":\\\"Stage\\\"},\\\"isAggregative\\\":false,\\\"key\\\":\\\"dd6ac639-ab12-46cc-aef8-789ba3d914b1\\\",\\\"dataValueType\\\":10,\\\"leftExpressionCaption\\\":\\\"Stage\\\",\\\"referenceSchemaName\\\":\\\"OpportunityStage\\\",\\\"rightExpressions\\\":[{\\\"className\\\":\\\"Terrasoft.ParameterExpression\\\",\\\"expressionType\\\":2,\\\"parameter\\\":{\\\"className\\\":\\\"Terrasoft.Parameter\\\",\\\"dataValueType\\\":10,\\\"value\\\":{\\\"Name\\\":\\\"Closed won\\\",\\\"Id\\\":\\\"60d5310c-5be6-df11-971b-001d60e938c6\\\",\\\"value\\\":\\\"60d5310c-5be6-df11-971b-001d60e938c6\\\",\\\"displayValue\\\":\\\"Closed won\\\"}}}]},\\\"19b0ce8f-b33c-4b5d-b1b5-973c8f4cd7cb\\\":{\\\"className\\\":\\\"Terrasoft.CompareFilter\\\",\\\"filterType\\\":1,\\\"comparisonType\\\":3,\\\"isEnabled\\\":true,\\\"trimDateTimeParameterToDate\\\":false,\\\"leftExpression\\\":{\\\"className\\\":\\\"Terrasoft.ColumnExpression\\\",\\\"expressionType\\\":0,\\\"columnPath\\\":\\\"IsPrimary\\\"},\\\"isAggregative\\\":false,\\\"key\\\":\\\"19b0ce8f-b33c-4b5d-b1b5-973c8f4cd7cb\\\",\\\"dataValueType\\\":12,\\\"leftExpressionCaption\\\":\\\"New customer\\\",\\\"rightExpression\\\":{\\\"className\\\":\\\"Terrasoft.ParameterExpression\\\",\\\"expressionType\\\":2,\\\"parameter\\\":{\\\"className\\\":\\\"Terrasoft.Parameter\\\",\\\"dataValueType\\\":12,\\\"value\\\":false}}}},\\\"logicalOperation\\\":0,\\\"isEnabled\\\":true,\\\"filterType\\\":6,\\\"rootSchemaName\\\":\\\"Opportunity\\\",\\\"key\\\":\\\"\\\"}\"\r\n\t\t\t}],\r\n\t\t\t\"orderBy\": \"GroupByField\",\r\n\t\t\t\"orderDirection\": \"Ascending\",\r\n\t\t\t\"dateTimeFormat\": \"Month;Year\",\r\n\t\t\t\"caption\": \"New opportunities by month\",\r\n\t\t\t\"sectionId\": \"075063c9-8180-e011-afbc-00155d04320c\",\r\n\t\t\t\"xAxisDefaultCaption\": null,\r\n\t\t\t\"yAxisDefaultCaption\": \"\",\r\n\t\t\t\"primaryColumnName\": \"Id\",\r\n\t\t\t\"yAxisConfig\": {\r\n\t\t\t\t\"position\": 0\r\n\t\t\t},\r\n\t\t\t\"schemaName\": \"Opportunity\",\r\n\t\t\t\"sectionBindingColumn\": \"Id\",\r\n\t\t\t\"func\": 2,\r\n\t\t\t\"type\": \"column\",\r\n\t\t\t\"xAxisColumn\": \"DueDate\",\r\n\t\t\t\"yAxisColumn\": \"Amount\",\r\n\t\t\t\"YAxisCaption\": \"New customer sales amount\",\r\n\t\t\t\"styleColor\": \"widget-green\",\r\n\t\t\t\"filterData\": \"{\\\"className\\\":\\\"Terrasoft.FilterGroup\\\",\\\"items\\\":{\\\"8e5b0b42-0f8a-43c2-bb12-3487c2662450\\\":{\\\"className\\\":\\\"Terrasoft.InFilter\\\",\\\"filterType\\\":4,\\\"comparisonType\\\":3,\\\"isEnabled\\\":true,\\\"trimDateTimeParameterToDate\\\":false,\\\"leftExpression\\\":{\\\"className\\\":\\\"Terrasoft.ColumnExpression\\\",\\\"expressionType\\\":0,\\\"columnPath\\\":\\\"Stage\\\"},\\\"isAggregative\\\":false,\\\"key\\\":\\\"8e5b0b42-0f8a-43c2-bb12-3487c2662450\\\",\\\"dataValueType\\\":10,\\\"leftExpressionCaption\\\":\\\"Stage\\\",\\\"referenceSchemaName\\\":\\\"OpportunityStage\\\",\\\"rightExpressions\\\":[{\\\"className\\\":\\\"Terrasoft.ParameterExpression\\\",\\\"expressionType\\\":2,\\\"parameter\\\":{\\\"className\\\":\\\"Terrasoft.Parameter\\\",\\\"dataValueType\\\":10,\\\"value\\\":{\\\"Name\\\":\\\"Closed won\\\",\\\"Id\\\":\\\"60d5310c-5be6-df11-971b-001d60e938c6\\\",\\\"value\\\":\\\"60d5310c-5be6-df11-971b-001d60e938c6\\\",\\\"displayValue\\\":\\\"Closed won\\\"}}}]},\\\"bc3335b3-4d5f-492c-88fb-6d302eac9048\\\":{\\\"className\\\":\\\"Terrasoft.CompareFilter\\\",\\\"filterType\\\":1,\\\"comparisonType\\\":3,\\\"isEnabled\\\":true,\\\"trimDateTimeParameterToDate\\\":false,\\\"leftExpression\\\":{\\\"className\\\":\\\"Terrasoft.ColumnExpression\\\",\\\"expressionType\\\":0,\\\"columnPath\\\":\\\"IsPrimary\\\"},\\\"isAggregative\\\":false,\\\"key\\\":\\\"bc3335b3-4d5f-492c-88fb-6d302eac9048\\\",\\\"dataValueType\\\":12,\\\"leftExpressionCaption\\\":\\\"New customer\\\",\\\"rightExpression\\\":{\\\"className\\\":\\\"Terrasoft.ParameterExpression\\\",\\\"expressionType\\\":2,\\\"parameter\\\":{\\\"className\\\":\\\"Terrasoft.Parameter\\\",\\\"dataValueType\\\":12,\\\"value\\\":true}}}},\\\"logicalOperation\\\":0,\\\"isEnabled\\\":true,\\\"filterType\\\":6,\\\"rootSchemaName\\\":\\\"Opportunity\\\",\\\"key\\\":\\\"\\\"}\"\r\n\t\t},\r\n\t\t\"widgetType\": \"Chart\"\r\n\t},\r\n\t\"Chart1\": {\r\n\t\t\"parameters\": {\r\n\t\t\t\"seriesConfig\": [],\r\n\t\t\t\"orderBy\": \"GroupByField\",\r\n\t\t\t\"orderDirection\": \"Ascending\",\r\n\t\t\t\"dateTimeFormat\": \"Month;Year\",\r\n\t\t\t\"caption\": \"Revenue by month\",\r\n\t\t\t\"sectionId\": \"075063c9-8180-e011-afbc-00155d04320c\",\r\n\t\t\t\"primaryColumnName\": \"Id\",\r\n\t\t\t\"yAxisConfig\": {\r\n\t\t\t\t\"position\": 0\r\n\t\t\t},\r\n\t\t\t\"schemaName\": \"Invoice\",\r\n\t\t\t\"sectionBindingColumn\": \"Opportunity\",\r\n\t\t\t\"func\": 2,\r\n\t\t\t\"type\": \"column\",\r\n\t\t\t\"xAxisColumn\": \"DueDate\",\r\n\t\t\t\"yAxisColumn\": \"PrimaryPaymentAmount\",\r\n\t\t\t\"YAxisCaption\": \"Payments amount\",\r\n\t\t\t\"styleColor\": \"widget-coral\",\r\n\t\t\t\"filterData\": \"{\\\"className\\\":\\\"Terrasoft.FilterGroup\\\",\\\"items\\\":{\\\"3d99f740-1e6e-4d9c-8a40-46f2de04b4cd\\\":{\\\"className\\\":\\\"Terrasoft.CompareFilter\\\",\\\"filterType\\\":1,\\\"comparisonType\\\":8,\\\"isEnabled\\\":true,\\\"trimDateTimeParameterToDate\\\":true,\\\"leftExpression\\\":{\\\"className\\\":\\\"Terrasoft.ColumnExpression\\\",\\\"expressionType\\\":0,\\\"columnPath\\\":\\\"DueDate\\\"},\\\"isAggregative\\\":false,\\\"key\\\":\\\"3d99f740-1e6e-4d9c-8a40-46f2de04b4cd\\\",\\\"dataValueType\\\":8,\\\"leftExpressionCaption\\\":\\\"Payment date\\\",\\\"rightExpression\\\":{\\\"className\\\":\\\"Terrasoft.FunctionExpression\\\",\\\"expressionType\\\":1,\\\"functionType\\\":1,\\\"macrosType\\\":15}}},\\\"logicalOperation\\\":1,\\\"isEnabled\\\":true,\\\"filterType\\\":6,\\\"rootSchemaName\\\":\\\"Invoice\\\",\\\"key\\\":\\\"\\\"}\"\r\n\t\t},\r\n\t\t\"widgetType\": \"Chart\"\r\n\t},\r\n\t\"Chart2\": {\r\n\t\t\"parameters\": {\r\n\t\t\t\"caption\": \"Number of sales to existing customer by month\",\r\n\t\t\t\"sectionBindingColumn\": \"Id\",\r\n\t\t\t\"sectionId\": \"075063c9-8180-e011-afbc-00155d04320c\",\r\n\t\t\t\"schemaName\": \"Opportunity\",\r\n\t\t\t\"filterData\": \"{\\\"className\\\":\\\"Terrasoft.FilterGroup\\\",\\\"items\\\":{\\\"ad1860ef-b8bc-43fc-8019-061a8cbe3312\\\":{\\\"className\\\":\\\"Terrasoft.InFilter\\\",\\\"filterType\\\":4,\\\"comparisonType\\\":3,\\\"isEnabled\\\":true,\\\"trimDateTimeParameterToDate\\\":false,\\\"leftExpression\\\":{\\\"className\\\":\\\"Terrasoft.ColumnExpression\\\",\\\"expressionType\\\":0,\\\"columnPath\\\":\\\"Stage\\\"},\\\"isAggregative\\\":false,\\\"key\\\":\\\"ad1860ef-b8bc-43fc-8019-061a8cbe3312\\\",\\\"dataValueType\\\":10,\\\"leftExpressionCaption\\\":\\\"Stage\\\",\\\"referenceSchemaName\\\":\\\"OpportunityStage\\\",\\\"rightExpressions\\\":[{\\\"className\\\":\\\"Terrasoft.ParameterExpression\\\",\\\"expressionType\\\":2,\\\"parameter\\\":{\\\"className\\\":\\\"Terrasoft.Parameter\\\",\\\"dataValueType\\\":10,\\\"value\\\":{\\\"Name\\\":\\\"Closed won\\\",\\\"Id\\\":\\\"60d5310c-5be6-df11-971b-001d60e938c6\\\",\\\"value\\\":\\\"60d5310c-5be6-df11-971b-001d60e938c6\\\",\\\"displayValue\\\":\\\"Closed won\\\"}}}]},\\\"e8e72a96-1470-4653-b075-4a1fd0940eaa\\\":{\\\"className\\\":\\\"Terrasoft.CompareFilter\\\",\\\"filterType\\\":1,\\\"comparisonType\\\":3,\\\"isEnabled\\\":true,\\\"trimDateTimeParameterToDate\\\":false,\\\"leftExpression\\\":{\\\"className\\\":\\\"Terrasoft.ColumnExpression\\\",\\\"expressionType\\\":0,\\\"columnPath\\\":\\\"IsPrimary\\\"},\\\"isAggregative\\\":false,\\\"key\\\":\\\"e8e72a96-1470-4653-b075-4a1fd0940eaa\\\",\\\"dataValueType\\\":12,\\\"leftExpressionCaption\\\":\\\"New customer\\\",\\\"rightExpression\\\":{\\\"className\\\":\\\"Terrasoft.ParameterExpression\\\",\\\"expressionType\\\":2,\\\"parameter\\\":{\\\"className\\\":\\\"Terrasoft.Parameter\\\",\\\"dataValueType\\\":12,\\\"value\\\":false}}},\\\"acb430b5-f3d8-4735-817a-5319e9f4828c\\\":{\\\"className\\\":\\\"Terrasoft.FilterGroup\\\",\\\"items\\\":{\\\"99c52136-63a8-41b5-8a7e-bcfc5e482863\\\":{\\\"className\\\":\\\"Terrasoft.CompareFilter\\\",\\\"filterType\\\":1,\\\"comparisonType\\\":3,\\\"isEnabled\\\":true,\\\"trimDateTimeParameterToDate\\\":true,\\\"leftExpression\\\":{\\\"className\\\":\\\"Terrasoft.ColumnExpression\\\",\\\"expressionType\\\":0,\\\"columnPath\\\":\\\"DueDate\\\"},\\\"isAggregative\\\":false,\\\"key\\\":\\\"99c52136-63a8-41b5-8a7e-bcfc5e482863\\\",\\\"dataValueType\\\":7,\\\"leftExpressionCaption\\\":\\\"Closed on\\\",\\\"rightExpression\\\":{\\\"className\\\":\\\"Terrasoft.FunctionExpression\\\",\\\"expressionType\\\":1,\\\"functionType\\\":1,\\\"macrosType\\\":16}},\\\"d73e1cd8-0e20-4fa3-b377-ceef8729ca2c\\\":{\\\"className\\\":\\\"Terrasoft.CompareFilter\\\",\\\"filterType\\\":1,\\\"comparisonType\\\":3,\\\"isEnabled\\\":true,\\\"trimDateTimeParameterToDate\\\":true,\\\"leftExpression\\\":{\\\"className\\\":\\\"Terrasoft.ColumnExpression\\\",\\\"expressionType\\\":0,\\\"columnPath\\\":\\\"DueDate\\\"},\\\"isAggregative\\\":false,\\\"key\\\":\\\"d73e1cd8-0e20-4fa3-b377-ceef8729ca2c\\\",\\\"dataValueType\\\":7,\\\"leftExpressionCaption\\\":\\\"Closed on\\\",\\\"rightExpression\\\":{\\\"className\\\":\\\"Terrasoft.FunctionExpression\\\",\\\"expressionType\\\":1,\\\"functionType\\\":1,\\\"macrosType\\\":15}}},\\\"logicalOperation\\\":1,\\\"isEnabled\\\":true,\\\"filterType\\\":6,\\\"key\\\":\\\"acb430b5-f3d8-4735-817a-5319e9f4828c\\\"}},\\\"logicalOperation\\\":0,\\\"isEnabled\\\":true,\\\"filterType\\\":6,\\\"rootSchemaName\\\":\\\"Opportunity\\\",\\\"key\\\":\\\"\\\"}\",\r\n\t\t\t\"func\": 2,\r\n\t\t\t\"yAxisColumn\": \"Amount\",\r\n\t\t\t\"orderBy\": \"GroupByField\",\r\n\t\t\t\"orderDirection\": \"Ascending\",\r\n\t\t\t\"type\": \"column\",\r\n\t\t\t\"xAxisColumn\": \"DueDate\",\r\n\t\t\t\"YAxisCaption\": \"Opportunities amount\",\r\n\t\t\t\"dateTimeFormat\": \"Month;Year\",\r\n\t\t\t\"styleColor\": \"widget-orange\",\r\n\t\t\t\"primaryColumnName\": \"Id\"\r\n\t\t},\r\n\t\t\"widgetType\": \"Chart\"\r\n\t},\r\n\t\"Chart3\": {\r\n\t\t\"parameters\": {\r\n\t\t\t\"seriesConfig\": [{\r\n\t\t\t\t\"primaryColumnName\": \"Id\",\r\n\t\t\t\t\"yAxisConfig\": {\r\n\t\t\t\t\t\"position\": 0\r\n\t\t\t\t},\r\n\t\t\t\t\"schemaName\": \"Opportunity\",\r\n\t\t\t\t\"sectionBindingColumn\": \"Id\",\r\n\t\t\t\t\"func\": 1,\r\n\t\t\t\t\"type\": \"column\",\r\n\t\t\t\t\"xAxisColumn\": \"DueDate\",\r\n\t\t\t\t\"YAxisCaption\": \"Lost opportunities\",\r\n\t\t\t\t\"styleColor\": \"widget-coral\",\r\n\t\t\t\t\"filterData\": \"{\\\"className\\\":\\\"Terrasoft.FilterGroup\\\",\\\"items\\\":{\\\"2f778067-01e0-4440-a964-fe524928d6fa\\\":{\\\"className\\\":\\\"Terrasoft.InFilter\\\",\\\"filterType\\\":4,\\\"comparisonType\\\":3,\\\"isEnabled\\\":true,\\\"trimDateTimeParameterToDate\\\":false,\\\"leftExpression\\\":{\\\"className\\\":\\\"Terrasoft.ColumnExpression\\\",\\\"expressionType\\\":0,\\\"columnPath\\\":\\\"Stage\\\"},\\\"isAggregative\\\":false,\\\"key\\\":\\\"2f778067-01e0-4440-a964-fe524928d6fa\\\",\\\"dataValueType\\\":10,\\\"leftExpressionCaption\\\":\\\"Stage\\\",\\\"referenceSchemaName\\\":\\\"OpportunityStage\\\",\\\"rightExpressions\\\":[{\\\"className\\\":\\\"Terrasoft.ParameterExpression\\\",\\\"expressionType\\\":2,\\\"parameter\\\":{\\\"className\\\":\\\"Terrasoft.Parameter\\\",\\\"dataValueType\\\":10,\\\"value\\\":{\\\"Name\\\":\\\"Closed lost\\\",\\\"Id\\\":\\\"a9aafdfe-2242-4f42-8cd5-2ae3b9556d79\\\",\\\"value\\\":\\\"a9aafdfe-2242-4f42-8cd5-2ae3b9556d79\\\",\\\"displayValue\\\":\\\"Closed lost\\\"}}}]},\\\"83fb489c-0fed-4baa-84a3-62b4b288a192\\\":{\\\"className\\\":\\\"Terrasoft.CompareFilter\\\",\\\"filterType\\\":1,\\\"comparisonType\\\":8,\\\"isEnabled\\\":true,\\\"trimDateTimeParameterToDate\\\":true,\\\"leftExpression\\\":{\\\"className\\\":\\\"Terrasoft.ColumnExpression\\\",\\\"expressionType\\\":0,\\\"columnPath\\\":\\\"DueDate\\\"},\\\"isAggregative\\\":false,\\\"key\\\":\\\"83fb489c-0fed-4baa-84a3-62b4b288a192\\\",\\\"dataValueType\\\":7,\\\"leftExpressionCaption\\\":\\\"Closed on\\\",\\\"rightExpression\\\":{\\\"className\\\":\\\"Terrasoft.FunctionExpression\\\",\\\"expressionType\\\":1,\\\"functionType\\\":1,\\\"macrosType\\\":15}}},\\\"logicalOperation\\\":0,\\\"isEnabled\\\":true,\\\"filterType\\\":6,\\\"rootSchemaName\\\":\\\"Opportunity\\\",\\\"key\\\":\\\"\\\"}\"\r\n\t\t\t}],\r\n\t\t\t\"orderBy\": \"GroupByField\",\r\n\t\t\t\"orderDirection\": \"Ascending\",\r\n\t\t\t\"dateTimeFormat\": \"Month;Year\",\r\n\t\t\t\"caption\": \"Won vs. Lost opportunities by month\",\r\n\t\t\t\"sectionId\": \"075063c9-8180-e011-afbc-00155d04320c\",\r\n\t\t\t\"primaryColumnName\": \"Id\",\r\n\t\t\t\"yAxisConfig\": {\r\n\t\t\t\t\"position\": 0\r\n\t\t\t},\r\n\t\t\t\"schemaName\": \"Opportunity\",\r\n\t\t\t\"sectionBindingColumn\": \"Id\",\r\n\t\t\t\"func\": 1,\r\n\t\t\t\"type\": \"column\",\r\n\t\t\t\"xAxisColumn\": \"DueDate\",\r\n\t\t\t\"YAxisCaption\": \"Won opportunities\",\r\n\t\t\t\"styleColor\": \"widget-green\",\r\n\t\t\t\"filterData\": \"{\\\"className\\\":\\\"Terrasoft.FilterGroup\\\",\\\"items\\\":{\\\"34bf4844-0f1e-423e-b67a-a6c9f267a424\\\":{\\\"className\\\":\\\"Terrasoft.InFilter\\\",\\\"filterType\\\":4,\\\"comparisonType\\\":3,\\\"isEnabled\\\":true,\\\"trimDateTimeParameterToDate\\\":false,\\\"leftExpression\\\":{\\\"className\\\":\\\"Terrasoft.ColumnExpression\\\",\\\"expressionType\\\":0,\\\"columnPath\\\":\\\"Stage\\\"},\\\"isAggregative\\\":false,\\\"key\\\":\\\"34bf4844-0f1e-423e-b67a-a6c9f267a424\\\",\\\"dataValueType\\\":10,\\\"leftExpressionCaption\\\":\\\"Stage\\\",\\\"referenceSchemaName\\\":\\\"OpportunityStage\\\",\\\"rightExpressions\\\":[{\\\"className\\\":\\\"Terrasoft.ParameterExpression\\\",\\\"expressionType\\\":2,\\\"parameter\\\":{\\\"className\\\":\\\"Terrasoft.Parameter\\\",\\\"dataValueType\\\":10,\\\"value\\\":{\\\"Name\\\":\\\"Closed won\\\",\\\"Id\\\":\\\"60d5310c-5be6-df11-971b-001d60e938c6\\\",\\\"value\\\":\\\"60d5310c-5be6-df11-971b-001d60e938c6\\\",\\\"displayValue\\\":\\\"Closed won\\\"}}}]},\\\"c353b4c7-c463-4297-8a82-7a13db3b2179\\\":{\\\"className\\\":\\\"Terrasoft.CompareFilter\\\",\\\"filterType\\\":1,\\\"comparisonType\\\":8,\\\"isEnabled\\\":true,\\\"trimDateTimeParameterToDate\\\":true,\\\"leftExpression\\\":{\\\"className\\\":\\\"Terrasoft.ColumnExpression\\\",\\\"expressionType\\\":0,\\\"columnPath\\\":\\\"DueDate\\\"},\\\"isAggregative\\\":false,\\\"key\\\":\\\"c353b4c7-c463-4297-8a82-7a13db3b2179\\\",\\\"dataValueType\\\":7,\\\"leftExpressionCaption\\\":\\\"Closed on\\\",\\\"rightExpression\\\":{\\\"className\\\":\\\"Terrasoft.FunctionExpression\\\",\\\"expressionType\\\":1,\\\"functionType\\\":1,\\\"macrosType\\\":15}}},\\\"logicalOperation\\\":0,\\\"isEnabled\\\":true,\\\"filterType\\\":6,\\\"rootSchemaName\\\":\\\"Opportunity\\\",\\\"key\\\":\\\"\\\"}\"\r\n\t\t},\r\n\t\t\"widgetType\": \"Chart\"\r\n\t},\r\n\t\"Chart4\": {\r\n\t\t\"parameters\": {\r\n\t\t\t\"seriesConfig\": [{\r\n\t\t\t\t\"primaryColumnName\": \"Id\",\r\n\t\t\t\t\"yAxisConfig\": {\r\n\t\t\t\t\t\"position\": 0\r\n\t\t\t\t},\r\n\t\t\t\t\"schemaName\": \"Opportunity\",\r\n\t\t\t\t\"sectionBindingColumn\": \"Id\",\r\n\t\t\t\t\"func\": 2,\r\n\t\t\t\t\"type\": \"column\",\r\n\t\t\t\t\"xAxisColumn\": \"DueDate\",\r\n\t\t\t\t\"yAxisColumn\": \"Amount\",\r\n\t\t\t\t\"YAxisCaption\": \"New customer sales amount\",\r\n\t\t\t\t\"styleColor\": \"widget-navy\",\r\n\t\t\t\t\"filterData\": \"{\\\"className\\\":\\\"Terrasoft.FilterGroup\\\",\\\"items\\\":{\\\"5b176ba9-86ce-412c-84ed-a538cbfa5a5c\\\":{\\\"className\\\":\\\"Terrasoft.CompareFilter\\\",\\\"filterType\\\":1,\\\"comparisonType\\\":3,\\\"isEnabled\\\":true,\\\"trimDateTimeParameterToDate\\\":false,\\\"leftExpression\\\":{\\\"className\\\":\\\"Terrasoft.ColumnExpression\\\",\\\"expressionType\\\":0,\\\"columnPath\\\":\\\"IsPrimary\\\"},\\\"isAggregative\\\":false,\\\"key\\\":\\\"5b176ba9-86ce-412c-84ed-a538cbfa5a5c\\\",\\\"dataValueType\\\":12,\\\"leftExpressionCaption\\\":\\\"New customer\\\",\\\"rightExpression\\\":{\\\"className\\\":\\\"Terrasoft.ParameterExpression\\\",\\\"expressionType\\\":2,\\\"parameter\\\":{\\\"className\\\":\\\"Terrasoft.Parameter\\\",\\\"dataValueType\\\":12,\\\"value\\\":true}}},\\\"061756ab-3dad-4b80-aac8-1dc1cc4aed91\\\":{\\\"className\\\":\\\"Terrasoft.InFilter\\\",\\\"filterType\\\":4,\\\"comparisonType\\\":3,\\\"isEnabled\\\":true,\\\"trimDateTimeParameterToDate\\\":false,\\\"leftExpression\\\":{\\\"className\\\":\\\"Terrasoft.ColumnExpression\\\",\\\"expressionType\\\":0,\\\"columnPath\\\":\\\"Stage\\\"},\\\"isAggregative\\\":false,\\\"key\\\":\\\"061756ab-3dad-4b80-aac8-1dc1cc4aed91\\\",\\\"dataValueType\\\":10,\\\"leftExpressionCaption\\\":\\\"Stage\\\",\\\"referenceSchemaName\\\":\\\"OpportunityStage\\\",\\\"rightExpressions\\\":[{\\\"className\\\":\\\"Terrasoft.ParameterExpression\\\",\\\"expressionType\\\":2,\\\"parameter\\\":{\\\"className\\\":\\\"Terrasoft.Parameter\\\",\\\"dataValueType\\\":10,\\\"value\\\":{\\\"Name\\\":\\\"Closed won\\\",\\\"Id\\\":\\\"60d5310c-5be6-df11-971b-001d60e938c6\\\",\\\"value\\\":\\\"60d5310c-5be6-df11-971b-001d60e938c6\\\",\\\"displayValue\\\":\\\"Closed won\\\"}}}]}},\\\"logicalOperation\\\":0,\\\"isEnabled\\\":true,\\\"filterType\\\":6,\\\"rootSchemaName\\\":\\\"Opportunity\\\",\\\"key\\\":\\\"\\\"}\"\r\n\t\t\t}, {\r\n\t\t\t\t\"primaryColumnName\": \"Id\",\r\n\t\t\t\t\"yAxisConfig\": {\r\n\t\t\t\t\t\"position\": 0\r\n\t\t\t\t},\r\n\t\t\t\t\"schemaName\": \"Opportunity\",\r\n\t\t\t\t\"sectionBindingColumn\": \"Id\",\r\n\t\t\t\t\"func\": 2,\r\n\t\t\t\t\"type\": \"column\",\r\n\t\t\t\t\"xAxisColumn\": \"DueDate\",\r\n\t\t\t\t\"yAxisColumn\": \"Amount\",\r\n\t\t\t\t\"YAxisCaption\": \"Amount of sales to existing customers\",\r\n\t\t\t\t\"styleColor\": \"widget-orange\",\r\n\t\t\t\t\"filterData\": \"{\\\"className\\\":\\\"Terrasoft.FilterGroup\\\",\\\"items\\\":{\\\"95b8dd61-4caf-4cba-8182-2001a633fa0e\\\":{\\\"className\\\":\\\"Terrasoft.CompareFilter\\\",\\\"filterType\\\":1,\\\"comparisonType\\\":3,\\\"isEnabled\\\":true,\\\"trimDateTimeParameterToDate\\\":false,\\\"leftExpression\\\":{\\\"className\\\":\\\"Terrasoft.ColumnExpression\\\",\\\"expressionType\\\":0,\\\"columnPath\\\":\\\"IsPrimary\\\"},\\\"isAggregative\\\":false,\\\"key\\\":\\\"95b8dd61-4caf-4cba-8182-2001a633fa0e\\\",\\\"dataValueType\\\":12,\\\"leftExpressionCaption\\\":\\\"New customer\\\",\\\"rightExpression\\\":{\\\"className\\\":\\\"Terrasoft.ParameterExpression\\\",\\\"expressionType\\\":2,\\\"parameter\\\":{\\\"className\\\":\\\"Terrasoft.Parameter\\\",\\\"dataValueType\\\":12,\\\"value\\\":false}}},\\\"1a3be473-fa57-46d1-a0f5-71edbc0b030c\\\":{\\\"className\\\":\\\"Terrasoft.InFilter\\\",\\\"filterType\\\":4,\\\"comparisonType\\\":3,\\\"isEnabled\\\":true,\\\"trimDateTimeParameterToDate\\\":false,\\\"leftExpression\\\":{\\\"className\\\":\\\"Terrasoft.ColumnExpression\\\",\\\"expressionType\\\":0,\\\"columnPath\\\":\\\"Stage\\\"},\\\"isAggregative\\\":false,\\\"key\\\":\\\"1a3be473-fa57-46d1-a0f5-71edbc0b030c\\\",\\\"dataValueType\\\":10,\\\"leftExpressionCaption\\\":\\\"Stage\\\",\\\"referenceSchemaName\\\":\\\"OpportunityStage\\\",\\\"rightExpressions\\\":[{\\\"className\\\":\\\"Terrasoft.ParameterExpression\\\",\\\"expressionType\\\":2,\\\"parameter\\\":{\\\"className\\\":\\\"Terrasoft.Parameter\\\",\\\"dataValueType\\\":10,\\\"value\\\":{\\\"Name\\\":\\\"Closed won\\\",\\\"Id\\\":\\\"60d5310c-5be6-df11-971b-001d60e938c6\\\",\\\"value\\\":\\\"60d5310c-5be6-df11-971b-001d60e938c6\\\",\\\"displayValue\\\":\\\"Closed won\\\"}}}]}},\\\"logicalOperation\\\":0,\\\"isEnabled\\\":true,\\\"filterType\\\":6,\\\"rootSchemaName\\\":\\\"Opportunity\\\",\\\"key\\\":\\\"\\\"}\"\r\n\t\t\t}],\r\n\t\t\t\"orderBy\": \"GroupByField\",\r\n\t\t\t\"orderDirection\": \"Ascending\",\r\n\t\t\t\"dateTimeFormat\": \"Month;Year\",\r\n\t\t\t\"caption\": \"New opportunities by month\",\r\n\t\t\t\"sectionId\": \"075063c9-8180-e011-afbc-00155d04320c\",\r\n\t\t\t\"primaryColumnName\": \"Id\",\r\n\t\t\t\"yAxisConfig\": {\r\n\t\t\t\t\"position\": 0\r\n\t\t\t},\r\n\t\t\t\"schemaName\": \"Opportunity\",\r\n\t\t\t\"sectionBindingColumn\": \"Id\",\r\n\t\t\t\"func\": 2,\r\n\t\t\t\"type\": \"column\",\r\n\t\t\t\"xAxisColumn\": \"DueDate\",\r\n\t\t\t\"yAxisColumn\": \"Amount\",\r\n\t\t\t\"YAxisCaption\": \"Sales amount\",\r\n\t\t\t\"styleColor\": \"widget-green\",\r\n\t\t\t\"filterData\": \"{\\\"className\\\":\\\"Terrasoft.FilterGroup\\\",\\\"items\\\":{\\\"9101a88e-a100-467d-88e4-aa44b09a378c\\\":{\\\"className\\\":\\\"Terrasoft.InFilter\\\",\\\"filterType\\\":4,\\\"comparisonType\\\":3,\\\"isEnabled\\\":true,\\\"trimDateTimeParameterToDate\\\":false,\\\"leftExpression\\\":{\\\"className\\\":\\\"Terrasoft.ColumnExpression\\\",\\\"expressionType\\\":0,\\\"columnPath\\\":\\\"Stage\\\"},\\\"isAggregative\\\":false,\\\"key\\\":\\\"9101a88e-a100-467d-88e4-aa44b09a378c\\\",\\\"dataValueType\\\":10,\\\"leftExpressionCaption\\\":\\\"Stage\\\",\\\"referenceSchemaName\\\":\\\"OpportunityStage\\\",\\\"rightExpressions\\\":[{\\\"className\\\":\\\"Terrasoft.ParameterExpression\\\",\\\"expressionType\\\":2,\\\"parameter\\\":{\\\"className\\\":\\\"Terrasoft.Parameter\\\",\\\"dataValueType\\\":10,\\\"value\\\":{\\\"Name\\\":\\\"Closed won\\\",\\\"Id\\\":\\\"60d5310c-5be6-df11-971b-001d60e938c6\\\",\\\"value\\\":\\\"60d5310c-5be6-df11-971b-001d60e938c6\\\",\\\"displayValue\\\":\\\"Closed won\\\"}}}]}},\\\"logicalOperation\\\":0,\\\"isEnabled\\\":true,\\\"filterType\\\":6,\\\"rootSchemaName\\\":\\\"Opportunity\\\",\\\"key\\\":\\\"\\\"}\"\r\n\t\t},\r\n\t\t\"widgetType\": \"Chart\"\r\n\t}\r\n}"
        }
      ]
    }
  ]
}