﻿{
  "Descriptor": {
    "UId": "328989aa-4b0d-4571-ae12-53bf4c3f65c1",
    "Name": "ITDailyOwnerChanging",
    "ModifiedOnUtc": "\/Date(1500904295000)\/",
    "ManagerName": "ProcessSchemaManager",
    "Caption": "Ежедневная смена ответственных",
    "DependsOn": []
  }
}