{
  "MetaData": {
    "Schema": {
      "ManagerName": "ProcessSchemaManager",
      "UId": "328989aa-4b0d-4571-ae12-53bf4c3f65c1",
      "A2": "ITDailyOwnerChanging",
      "A5": "c96c2ab3-b60e-4151-bd60-9c2b786df0f0",
      "B1": [],
      "B2": [],
      "B3": [
        {
          "UId": "c415716c-2429-43f3-b375-b74dced18aff",
          "A2": "Terrasoft.Configuration",
          "A3": "328989aa-4b0d-4571-ae12-53bf4c3f65c1",
          "A4": "328989aa-4b0d-4571-ae12-53bf4c3f65c1",
          "A5": "c96c2ab3-b60e-4151-bd60-9c2b786df0f0",
          "GF1": "null"
        },
        {
          "UId": "b85623fe-9139-4901-98d6-db4026b7a9b3",
          "A2": "Terrasoft.Configuration.ITBase",
          "A3": "328989aa-4b0d-4571-ae12-53bf4c3f65c1",
          "A4": "328989aa-4b0d-4571-ae12-53bf4c3f65c1",
          "A5": "c96c2ab3-b60e-4151-bd60-9c2b786df0f0",
          "GF1": "null"
        },
        {
          "UId": "388f908a-c44a-4334-82ed-3cde3d79858b",
          "A2": "Terrasoft.Core.Factories",
          "A3": "328989aa-4b0d-4571-ae12-53bf4c3f65c1",
          "A4": "328989aa-4b0d-4571-ae12-53bf4c3f65c1",
          "A5": "c96c2ab3-b60e-4151-bd60-9c2b786df0f0",
          "GF1": "null"
        },
        {
          "UId": "0a0a5d7a-13d3-4a1f-9620-cae481d1c867",
          "A2": "System.Linq",
          "A3": "328989aa-4b0d-4571-ae12-53bf4c3f65c1",
          "A4": "328989aa-4b0d-4571-ae12-53bf4c3f65c1",
          "A5": "c96c2ab3-b60e-4151-bd60-9c2b786df0f0",
          "GF1": "null"
        },
        {
          "UId": "7387c48c-1eac-4977-96f5-79d7c5140c69",
          "A2": "Terrasoft.Configuration.TsBase",
          "A3": "328989aa-4b0d-4571-ae12-53bf4c3f65c1",
          "A4": "328989aa-4b0d-4571-ae12-53bf4c3f65c1",
          "A5": "c96c2ab3-b60e-4151-bd60-9c2b786df0f0",
          "GF1": "null"
        }
      ],
      "B6": "b18a0f67-6bd3-4ff3-8fa3-c759fb72d073",
      "B8": "7.8.3.1978",
      "FJ1": [],
      "IJ1": true,
      "BK1": "FFFFFFFF",
      "BK2": "FFBBBBBB",
      "BK3": [
        {
          "BL1": "Terrasoft.Core.Process.ProcessSchemaLaneSet",
          "UId": "7880401e-7554-4af2-bf18-d9d868bdd6d0",
          "A2": "LaneSet1",
          "A3": "328989aa-4b0d-4571-ae12-53bf4c3f65c1",
          "A4": "328989aa-4b0d-4571-ae12-53bf4c3f65c1",
          "A5": "b18a0f67-6bd3-4ff3-8fa3-c759fb72d073",
          "BL7": "11a47caf-a0d5-41fa-a274-a0b11f77447a",
          "BL8": "328989aa-4b0d-4571-ae12-53bf4c3f65c1",
          "BM1": 0,
          "BM4": [
            {
              "BL1": "Terrasoft.Core.Process.ProcessSchemaLane",
              "UId": "f59e4a8a-e39d-4ce1-b496-31e1e3ed8538",
              "A2": "Lane1",
              "A3": "328989aa-4b0d-4571-ae12-53bf4c3f65c1",
              "A4": "328989aa-4b0d-4571-ae12-53bf4c3f65c1",
              "A5": "b18a0f67-6bd3-4ff3-8fa3-c759fb72d073",
              "IL2": "7880401e-7554-4af2-bf18-d9d868bdd6d0",
              "BL7": "abcd74b9-5912-414b-82ac-f1aa4dcd554e",
              "BL8": "328989aa-4b0d-4571-ae12-53bf4c3f65c1",
              "CD1": [],
              "CD2": [],
              "CD4": "7880401e-7554-4af2-bf18-d9d868bdd6d0",
              "CD7": []
            }
          ]
        }
      ],
      "BK5": [],
      "BK4": [
        {
          "BL1": "Terrasoft.Core.Process.ProcessSchemaStartEvent",
          "UId": "93f71de9-14dd-4365-8ce5-76fc4fb7b1bd",
          "A2": "StartEvent1",
          "A3": "328989aa-4b0d-4571-ae12-53bf4c3f65c1",
          "A4": "328989aa-4b0d-4571-ae12-53bf4c3f65c1",
          "A5": "b18a0f67-6bd3-4ff3-8fa3-c759fb72d073",
          "IL2": "f59e4a8a-e39d-4ce1-b496-31e1e3ed8538",
          "BL3": "50;184",
          "BL7": "53818048-7868-48f6-ada0-0ebaa65af628",
          "BL8": "328989aa-4b0d-4571-ae12-53bf4c3f65c1",
          "BN2": "27;27",
          "BO3": true,
          "FC1": [],
          "ED1": false
        },
        {
          "BL1": "Terrasoft.Core.Process.ProcessSchemaTerminateEvent",
          "UId": "c58df92c-9766-4dc0-8089-b73e6d923adc",
          "A2": "TerminateEvent1",
          "A3": "328989aa-4b0d-4571-ae12-53bf4c3f65c1",
          "A4": "328989aa-4b0d-4571-ae12-53bf4c3f65c1",
          "A5": "b18a0f67-6bd3-4ff3-8fa3-c759fb72d073",
          "IL2": "f59e4a8a-e39d-4ce1-b496-31e1e3ed8538",
          "BL3": "600;184",
          "BL7": "1bd93619-0574-454e-bb4e-cf53b9eb9470",
          "BL8": "328989aa-4b0d-4571-ae12-53bf4c3f65c1",
          "BN2": "27;27",
          "BO3": true,
          "FC1": []
        },
        {
          "BL1": "Terrasoft.Core.Process.ProcessSchemaScriptTask",
          "UId": "aba10a29-2e02-40dc-b838-abb804a58636",
          "A2": "ScriptTask1",
          "A3": "328989aa-4b0d-4571-ae12-53bf4c3f65c1",
          "A4": "328989aa-4b0d-4571-ae12-53bf4c3f65c1",
          "A5": "b18a0f67-6bd3-4ff3-8fa3-c759fb72d073",
          "IL2": "f59e4a8a-e39d-4ce1-b496-31e1e3ed8538",
          "BL3": "300;170",
          "BL7": "0e490dda-e140-4441-b600-6f5c64d024df",
          "BL8": "328989aa-4b0d-4571-ae12-53bf4c3f65c1",
          "BN2": "69;55",
          "BO3": true,
          "BP2": [],
          "CL2": "FFFFFFFF",
          "CH1": "var changeOwnerLog = Terrasoft.Core.Factories.ClassFactory.Get<ITChangeAccountOwnerUtils>(new ConstructorArgument(\"userConnection\", context.UserConnection));\n\tchangeOwnerLog.ITGetChangeOwnerLog(context.UserConnection);\n\n\nreturn true;",
          "CH2": true
        },
        {
          "BL1": "Terrasoft.Core.Process.ProcessSchemaSequenceFlow",
          "UId": "21d2e556-f116-4fa7-80f8-7b57ad2253e7",
          "A2": "SequenceFlow1",
          "A3": "328989aa-4b0d-4571-ae12-53bf4c3f65c1",
          "A4": "328989aa-4b0d-4571-ae12-53bf4c3f65c1",
          "A5": "b18a0f67-6bd3-4ff3-8fa3-c759fb72d073",
          "BL7": "0d8351f6-c2f4-4737-bdd9-6fbfe0837fec",
          "BL8": "328989aa-4b0d-4571-ae12-53bf4c3f65c1",
          "CI1": "93f71de9-14dd-4365-8ce5-76fc4fb7b1bd",
          "CI2": "aba10a29-2e02-40dc-b838-abb804a58636",
          "CI3": "null",
          "CI5": "FF939598",
          "CI6": 1,
          "CI8": "-1;0"
        },
        {
          "BL1": "Terrasoft.Core.Process.ProcessSchemaSequenceFlow",
          "UId": "a8d67a3f-c6df-47fc-b803-22e297a18938",
          "A2": "SequenceFlow2",
          "A3": "328989aa-4b0d-4571-ae12-53bf4c3f65c1",
          "A4": "328989aa-4b0d-4571-ae12-53bf4c3f65c1",
          "A5": "b18a0f67-6bd3-4ff3-8fa3-c759fb72d073",
          "BL7": "0d8351f6-c2f4-4737-bdd9-6fbfe0837fec",
          "BL8": "328989aa-4b0d-4571-ae12-53bf4c3f65c1",
          "CI1": "aba10a29-2e02-40dc-b838-abb804a58636",
          "CI2": "c58df92c-9766-4dc0-8089-b73e6d923adc",
          "CI3": "null",
          "CI5": "FF939598",
          "CI6": 1,
          "CI7": "1;0"
        }
      ],
      "BK9": [],
      "BK8": "bb4d6607-026b-4b27-b640-8f5c77c1e89d",
      "BK18": "Business Process",
      "BK15": [],
      "BK29": true,
      "BK30": true,
      "BK34": "null",
      "BK24": []
    }
  }