﻿{
  "Descriptor": {
    "UId": "bbd76c78-1471-4b20-9347-9894f45cc62a",
    "Name": "ITTypeOfWorkTime_Data",
    "ModifiedOnUtc": "\/Date(1503994330000)\/",
    "InstallType": 0,
    "Schema": {
      "UId": "677316a0-47af-4c55-bd3f-8930abd915ca",
      "Name": "ITTypeOfWorkTime"
    },
    "Columns": [
      {
        "ColumnUId": "ae0e45ca-c495-4fe7-a39d-3ab7278e1617",
        "IsForceUpdate": false,
        "IsKey": true,
        "ColumnName": "Id",
        "DataTypeValueUId": "23018567-a13c-4320-8687-fd6f9e3699bd"
      },
      {
        "ColumnUId": "736c30a7-c0ec-4fa9-b034-2552b319b633",
        "IsForceUpdate": false,
        "IsKey": false,
        "ColumnName": "Name",
        "DataTypeValueUId": "ddb3a1ee-07e8-4d62-b7a9-d0e618b00fbd"
      },
      {
        "ColumnUId": "9e53fd7c-dde4-4502-a64c-b9e34148108b",
        "IsForceUpdate": false,
        "IsKey": false,
        "ColumnName": "Description",
        "DataTypeValueUId": "ddb3a1ee-07e8-4d62-b7a9-d0e618b00fbd"
      },
      {
        "ColumnUId": "ab465751-92ae-4b81-8248-d49d1177bce9",
        "IsForceUpdate": false,
        "IsKey": false,
        "ColumnName": "ITIndexNumber",
        "DataTypeValueUId": "6b6b74e2-820d-490e-a017-2b73d4ccf2b0"
      }
    ]
  }
}