﻿{
  "Descriptor": {
    "UId": "4a74fa50-2fc0-4dc2-a9e7-e66c514b956a",
    "Name": "Opportunity",
    "ModifiedOnUtc": "\/Date(1506270157000)\/",
    "Parent": {
      "UId": "ae46fb87-c02c-4ae8-ad31-a923cdd994cf",
      "Name": "Opportunity"
    },
    "ExtendParent": true,
    "ManagerName": "EntitySchemaManager",
    "Caption": "Продажа",
    "DependsOn": []
  }
}