﻿{
  "SqlScript": {
    "UId": "83fdbab1-2437-4e5f-80fa-dfc40bcefe57",
    "Name": "TsUpdateMotivators",
    "DBEngineType": 0,
    "InstallType": 2,
    "ModifiedOnUtc": "\/Date(1474886689000)\/",
    "DependsOn": []
  }
}