﻿{
  "Descriptor": {
    "UId": "889d6fea-d063-4032-9538-ac38b0400d68",
    "PackageVersion": "7.8.0",
    "Name": "RelatedEntityDetail",
    "ModifiedOnUtc": "\/Date(1477588265000)\/",
    "Maintainer": "Customer",
    "DependsOn": [
      {
        "UId": "a7d9c356-450c-46d7-bc85-72dca4e280ba",
        "PackageVersion": "7.8.0",
        "Name": "NUI"
      }
    ]
  }
}