﻿{
  "Properties": {
    "CreatedInVersion": "7.8.1.1035",
    "IsCreatedInSvg": "True",
    "IsInterpretable": "False",
    "IsQuickModel": "False",
    "Tag": "Business Process",
    "UseForceCompile": "False",
    "Version": "0"
  }
}