﻿{
  "PackageData": [
    {
      "Row": [
        {
          "SchemaColumnUId": "ae0e45ca-c495-4fe7-a39d-3ab7278e1617",
          "Value": "e8ec28ec-4eb5-4e9f-a065-67c081ada877"
        },
        {
          "SchemaColumnUId": "146e7f2e-a20d-4cc2-9c5c-bcc8dde6ed63",
          "Value": false
        },
        {
          "SchemaColumnUId": "9d36f697-56db-4539-9809-b07f01dfe9a0",
          "Value": false
        },
        {
          "SchemaColumnUId": "5cff1d37-c039-46ce-ac3e-a4d7abe49c5f",
          "Value": 0
        },
        {
          "SchemaColumnUId": "388070cb-b942-4af8-a6fb-4b722d30847e",
          "Value": 0
        },
        {
          "SchemaColumnUId": "5112d458-569f-445a-90a9-a4c8e0041b28",
          "Value": 0
        },
        {
          "SchemaColumnUId": "875d786d-74b6-4f1c-b885-5fb7da04453b",
          "Value": false
        },
        {
          "SchemaColumnUId": "d463f315-b9c9-41ee-a625-60669d205559",
          "Value": ""
        },
        {
          "SchemaColumnUId": "ce321ce4-c2fd-43e9-b4ca-26a3aca754c4",
          "Value": true
        }
      ]
    },
    {
      "Row": [
        {
          "SchemaColumnUId": "ae0e45ca-c495-4fe7-a39d-3ab7278e1617",
          "Value": "8e27f01c-808e-4845-96b5-ac7685908b71"
        },
        {
          "SchemaColumnUId": "146e7f2e-a20d-4cc2-9c5c-bcc8dde6ed63",
          "Value": false
        },
        {
          "SchemaColumnUId": "9d36f697-56db-4539-9809-b07f01dfe9a0",
          "Value": false
        },
        {
          "SchemaColumnUId": "5cff1d37-c039-46ce-ac3e-a4d7abe49c5f",
          "Value": 0
        },
        {
          "SchemaColumnUId": "388070cb-b942-4af8-a6fb-4b722d30847e",
          "Value": 0
        },
        {
          "SchemaColumnUId": "5112d458-569f-445a-90a9-a4c8e0041b28",
          "Value": 0
        },
        {
          "SchemaColumnUId": "875d786d-74b6-4f1c-b885-5fb7da04453b",
          "Value": false
        },
        {
          "SchemaColumnUId": "d463f315-b9c9-41ee-a625-60669d205559",
          "Value": ""
        },
        {
          "SchemaColumnUId": "ce321ce4-c2fd-43e9-b4ca-26a3aca754c4",
          "Value": true
        }
      ]
    },
    {
      "Row": [
        {
          "SchemaColumnUId": "ae0e45ca-c495-4fe7-a39d-3ab7278e1617",
          "Value": "f87992c4-6783-44ef-91b3-f3bd2c551c62"
        },
        {
          "SchemaColumnUId": "146e7f2e-a20d-4cc2-9c5c-bcc8dde6ed63",
          "Value": false
        },
        {
          "SchemaColumnUId": "9d36f697-56db-4539-9809-b07f01dfe9a0",
          "Value": false
        },
        {
          "SchemaColumnUId": "5cff1d37-c039-46ce-ac3e-a4d7abe49c5f",
          "Value": 0
        },
        {
          "SchemaColumnUId": "388070cb-b942-4af8-a6fb-4b722d30847e",
          "Value": 0
        },
        {
          "SchemaColumnUId": "5112d458-569f-445a-90a9-a4c8e0041b28",
          "Value": 0
        },
        {
          "SchemaColumnUId": "875d786d-74b6-4f1c-b885-5fb7da04453b",
          "Value": false
        },
        {
          "SchemaColumnUId": "d463f315-b9c9-41ee-a625-60669d205559",
          "Value": ""
        },
        {
          "SchemaColumnUId": "ce321ce4-c2fd-43e9-b4ca-26a3aca754c4",
          "Value": true
        }
      ]
    },
    {
      "Row": [
        {
          "SchemaColumnUId": "ae0e45ca-c495-4fe7-a39d-3ab7278e1617",
          "Value": "0d4ce7ea-ac1a-49b0-bc4b-afb40fa52e12"
        },
        {
          "SchemaColumnUId": "146e7f2e-a20d-4cc2-9c5c-bcc8dde6ed63",
          "Value": false
        },
        {
          "SchemaColumnUId": "9d36f697-56db-4539-9809-b07f01dfe9a0",
          "Value": false
        },
        {
          "SchemaColumnUId": "5cff1d37-c039-46ce-ac3e-a4d7abe49c5f",
          "Value": 0
        },
        {
          "SchemaColumnUId": "388070cb-b942-4af8-a6fb-4b722d30847e",
          "Value": 0
        },
        {
          "SchemaColumnUId": "5112d458-569f-445a-90a9-a4c8e0041b28",
          "Value": 0
        },
        {
          "SchemaColumnUId": "875d786d-74b6-4f1c-b885-5fb7da04453b",
          "Value": false
        },
        {
          "SchemaColumnUId": "d463f315-b9c9-41ee-a625-60669d205559",
          "Value": ""
        },
        {
          "SchemaColumnUId": "ce321ce4-c2fd-43e9-b4ca-26a3aca754c4",
          "Value": true
        }
      ]
    },
    {
      "Row": [
        {
          "SchemaColumnUId": "ae0e45ca-c495-4fe7-a39d-3ab7278e1617",
          "Value": "08d785e4-b399-464c-a8b8-cdd0b6e1334a"
        },
        {
          "SchemaColumnUId": "146e7f2e-a20d-4cc2-9c5c-bcc8dde6ed63",
          "Value": false
        },
        {
          "SchemaColumnUId": "9d36f697-56db-4539-9809-b07f01dfe9a0",
          "Value": false
        },
        {
          "SchemaColumnUId": "5cff1d37-c039-46ce-ac3e-a4d7abe49c5f",
          "Value": 0
        },
        {
          "SchemaColumnUId": "388070cb-b942-4af8-a6fb-4b722d30847e",
          "Value": 0
        },
        {
          "SchemaColumnUId": "5112d458-569f-445a-90a9-a4c8e0041b28",
          "Value": 0
        },
        {
          "SchemaColumnUId": "875d786d-74b6-4f1c-b885-5fb7da04453b",
          "Value": false
        },
        {
          "SchemaColumnUId": "d463f315-b9c9-41ee-a625-60669d205559",
          "Value": ""
        },
        {
          "SchemaColumnUId": "ce321ce4-c2fd-43e9-b4ca-26a3aca754c4",
          "Value": true
        }
      ]
    },
    {
      "Row": [
        {
          "SchemaColumnUId": "ae0e45ca-c495-4fe7-a39d-3ab7278e1617",
          "Value": "4a9f18a0-8ee1-40e3-bc1e-e138e375e731"
        },
        {
          "SchemaColumnUId": "146e7f2e-a20d-4cc2-9c5c-bcc8dde6ed63",
          "Value": false
        },
        {
          "SchemaColumnUId": "9d36f697-56db-4539-9809-b07f01dfe9a0",
          "Value": false
        },
        {
          "SchemaColumnUId": "5cff1d37-c039-46ce-ac3e-a4d7abe49c5f",
          "Value": 8
        },
        {
          "SchemaColumnUId": "388070cb-b942-4af8-a6fb-4b722d30847e",
          "Value": 90
        },
        {
          "SchemaColumnUId": "5112d458-569f-445a-90a9-a4c8e0041b28",
          "Value": 0
        },
        {
          "SchemaColumnUId": "875d786d-74b6-4f1c-b885-5fb7da04453b",
          "Value": true
        },
        {
          "SchemaColumnUId": "d463f315-b9c9-41ee-a625-60669d205559",
          "Value": ""
        },
        {
          "SchemaColumnUId": "ce321ce4-c2fd-43e9-b4ca-26a3aca754c4",
          "Value": true
        }
      ]
    },
    {
      "Row": [
        {
          "SchemaColumnUId": "ae0e45ca-c495-4fe7-a39d-3ab7278e1617",
          "Value": "aa85c2ef-6d39-45a0-9d92-b3bed671da1e"
        },
        {
          "SchemaColumnUId": "146e7f2e-a20d-4cc2-9c5c-bcc8dde6ed63",
          "Value": false
        },
        {
          "SchemaColumnUId": "9d36f697-56db-4539-9809-b07f01dfe9a0",
          "Value": false
        },
        {
          "SchemaColumnUId": "5cff1d37-c039-46ce-ac3e-a4d7abe49c5f",
          "Value": 0
        },
        {
          "SchemaColumnUId": "388070cb-b942-4af8-a6fb-4b722d30847e",
          "Value": 0
        },
        {
          "SchemaColumnUId": "5112d458-569f-445a-90a9-a4c8e0041b28",
          "Value": 0
        },
        {
          "SchemaColumnUId": "875d786d-74b6-4f1c-b885-5fb7da04453b",
          "Value": false
        },
        {
          "SchemaColumnUId": "d463f315-b9c9-41ee-a625-60669d205559",
          "Value": ""
        },
        {
          "SchemaColumnUId": "ce321ce4-c2fd-43e9-b4ca-26a3aca754c4",
          "Value": true
        }
      ]
    }
  ]
}