﻿{
  "Descriptor": {
    "UId": "8f411e6b-48e7-467f-908f-4f0026f6ccc3",
    "Name": "TsWebService",
    "ModifiedOnUtc": "\/Date(1479401018000)\/",
    "ManagerName": "SourceCodeSchemaManager",
    "Caption": "TsWebService",
    "DependsOn": []
  }
}