﻿{
  "MetaData": {
    "Schema": {
      "ManagerName": "SourceCodeSchemaManager",
      "UId": "8f411e6b-48e7-467f-908f-4f0026f6ccc3",
      "A2": "TsWebService",
      "A5": "1ecc155a-bc9b-48b5-ac76-7782a0e9b45b",
      "B1": [],
      "B2": [],
      "B3": [],
      "B6": "12ec0688-188b-44d9-99c0-af66d25810d7",
      "B8": "7.8.3.1978",
      "HD1": "50e3acc0-26fc-4237-a095-849a1d534bd3"
    }
  }