﻿{
  "PackageData": [
    {
      "Row": [
        {
          "SchemaColumnUId": "0fde6f1e-22c5-48c7-9c89-6f0031e270de",
          "Value": "7c35bfe3-afd9-4762-97d6-46b01aa321fa",
          "DisplayValue": "Процесс корпоративных продаж"
        },
        {
          "SchemaColumnUId": "8f1984bb-7bef-4220-9b49-9a12d0ebcd68",
          "Value": "a29a3ba5-4b0d-de11-9a51-005056c00008",
          "DisplayValue": "Все сотрудники компании"
        },
        {
          "SchemaColumnUId": "55472376-a4dd-40da-86c6-975ce4b898fa",
          "Value": true
        },
        {
          "SchemaColumnUId": "af6013ce-7387-4619-b4f4-30c4276fcfac",
          "Value": ""
        },
        {
          "SchemaColumnUId": "b36bfa07-34c7-45b1-a2ee-39e653034ba0",
          "Value": 0
        },
        {
          "SchemaColumnUId": "b1ffd2d8-2bd3-4c46-b9c0-782afb0996c0",
          "Value": 0.00
        },
        {
          "SchemaColumnUId": "297f4697-d071-4be2-8509-9090c07dfe18",
          "Value": false
        },
        {
          "SchemaColumnUId": "34f73492-296e-4a73-95f7-e7de5a3b3509",
          "Value": "null"
        },
        {
          "SchemaColumnUId": "23c7dde8-7cf5-4f18-9d76-0fa4179ee931",
          "Value": "05385902-42b0-423d-bc18-05208da556a5"
        },
        {
          "SchemaColumnUId": "ffd545dd-d2de-40d7-8b07-20654613bb20",
          "Value": ""
        },
        {
          "SchemaColumnUId": "f1bc0b27-2c46-4cae-ad23-3b8940587d4f",
          "Value": 2147483647
        },
        {
          "SchemaColumnUId": "ae0e45ca-c495-4fe7-a39d-3ab7278e1617",
          "Value": "09c511f9-76e9-4eb6-a590-c40f0b00b577"
        }
      ]
    },
    {
      "Row": [
        {
          "SchemaColumnUId": "0fde6f1e-22c5-48c7-9c89-6f0031e270de",
          "Value": "597626fa-8a5a-4923-b638-a50addd84e6b",
          "DisplayValue": "Процесс создания продажи на основании лида"
        },
        {
          "SchemaColumnUId": "8f1984bb-7bef-4220-9b49-9a12d0ebcd68",
          "Value": "a29a3ba5-4b0d-de11-9a51-005056c00008",
          "DisplayValue": "Все сотрудники компании"
        },
        {
          "SchemaColumnUId": "55472376-a4dd-40da-86c6-975ce4b898fa",
          "Value": true
        },
        {
          "SchemaColumnUId": "af6013ce-7387-4619-b4f4-30c4276fcfac",
          "Value": ""
        },
        {
          "SchemaColumnUId": "b36bfa07-34c7-45b1-a2ee-39e653034ba0",
          "Value": 0
        },
        {
          "SchemaColumnUId": "b1ffd2d8-2bd3-4c46-b9c0-782afb0996c0",
          "Value": 0.00
        },
        {
          "SchemaColumnUId": "297f4697-d071-4be2-8509-9090c07dfe18",
          "Value": false
        },
        {
          "SchemaColumnUId": "34f73492-296e-4a73-95f7-e7de5a3b3509",
          "Value": "null"
        },
        {
          "SchemaColumnUId": "23c7dde8-7cf5-4f18-9d76-0fa4179ee931",
          "Value": "2968bb62-70ac-41ef-9e4c-ecb1834260e2"
        },
        {
          "SchemaColumnUId": "ffd545dd-d2de-40d7-8b07-20654613bb20",
          "Value": ""
        },
        {
          "SchemaColumnUId": "f1bc0b27-2c46-4cae-ad23-3b8940587d4f",
          "Value": 2147483647
        },
        {
          "SchemaColumnUId": "ae0e45ca-c495-4fe7-a39d-3ab7278e1617",
          "Value": "439ead0c-fd1e-4d1c-9eb0-06f7bbfb2bb6"
        }
      ]
    }
  ]
}