{
  "MetaData": {
    "Schema": {
      "ManagerName": "ProcessSchemaManager",
      "UId": "932fe08a-a7b9-48a1-ac26-8edacfa68602",
      "A2": "TsOpportunityManagementEndOfStage",
      "A5": "6acef667-d8e9-4d18-8a26-94be0e81f6aa",
      "B1": [],
      "B2": [],
      "B3": [],
      "B6": "12ec0688-188b-44d9-99c0-af66d25810d7",
      "B8": "7.8.1.1035",
      "FJ1": [
        {
          "BL1": "Terrasoft.Core.Process.ProcessSchemaParameter",
          "UId": "dfce71b8-964d-4c09-bd58-0c97f1365945",
          "A2": "CurrentOpportunity",
          "A3": "932fe08a-a7b9-48a1-ac26-8edacfa68602",
          "A4": "932fe08a-a7b9-48a1-ac26-8edacfa68602",
          "L1": "23018567-a13c-4320-8687-fd6f9e3699bd",
          "L8": {
            "GS2": "",
            "GS5": "932fe08a-a7b9-48a1-ac26-8edacfa68602"
          },
          "L9": "ae46fb87-c02c-4ae8-ad31-a923cdd994cf",
          "L16": "Opportunity"
        },
        {
          "BL1": "Terrasoft.Core.Process.ProcessSchemaParameter",
          "UId": "d7748fee-12d1-4402-9af3-177336bb4bb3",
          "A2": "NextOpportunityStageNumber",
          "A3": "932fe08a-a7b9-48a1-ac26-8edacfa68602",
          "A4": "932fe08a-a7b9-48a1-ac26-8edacfa68602",
          "L1": "6b6b74e2-820d-490e-a017-2b73d4ccf2b0",
          "L8": {
            "GS2": "",
            "GS5": "932fe08a-a7b9-48a1-ac26-8edacfa68602"
          }
        },
        {
          "BL1": "Terrasoft.Core.Process.ProcessSchemaParameter",
          "UId": "2d124c72-8de2-4327-a821-7370bb4f3f04",
          "A2": "IsStageChangedByUser",
          "A3": "932fe08a-a7b9-48a1-ac26-8edacfa68602",
          "A4": "932fe08a-a7b9-48a1-ac26-8edacfa68602",
          "L1": "90b65bf8-0ffc-4141-8779-2420877af907",
          "L8": {
            "GS2": "false",
            "GS5": "932fe08a-a7b9-48a1-ac26-8edacfa68602"
          }
        },
        {
          "BL1": "Terrasoft.Core.Process.ProcessSchemaParameter",
          "UId": "b84b8659-7d6c-46df-be98-b96c5d0e5b85",
          "A2": "NextStage",
          "A3": "932fe08a-a7b9-48a1-ac26-8edacfa68602",
          "A4": "932fe08a-a7b9-48a1-ac26-8edacfa68602",
          "L1": "23018567-a13c-4320-8687-fd6f9e3699bd",
          "L8": {
            "GS1": 3,
            "GS2": "[#[IsOwnerSchema:false].[IsSchema:false].[Element:{71108920-2e61-4136-ba83-72dc956e0e4c}].[Parameter:{1dfdbfb0-7375-4279-874d-c5ea392c80e5}].[EntityColumn:{6d2de875-c422-4aaa-ab04-d632fbbe86d4}]#]",
            "GS5": "932fe08a-a7b9-48a1-ac26-8edacfa68602"
          },
          "L9": "ccf7d813-fc83-47ad-be61-8f3b3b98a54f",
          "L16": "OpportunityStage"
        },
        {
          "BL1": "Terrasoft.Core.Process.ProcessSchemaParameter",
          "UId": "bd592f50-4345-4f9c-84b5-1c8c79c0d7ea",
          "A2": "CurrentStageNumber",
          "A3": "932fe08a-a7b9-48a1-ac26-8edacfa68602",
          "A4": "932fe08a-a7b9-48a1-ac26-8edacfa68602",
          "L1": "6b6b74e2-820d-490e-a017-2b73d4ccf2b0",
          "L8": {}
        },
        {
          "BL1": "Terrasoft.Core.Process.ProcessSchemaParameter",
          "UId": "36aeb1ae-d491-439f-af00-89878da82b64",
          "A2": "LeadTypeId",
          "A3": "932fe08a-a7b9-48a1-ac26-8edacfa68602",
          "A4": "932fe08a-a7b9-48a1-ac26-8edacfa68602",
          "L1": "23018567-a13c-4320-8687-fd6f9e3699bd",
          "L8": {}
        }
      ],
      "BK1": "FFFFFFFF",
      "BK2": "FFBBBBBB",
      "BK3": [
        {
          "BL1": "Terrasoft.Core.Process.ProcessSchemaLaneSet",
          "UId": "7563325b-66c4-4b05-af10-d2119fcd7b6c",
          "A2": "LaneSet1",
          "A3": "932fe08a-a7b9-48a1-ac26-8edacfa68602",
          "A4": "932fe08a-a7b9-48a1-ac26-8edacfa68602",
          "A5": "ff492f2e-7ec3-4894-8115-3064a4dbdf58",
          "BL3": "5;5",
          "BL5": 1,
          "BL6": "LaneSet",
          "BL7": "11a47caf-a0d5-41fa-a274-a0b11f77447a",
          "BL8": "bb4d6607-026b-4b27-b640-8f5c77c1e89d",
          "BM1": 0,
          "BM4": [
            {
              "BL1": "Terrasoft.Core.Process.ProcessSchemaLane",
              "UId": "6c23f386-0505-4ea2-980f-92a547bf98fe",
              "A2": "Lane1",
              "A3": "932fe08a-a7b9-48a1-ac26-8edacfa68602",
              "A4": "932fe08a-a7b9-48a1-ac26-8edacfa68602",
              "A5": "ff492f2e-7ec3-4894-8115-3064a4dbdf58",
              "BL3": "29;0",
              "BL4": "7563325b-66c4-4b05-af10-d2119fcd7b6c",
              "BL5": 1,
              "BL6": "Lane",
              "BL7": "abcd74b9-5912-414b-82ac-f1aa4dcd554e",
              "CD1": [],
              "CD2": [],
              "CD4": "7563325b-66c4-4b05-af10-d2119fcd7b6c",
              "CD7": []
            }
          ]
        }
      ],
      "BK5": [],
      "BK4": [
        {
          "BL1": "Terrasoft.Core.Process.ProcessSchemaStartEvent",
          "UId": "f2f9628a-148c-457c-86a9-7f7baece560b",
          "A2": "Start1",
          "A3": "932fe08a-a7b9-48a1-ac26-8edacfa68602",
          "A4": "932fe08a-a7b9-48a1-ac26-8edacfa68602",
          "A5": "ff492f2e-7ec3-4894-8115-3064a4dbdf58",
          "BL3": "137;301",
          "BL4": "6c23f386-0505-4ea2-980f-92a547bf98fe",
          "BL6": "Event",
          "BL7": "53818048-7868-48f6-ada0-0ebaa65af628",
          "BL8": "bb4d6607-026b-4b27-b640-8f5c77c1e89d",
          "BN2": "27;27",
          "BO3": true,
          "FC1": [],
          "ED1": false
        },
        {
          "BL1": "Terrasoft.Core.Process.ProcessSchemaTerminateEvent",
          "UId": "2a12d765-1b7d-47e3-a00b-5c931dab802d",
          "A2": "Terminate1",
          "A3": "932fe08a-a7b9-48a1-ac26-8edacfa68602",
          "A4": "932fe08a-a7b9-48a1-ac26-8edacfa68602",
          "A5": "ff492f2e-7ec3-4894-8115-3064a4dbdf58",
          "BL3": "809;174",
          "BL4": "6c23f386-0505-4ea2-980f-92a547bf98fe",
          "BL6": "Event",
          "BL7": "1bd93619-0574-454e-bb4e-cf53b9eb9470",
          "BL8": "bb4d6607-026b-4b27-b640-8f5c77c1e89d",
          "BN2": "27;27",
          "BO3": true,
          "FC1": []
        },
        {
          "BL1": "Terrasoft.Core.Process.ProcessSchemaUserTask",
          "UId": "ff16041c-18d5-46f3-baed-a5b8b559b3fa",
          "A2": "UpdateOpportunityStage",
          "A3": "932fe08a-a7b9-48a1-ac26-8edacfa68602",
          "A4": "932fe08a-a7b9-48a1-ac26-8edacfa68602",
          "A5": "ff492f2e-7ec3-4894-8115-3064a4dbdf58",
          "BL3": "788;285",
          "BL4": "6c23f386-0505-4ea2-980f-92a547bf98fe",
          "BL6": "Task",
          "BL7": "d3021ca7-7450-4678-a117-060171eb2976",
          "BL8": "bb4d6607-026b-4b27-b640-8f5c77c1e89d",
          "BN2": "69;55",
          "BO3": true,
          "BP2": [
            {
              "BL1": "Terrasoft.Core.Process.ProcessSchemaParameter",
              "UId": "e99fa34f-868e-4b57-a3a8-13c100885498",
              "A2": "EntitySchemaUId",
              "A3": "d3021ca7-7450-4678-a117-060171eb2976",
              "A4": "d3021ca7-7450-4678-a117-060171eb2976",
              "BL4": "ff16041c-18d5-46f3-baed-a5b8b559b3fa",
              "L1": "b295071f-7ea9-4e62-8d1a-919bf3732ff2",
              "L8": {
                "GS1": 1,
                "GS2": "ae46fb87-c02c-4ae8-ad31-a923cdd994cf",
                "GS5": "932fe08a-a7b9-48a1-ac26-8edacfa68602"
              },
              "L9": "6c7394db-06ff-4050-91ef-8278e21dce15",
              "L16": "SysSchema"
            },
            {
              "BL1": "Terrasoft.Core.Process.ProcessSchemaParameter",
              "UId": "05fb8dfb-1204-478c-a016-5e0dacf67068",
              "A2": "IsMatchConditions",
              "A3": "d3021ca7-7450-4678-a117-060171eb2976",
              "A4": "d3021ca7-7450-4678-a117-060171eb2976",
              "BL4": "ff16041c-18d5-46f3-baed-a5b8b559b3fa",
              "L1": "90b65bf8-0ffc-4141-8779-2420877af907",
              "L8": {
                "GS1": 1,
                "GS2": "true",
                "GS5": "932fe08a-a7b9-48a1-ac26-8edacfa68602"
              }
            },
            {
              "BL1": "Terrasoft.Core.Process.ProcessSchemaParameter",
              "UId": "cc2f766d-1506-48eb-8d63-91ddc235a521",
              "A2": "DataSourceFilters",
              "A3": "d3021ca7-7450-4678-a117-060171eb2976",
              "A4": "d3021ca7-7450-4678-a117-060171eb2976",
              "BL4": "ff16041c-18d5-46f3-baed-a5b8b559b3fa",
              "L1": "394e160f-c8e0-46fa-9c0d-75d97e9e9169",
              "L8": {
                "GS1": 1,
                "GS2": "{\"className\":\"Terrasoft.FilterGroup\",\"serializedFilterEditData\":\"{\\\"className\\\":\\\"Terrasoft.FilterGroup\\\",\\\"items\\\":{\\\"d72f72b0-3378-48eb-b089-8a8746a6c2e5\\\":{\\\"className\\\":\\\"Terrasoft.CompareFilter\\\",\\\"filterType\\\":1,\\\"comparisonType\\\":3,\\\"isEnabled\\\":true,\\\"trimDateTimeParameterToDate\\\":false,\\\"leftExpression\\\":{\\\"className\\\":\\\"Terrasoft.ColumnExpression\\\",\\\"expressionType\\\":0,\\\"columnPath\\\":\\\"Id\\\"},\\\"isAggregative\\\":false,\\\"key\\\":\\\"d72f72b0-3378-48eb-b089-8a8746a6c2e5\\\",\\\"dataValueType\\\":0,\\\"leftExpressionCaption\\\":\\\"Id\\\",\\\"rightExpression\\\":{\\\"className\\\":\\\"Terrasoft.ParameterExpression\\\",\\\"expressionType\\\":2,\\\"parameter\\\":{\\\"className\\\":\\\"Terrasoft.Parameter\\\",\\\"dataValueType\\\":26,\\\"value\\\":{\\\"value\\\":\\\"[IsOwnerSchema:false].[IsSchema:false].[Parameter:{dfce71b8-964d-4c09-bd58-0c97f1365945}]\\\",\\\"displayValue\\\":\\\"Текущая продажа\\\",\\\"Id\\\":\\\"5af04bc3-3df5-4c6a-b2c5-3c2b0160e848\\\"}}}}},\\\"logicalOperation\\\":0,\\\"isEnabled\\\":true,\\\"filterType\\\":6,\\\"rootSchemaName\\\":\\\"Opportunity\\\",\\\"key\\\":\\\"ab3da4c0-b8d1-443c-b2e7-7cd0879d866c\\\"}\",\"dataSourceFilters\":\"{\\\"items\\\":{\\\"d72f72b0-3378-48eb-b089-8a8746a6c2e5\\\":{\\\"filterType\\\":1,\\\"comparisonType\\\":3,\\\"isEnabled\\\":true,\\\"trimDateTimeParameterToDate\\\":false,\\\"leftExpression\\\":{\\\"expressionType\\\":0,\\\"columnPath\\\":\\\"Id\\\"},\\\"rightExpression\\\":{\\\"expressionType\\\":2,\\\"parameter\\\":{\\\"dataValueType\\\":26,\\\"value\\\":{\\\"value\\\":\\\"[IsOwnerSchema:false].[IsSchema:false].[Parameter:{dfce71b8-964d-4c09-bd58-0c97f1365945}]\\\",\\\"Id\\\":\\\"5af04bc3-3df5-4c6a-b2c5-3c2b0160e848\\\"}}}}},\\\"logicalOperation\\\":0,\\\"isEnabled\\\":true,\\\"filterType\\\":6,\\\"rootSchemaName\\\":\\\"Opportunity\\\"}\"}",
                "GS5": "932fe08a-a7b9-48a1-ac26-8edacfa68602"
              }
            },
            {
              "BL1": "Terrasoft.Core.Process.ProcessSchemaParameter",
              "UId": "0b1a99dc-d621-4151-8384-3e221142a390",
              "A2": "RecordColumnValues",
              "A3": "d3021ca7-7450-4678-a117-060171eb2976",
              "A4": "d3021ca7-7450-4678-a117-060171eb2976",
              "BL4": "ff16041c-18d5-46f3-baed-a5b8b559b3fa",
              "L1": "b53eaa2a-4bb7-4a6b-9f4f-58ccab293e31",
              "L8": {
                "GS1": 1,
                "GS2": "{\"$type\":\"Terrasoft.Core.Process.LocalizableParameterValuesList, Terrasoft.Core\",\"$values\":[{\"ItemUId\":\"c1491e06-bf17-460c-b667-0a45fe21b3ff\",\"columnMetaPath\":{\"value\":\"797ac352-4979-4d28-906f-82feb6dbc9dc\"},\"schemaUId\":{\"value\":\"ae46fb87-c02c-4ae8-ad31-a923cdd994cf\"},\"value\":{\"value\":\"[#[IsOwnerSchema:false].[IsSchema:false].[Parameter:{b84b8659-7d6c-46df-be98-b96c5d0e5b85}]#]\"},\"displayValue\":{\"value\":\"[#Следующая стадия#]\"},\"parameterValue\":{\"value\":\"{\\\"$type\\\":\\\"Terrasoft.Core.Process.ProcessSchemaParameterValue, Terrasoft.Core\\\",\\\"Source\\\":3,\\\"DisplayValue\\\":\\\"\\\",\\\"Value\\\":\\\"\\\",\\\"MetaPath\\\":null,\\\"MetaDataValue\\\":null,\\\"ModifiedInSchemaUId\\\":\\\"00000000-0000-0000-0000-000000000000\\\",\\\"SchemaUId\\\":\\\"00000000-0000-0000-0000-000000000000\\\",\\\"SchemaManagerName\\\":\\\"\\\",\\\"DataValueTypeUId\\\":\\\"b295071f-7ea9-4e62-8d1a-919bf3732ff2\\\",\\\"ReferenceSchemaUId\\\":\\\"ccf7d813-fc83-47ad-be61-8f3b3b98a54f\\\",\\\"ResourceItemName\\\":null}\"}}]}",
                "GS5": "932fe08a-a7b9-48a1-ac26-8edacfa68602"
              }
            }
          ],
          "CL2": "FFFFFFFF",
          "J6": "d3021ca7-7450-4678-a117-060171eb2976",
          "J5": "ProcessUserTaskSchemaManager"
        },
        {
          "BL1": "Terrasoft.Core.Process.ProcessSchemaUserTask",
          "UId": "5c2f94cd-3ce3-4fe6-bcf1-757096b020bb",
          "A2": "ChangeDataUserTask1",
          "A3": "932fe08a-a7b9-48a1-ac26-8edacfa68602",
          "A4": "932fe08a-a7b9-48a1-ac26-8edacfa68602",
          "A5": "f8714ff2-bcbd-45ac-b947-d02d9a61bd78",
          "BL3": "551;160",
          "BL4": "6c23f386-0505-4ea2-980f-92a547bf98fe",
          "BL7": "d3021ca7-7450-4678-a117-060171eb2976",
          "BL8": "932fe08a-a7b9-48a1-ac26-8edacfa68602",
          "BN2": "69;55",
          "BO3": true,
          "BP2": [
            {
              "BL1": "Terrasoft.Core.Process.ProcessSchemaParameter",
              "UId": "dc378cc2-85ff-4e2e-9502-f4acf742ea5a",
              "A2": "EntitySchemaUId",
              "A3": "d3021ca7-7450-4678-a117-060171eb2976",
              "A4": "d3021ca7-7450-4678-a117-060171eb2976",
              "A5": "66e9e705-64b4-4dda-925e-d1e05a389eb6",
              "BL4": "5c2f94cd-3ce3-4fe6-bcf1-757096b020bb",
              "L1": "b295071f-7ea9-4e62-8d1a-919bf3732ff2",
              "L8": {
                "GS1": 1,
                "GS2": "c449d832-a4cc-4b01-b9d5-8a12c42a9f89",
                "GS5": "932fe08a-a7b9-48a1-ac26-8edacfa68602"
              },
              "L9": "6c7394db-06ff-4050-91ef-8278e21dce15"
            },
            {
              "BL1": "Terrasoft.Core.Process.ProcessSchemaParameter",
              "UId": "8e3a62f2-c51f-475f-9cf1-fe34f9b83cf1",
              "A2": "IsMatchConditions",
              "A3": "d3021ca7-7450-4678-a117-060171eb2976",
              "A4": "d3021ca7-7450-4678-a117-060171eb2976",
              "A5": "66e9e705-64b4-4dda-925e-d1e05a389eb6",
              "BL4": "5c2f94cd-3ce3-4fe6-bcf1-757096b020bb",
              "L1": "90b65bf8-0ffc-4141-8779-2420877af907",
              "L8": {
                "GS1": 3,
                "GS2": "true",
                "GS5": "d3021ca7-7450-4678-a117-060171eb2976"
              }
            },
            {
              "BL1": "Terrasoft.Core.Process.ProcessSchemaParameter",
              "UId": "bbe3bd8c-64a3-4569-9e8e-85990604b82c",
              "A2": "DataSourceFilters",
              "A3": "d3021ca7-7450-4678-a117-060171eb2976",
              "A4": "d3021ca7-7450-4678-a117-060171eb2976",
              "A5": "66e9e705-64b4-4dda-925e-d1e05a389eb6",
              "BL4": "5c2f94cd-3ce3-4fe6-bcf1-757096b020bb",
              "L1": "394e160f-c8e0-46fa-9c0d-75d97e9e9169",
              "L8": {
                "GS1": 1,
                "GS2": "{\"className\":\"Terrasoft.FilterGroup\",\"serializedFilterEditData\":\"{\\\"className\\\":\\\"Terrasoft.FilterGroup\\\",\\\"items\\\":{\\\"0331ba5e-ad18-488f-b386-b211d83053d6\\\":{\\\"className\\\":\\\"Terrasoft.IsNullFilter\\\",\\\"filterType\\\":2,\\\"comparisonType\\\":2,\\\"isEnabled\\\":true,\\\"trimDateTimeParameterToDate\\\":false,\\\"leftExpression\\\":{\\\"className\\\":\\\"Terrasoft.ColumnExpression\\\",\\\"expressionType\\\":0,\\\"columnPath\\\":\\\"ProcessElementId\\\"},\\\"isAggregative\\\":false,\\\"key\\\":\\\"0331ba5e-ad18-488f-b386-b211d83053d6\\\",\\\"dataValueType\\\":0,\\\"leftExpressionCaption\\\":\\\"Элемент процесса\\\",\\\"isNull\\\":false},\\\"b2df4e57-446b-4ccd-8969-0659847ac4f8\\\":{\\\"className\\\":\\\"Terrasoft.InFilter\\\",\\\"filterType\\\":4,\\\"comparisonType\\\":3,\\\"isEnabled\\\":true,\\\"trimDateTimeParameterToDate\\\":false,\\\"leftExpression\\\":{\\\"className\\\":\\\"Terrasoft.ColumnExpression\\\",\\\"expressionType\\\":0,\\\"columnPath\\\":\\\"Opportunity\\\"},\\\"isAggregative\\\":false,\\\"key\\\":\\\"b2df4e57-446b-4ccd-8969-0659847ac4f8\\\",\\\"dataValueType\\\":10,\\\"leftExpressionCaption\\\":\\\"Продажа\\\",\\\"referenceSchemaName\\\":\\\"Opportunity\\\",\\\"rightExpressions\\\":[{\\\"className\\\":\\\"Terrasoft.ParameterExpression\\\",\\\"expressionType\\\":2,\\\"parameter\\\":{\\\"className\\\":\\\"Terrasoft.Parameter\\\",\\\"dataValueType\\\":26,\\\"value\\\":{\\\"value\\\":\\\"[IsOwnerSchema:false].[IsSchema:false].[Parameter:{dfce71b8-964d-4c09-bd58-0c97f1365945}]\\\",\\\"displayValue\\\":\\\"Текущая продажа\\\",\\\"Id\\\":\\\"eeaa9868-a0c5-41bc-8027-c46b0dfbab56\\\"}}}]},\\\"c366cf24-3bcc-4192-8fcc-48f5f67d3c7e\\\":{\\\"className\\\":\\\"Terrasoft.CompareFilter\\\",\\\"filterType\\\":1,\\\"comparisonType\\\":3,\\\"isEnabled\\\":true,\\\"trimDateTimeParameterToDate\\\":false,\\\"leftExpression\\\":{\\\"className\\\":\\\"Terrasoft.ColumnExpression\\\",\\\"expressionType\\\":0,\\\"columnPath\\\":\\\"Status.Finish\\\"},\\\"isAggregative\\\":false,\\\"key\\\":\\\"c366cf24-3bcc-4192-8fcc-48f5f67d3c7e\\\",\\\"dataValueType\\\":12,\\\"leftExpressionCaption\\\":\\\"Состояние.Конечное состояние\\\",\\\"rightExpression\\\":{\\\"className\\\":\\\"Terrasoft.ParameterExpression\\\",\\\"expressionType\\\":2,\\\"parameter\\\":{\\\"className\\\":\\\"Terrasoft.Parameter\\\",\\\"dataValueType\\\":12,\\\"value\\\":false}}}},\\\"logicalOperation\\\":0,\\\"isEnabled\\\":true,\\\"filterType\\\":6,\\\"rootSchemaName\\\":\\\"Activity\\\",\\\"key\\\":\\\"\\\"}\",\"dataSourceFilters\":\"{\\\"items\\\":{\\\"0331ba5e-ad18-488f-b386-b211d83053d6\\\":{\\\"filterType\\\":2,\\\"comparisonType\\\":2,\\\"isEnabled\\\":true,\\\"trimDateTimeParameterToDate\\\":false,\\\"leftExpression\\\":{\\\"expressionType\\\":0,\\\"columnPath\\\":\\\"ProcessElementId\\\"},\\\"isNull\\\":false},\\\"b2df4e57-446b-4ccd-8969-0659847ac4f8\\\":{\\\"filterType\\\":4,\\\"comparisonType\\\":3,\\\"isEnabled\\\":true,\\\"trimDateTimeParameterToDate\\\":false,\\\"leftExpression\\\":{\\\"expressionType\\\":0,\\\"columnPath\\\":\\\"Opportunity\\\"},\\\"rightExpressions\\\":[{\\\"expressionType\\\":2,\\\"parameter\\\":{\\\"dataValueType\\\":26,\\\"value\\\":{\\\"value\\\":\\\"[IsOwnerSchema:false].[IsSchema:false].[Parameter:{dfce71b8-964d-4c09-bd58-0c97f1365945}]\\\",\\\"Id\\\":\\\"eeaa9868-a0c5-41bc-8027-c46b0dfbab56\\\"}}}]},\\\"c366cf24-3bcc-4192-8fcc-48f5f67d3c7e\\\":{\\\"filterType\\\":1,\\\"comparisonType\\\":3,\\\"isEnabled\\\":true,\\\"trimDateTimeParameterToDate\\\":false,\\\"leftExpression\\\":{\\\"expressionType\\\":0,\\\"columnPath\\\":\\\"Status.Finish\\\"},\\\"rightExpression\\\":{\\\"expressionType\\\":2,\\\"parameter\\\":{\\\"dataValueType\\\":12,\\\"value\\\":false}}}},\\\"logicalOperation\\\":0,\\\"isEnabled\\\":true,\\\"filterType\\\":6,\\\"rootSchemaName\\\":\\\"Activity\\\"}\"}",
                "GS5": "932fe08a-a7b9-48a1-ac26-8edacfa68602"
              }
            },
            {
              "BL1": "Terrasoft.Core.Process.ProcessSchemaParameter",
              "UId": "544861fe-3cf5-41c3-9848-442deb51cd14",
              "A2": "RecordColumnValues",
              "A3": "d3021ca7-7450-4678-a117-060171eb2976",
              "A4": "d3021ca7-7450-4678-a117-060171eb2976",
              "A5": "66e9e705-64b4-4dda-925e-d1e05a389eb6",
              "BL4": "5c2f94cd-3ce3-4fe6-bcf1-757096b020bb",
              "L1": "b53eaa2a-4bb7-4a6b-9f4f-58ccab293e31",
              "L8": {
                "GS1": 1,
                "GS2": "{\"$type\":\"Terrasoft.Core.Process.LocalizableParameterValuesList, Terrasoft.Core\",\"$values\":[{\"ItemUId\":\"47be762b-30d1-4933-b3ad-2c2a03119ae6\",\"columnMetaPath\":{\"value\":\"c8d84f9c-b48b-479b-9ac6-4412f3436ca2\"},\"schemaUId\":{\"value\":\"c449d832-a4cc-4b01-b9d5-8a12c42a9f89\"},\"value\":{\"value\":\"[#Lookup.805aace4-8604-40e7-a9eb-0f54174593c0.201cfba8-58e6-df11-971b-001d60e938c6#]\"},\"displayValue\":{\"value\":\"[#Справочник.Состояние активности.Отменена#]\"},\"parameterValue\":{\"value\":\"{\\\"$type\\\":\\\"Terrasoft.Core.Process.ProcessSchemaParameterValue, Terrasoft.Core\\\",\\\"Source\\\":3,\\\"DisplayValue\\\":\\\"\\\",\\\"Value\\\":\\\"\\\",\\\"MetaPath\\\":null,\\\"MetaDataValue\\\":null,\\\"ModifiedInSchemaUId\\\":\\\"00000000-0000-0000-0000-000000000000\\\",\\\"SchemaUId\\\":\\\"00000000-0000-0000-0000-000000000000\\\",\\\"SchemaManagerName\\\":\\\"\\\",\\\"DataValueTypeUId\\\":\\\"b295071f-7ea9-4e62-8d1a-919bf3732ff2\\\",\\\"ReferenceSchemaUId\\\":\\\"805aace4-8604-40e7-a9eb-0f54174593c0\\\",\\\"ResourceItemName\\\":null}\"}},{\"ItemUId\":\"ae3e664e-3bc9-4bf3-a50e-452ae29cd08c\",\"columnMetaPath\":{\"value\":\"ae372cfa-a21f-47f0-8a64-17d137ebe966\"},\"schemaUId\":{\"value\":\"c449d832-a4cc-4b01-b9d5-8a12c42a9f89\"},\"value\":{\"value\":\"[#Lookup.329bd06e-f95f-4824-a0fb-85edff2f2948.dbbf0e10-f46b-1410-6598-00155d043204#]\"},\"displayValue\":{\"value\":\"[#Справочник.Результат активности.Отменена#]\"},\"parameterValue\":{\"value\":\"{\\\"$type\\\":\\\"Terrasoft.Core.Process.ProcessSchemaParameterValue, Terrasoft.Core\\\",\\\"Source\\\":3,\\\"DisplayValue\\\":\\\"\\\",\\\"Value\\\":\\\"\\\",\\\"MetaPath\\\":null,\\\"MetaDataValue\\\":null,\\\"ModifiedInSchemaUId\\\":\\\"00000000-0000-0000-0000-000000000000\\\",\\\"SchemaUId\\\":\\\"00000000-0000-0000-0000-000000000000\\\",\\\"SchemaManagerName\\\":\\\"\\\",\\\"DataValueTypeUId\\\":\\\"b295071f-7ea9-4e62-8d1a-919bf3732ff2\\\",\\\"ReferenceSchemaUId\\\":\\\"329bd06e-f95f-4824-a0fb-85edff2f2948\\\",\\\"ResourceItemName\\\":null}\"}}]}",
                "GS5": "932fe08a-a7b9-48a1-ac26-8edacfa68602"
              }
            }
          ],
          "CL2": "FFFFFFFF",
          "J6": "d3021ca7-7450-4678-a117-060171eb2976",
          "J5": "ProcessUserTaskSchemaManager"
        },
        {
          "BL1": "Terrasoft.Core.Process.ProcessSchemaUserTask",
          "UId": "71108920-2e61-4136-ba83-72dc956e0e4c",
          "A2": "ReadDataUserTask1",
          "A3": "932fe08a-a7b9-48a1-ac26-8edacfa68602",
          "A4": "932fe08a-a7b9-48a1-ac26-8edacfa68602",
          "A5": "f8714ff2-bcbd-45ac-b947-d02d9a61bd78",
          "BL3": "511;287",
          "BL4": "6c23f386-0505-4ea2-980f-92a547bf98fe",
          "BL7": "cb455b6f-78ff-4b1e-b241-c2bbc0b37e9f",
          "BL8": "932fe08a-a7b9-48a1-ac26-8edacfa68602",
          "BN2": "69;55",
          "BO2": true,
          "BO3": true,
          "BP2": [
            {
              "BL1": "Terrasoft.Core.Process.ProcessSchemaParameter",
              "UId": "d35dd69a-b245-409b-a75a-1ae174c0f46a",
              "A2": "DataSourceFilters",
              "A3": "cb455b6f-78ff-4b1e-b241-c2bbc0b37e9f",
              "A4": "cb455b6f-78ff-4b1e-b241-c2bbc0b37e9f",
              "A5": "66e9e705-64b4-4dda-925e-d1e05a389eb6",
              "BL4": "71108920-2e61-4136-ba83-72dc956e0e4c",
              "L1": "394e160f-c8e0-46fa-9c0d-75d97e9e9169",
              "L8": {
                "GS1": 1,
                "GS2": "{\"className\":\"Terrasoft.FilterGroup\",\"serializedFilterEditData\":\"{\\\"className\\\":\\\"Terrasoft.FilterGroup\\\",\\\"items\\\":{\\\"646ac927-3075-4d79-b2fe-6277ac8d3cce\\\":{\\\"className\\\":\\\"Terrasoft.CompareFilter\\\",\\\"filterType\\\":1,\\\"comparisonType\\\":3,\\\"isEnabled\\\":true,\\\"trimDateTimeParameterToDate\\\":false,\\\"leftExpression\\\":{\\\"className\\\":\\\"Terrasoft.ColumnExpression\\\",\\\"expressionType\\\":0,\\\"columnPath\\\":\\\"TsNumber\\\"},\\\"isAggregative\\\":false,\\\"key\\\":\\\"646ac927-3075-4d79-b2fe-6277ac8d3cce\\\",\\\"dataValueType\\\":4,\\\"leftExpressionCaption\\\":\\\"Порядковый номер\\\",\\\"rightExpression\\\":{\\\"className\\\":\\\"Terrasoft.ParameterExpression\\\",\\\"expressionType\\\":2,\\\"parameter\\\":{\\\"className\\\":\\\"Terrasoft.Parameter\\\",\\\"dataValueType\\\":26,\\\"value\\\":{\\\"value\\\":\\\"[IsOwnerSchema:false].[IsSchema:false].[Parameter:{d7748fee-12d1-4402-9af3-177336bb4bb3}]\\\",\\\"displayValue\\\":\\\"Номер следующей стадии\\\"}}}},\\\"01fb950b-29ac-4cba-b437-99a80e85dad6\\\":{\\\"className\\\":\\\"Terrasoft.InFilter\\\",\\\"filterType\\\":4,\\\"comparisonType\\\":3,\\\"isEnabled\\\":true,\\\"trimDateTimeParameterToDate\\\":false,\\\"leftExpression\\\":{\\\"className\\\":\\\"Terrasoft.ColumnExpression\\\",\\\"expressionType\\\":0,\\\"columnPath\\\":\\\"TsLeadType\\\"},\\\"isAggregative\\\":false,\\\"key\\\":\\\"01fb950b-29ac-4cba-b437-99a80e85dad6\\\",\\\"dataValueType\\\":10,\\\"leftExpressionCaption\\\":\\\"Тип потребности\\\",\\\"referenceSchemaName\\\":\\\"LeadType\\\",\\\"rightExpressions\\\":[{\\\"className\\\":\\\"Terrasoft.ParameterExpression\\\",\\\"expressionType\\\":2,\\\"parameter\\\":{\\\"className\\\":\\\"Terrasoft.Parameter\\\",\\\"dataValueType\\\":26,\\\"value\\\":{\\\"value\\\":\\\"[IsOwnerSchema:false].[IsSchema:false].[Parameter:{36aeb1ae-d491-439f-af00-89878da82b64}]\\\",\\\"displayValue\\\":\\\"Тип потребности\\\",\\\"Id\\\":\\\"00b253a0-4522-4d93-b7c1-185164100feb\\\"}}}]}},\\\"logicalOperation\\\":0,\\\"isEnabled\\\":true,\\\"filterType\\\":6,\\\"rootSchemaName\\\":\\\"TsOppStageInLeadType\\\",\\\"key\\\":\\\"\\\"}\",\"dataSourceFilters\":\"{\\\"items\\\":{\\\"646ac927-3075-4d79-b2fe-6277ac8d3cce\\\":{\\\"filterType\\\":1,\\\"comparisonType\\\":3,\\\"isEnabled\\\":true,\\\"trimDateTimeParameterToDate\\\":false,\\\"leftExpression\\\":{\\\"expressionType\\\":0,\\\"columnPath\\\":\\\"TsNumber\\\"},\\\"rightExpression\\\":{\\\"expressionType\\\":2,\\\"parameter\\\":{\\\"dataValueType\\\":26,\\\"value\\\":{\\\"value\\\":\\\"[IsOwnerSchema:false].[IsSchema:false].[Parameter:{d7748fee-12d1-4402-9af3-177336bb4bb3}]\\\"}}}},\\\"01fb950b-29ac-4cba-b437-99a80e85dad6\\\":{\\\"filterType\\\":4,\\\"comparisonType\\\":3,\\\"isEnabled\\\":true,\\\"trimDateTimeParameterToDate\\\":false,\\\"leftExpression\\\":{\\\"expressionType\\\":0,\\\"columnPath\\\":\\\"TsLeadType\\\"},\\\"rightExpressions\\\":[{\\\"expressionType\\\":2,\\\"parameter\\\":{\\\"dataValueType\\\":26,\\\"value\\\":{\\\"value\\\":\\\"[IsOwnerSchema:false].[IsSchema:false].[Parameter:{36aeb1ae-d491-439f-af00-89878da82b64}]\\\",\\\"Id\\\":\\\"00b253a0-4522-4d93-b7c1-185164100feb\\\"}}}]}},\\\"logicalOperation\\\":0,\\\"isEnabled\\\":true,\\\"filterType\\\":6,\\\"rootSchemaName\\\":\\\"TsOppStageInLeadType\\\"}\"}",
                "GS5": "932fe08a-a7b9-48a1-ac26-8edacfa68602"
              }
            },
            {
              "BL1": "Terrasoft.Core.Process.ProcessSchemaParameter",
              "UId": "534cf5b6-22aa-4ad8-9133-36b12034a022",
              "A2": "ResultType",
              "A3": "cb455b6f-78ff-4b1e-b241-c2bbc0b37e9f",
              "A4": "cb455b6f-78ff-4b1e-b241-c2bbc0b37e9f",
              "BL4": "71108920-2e61-4136-ba83-72dc956e0e4c",
              "L1": "6b6b74e2-820d-490e-a017-2b73d4ccf2b0",
              "L8": {
                "GS1": 1,
                "GS2": "0",
                "GS5": "cb455b6f-78ff-4b1e-b241-c2bbc0b37e9f"
              }
            },
            {
              "BL1": "Terrasoft.Core.Process.ProcessSchemaParameter",
              "UId": "4487b382-7927-4f7a-b5b5-06a985c3d159",
              "A2": "ReadSomeTopRecords",
              "A3": "cb455b6f-78ff-4b1e-b241-c2bbc0b37e9f",
              "A4": "cb455b6f-78ff-4b1e-b241-c2bbc0b37e9f",
              "BL4": "71108920-2e61-4136-ba83-72dc956e0e4c",
              "L1": "90b65bf8-0ffc-4141-8779-2420877af907",
              "L8": {
                "GS2": ""
              }
            },
            {
              "BL1": "Terrasoft.Core.Process.ProcessSchemaParameter",
              "UId": "940b8f87-2cc4-44b8-8ce4-00a9ae6b8c42",
              "A2": "NumberOfRecords",
              "A3": "cb455b6f-78ff-4b1e-b241-c2bbc0b37e9f",
              "A4": "cb455b6f-78ff-4b1e-b241-c2bbc0b37e9f",
              "BL4": "71108920-2e61-4136-ba83-72dc956e0e4c",
              "L1": "6b6b74e2-820d-490e-a017-2b73d4ccf2b0",
              "L8": {
                "GS2": ""
              }
            },
            {
              "BL1": "Terrasoft.Core.Process.ProcessSchemaParameter",
              "UId": "036c8340-002d-440b-88ec-4efc2ada3465",
              "A2": "FunctionType",
              "A3": "cb455b6f-78ff-4b1e-b241-c2bbc0b37e9f",
              "A4": "cb455b6f-78ff-4b1e-b241-c2bbc0b37e9f",
              "BL4": "71108920-2e61-4136-ba83-72dc956e0e4c",
              "L1": "6b6b74e2-820d-490e-a017-2b73d4ccf2b0",
              "L8": {
                "GS1": 1,
                "GS2": "0",
                "GS5": "932fe08a-a7b9-48a1-ac26-8edacfa68602"
              }
            },
            {
              "BL1": "Terrasoft.Core.Process.ProcessSchemaParameter",
              "UId": "b60c32d8-f11b-4c78-a099-9144494e3889",
              "A2": "AggregationColumnName",
              "A3": "cb455b6f-78ff-4b1e-b241-c2bbc0b37e9f",
              "A4": "cb455b6f-78ff-4b1e-b241-c2bbc0b37e9f",
              "BL4": "71108920-2e61-4136-ba83-72dc956e0e4c",
              "L1": "394e160f-c8e0-46fa-9c0d-75d97e9e9169",
              "L8": {
                "GS2": ""
              }
            },
            {
              "BL1": "Terrasoft.Core.Process.ProcessSchemaParameter",
              "UId": "955a76cb-f63e-4ad8-a360-dd17ac158ad6",
              "A2": "OrderInfo",
              "A3": "cb455b6f-78ff-4b1e-b241-c2bbc0b37e9f",
              "A4": "cb455b6f-78ff-4b1e-b241-c2bbc0b37e9f",
              "BL4": "71108920-2e61-4136-ba83-72dc956e0e4c",
              "L1": "394e160f-c8e0-46fa-9c0d-75d97e9e9169",
              "L8": {
                "GS2": ""
              }
            },
            {
              "BL1": "Terrasoft.Core.Process.ProcessSchemaParameter",
              "UId": "1dfdbfb0-7375-4279-874d-c5ea392c80e5",
              "A2": "ResultEntity",
              "A3": "cb455b6f-78ff-4b1e-b241-c2bbc0b37e9f",
              "A4": "cb455b6f-78ff-4b1e-b241-c2bbc0b37e9f",
              "A5": "66e9e705-64b4-4dda-925e-d1e05a389eb6",
              "BL4": "71108920-2e61-4136-ba83-72dc956e0e4c",
              "L1": "ebd85d37-0abf-4bbf-bb32-97dc3dffcc8c",
              "L8": {
                "GS1": 1,
                "GS5": "932fe08a-a7b9-48a1-ac26-8edacfa68602"
              },
              "L9": "57c846c8-3033-4717-9e76-8fe4939365e7",
              "L13": true,
              "L16": "TsOppStageInLeadType"
            },
            {
              "BL1": "Terrasoft.Core.Process.ProcessSchemaParameter",
              "UId": "1a97f070-163d-4352-b56b-1363f6727ff0",
              "A2": "ResultCount",
              "A3": "cb455b6f-78ff-4b1e-b241-c2bbc0b37e9f",
              "A4": "cb455b6f-78ff-4b1e-b241-c2bbc0b37e9f",
              "BL4": "71108920-2e61-4136-ba83-72dc956e0e4c",
              "L1": "6b6b74e2-820d-490e-a017-2b73d4ccf2b0",
              "L8": {
                "GS2": ""
              }
            },
            {
              "BL1": "Terrasoft.Core.Process.ProcessSchemaParameter",
              "UId": "13b8d72b-819e-4286-8b93-fc784f24a772",
              "A2": "ResultIntegerFunction",
              "A3": "cb455b6f-78ff-4b1e-b241-c2bbc0b37e9f",
              "A4": "cb455b6f-78ff-4b1e-b241-c2bbc0b37e9f",
              "BL4": "71108920-2e61-4136-ba83-72dc956e0e4c",
              "L1": "6b6b74e2-820d-490e-a017-2b73d4ccf2b0",
              "L8": {
                "GS2": ""
              }
            },
            {
              "BL1": "Terrasoft.Core.Process.ProcessSchemaParameter",
              "UId": "9f3303c2-d7e5-4398-a2e7-70ee041a0f93",
              "A2": "ResultFloatFunction",
              "A3": "cb455b6f-78ff-4b1e-b241-c2bbc0b37e9f",
              "A4": "cb455b6f-78ff-4b1e-b241-c2bbc0b37e9f",
              "BL4": "71108920-2e61-4136-ba83-72dc956e0e4c",
              "L1": "ff22e049-4d16-46ee-a529-92d8808932dc",
              "L8": {
                "GS2": ""
              }
            },
            {
              "BL1": "Terrasoft.Core.Process.ProcessSchemaParameter",
              "UId": "d8694433-8ea5-4a80-8470-f91df6bfee01",
              "A2": "ResultDateTimeFunction",
              "A3": "cb455b6f-78ff-4b1e-b241-c2bbc0b37e9f",
              "A4": "cb455b6f-78ff-4b1e-b241-c2bbc0b37e9f",
              "BL4": "71108920-2e61-4136-ba83-72dc956e0e4c",
              "L1": "d21e9ef4-c064-4012-b286-fa1a8171da44",
              "L8": {
                "GS2": ""
              }
            },
            {
              "BL1": "Terrasoft.Core.Process.ProcessSchemaParameter",
              "UId": "1d419d1b-5aa3-437e-8259-857ed8e97c33",
              "A2": "ResultRowsCount",
              "A3": "cb455b6f-78ff-4b1e-b241-c2bbc0b37e9f",
              "A4": "cb455b6f-78ff-4b1e-b241-c2bbc0b37e9f",
              "BL4": "71108920-2e61-4136-ba83-72dc956e0e4c",
              "L1": "6b6b74e2-820d-490e-a017-2b73d4ccf2b0",
              "L8": {
                "GS2": ""
              }
            },
            {
              "BL1": "Terrasoft.Core.Process.ProcessSchemaParameter",
              "UId": "60ce4341-d99b-425a-8e97-23a5663ef07f",
              "A2": "CanReadUncommitedData",
              "A3": "cb455b6f-78ff-4b1e-b241-c2bbc0b37e9f",
              "A4": "cb455b6f-78ff-4b1e-b241-c2bbc0b37e9f",
              "BL4": "71108920-2e61-4136-ba83-72dc956e0e4c",
              "L1": "90b65bf8-0ffc-4141-8779-2420877af907",
              "L8": {
                "GS1": 1,
                "GS2": "true",
                "GS5": "cb455b6f-78ff-4b1e-b241-c2bbc0b37e9f"
              }
            },
            {
              "BL1": "Terrasoft.Core.Process.ProcessSchemaParameter",
              "UId": "e97350ab-eba6-4198-bd29-5ef0dab62cf4",
              "A2": "ResultEntityCollection",
              "A3": "cb455b6f-78ff-4b1e-b241-c2bbc0b37e9f",
              "A4": "cb455b6f-78ff-4b1e-b241-c2bbc0b37e9f",
              "BL4": "71108920-2e61-4136-ba83-72dc956e0e4c",
              "L1": "51fb23ba-3eb2-11e2-b7d5-b0c76188709b",
              "L8": {
                "GS2": ""
              }
            },
            {
              "BL1": "Terrasoft.Core.Process.ProcessSchemaParameter",
              "UId": "317eb9a0-8080-402b-ae3f-28a6c2a247d3",
              "A2": "EntityColumnMetaPathes",
              "A3": "cb455b6f-78ff-4b1e-b241-c2bbc0b37e9f",
              "A4": "cb455b6f-78ff-4b1e-b241-c2bbc0b37e9f",
              "BL4": "71108920-2e61-4136-ba83-72dc956e0e4c",
              "L1": "394e160f-c8e0-46fa-9c0d-75d97e9e9169",
              "L8": {
                "GS1": 1,
                "GS2": "6d2de875-c422-4aaa-ab04-d632fbbe86d4",
                "GS5": "932fe08a-a7b9-48a1-ac26-8edacfa68602"
              }
            },
            {
              "BL1": "Terrasoft.Core.Process.ProcessSchemaParameter",
              "UId": "02b11c09-f2d1-46f0-a614-061fec3ad5b3",
              "A2": "IgnoreDisplayValues",
              "A3": "cb455b6f-78ff-4b1e-b241-c2bbc0b37e9f",
              "A4": "cb455b6f-78ff-4b1e-b241-c2bbc0b37e9f",
              "BL4": "71108920-2e61-4136-ba83-72dc956e0e4c",
              "L1": "90b65bf8-0ffc-4141-8779-2420877af907",
              "L8": {
                "GS2": ""
              }
            }
          ],
          "CL2": "FFFFFFFF",
          "J6": "cb455b6f-78ff-4b1e-b241-c2bbc0b37e9f",
          "J5": "ProcessUserTaskSchemaManager"
        },
        {
          "BL1": "Terrasoft.Core.Process.ProcessSchemaExclusiveGateway",
          "UId": "b4b8a448-f743-41e2-a146-bfd3f126fa98",
          "A2": "ExclusiveGateway1",
          "A3": "932fe08a-a7b9-48a1-ac26-8edacfa68602",
          "A4": "932fe08a-a7b9-48a1-ac26-8edacfa68602",
          "A5": "12ec0688-188b-44d9-99c0-af66d25810d7",
          "BL3": "260;287",
          "BL4": "6c23f386-0505-4ea2-980f-92a547bf98fe",
          "BL7": "bd9f7570-6c97-4f16-90e5-663a190c6c7c",
          "BL8": "932fe08a-a7b9-48a1-ac26-8edacfa68602",
          "BN2": "55;55",
          "BO3": true,
          "HH2": []
        },
        {
          "BL1": "Terrasoft.Core.Process.ProcessSchemaFormulaTask",
          "UId": "04a59460-db53-4b66-89f1-c1990c87289f",
          "A2": "FormulaTask1",
          "A3": "932fe08a-a7b9-48a1-ac26-8edacfa68602",
          "A4": "932fe08a-a7b9-48a1-ac26-8edacfa68602",
          "A5": "12ec0688-188b-44d9-99c0-af66d25810d7",
          "BL3": "361;287",
          "BL4": "6c23f386-0505-4ea2-980f-92a547bf98fe",
          "BL7": "d334d28f-b11a-477e-9ff0-0a95fa73d53b",
          "BL8": "932fe08a-a7b9-48a1-ac26-8edacfa68602",
          "BN2": "69;55",
          "BO3": true,
          "BP2": [],
          "CL2": "FFFFFFFF",
          "CH1": "[#[IsOwnerSchema:false].[IsSchema:false].[Parameter:{bd592f50-4345-4f9c-84b5-1c8c79c0d7ea}]#] +1",
          "HS1": "d7748fee-12d1-4402-9af3-177336bb4bb3"
        },
        {
          "BL1": "Terrasoft.Core.Process.ProcessSchemaSequenceFlow",
          "UId": "5b5c8fb7-7ed5-498a-80a3-1b9a9eec7880",
          "A2": "SequenceFlow4",
          "A3": "932fe08a-a7b9-48a1-ac26-8edacfa68602",
          "A4": "932fe08a-a7b9-48a1-ac26-8edacfa68602",
          "A5": "f8714ff2-bcbd-45ac-b947-d02d9a61bd78",
          "BL7": "0d8351f6-c2f4-4737-bdd9-6fbfe0837fec",
          "BL8": "932fe08a-a7b9-48a1-ac26-8edacfa68602",
          "CI1": "ff16041c-18d5-46f3-baed-a5b8b559b3fa",
          "CI2": "2a12d765-1b7d-47e3-a00b-5c931dab802d",
          "CI3": "null",
          "CI5": "FF939598",
          "CI6": 1,
          "CI7": "0;1",
          "CI8": "0;-1"
        },
        {
          "BL1": "Terrasoft.Core.Process.ProcessSchemaSequenceFlow",
          "UId": "b3b933c7-b7bd-4527-a369-68b31448a3ed",
          "A2": "SequenceFlow2",
          "A3": "932fe08a-a7b9-48a1-ac26-8edacfa68602",
          "A4": "932fe08a-a7b9-48a1-ac26-8edacfa68602",
          "A5": "12ec0688-188b-44d9-99c0-af66d25810d7",
          "BL7": "0d8351f6-c2f4-4737-bdd9-6fbfe0837fec",
          "BL8": "932fe08a-a7b9-48a1-ac26-8edacfa68602",
          "CI1": "71108920-2e61-4136-ba83-72dc956e0e4c",
          "CI2": "ff16041c-18d5-46f3-baed-a5b8b559b3fa",
          "CI3": "null",
          "CI5": "FF939598",
          "CI6": 1,
          "CI7": "1;0",
          "CI8": "-1;0",
          "CI10": {
            "Item0": "684;314",
            "Item1": "684;312"
          }
        },
        {
          "BL1": "Terrasoft.Core.Process.ProcessSchemaSequenceFlow",
          "UId": "35fb1a86-f625-4472-a2cf-39c73fe8f161",
          "A2": "SequenceFlow7",
          "A3": "932fe08a-a7b9-48a1-ac26-8edacfa68602",
          "A4": "932fe08a-a7b9-48a1-ac26-8edacfa68602",
          "A5": "12ec0688-188b-44d9-99c0-af66d25810d7",
          "BL7": "0d8351f6-c2f4-4737-bdd9-6fbfe0837fec",
          "BL8": "932fe08a-a7b9-48a1-ac26-8edacfa68602",
          "CI1": "5c2f94cd-3ce3-4fe6-bcf1-757096b020bb",
          "CI2": "2a12d765-1b7d-47e3-a00b-5c931dab802d",
          "CI3": "null",
          "CI5": "FF939598",
          "CI6": 1,
          "CI7": "1;0",
          "CI8": "-1;0"
        },
        {
          "BL1": "Terrasoft.Core.Process.ProcessSchemaSequenceFlow",
          "UId": "85af19f1-bf27-4b5d-9170-917812361444",
          "A2": "SequenceFlow5",
          "A3": "932fe08a-a7b9-48a1-ac26-8edacfa68602",
          "A4": "932fe08a-a7b9-48a1-ac26-8edacfa68602",
          "A5": "12ec0688-188b-44d9-99c0-af66d25810d7",
          "BL7": "0d8351f6-c2f4-4737-bdd9-6fbfe0837fec",
          "BL8": "932fe08a-a7b9-48a1-ac26-8edacfa68602",
          "CI1": "f2f9628a-148c-457c-86a9-7f7baece560b",
          "CI2": "b4b8a448-f743-41e2-a146-bfd3f126fa98",
          "CI3": "null",
          "CI5": "FF939598",
          "CI6": 1,
          "CI7": "1;0",
          "CI8": "-1;0"
        },
        {
          "BL1": "Terrasoft.Core.Process.ProcessSchemaSequenceFlow",
          "UId": "05853254-e8e2-4419-b287-9e2f33d4b6b0",
          "A2": "DefaultSequenceFlow1",
          "A3": "932fe08a-a7b9-48a1-ac26-8edacfa68602",
          "A4": "932fe08a-a7b9-48a1-ac26-8edacfa68602",
          "A5": "12ec0688-188b-44d9-99c0-af66d25810d7",
          "BL7": "573ed909-e069-4161-b193-ae8dd9437c68",
          "BL8": "932fe08a-a7b9-48a1-ac26-8edacfa68602",
          "CI1": "b4b8a448-f743-41e2-a146-bfd3f126fa98",
          "CI2": "04a59460-db53-4b66-89f1-c1990c87289f",
          "CI3": "null",
          "CI4": 1,
          "CI5": "FF939598",
          "CI6": 1,
          "CI7": "1;0",
          "CI8": "-1;0"
        },
        {
          "BL1": "Terrasoft.Core.Process.ProcessSchemaConditionalFlow",
          "UId": "75b2731f-6ada-49df-82c2-100ce9392fe6",
          "A2": "ConditionalSequenceFlow2",
          "A3": "932fe08a-a7b9-48a1-ac26-8edacfa68602",
          "A4": "932fe08a-a7b9-48a1-ac26-8edacfa68602",
          "A5": "12ec0688-188b-44d9-99c0-af66d25810d7",
          "BL7": "dac675d4-ea84-4e44-9056-38bf918618e9",
          "BL8": "932fe08a-a7b9-48a1-ac26-8edacfa68602",
          "CI1": "b4b8a448-f743-41e2-a146-bfd3f126fa98",
          "CI2": "5c2f94cd-3ce3-4fe6-bcf1-757096b020bb",
          "CI3": "[#[IsOwnerSchema:false].[IsSchema:false].[Parameter:{2d124c72-8de2-4327-a821-7370bb4f3f04}]#] == true",
          "CI4": 2,
          "CI5": "FF939598",
          "CI6": 1,
          "CI7": "0;1",
          "CI8": "-1;0",
          "CI10": {
            "Item0": "287;187"
          },
          "GV2": "{\"$type\":\"System.Collections.Generic.Dictionary`2[[System.Guid, mscorlib],[System.Collections.ObjectModel.Collection`1[[System.Guid, mscorlib]], mscorlib]], mscorlib\"}",
          "GV3": []
        },
        {
          "BL1": "Terrasoft.Core.Process.ProcessSchemaSequenceFlow",
          "UId": "9464ba9f-5660-4249-98c9-981af336d62a",
          "A2": "SequenceFlow1",
          "A3": "932fe08a-a7b9-48a1-ac26-8edacfa68602",
          "A4": "932fe08a-a7b9-48a1-ac26-8edacfa68602",
          "A5": "12ec0688-188b-44d9-99c0-af66d25810d7",
          "BL7": "0d8351f6-c2f4-4737-bdd9-6fbfe0837fec",
          "BL8": "932fe08a-a7b9-48a1-ac26-8edacfa68602",
          "CI1": "04a59460-db53-4b66-89f1-c1990c87289f",
          "CI2": "71108920-2e61-4136-ba83-72dc956e0e4c",
          "CI3": "null",
          "CI5": "FF939598",
          "CI6": 1,
          "CI7": "1;0",
          "CI8": "-1;0"
        }
      ],
      "BK9": [],
      "BK8": "bb4d6607-026b-4b27-b640-8f5c77c1e89d",
      "BK13": true,
      "BK18": "OpportunityManagement",
      "BK15": [
        {
          "BL1": "Terrasoft.Core.Process.ProcessSchemaMapping",
          "UId": "74fdb2db-70ad-4245-980a-34dd57b6572b",
          "A2": "ChangeDataUserTask",
          "A3": "932fe08a-a7b9-48a1-ac26-8edacfa68602",
          "A4": "932fe08a-a7b9-48a1-ac26-8edacfa68602",
          "GT2": "[Element:{ff16041c-18d5-46f3-baed-a5b8b559b3fa}].[Parameter:{e99fa34f-868e-4b57-a3a8-13c100885498}]",
          "GT3": "e99fa34f-868e-4b57-a3a8-13c100885498",
          "GT5": "bd2cf1ae-bbc6-4d91-8d6e-c6b40f057e95",
          "GT4": "d3021ca7-7450-4678-a117-060171eb2976",
          "GT1": {
            "GS1": 1,
            "GS2": "ae46fb87-c02c-4ae8-ad31-a923cdd994cf",
            "GS5": "932fe08a-a7b9-48a1-ac26-8edacfa68602"
          }
        },
        {
          "BL1": "Terrasoft.Core.Process.ProcessSchemaMapping",
          "UId": "d8edeaca-4d07-4378-a821-859815006797",
          "A2": "ChangeDataUserTask",
          "A3": "932fe08a-a7b9-48a1-ac26-8edacfa68602",
          "A4": "932fe08a-a7b9-48a1-ac26-8edacfa68602",
          "GT2": "[Element:{ff16041c-18d5-46f3-baed-a5b8b559b3fa}].[Parameter:{05fb8dfb-1204-478c-a016-5e0dacf67068}]",
          "GT3": "05fb8dfb-1204-478c-a016-5e0dacf67068",
          "GT5": "d6c84ba1-b6ca-4952-b517-880f22e21fdc",
          "GT4": "d3021ca7-7450-4678-a117-060171eb2976",
          "GT1": {
            "GS1": 1,
            "GS2": "true",
            "GS5": "932fe08a-a7b9-48a1-ac26-8edacfa68602"
          }
        },
        {
          "BL1": "Terrasoft.Core.Process.ProcessSchemaMapping",
          "UId": "858481c4-2059-4b2f-886e-1d122572af66",
          "A2": "ChangeDataUserTask",
          "A3": "932fe08a-a7b9-48a1-ac26-8edacfa68602",
          "A4": "932fe08a-a7b9-48a1-ac26-8edacfa68602",
          "GT2": "[Element:{ff16041c-18d5-46f3-baed-a5b8b559b3fa}].[Parameter:{cc2f766d-1506-48eb-8d63-91ddc235a521}]",
          "GT3": "cc2f766d-1506-48eb-8d63-91ddc235a521",
          "GT5": "03166c4b-2e15-4768-a343-750c16b69691",
          "GT4": "d3021ca7-7450-4678-a117-060171eb2976",
          "GT1": {
            "GS1": 1,
            "GS2": "{\"className\":\"Terrasoft.FilterGroup\",\"serializedFilterEditData\":\"{\\\"className\\\":\\\"Terrasoft.FilterGroup\\\",\\\"items\\\":{\\\"d72f72b0-3378-48eb-b089-8a8746a6c2e5\\\":{\\\"className\\\":\\\"Terrasoft.CompareFilter\\\",\\\"filterType\\\":1,\\\"comparisonType\\\":3,\\\"isEnabled\\\":true,\\\"trimDateTimeParameterToDate\\\":false,\\\"leftExpression\\\":{\\\"className\\\":\\\"Terrasoft.ColumnExpression\\\",\\\"expressionType\\\":0,\\\"columnPath\\\":\\\"Id\\\"},\\\"isAggregative\\\":false,\\\"key\\\":\\\"d72f72b0-3378-48eb-b089-8a8746a6c2e5\\\",\\\"dataValueType\\\":0,\\\"leftExpressionCaption\\\":\\\"Id\\\",\\\"rightExpression\\\":{\\\"className\\\":\\\"Terrasoft.ParameterExpression\\\",\\\"expressionType\\\":2,\\\"parameter\\\":{\\\"className\\\":\\\"Terrasoft.Parameter\\\",\\\"dataValueType\\\":26,\\\"value\\\":{\\\"value\\\":\\\"[IsOwnerSchema:false].[IsSchema:false].[Parameter:{dfce71b8-964d-4c09-bd58-0c97f1365945}]\\\",\\\"displayValue\\\":\\\"Текущая продажа\\\",\\\"Id\\\":\\\"5af04bc3-3df5-4c6a-b2c5-3c2b0160e848\\\"}}}}},\\\"logicalOperation\\\":0,\\\"isEnabled\\\":true,\\\"filterType\\\":6,\\\"rootSchemaName\\\":\\\"Opportunity\\\",\\\"key\\\":\\\"ab3da4c0-b8d1-443c-b2e7-7cd0879d866c\\\"}\",\"dataSourceFilters\":\"{\\\"items\\\":{\\\"d72f72b0-3378-48eb-b089-8a8746a6c2e5\\\":{\\\"filterType\\\":1,\\\"comparisonType\\\":3,\\\"isEnabled\\\":true,\\\"trimDateTimeParameterToDate\\\":false,\\\"leftExpression\\\":{\\\"expressionType\\\":0,\\\"columnPath\\\":\\\"Id\\\"},\\\"rightExpression\\\":{\\\"expressionType\\\":2,\\\"parameter\\\":{\\\"dataValueType\\\":26,\\\"value\\\":{\\\"value\\\":\\\"[IsOwnerSchema:false].[IsSchema:false].[Parameter:{dfce71b8-964d-4c09-bd58-0c97f1365945}]\\\",\\\"Id\\\":\\\"5af04bc3-3df5-4c6a-b2c5-3c2b0160e848\\\"}}}}},\\\"logicalOperation\\\":0,\\\"isEnabled\\\":true,\\\"filterType\\\":6,\\\"rootSchemaName\\\":\\\"Opportunity\\\"}\"}",
            "GS5": "932fe08a-a7b9-48a1-ac26-8edacfa68602"
          }
        },
        {
          "BL1": "Terrasoft.Core.Process.ProcessSchemaMapping",
          "UId": "359fc349-afb2-4111-8ddc-bb1cce43ac0d",
          "A2": "ChangeDataUserTask",
          "A3": "932fe08a-a7b9-48a1-ac26-8edacfa68602",
          "A4": "932fe08a-a7b9-48a1-ac26-8edacfa68602",
          "GT2": "[Element:{ff16041c-18d5-46f3-baed-a5b8b559b3fa}].[Parameter:{0b1a99dc-d621-4151-8384-3e221142a390}]",
          "GT3": "0b1a99dc-d621-4151-8384-3e221142a390",
          "GT5": "effa11ce-90c7-4efe-8a02-be7a659d27e9",
          "GT4": "d3021ca7-7450-4678-a117-060171eb2976",
          "GT1": {
            "GS1": 1,
            "GS2": "{\"$type\":\"Terrasoft.Core.Process.LocalizableParameterValuesList, Terrasoft.Core\",\"$values\":[{\"ItemUId\":\"c1491e06-bf17-460c-b667-0a45fe21b3ff\",\"columnMetaPath\":{\"value\":\"797ac352-4979-4d28-906f-82feb6dbc9dc\"},\"schemaUId\":{\"value\":\"ae46fb87-c02c-4ae8-ad31-a923cdd994cf\"},\"value\":{\"value\":\"[#[IsOwnerSchema:false].[IsSchema:false].[Parameter:{b84b8659-7d6c-46df-be98-b96c5d0e5b85}]#]\"},\"displayValue\":{\"value\":\"[#Следующая стадия#]\"},\"parameterValue\":{\"value\":\"{\\\"$type\\\":\\\"Terrasoft.Core.Process.ProcessSchemaParameterValue, Terrasoft.Core\\\",\\\"Source\\\":3,\\\"DisplayValue\\\":\\\"\\\",\\\"Value\\\":\\\"\\\",\\\"MetaPath\\\":null,\\\"MetaDataValue\\\":null,\\\"ModifiedInSchemaUId\\\":\\\"00000000-0000-0000-0000-000000000000\\\",\\\"SchemaUId\\\":\\\"00000000-0000-0000-0000-000000000000\\\",\\\"SchemaManagerName\\\":\\\"\\\",\\\"DataValueTypeUId\\\":\\\"b295071f-7ea9-4e62-8d1a-919bf3732ff2\\\",\\\"ReferenceSchemaUId\\\":\\\"ccf7d813-fc83-47ad-be61-8f3b3b98a54f\\\",\\\"ResourceItemName\\\":null}\"}}]}",
            "GS5": "932fe08a-a7b9-48a1-ac26-8edacfa68602"
          }
        },
        {
          "BL1": "Terrasoft.Core.Process.ProcessSchemaMapping",
          "UId": "31bedc08-1212-4d84-be94-ec37b9f389e2",
          "A2": "ChangeDataUserTask1",
          "A3": "932fe08a-a7b9-48a1-ac26-8edacfa68602",
          "A4": "932fe08a-a7b9-48a1-ac26-8edacfa68602",
          "GT2": "[Element:{5c2f94cd-3ce3-4fe6-bcf1-757096b020bb}].[Parameter:{dc378cc2-85ff-4e2e-9502-f4acf742ea5a}]",
          "GT3": "dc378cc2-85ff-4e2e-9502-f4acf742ea5a",
          "GT5": "bd2cf1ae-bbc6-4d91-8d6e-c6b40f057e95",
          "GT4": "d3021ca7-7450-4678-a117-060171eb2976",
          "GT1": {
            "GS1": 1,
            "GS2": "c449d832-a4cc-4b01-b9d5-8a12c42a9f89",
            "GS5": "932fe08a-a7b9-48a1-ac26-8edacfa68602"
          }
        },
        {
          "BL1": "Terrasoft.Core.Process.ProcessSchemaMapping",
          "UId": "5563f25f-d298-4d6f-8253-1185e7c6d450",
          "A2": "ChangeDataUserTask1",
          "A3": "932fe08a-a7b9-48a1-ac26-8edacfa68602",
          "A4": "932fe08a-a7b9-48a1-ac26-8edacfa68602",
          "GT2": "[Element:{5c2f94cd-3ce3-4fe6-bcf1-757096b020bb}].[Parameter:{8e3a62f2-c51f-475f-9cf1-fe34f9b83cf1}]",
          "GT3": "8e3a62f2-c51f-475f-9cf1-fe34f9b83cf1",
          "GT5": "d6c84ba1-b6ca-4952-b517-880f22e21fdc",
          "GT4": "d3021ca7-7450-4678-a117-060171eb2976",
          "GT1": {
            "GS1": 3,
            "GS2": "true",
            "GS5": "d3021ca7-7450-4678-a117-060171eb2976"
          }
        },
        {
          "BL1": "Terrasoft.Core.Process.ProcessSchemaMapping",
          "UId": "251f0d03-97b1-4734-9138-859ee3848931",
          "A2": "ChangeDataUserTask1",
          "A3": "932fe08a-a7b9-48a1-ac26-8edacfa68602",
          "A4": "932fe08a-a7b9-48a1-ac26-8edacfa68602",
          "GT2": "[Element:{5c2f94cd-3ce3-4fe6-bcf1-757096b020bb}].[Parameter:{bbe3bd8c-64a3-4569-9e8e-85990604b82c}]",
          "GT3": "bbe3bd8c-64a3-4569-9e8e-85990604b82c",
          "GT5": "03166c4b-2e15-4768-a343-750c16b69691",
          "GT4": "d3021ca7-7450-4678-a117-060171eb2976",
          "GT1": {
            "GS1": 1,
            "GS2": "{\"className\":\"Terrasoft.FilterGroup\",\"serializedFilterEditData\":\"{\\\"className\\\":\\\"Terrasoft.FilterGroup\\\",\\\"items\\\":{\\\"0331ba5e-ad18-488f-b386-b211d83053d6\\\":{\\\"className\\\":\\\"Terrasoft.IsNullFilter\\\",\\\"filterType\\\":2,\\\"comparisonType\\\":2,\\\"isEnabled\\\":true,\\\"trimDateTimeParameterToDate\\\":false,\\\"leftExpression\\\":{\\\"className\\\":\\\"Terrasoft.ColumnExpression\\\",\\\"expressionType\\\":0,\\\"columnPath\\\":\\\"ProcessElementId\\\"},\\\"isAggregative\\\":false,\\\"key\\\":\\\"0331ba5e-ad18-488f-b386-b211d83053d6\\\",\\\"dataValueType\\\":0,\\\"leftExpressionCaption\\\":\\\"Элемент процесса\\\",\\\"isNull\\\":false},\\\"b2df4e57-446b-4ccd-8969-0659847ac4f8\\\":{\\\"className\\\":\\\"Terrasoft.InFilter\\\",\\\"filterType\\\":4,\\\"comparisonType\\\":3,\\\"isEnabled\\\":true,\\\"trimDateTimeParameterToDate\\\":false,\\\"leftExpression\\\":{\\\"className\\\":\\\"Terrasoft.ColumnExpression\\\",\\\"expressionType\\\":0,\\\"columnPath\\\":\\\"Opportunity\\\"},\\\"isAggregative\\\":false,\\\"key\\\":\\\"b2df4e57-446b-4ccd-8969-0659847ac4f8\\\",\\\"dataValueType\\\":10,\\\"leftExpressionCaption\\\":\\\"Продажа\\\",\\\"referenceSchemaName\\\":\\\"Opportunity\\\",\\\"rightExpressions\\\":[{\\\"className\\\":\\\"Terrasoft.ParameterExpression\\\",\\\"expressionType\\\":2,\\\"parameter\\\":{\\\"className\\\":\\\"Terrasoft.Parameter\\\",\\\"dataValueType\\\":26,\\\"value\\\":{\\\"value\\\":\\\"[IsOwnerSchema:false].[IsSchema:false].[Parameter:{dfce71b8-964d-4c09-bd58-0c97f1365945}]\\\",\\\"displayValue\\\":\\\"Текущая продажа\\\",\\\"Id\\\":\\\"eeaa9868-a0c5-41bc-8027-c46b0dfbab56\\\"}}}]},\\\"c366cf24-3bcc-4192-8fcc-48f5f67d3c7e\\\":{\\\"className\\\":\\\"Terrasoft.CompareFilter\\\",\\\"filterType\\\":1,\\\"comparisonType\\\":3,\\\"isEnabled\\\":true,\\\"trimDateTimeParameterToDate\\\":false,\\\"leftExpression\\\":{\\\"className\\\":\\\"Terrasoft.ColumnExpression\\\",\\\"expressionType\\\":0,\\\"columnPath\\\":\\\"Status.Finish\\\"},\\\"isAggregative\\\":false,\\\"key\\\":\\\"c366cf24-3bcc-4192-8fcc-48f5f67d3c7e\\\",\\\"dataValueType\\\":12,\\\"leftExpressionCaption\\\":\\\"Состояние.Конечное состояние\\\",\\\"rightExpression\\\":{\\\"className\\\":\\\"Terrasoft.ParameterExpression\\\",\\\"expressionType\\\":2,\\\"parameter\\\":{\\\"className\\\":\\\"Terrasoft.Parameter\\\",\\\"dataValueType\\\":12,\\\"value\\\":false}}}},\\\"logicalOperation\\\":0,\\\"isEnabled\\\":true,\\\"filterType\\\":6,\\\"rootSchemaName\\\":\\\"Activity\\\",\\\"key\\\":\\\"\\\"}\",\"dataSourceFilters\":\"{\\\"items\\\":{\\\"0331ba5e-ad18-488f-b386-b211d83053d6\\\":{\\\"filterType\\\":2,\\\"comparisonType\\\":2,\\\"isEnabled\\\":true,\\\"trimDateTimeParameterToDate\\\":false,\\\"leftExpression\\\":{\\\"expressionType\\\":0,\\\"columnPath\\\":\\\"ProcessElementId\\\"},\\\"isNull\\\":false},\\\"b2df4e57-446b-4ccd-8969-0659847ac4f8\\\":{\\\"filterType\\\":4,\\\"comparisonType\\\":3,\\\"isEnabled\\\":true,\\\"trimDateTimeParameterToDate\\\":false,\\\"leftExpression\\\":{\\\"expressionType\\\":0,\\\"columnPath\\\":\\\"Opportunity\\\"},\\\"rightExpressions\\\":[{\\\"expressionType\\\":2,\\\"parameter\\\":{\\\"dataValueType\\\":26,\\\"value\\\":{\\\"value\\\":\\\"[IsOwnerSchema:false].[IsSchema:false].[Parameter:{dfce71b8-964d-4c09-bd58-0c97f1365945}]\\\",\\\"Id\\\":\\\"eeaa9868-a0c5-41bc-8027-c46b0dfbab56\\\"}}}]},\\\"c366cf24-3bcc-4192-8fcc-48f5f67d3c7e\\\":{\\\"filterType\\\":1,\\\"comparisonType\\\":3,\\\"isEnabled\\\":true,\\\"trimDateTimeParameterToDate\\\":false,\\\"leftExpression\\\":{\\\"expressionType\\\":0,\\\"columnPath\\\":\\\"Status.Finish\\\"},\\\"rightExpression\\\":{\\\"expressionType\\\":2,\\\"parameter\\\":{\\\"dataValueType\\\":12,\\\"value\\\":false}}}},\\\"logicalOperation\\\":0,\\\"isEnabled\\\":true,\\\"filterType\\\":6,\\\"rootSchemaName\\\":\\\"Activity\\\"}\"}",
            "GS5": "932fe08a-a7b9-48a1-ac26-8edacfa68602"
          }
        },
        {
          "BL1": "Terrasoft.Core.Process.ProcessSchemaMapping",
          "UId": "71358100-7b70-42c2-9c35-bffed11dbd91",
          "A2": "ChangeDataUserTask1",
          "A3": "932fe08a-a7b9-48a1-ac26-8edacfa68602",
          "A4": "932fe08a-a7b9-48a1-ac26-8edacfa68602",
          "GT2": "[Element:{5c2f94cd-3ce3-4fe6-bcf1-757096b020bb}].[Parameter:{544861fe-3cf5-41c3-9848-442deb51cd14}]",
          "GT3": "544861fe-3cf5-41c3-9848-442deb51cd14",
          "GT5": "effa11ce-90c7-4efe-8a02-be7a659d27e9",
          "GT4": "d3021ca7-7450-4678-a117-060171eb2976",
          "GT1": {
            "GS1": 1,
            "GS2": "{\"$type\":\"Terrasoft.Core.Process.LocalizableParameterValuesList, Terrasoft.Core\",\"$values\":[{\"ItemUId\":\"47be762b-30d1-4933-b3ad-2c2a03119ae6\",\"columnMetaPath\":{\"value\":\"c8d84f9c-b48b-479b-9ac6-4412f3436ca2\"},\"schemaUId\":{\"value\":\"c449d832-a4cc-4b01-b9d5-8a12c42a9f89\"},\"value\":{\"value\":\"[#Lookup.805aace4-8604-40e7-a9eb-0f54174593c0.201cfba8-58e6-df11-971b-001d60e938c6#]\"},\"displayValue\":{\"value\":\"[#Справочник.Состояние активности.Отменена#]\"},\"parameterValue\":{\"value\":\"{\\\"$type\\\":\\\"Terrasoft.Core.Process.ProcessSchemaParameterValue, Terrasoft.Core\\\",\\\"Source\\\":3,\\\"DisplayValue\\\":\\\"\\\",\\\"Value\\\":\\\"\\\",\\\"MetaPath\\\":null,\\\"MetaDataValue\\\":null,\\\"ModifiedInSchemaUId\\\":\\\"00000000-0000-0000-0000-000000000000\\\",\\\"SchemaUId\\\":\\\"00000000-0000-0000-0000-000000000000\\\",\\\"SchemaManagerName\\\":\\\"\\\",\\\"DataValueTypeUId\\\":\\\"b295071f-7ea9-4e62-8d1a-919bf3732ff2\\\",\\\"ReferenceSchemaUId\\\":\\\"805aace4-8604-40e7-a9eb-0f54174593c0\\\",\\\"ResourceItemName\\\":null}\"}},{\"ItemUId\":\"ae3e664e-3bc9-4bf3-a50e-452ae29cd08c\",\"columnMetaPath\":{\"value\":\"ae372cfa-a21f-47f0-8a64-17d137ebe966\"},\"schemaUId\":{\"value\":\"c449d832-a4cc-4b01-b9d5-8a12c42a9f89\"},\"value\":{\"value\":\"[#Lookup.329bd06e-f95f-4824-a0fb-85edff2f2948.dbbf0e10-f46b-1410-6598-00155d043204#]\"},\"displayValue\":{\"value\":\"[#Справочник.Результат активности.Отменена#]\"},\"parameterValue\":{\"value\":\"{\\\"$type\\\":\\\"Terrasoft.Core.Process.ProcessSchemaParameterValue, Terrasoft.Core\\\",\\\"Source\\\":3,\\\"DisplayValue\\\":\\\"\\\",\\\"Value\\\":\\\"\\\",\\\"MetaPath\\\":null,\\\"MetaDataValue\\\":null,\\\"ModifiedInSchemaUId\\\":\\\"00000000-0000-0000-0000-000000000000\\\",\\\"SchemaUId\\\":\\\"00000000-0000-0000-0000-000000000000\\\",\\\"SchemaManagerName\\\":\\\"\\\",\\\"DataValueTypeUId\\\":\\\"b295071f-7ea9-4e62-8d1a-919bf3732ff2\\\",\\\"ReferenceSchemaUId\\\":\\\"329bd06e-f95f-4824-a0fb-85edff2f2948\\\",\\\"ResourceItemName\\\":null}\"}}]}",
            "GS5": "932fe08a-a7b9-48a1-ac26-8edacfa68602"
          }
        },
        {
          "BL1": "Terrasoft.Core.Process.ProcessSchemaMapping",
          "UId": "3b12a8d5-813f-4739-88d0-c443faafbb31",
          "A2": "ReadDataUserTask1",
          "A3": "932fe08a-a7b9-48a1-ac26-8edacfa68602",
          "A4": "932fe08a-a7b9-48a1-ac26-8edacfa68602",
          "GT2": "[Element:{71108920-2e61-4136-ba83-72dc956e0e4c}].[Parameter:{d35dd69a-b245-409b-a75a-1ae174c0f46a}]",
          "GT3": "d35dd69a-b245-409b-a75a-1ae174c0f46a",
          "GT5": "5d9ac9a7-7782-49ce-8990-dcb1c73832b0",
          "GT4": "cb455b6f-78ff-4b1e-b241-c2bbc0b37e9f",
          "GT1": {
            "GS1": 1,
            "GS2": "{\"className\":\"Terrasoft.FilterGroup\",\"serializedFilterEditData\":\"{\\\"className\\\":\\\"Terrasoft.FilterGroup\\\",\\\"items\\\":{\\\"646ac927-3075-4d79-b2fe-6277ac8d3cce\\\":{\\\"className\\\":\\\"Terrasoft.CompareFilter\\\",\\\"filterType\\\":1,\\\"comparisonType\\\":3,\\\"isEnabled\\\":true,\\\"trimDateTimeParameterToDate\\\":false,\\\"leftExpression\\\":{\\\"className\\\":\\\"Terrasoft.ColumnExpression\\\",\\\"expressionType\\\":0,\\\"columnPath\\\":\\\"TsNumber\\\"},\\\"isAggregative\\\":false,\\\"key\\\":\\\"646ac927-3075-4d79-b2fe-6277ac8d3cce\\\",\\\"dataValueType\\\":4,\\\"leftExpressionCaption\\\":\\\"Порядковый номер\\\",\\\"rightExpression\\\":{\\\"className\\\":\\\"Terrasoft.ParameterExpression\\\",\\\"expressionType\\\":2,\\\"parameter\\\":{\\\"className\\\":\\\"Terrasoft.Parameter\\\",\\\"dataValueType\\\":26,\\\"value\\\":{\\\"value\\\":\\\"[IsOwnerSchema:false].[IsSchema:false].[Parameter:{d7748fee-12d1-4402-9af3-177336bb4bb3}]\\\",\\\"displayValue\\\":\\\"Номер следующей стадии\\\"}}}},\\\"01fb950b-29ac-4cba-b437-99a80e85dad6\\\":{\\\"className\\\":\\\"Terrasoft.InFilter\\\",\\\"filterType\\\":4,\\\"comparisonType\\\":3,\\\"isEnabled\\\":true,\\\"trimDateTimeParameterToDate\\\":false,\\\"leftExpression\\\":{\\\"className\\\":\\\"Terrasoft.ColumnExpression\\\",\\\"expressionType\\\":0,\\\"columnPath\\\":\\\"TsLeadType\\\"},\\\"isAggregative\\\":false,\\\"key\\\":\\\"01fb950b-29ac-4cba-b437-99a80e85dad6\\\",\\\"dataValueType\\\":10,\\\"leftExpressionCaption\\\":\\\"Тип потребности\\\",\\\"referenceSchemaName\\\":\\\"LeadType\\\",\\\"rightExpressions\\\":[{\\\"className\\\":\\\"Terrasoft.ParameterExpression\\\",\\\"expressionType\\\":2,\\\"parameter\\\":{\\\"className\\\":\\\"Terrasoft.Parameter\\\",\\\"dataValueType\\\":26,\\\"value\\\":{\\\"value\\\":\\\"[IsOwnerSchema:false].[IsSchema:false].[Parameter:{36aeb1ae-d491-439f-af00-89878da82b64}]\\\",\\\"displayValue\\\":\\\"Тип потребности\\\",\\\"Id\\\":\\\"00b253a0-4522-4d93-b7c1-185164100feb\\\"}}}]}},\\\"logicalOperation\\\":0,\\\"isEnabled\\\":true,\\\"filterType\\\":6,\\\"rootSchemaName\\\":\\\"TsOppStageInLeadType\\\",\\\"key\\\":\\\"\\\"}\",\"dataSourceFilters\":\"{\\\"items\\\":{\\\"646ac927-3075-4d79-b2fe-6277ac8d3cce\\\":{\\\"filterType\\\":1,\\\"comparisonType\\\":3,\\\"isEnabled\\\":true,\\\"trimDateTimeParameterToDate\\\":false,\\\"leftExpression\\\":{\\\"expressionType\\\":0,\\\"columnPath\\\":\\\"TsNumber\\\"},\\\"rightExpression\\\":{\\\"expressionType\\\":2,\\\"parameter\\\":{\\\"dataValueType\\\":26,\\\"value\\\":{\\\"value\\\":\\\"[IsOwnerSchema:false].[IsSchema:false].[Parameter:{d7748fee-12d1-4402-9af3-177336bb4bb3}]\\\"}}}},\\\"01fb950b-29ac-4cba-b437-99a80e85dad6\\\":{\\\"filterType\\\":4,\\\"comparisonType\\\":3,\\\"isEnabled\\\":true,\\\"trimDateTimeParameterToDate\\\":false,\\\"leftExpression\\\":{\\\"expressionType\\\":0,\\\"columnPath\\\":\\\"TsLeadType\\\"},\\\"rightExpressions\\\":[{\\\"expressionType\\\":2,\\\"parameter\\\":{\\\"dataValueType\\\":26,\\\"value\\\":{\\\"value\\\":\\\"[IsOwnerSchema:false].[IsSchema:false].[Parameter:{36aeb1ae-d491-439f-af00-89878da82b64}]\\\",\\\"Id\\\":\\\"00b253a0-4522-4d93-b7c1-185164100feb\\\"}}}]}},\\\"logicalOperation\\\":0,\\\"isEnabled\\\":true,\\\"filterType\\\":6,\\\"rootSchemaName\\\":\\\"TsOppStageInLeadType\\\"}\"}",
            "GS5": "932fe08a-a7b9-48a1-ac26-8edacfa68602"
          }
        },
        {
          "BL1": "Terrasoft.Core.Process.ProcessSchemaMapping",
          "UId": "5f26f512-5bb4-4c8e-99d9-35a55f2229a0",
          "A2": "ReadDataUserTask1",
          "A3": "932fe08a-a7b9-48a1-ac26-8edacfa68602",
          "A4": "932fe08a-a7b9-48a1-ac26-8edacfa68602",
          "GT2": "[Element:{71108920-2e61-4136-ba83-72dc956e0e4c}].[Parameter:{534cf5b6-22aa-4ad8-9133-36b12034a022}]",
          "GT3": "534cf5b6-22aa-4ad8-9133-36b12034a022",
          "GT5": "643e4d6d-7ec8-49f0-842a-066a996fbe8b",
          "GT4": "cb455b6f-78ff-4b1e-b241-c2bbc0b37e9f",
          "GT1": {
            "GS1": 1,
            "GS2": "0",
            "GS5": "cb455b6f-78ff-4b1e-b241-c2bbc0b37e9f"
          }
        },
        {
          "BL1": "Terrasoft.Core.Process.ProcessSchemaMapping",
          "UId": "bb4dec3e-01df-48bc-98e1-36ae5b216d94",
          "A2": "ReadDataUserTask1",
          "A3": "932fe08a-a7b9-48a1-ac26-8edacfa68602",
          "A4": "932fe08a-a7b9-48a1-ac26-8edacfa68602",
          "GT2": "[Element:{71108920-2e61-4136-ba83-72dc956e0e4c}].[Parameter:{4487b382-7927-4f7a-b5b5-06a985c3d159}]",
          "GT3": "4487b382-7927-4f7a-b5b5-06a985c3d159",
          "GT5": "29115add-7520-4ad4-8371-d91f537ac913",
          "GT4": "cb455b6f-78ff-4b1e-b241-c2bbc0b37e9f",
          "GT1": {
            "GS2": ""
          }
        },
        {
          "BL1": "Terrasoft.Core.Process.ProcessSchemaMapping",
          "UId": "479533ad-342d-4905-a9d1-c2541e0da753",
          "A2": "ReadDataUserTask1",
          "A3": "932fe08a-a7b9-48a1-ac26-8edacfa68602",
          "A4": "932fe08a-a7b9-48a1-ac26-8edacfa68602",
          "GT2": "[Element:{71108920-2e61-4136-ba83-72dc956e0e4c}].[Parameter:{940b8f87-2cc4-44b8-8ce4-00a9ae6b8c42}]",
          "GT3": "940b8f87-2cc4-44b8-8ce4-00a9ae6b8c42",
          "GT5": "f29e5660-c5ef-4d84-8331-9046c3093519",
          "GT4": "cb455b6f-78ff-4b1e-b241-c2bbc0b37e9f",
          "GT1": {
            "GS2": ""
          }
        },
        {
          "BL1": "Terrasoft.Core.Process.ProcessSchemaMapping",
          "UId": "81fd88e4-2e35-4430-8f63-90b998bdeb1c",
          "A2": "ReadDataUserTask1",
          "A3": "932fe08a-a7b9-48a1-ac26-8edacfa68602",
          "A4": "932fe08a-a7b9-48a1-ac26-8edacfa68602",
          "GT2": "[Element:{71108920-2e61-4136-ba83-72dc956e0e4c}].[Parameter:{036c8340-002d-440b-88ec-4efc2ada3465}]",
          "GT3": "036c8340-002d-440b-88ec-4efc2ada3465",
          "GT5": "94ba9876-18c1-4a68-bcef-08f7e7f0e25c",
          "GT4": "cb455b6f-78ff-4b1e-b241-c2bbc0b37e9f",
          "GT1": {
            "GS1": 1,
            "GS2": "0",
            "GS5": "932fe08a-a7b9-48a1-ac26-8edacfa68602"
          }
        },
        {
          "BL1": "Terrasoft.Core.Process.ProcessSchemaMapping",
          "UId": "6dc1a943-2b81-47b7-8687-f891f9fdf230",
          "A2": "ReadDataUserTask1",
          "A3": "932fe08a-a7b9-48a1-ac26-8edacfa68602",
          "A4": "932fe08a-a7b9-48a1-ac26-8edacfa68602",
          "GT2": "[Element:{71108920-2e61-4136-ba83-72dc956e0e4c}].[Parameter:{b60c32d8-f11b-4c78-a099-9144494e3889}]",
          "GT3": "b60c32d8-f11b-4c78-a099-9144494e3889",
          "GT5": "cb5d6d26-7e81-4cbe-8730-8b7169000d14",
          "GT4": "cb455b6f-78ff-4b1e-b241-c2bbc0b37e9f",
          "GT1": {
            "GS2": ""
          }
        },
        {
          "BL1": "Terrasoft.Core.Process.ProcessSchemaMapping",
          "UId": "9468e970-ec0a-46fa-91e1-7dd52fa40184",
          "A2": "ReadDataUserTask1",
          "A3": "932fe08a-a7b9-48a1-ac26-8edacfa68602",
          "A4": "932fe08a-a7b9-48a1-ac26-8edacfa68602",
          "GT2": "[Element:{71108920-2e61-4136-ba83-72dc956e0e4c}].[Parameter:{955a76cb-f63e-4ad8-a360-dd17ac158ad6}]",
          "GT3": "955a76cb-f63e-4ad8-a360-dd17ac158ad6",
          "GT5": "473e79e2-727e-40a7-8829-7eefc576b403",
          "GT4": "cb455b6f-78ff-4b1e-b241-c2bbc0b37e9f",
          "GT1": {
            "GS2": ""
          }
        },
        {
          "BL1": "Terrasoft.Core.Process.ProcessSchemaMapping",
          "UId": "ff50211c-6339-4a99-8834-836bf17eebdc",
          "A2": "ReadDataUserTask1",
          "A3": "932fe08a-a7b9-48a1-ac26-8edacfa68602",
          "A4": "932fe08a-a7b9-48a1-ac26-8edacfa68602",
          "GT2": "[Element:{71108920-2e61-4136-ba83-72dc956e0e4c}].[Parameter:{1dfdbfb0-7375-4279-874d-c5ea392c80e5}]",
          "GT3": "1dfdbfb0-7375-4279-874d-c5ea392c80e5",
          "GT5": "e2fced10-4842-423e-ada0-523bf7ea8ad3",
          "GT4": "cb455b6f-78ff-4b1e-b241-c2bbc0b37e9f",
          "GT1": {
            "GS1": 1,
            "GS5": "932fe08a-a7b9-48a1-ac26-8edacfa68602"
          }
        },
        {
          "BL1": "Terrasoft.Core.Process.ProcessSchemaMapping",
          "UId": "3d0ebb7a-98e2-427e-b357-022907bfe2f1",
          "A2": "ReadDataUserTask1",
          "A3": "932fe08a-a7b9-48a1-ac26-8edacfa68602",
          "A4": "932fe08a-a7b9-48a1-ac26-8edacfa68602",
          "GT2": "[Element:{71108920-2e61-4136-ba83-72dc956e0e4c}].[Parameter:{1a97f070-163d-4352-b56b-1363f6727ff0}]",
          "GT3": "1a97f070-163d-4352-b56b-1363f6727ff0",
          "GT5": "2e63ea99-8125-4254-88bd-20d3610bd471",
          "GT4": "cb455b6f-78ff-4b1e-b241-c2bbc0b37e9f",
          "GT1": {
            "GS2": ""
          }
        },
        {
          "BL1": "Terrasoft.Core.Process.ProcessSchemaMapping",
          "UId": "74cc10fc-4973-4e2d-b66f-fb620c3f71ff",
          "A2": "ReadDataUserTask1",
          "A3": "932fe08a-a7b9-48a1-ac26-8edacfa68602",
          "A4": "932fe08a-a7b9-48a1-ac26-8edacfa68602",
          "GT2": "[Element:{71108920-2e61-4136-ba83-72dc956e0e4c}].[Parameter:{13b8d72b-819e-4286-8b93-fc784f24a772}]",
          "GT3": "13b8d72b-819e-4286-8b93-fc784f24a772",
          "GT5": "a3660fce-a8f9-4a68-a3c1-b4f2f7983635",
          "GT4": "cb455b6f-78ff-4b1e-b241-c2bbc0b37e9f",
          "GT1": {
            "GS2": ""
          }
        },
        {
          "BL1": "Terrasoft.Core.Process.ProcessSchemaMapping",
          "UId": "03a3477c-1bc5-4c89-b256-27c9fb7be061",
          "A2": "ReadDataUserTask1",
          "A3": "932fe08a-a7b9-48a1-ac26-8edacfa68602",
          "A4": "932fe08a-a7b9-48a1-ac26-8edacfa68602",
          "GT2": "[Element:{71108920-2e61-4136-ba83-72dc956e0e4c}].[Parameter:{9f3303c2-d7e5-4398-a2e7-70ee041a0f93}]",
          "GT3": "9f3303c2-d7e5-4398-a2e7-70ee041a0f93",
          "GT5": "9a594933-75da-4304-b6a3-5945dba159e3",
          "GT4": "cb455b6f-78ff-4b1e-b241-c2bbc0b37e9f",
          "GT1": {
            "GS2": ""
          }
        },
        {
          "BL1": "Terrasoft.Core.Process.ProcessSchemaMapping",
          "UId": "5e65604d-bb45-46c0-af68-ca8ba82d04c1",
          "A2": "ReadDataUserTask1",
          "A3": "932fe08a-a7b9-48a1-ac26-8edacfa68602",
          "A4": "932fe08a-a7b9-48a1-ac26-8edacfa68602",
          "GT2": "[Element:{71108920-2e61-4136-ba83-72dc956e0e4c}].[Parameter:{d8694433-8ea5-4a80-8470-f91df6bfee01}]",
          "GT3": "d8694433-8ea5-4a80-8470-f91df6bfee01",
          "GT5": "11fb235f-c06a-4111-84cd-a5dbf9a440d5",
          "GT4": "cb455b6f-78ff-4b1e-b241-c2bbc0b37e9f",
          "GT1": {
            "GS2": ""
          }
        },
        {
          "BL1": "Terrasoft.Core.Process.ProcessSchemaMapping",
          "UId": "b78edd7f-7213-465b-bbf9-cf0f5a4566c2",
          "A2": "ReadDataUserTask1",
          "A3": "932fe08a-a7b9-48a1-ac26-8edacfa68602",
          "A4": "932fe08a-a7b9-48a1-ac26-8edacfa68602",
          "GT2": "[Element:{71108920-2e61-4136-ba83-72dc956e0e4c}].[Parameter:{1d419d1b-5aa3-437e-8259-857ed8e97c33}]",
          "GT3": "1d419d1b-5aa3-437e-8259-857ed8e97c33",
          "GT5": "78252e95-b759-416a-9c48-c128fbdf59ef",
          "GT4": "cb455b6f-78ff-4b1e-b241-c2bbc0b37e9f",
          "GT1": {
            "GS2": ""
          }
        },
        {
          "BL1": "Terrasoft.Core.Process.ProcessSchemaMapping",
          "UId": "f40bf930-55c1-4f50-88bf-d1d489512f3c",
          "A2": "ReadDataUserTask1",
          "A3": "932fe08a-a7b9-48a1-ac26-8edacfa68602",
          "A4": "932fe08a-a7b9-48a1-ac26-8edacfa68602",
          "GT2": "[Element:{71108920-2e61-4136-ba83-72dc956e0e4c}].[Parameter:{60ce4341-d99b-425a-8e97-23a5663ef07f}]",
          "GT3": "60ce4341-d99b-425a-8e97-23a5663ef07f",
          "GT5": "2f797429-6f43-4594-96bb-62fbc7b7deec",
          "GT4": "cb455b6f-78ff-4b1e-b241-c2bbc0b37e9f",
          "GT1": {
            "GS1": 1,
            "GS2": "true",
            "GS5": "cb455b6f-78ff-4b1e-b241-c2bbc0b37e9f"
          }
        },
        {
          "BL1": "Terrasoft.Core.Process.ProcessSchemaMapping",
          "UId": "4b36ffda-ee98-4eb3-ba67-25b8ef51f977",
          "A2": "ReadDataUserTask1",
          "A3": "932fe08a-a7b9-48a1-ac26-8edacfa68602",
          "A4": "932fe08a-a7b9-48a1-ac26-8edacfa68602",
          "GT2": "[Element:{71108920-2e61-4136-ba83-72dc956e0e4c}].[Parameter:{e97350ab-eba6-4198-bd29-5ef0dab62cf4}]",
          "GT3": "e97350ab-eba6-4198-bd29-5ef0dab62cf4",
          "GT5": "be4a0d16-6a15-41cf-ac44-a8b757565428",
          "GT4": "cb455b6f-78ff-4b1e-b241-c2bbc0b37e9f",
          "GT1": {
            "GS2": ""
          }
        },
        {
          "BL1": "Terrasoft.Core.Process.ProcessSchemaMapping",
          "UId": "95445326-5147-4595-a043-f83f00aef20e",
          "A2": "ReadDataUserTask1",
          "A3": "932fe08a-a7b9-48a1-ac26-8edacfa68602",
          "A4": "932fe08a-a7b9-48a1-ac26-8edacfa68602",
          "GT2": "[Element:{71108920-2e61-4136-ba83-72dc956e0e4c}].[Parameter:{317eb9a0-8080-402b-ae3f-28a6c2a247d3}]",
          "GT3": "317eb9a0-8080-402b-ae3f-28a6c2a247d3",
          "GT5": "cc12005f-f434-4a40-b9d0-dc8f81755545",
          "GT4": "cb455b6f-78ff-4b1e-b241-c2bbc0b37e9f",
          "GT1": {
            "GS1": 1,
            "GS2": "6d2de875-c422-4aaa-ab04-d632fbbe86d4",
            "GS5": "932fe08a-a7b9-48a1-ac26-8edacfa68602"
          }
        },
        {
          "BL1": "Terrasoft.Core.Process.ProcessSchemaMapping",
          "UId": "13f09b08-a544-4a63-8f98-f3a35ebb73d5",
          "A2": "ReadDataUserTask1",
          "A3": "932fe08a-a7b9-48a1-ac26-8edacfa68602",
          "A4": "932fe08a-a7b9-48a1-ac26-8edacfa68602",
          "GT2": "[Element:{71108920-2e61-4136-ba83-72dc956e0e4c}].[Parameter:{02b11c09-f2d1-46f0-a614-061fec3ad5b3}]",
          "GT3": "02b11c09-f2d1-46f0-a614-061fec3ad5b3",
          "GT5": "6dada847-859b-4e0a-9297-b3c9572530b6",
          "GT4": "cb455b6f-78ff-4b1e-b241-c2bbc0b37e9f",
          "GT1": {
            "GS2": ""
          }
        }
      ],
      "BK29": true,
      "BK30": true,
      "BK34": "ru-RU",
      "BK24": []
    }
  }