﻿{
  "SqlScript": {
    "UId": "c98d12a6-cdb9-4ef0-8049-acd71ff74a65",
    "Name": "updateActivityCategory",
    "DBEngineType": 0,
    "InstallType": 1,
    "ModifiedOnUtc": "\/Date(1501664908000)\/",
    "DependsOn": []
  }
}