﻿{
  "PackageData": [
    {
      "Row": [
        {
          "SchemaColumnUId": "ae0e45ca-c495-4fe7-a39d-3ab7278e1617",
          "Value": "fd4289fb-9d06-421f-936c-23780d799920"
        },
        {
          "SchemaColumnUId": "bd12ea8e-2bc2-42bf-925a-3ab766cc0b9f",
          "Value": 72
        },
        {
          "SchemaColumnUId": "0e3d3857-2203-40e4-b1ec-8e972007650e",
          "Value": "0e785eca-9eea-428d-96f3-72020564dba1",
          "DisplayValue": "Руководитель отдела продаж"
        },
        {
          "SchemaColumnUId": "991cf5ef-ffb8-49a5-add3-074a595f6c43",
          "Value": "2e6c2b9f-cd05-4e71-aeb0-599b9f69c66a",
          "DisplayValue": "Услуги"
        }
      ]
    },
    {
      "Row": [
        {
          "SchemaColumnUId": "ae0e45ca-c495-4fe7-a39d-3ab7278e1617",
          "Value": "322cbd11-893d-48eb-b3c5-20b3354fbaf8"
        },
        {
          "SchemaColumnUId": "bd12ea8e-2bc2-42bf-925a-3ab766cc0b9f",
          "Value": 8
        },
        {
          "SchemaColumnUId": "0e3d3857-2203-40e4-b1ec-8e972007650e",
          "Value": "23e33739-afa4-495f-93ba-73eea1cd887f",
          "DisplayValue": "Менеджер отдела продаж"
        },
        {
          "SchemaColumnUId": "991cf5ef-ffb8-49a5-add3-074a595f6c43",
          "Value": "015063c9-8180-e011-afbc-00155d04320c",
          "DisplayValue": "База знаний"
        }
      ]
    },
    {
      "Row": [
        {
          "SchemaColumnUId": "ae0e45ca-c495-4fe7-a39d-3ab7278e1617",
          "Value": "388b6229-5df0-4537-b4d4-4c48d81cb37a"
        },
        {
          "SchemaColumnUId": "bd12ea8e-2bc2-42bf-925a-3ab766cc0b9f",
          "Value": 5
        },
        {
          "SchemaColumnUId": "0e3d3857-2203-40e4-b1ec-8e972007650e",
          "Value": "23e33739-afa4-495f-93ba-73eea1cd887f",
          "DisplayValue": "Менеджер отдела продаж"
        },
        {
          "SchemaColumnUId": "991cf5ef-ffb8-49a5-add3-074a595f6c43",
          "Value": "055063c9-8180-e011-afbc-00155d04320c",
          "DisplayValue": "Календарь"
        }
      ]
    },
    {
      "Row": [
        {
          "SchemaColumnUId": "ae0e45ca-c495-4fe7-a39d-3ab7278e1617",
          "Value": "1381035a-5ace-4d64-afe2-f3cc01a82554"
        },
        {
          "SchemaColumnUId": "bd12ea8e-2bc2-42bf-925a-3ab766cc0b9f",
          "Value": 7
        },
        {
          "SchemaColumnUId": "0e3d3857-2203-40e4-b1ec-8e972007650e",
          "Value": "77bed087-06de-4f01-bb1a-7bfbc679b14e",
          "DisplayValue": "Системный администратор"
        },
        {
          "SchemaColumnUId": "991cf5ef-ffb8-49a5-add3-074a595f6c43",
          "Value": "2848865d-fe7c-45cf-950f-563a7155b792",
          "DisplayValue": "Тарификатор"
        }
      ]
    },
    {
      "Row": [
        {
          "SchemaColumnUId": "ae0e45ca-c495-4fe7-a39d-3ab7278e1617",
          "Value": "93522174-e580-4e4a-8fe8-bbef3f4adf81"
        },
        {
          "SchemaColumnUId": "bd12ea8e-2bc2-42bf-925a-3ab766cc0b9f",
          "Value": 73
        },
        {
          "SchemaColumnUId": "0e3d3857-2203-40e4-b1ec-8e972007650e",
          "Value": "0e785eca-9eea-428d-96f3-72020564dba1",
          "DisplayValue": "Руководитель отдела продаж"
        },
        {
          "SchemaColumnUId": "991cf5ef-ffb8-49a5-add3-074a595f6c43",
          "Value": "2848865d-fe7c-45cf-950f-563a7155b792",
          "DisplayValue": "Тарификатор"
        }
      ]
    },
    {
      "Row": [
        {
          "SchemaColumnUId": "ae0e45ca-c495-4fe7-a39d-3ab7278e1617",
          "Value": "ac6c4f50-0769-4e20-8c25-55b144eb26fa"
        },
        {
          "SchemaColumnUId": "bd12ea8e-2bc2-42bf-925a-3ab766cc0b9f",
          "Value": 12
        },
        {
          "SchemaColumnUId": "0e3d3857-2203-40e4-b1ec-8e972007650e",
          "Value": "0e785eca-9eea-428d-96f3-72020564dba1",
          "DisplayValue": "Руководитель отдела продаж"
        },
        {
          "SchemaColumnUId": "991cf5ef-ffb8-49a5-add3-074a595f6c43",
          "Value": "015063c9-8180-e011-afbc-00155d04320c",
          "DisplayValue": "База знаний"
        }
      ]
    },
    {
      "Row": [
        {
          "SchemaColumnUId": "ae0e45ca-c495-4fe7-a39d-3ab7278e1617",
          "Value": "06343f38-300a-4551-ba76-7e78d2d00474"
        },
        {
          "SchemaColumnUId": "bd12ea8e-2bc2-42bf-925a-3ab766cc0b9f",
          "Value": 5
        },
        {
          "SchemaColumnUId": "0e3d3857-2203-40e4-b1ec-8e972007650e",
          "Value": "0e785eca-9eea-428d-96f3-72020564dba1",
          "DisplayValue": "Руководитель отдела продаж"
        },
        {
          "SchemaColumnUId": "991cf5ef-ffb8-49a5-add3-074a595f6c43",
          "Value": "055063c9-8180-e011-afbc-00155d04320c",
          "DisplayValue": "Календарь"
        }
      ]
    },
    {
      "Row": [
        {
          "SchemaColumnUId": "ae0e45ca-c495-4fe7-a39d-3ab7278e1617",
          "Value": "d1124c6b-53ce-4370-844f-c861f4aea77e"
        },
        {
          "SchemaColumnUId": "bd12ea8e-2bc2-42bf-925a-3ab766cc0b9f",
          "Value": 74
        },
        {
          "SchemaColumnUId": "0e3d3857-2203-40e4-b1ec-8e972007650e",
          "Value": "5d8befac-113e-46d1-bc70-fafab6ff19bc",
          "DisplayValue": "Аналитик"
        },
        {
          "SchemaColumnUId": "991cf5ef-ffb8-49a5-add3-074a595f6c43",
          "Value": "2848865d-fe7c-45cf-950f-563a7155b792",
          "DisplayValue": "Тарификатор"
        }
      ]
    },
    {
      "Row": [
        {
          "SchemaColumnUId": "ae0e45ca-c495-4fe7-a39d-3ab7278e1617",
          "Value": "c4641c55-8af8-40ee-805f-d0a7f834bca3"
        },
        {
          "SchemaColumnUId": "bd12ea8e-2bc2-42bf-925a-3ab766cc0b9f",
          "Value": 7
        },
        {
          "SchemaColumnUId": "0e3d3857-2203-40e4-b1ec-8e972007650e",
          "Value": "23e33739-afa4-495f-93ba-73eea1cd887f",
          "DisplayValue": "Менеджер отдела продаж"
        },
        {
          "SchemaColumnUId": "991cf5ef-ffb8-49a5-add3-074a595f6c43",
          "Value": "2848865d-fe7c-45cf-950f-563a7155b792",
          "DisplayValue": "Тарификатор"
        }
      ]
    },
    {
      "Row": [
        {
          "SchemaColumnUId": "ae0e45ca-c495-4fe7-a39d-3ab7278e1617",
          "Value": "fd20ef98-4844-4c8f-b32a-c3ca3a04fdb4"
        },
        {
          "SchemaColumnUId": "bd12ea8e-2bc2-42bf-925a-3ab766cc0b9f",
          "Value": 0
        },
        {
          "SchemaColumnUId": "0e3d3857-2203-40e4-b1ec-8e972007650e",
          "Value": "5d8befac-113e-46d1-bc70-fafab6ff19bc",
          "DisplayValue": "Аналитик"
        },
        {
          "SchemaColumnUId": "991cf5ef-ffb8-49a5-add3-074a595f6c43",
          "Value": "005063c9-8180-e011-afbc-00155d04320c",
          "DisplayValue": "Контрагенты"
        }
      ]
    },
    {
      "Row": [
        {
          "SchemaColumnUId": "ae0e45ca-c495-4fe7-a39d-3ab7278e1617",
          "Value": "65153391-7b3d-49e9-a480-2a37e10c7b07"
        },
        {
          "SchemaColumnUId": "bd12ea8e-2bc2-42bf-925a-3ab766cc0b9f",
          "Value": 1
        },
        {
          "SchemaColumnUId": "0e3d3857-2203-40e4-b1ec-8e972007650e",
          "Value": "5d8befac-113e-46d1-bc70-fafab6ff19bc",
          "DisplayValue": "Аналитик"
        },
        {
          "SchemaColumnUId": "991cf5ef-ffb8-49a5-add3-074a595f6c43",
          "Value": "065063c9-8180-e011-afbc-00155d04320c",
          "DisplayValue": "Контакты"
        }
      ]
    },
    {
      "Row": [
        {
          "SchemaColumnUId": "ae0e45ca-c495-4fe7-a39d-3ab7278e1617",
          "Value": "38b77aab-af3e-417d-b5fe-bd27306d1380"
        },
        {
          "SchemaColumnUId": "bd12ea8e-2bc2-42bf-925a-3ab766cc0b9f",
          "Value": 2
        },
        {
          "SchemaColumnUId": "0e3d3857-2203-40e4-b1ec-8e972007650e",
          "Value": "5d8befac-113e-46d1-bc70-fafab6ff19bc",
          "DisplayValue": "Аналитик"
        },
        {
          "SchemaColumnUId": "991cf5ef-ffb8-49a5-add3-074a595f6c43",
          "Value": "7f3f22d6-f36b-1410-6584-1c6f65e16a07",
          "DisplayValue": "Лиды"
        }
      ]
    },
    {
      "Row": [
        {
          "SchemaColumnUId": "ae0e45ca-c495-4fe7-a39d-3ab7278e1617",
          "Value": "72359c80-e33a-4be7-a4bc-1137b662815c"
        },
        {
          "SchemaColumnUId": "bd12ea8e-2bc2-42bf-925a-3ab766cc0b9f",
          "Value": 3
        },
        {
          "SchemaColumnUId": "0e3d3857-2203-40e4-b1ec-8e972007650e",
          "Value": "5d8befac-113e-46d1-bc70-fafab6ff19bc",
          "DisplayValue": "Аналитик"
        },
        {
          "SchemaColumnUId": "991cf5ef-ffb8-49a5-add3-074a595f6c43",
          "Value": "075063c9-8180-e011-afbc-00155d04320c",
          "DisplayValue": "Продажи"
        }
      ]
    },
    {
      "Row": [
        {
          "SchemaColumnUId": "ae0e45ca-c495-4fe7-a39d-3ab7278e1617",
          "Value": "a7d30d68-2411-4681-9092-0a8e5343605b"
        },
        {
          "SchemaColumnUId": "bd12ea8e-2bc2-42bf-925a-3ab766cc0b9f",
          "Value": 1
        },
        {
          "SchemaColumnUId": "0e3d3857-2203-40e4-b1ec-8e972007650e",
          "Value": "23e33739-afa4-495f-93ba-73eea1cd887f",
          "DisplayValue": "Менеджер отдела продаж"
        },
        {
          "SchemaColumnUId": "991cf5ef-ffb8-49a5-add3-074a595f6c43",
          "Value": "065063c9-8180-e011-afbc-00155d04320c",
          "DisplayValue": "Контакты"
        }
      ]
    },
    {
      "Row": [
        {
          "SchemaColumnUId": "ae0e45ca-c495-4fe7-a39d-3ab7278e1617",
          "Value": "60127232-37f2-4901-acaf-56de33d3e81c"
        },
        {
          "SchemaColumnUId": "bd12ea8e-2bc2-42bf-925a-3ab766cc0b9f",
          "Value": 2
        },
        {
          "SchemaColumnUId": "0e3d3857-2203-40e4-b1ec-8e972007650e",
          "Value": "23e33739-afa4-495f-93ba-73eea1cd887f",
          "DisplayValue": "Менеджер отдела продаж"
        },
        {
          "SchemaColumnUId": "991cf5ef-ffb8-49a5-add3-074a595f6c43",
          "Value": "7f3f22d6-f36b-1410-6584-1c6f65e16a07",
          "DisplayValue": "Лиды"
        }
      ]
    },
    {
      "Row": [
        {
          "SchemaColumnUId": "ae0e45ca-c495-4fe7-a39d-3ab7278e1617",
          "Value": "4ad39e27-b46e-4c46-b640-a17683e9c158"
        },
        {
          "SchemaColumnUId": "bd12ea8e-2bc2-42bf-925a-3ab766cc0b9f",
          "Value": 0
        },
        {
          "SchemaColumnUId": "0e3d3857-2203-40e4-b1ec-8e972007650e",
          "Value": "23e33739-afa4-495f-93ba-73eea1cd887f",
          "DisplayValue": "Менеджер отдела продаж"
        },
        {
          "SchemaColumnUId": "991cf5ef-ffb8-49a5-add3-074a595f6c43",
          "Value": "005063c9-8180-e011-afbc-00155d04320c",
          "DisplayValue": "Контрагенты"
        }
      ]
    },
    {
      "Row": [
        {
          "SchemaColumnUId": "ae0e45ca-c495-4fe7-a39d-3ab7278e1617",
          "Value": "32782307-43f5-4af4-8c25-aa7f9b72d599"
        },
        {
          "SchemaColumnUId": "bd12ea8e-2bc2-42bf-925a-3ab766cc0b9f",
          "Value": 3
        },
        {
          "SchemaColumnUId": "0e3d3857-2203-40e4-b1ec-8e972007650e",
          "Value": "23e33739-afa4-495f-93ba-73eea1cd887f",
          "DisplayValue": "Менеджер отдела продаж"
        },
        {
          "SchemaColumnUId": "991cf5ef-ffb8-49a5-add3-074a595f6c43",
          "Value": "075063c9-8180-e011-afbc-00155d04320c",
          "DisplayValue": "Продажи"
        }
      ]
    },
    {
      "Row": [
        {
          "SchemaColumnUId": "ae0e45ca-c495-4fe7-a39d-3ab7278e1617",
          "Value": "76a33b42-9d59-44c3-a1a3-bacde13d0c6b"
        },
        {
          "SchemaColumnUId": "bd12ea8e-2bc2-42bf-925a-3ab766cc0b9f",
          "Value": 12
        },
        {
          "SchemaColumnUId": "0e3d3857-2203-40e4-b1ec-8e972007650e",
          "Value": "5d8befac-113e-46d1-bc70-fafab6ff19bc",
          "DisplayValue": "Аналитик"
        },
        {
          "SchemaColumnUId": "991cf5ef-ffb8-49a5-add3-074a595f6c43",
          "Value": "2e6c2b9f-cd05-4e71-aeb0-599b9f69c66a",
          "DisplayValue": "Услуги"
        }
      ]
    },
    {
      "Row": [
        {
          "SchemaColumnUId": "ae0e45ca-c495-4fe7-a39d-3ab7278e1617",
          "Value": "9e23fb44-aa43-4ad0-9518-55451023041b"
        },
        {
          "SchemaColumnUId": "bd12ea8e-2bc2-42bf-925a-3ab766cc0b9f",
          "Value": 6
        },
        {
          "SchemaColumnUId": "0e3d3857-2203-40e4-b1ec-8e972007650e",
          "Value": "23e33739-afa4-495f-93ba-73eea1cd887f",
          "DisplayValue": "Менеджер отдела продаж"
        },
        {
          "SchemaColumnUId": "991cf5ef-ffb8-49a5-add3-074a595f6c43",
          "Value": "f87726a9-c0b2-4496-99ad-7ebb5118988d",
          "DisplayValue": "Договоры"
        }
      ]
    },
    {
      "Row": [
        {
          "SchemaColumnUId": "ae0e45ca-c495-4fe7-a39d-3ab7278e1617",
          "Value": "5cffb7aa-a0d0-437d-9338-10900b3abc63"
        },
        {
          "SchemaColumnUId": "bd12ea8e-2bc2-42bf-925a-3ab766cc0b9f",
          "Value": 4
        },
        {
          "SchemaColumnUId": "0e3d3857-2203-40e4-b1ec-8e972007650e",
          "Value": "23e33739-afa4-495f-93ba-73eea1cd887f",
          "DisplayValue": "Менеджер отдела продаж"
        },
        {
          "SchemaColumnUId": "991cf5ef-ffb8-49a5-add3-074a595f6c43",
          "Value": "0c5063c9-8180-e011-afbc-00155d04320c",
          "DisplayValue": "Отчеты"
        }
      ]
    },
    {
      "Row": [
        {
          "SchemaColumnUId": "ae0e45ca-c495-4fe7-a39d-3ab7278e1617",
          "Value": "d5550942-f9fd-4507-9435-4842afc94385"
        },
        {
          "SchemaColumnUId": "bd12ea8e-2bc2-42bf-925a-3ab766cc0b9f",
          "Value": 0
        },
        {
          "SchemaColumnUId": "0e3d3857-2203-40e4-b1ec-8e972007650e",
          "Value": "77bed087-06de-4f01-bb1a-7bfbc679b14e",
          "DisplayValue": "Системный администратор"
        },
        {
          "SchemaColumnUId": "991cf5ef-ffb8-49a5-add3-074a595f6c43",
          "Value": "055063c9-8180-e011-afbc-00155d04320c",
          "DisplayValue": "Календарь"
        }
      ]
    },
    {
      "Row": [
        {
          "SchemaColumnUId": "ae0e45ca-c495-4fe7-a39d-3ab7278e1617",
          "Value": "b70653b5-acc3-4400-9c40-92e84091177b"
        },
        {
          "SchemaColumnUId": "bd12ea8e-2bc2-42bf-925a-3ab766cc0b9f",
          "Value": 1
        },
        {
          "SchemaColumnUId": "0e3d3857-2203-40e4-b1ec-8e972007650e",
          "Value": "77bed087-06de-4f01-bb1a-7bfbc679b14e",
          "DisplayValue": "Системный администратор"
        },
        {
          "SchemaColumnUId": "991cf5ef-ffb8-49a5-add3-074a595f6c43",
          "Value": "015063c9-8180-e011-afbc-00155d04320c",
          "DisplayValue": "База знаний"
        }
      ]
    },
    {
      "Row": [
        {
          "SchemaColumnUId": "ae0e45ca-c495-4fe7-a39d-3ab7278e1617",
          "Value": "8acbd440-305e-4aa4-a652-732c511ed43e"
        },
        {
          "SchemaColumnUId": "bd12ea8e-2bc2-42bf-925a-3ab766cc0b9f",
          "Value": 4
        },
        {
          "SchemaColumnUId": "0e3d3857-2203-40e4-b1ec-8e972007650e",
          "Value": "5d8befac-113e-46d1-bc70-fafab6ff19bc",
          "DisplayValue": "Аналитик"
        },
        {
          "SchemaColumnUId": "991cf5ef-ffb8-49a5-add3-074a595f6c43",
          "Value": "0c5063c9-8180-e011-afbc-00155d04320c",
          "DisplayValue": "Отчеты"
        }
      ]
    },
    {
      "Row": [
        {
          "SchemaColumnUId": "ae0e45ca-c495-4fe7-a39d-3ab7278e1617",
          "Value": "4c4964dc-7d79-43e1-9f50-642cd6294947"
        },
        {
          "SchemaColumnUId": "bd12ea8e-2bc2-42bf-925a-3ab766cc0b9f",
          "Value": 5
        },
        {
          "SchemaColumnUId": "0e3d3857-2203-40e4-b1ec-8e972007650e",
          "Value": "5d8befac-113e-46d1-bc70-fafab6ff19bc",
          "DisplayValue": "Аналитик"
        },
        {
          "SchemaColumnUId": "991cf5ef-ffb8-49a5-add3-074a595f6c43",
          "Value": "055063c9-8180-e011-afbc-00155d04320c",
          "DisplayValue": "Календарь"
        }
      ]
    },
    {
      "Row": [
        {
          "SchemaColumnUId": "ae0e45ca-c495-4fe7-a39d-3ab7278e1617",
          "Value": "b01a4fba-7bb6-4d67-8031-e2096a84ed3a"
        },
        {
          "SchemaColumnUId": "bd12ea8e-2bc2-42bf-925a-3ab766cc0b9f",
          "Value": 10
        },
        {
          "SchemaColumnUId": "0e3d3857-2203-40e4-b1ec-8e972007650e",
          "Value": "5d8befac-113e-46d1-bc70-fafab6ff19bc",
          "DisplayValue": "Аналитик"
        },
        {
          "SchemaColumnUId": "991cf5ef-ffb8-49a5-add3-074a595f6c43",
          "Value": "015063c9-8180-e011-afbc-00155d04320c",
          "DisplayValue": "База знаний"
        }
      ]
    },
    {
      "Row": [
        {
          "SchemaColumnUId": "ae0e45ca-c495-4fe7-a39d-3ab7278e1617",
          "Value": "74ce0e18-1bf5-4a32-a810-6d5e3a369f35"
        },
        {
          "SchemaColumnUId": "bd12ea8e-2bc2-42bf-925a-3ab766cc0b9f",
          "Value": 6
        },
        {
          "SchemaColumnUId": "0e3d3857-2203-40e4-b1ec-8e972007650e",
          "Value": "5d8befac-113e-46d1-bc70-fafab6ff19bc",
          "DisplayValue": "Аналитик"
        },
        {
          "SchemaColumnUId": "991cf5ef-ffb8-49a5-add3-074a595f6c43",
          "Value": "f87726a9-c0b2-4496-99ad-7ebb5118988d",
          "DisplayValue": "Договоры"
        }
      ]
    },
    {
      "Row": [
        {
          "SchemaColumnUId": "ae0e45ca-c495-4fe7-a39d-3ab7278e1617",
          "Value": "21bfac90-ebab-4a3f-ac52-bd71d8468c5f"
        },
        {
          "SchemaColumnUId": "bd12ea8e-2bc2-42bf-925a-3ab766cc0b9f",
          "Value": 2
        },
        {
          "SchemaColumnUId": "0e3d3857-2203-40e4-b1ec-8e972007650e",
          "Value": "77bed087-06de-4f01-bb1a-7bfbc679b14e",
          "DisplayValue": "Системный администратор"
        },
        {
          "SchemaColumnUId": "991cf5ef-ffb8-49a5-add3-074a595f6c43",
          "Value": "f87726a9-c0b2-4496-99ad-7ebb5118988d",
          "DisplayValue": "Договоры"
        }
      ]
    },
    {
      "Row": [
        {
          "SchemaColumnUId": "ae0e45ca-c495-4fe7-a39d-3ab7278e1617",
          "Value": "5af30ff9-90eb-4e40-96dc-8a4f08b8c22c"
        },
        {
          "SchemaColumnUId": "bd12ea8e-2bc2-42bf-925a-3ab766cc0b9f",
          "Value": 3
        },
        {
          "SchemaColumnUId": "0e3d3857-2203-40e4-b1ec-8e972007650e",
          "Value": "77bed087-06de-4f01-bb1a-7bfbc679b14e",
          "DisplayValue": "Системный администратор"
        },
        {
          "SchemaColumnUId": "991cf5ef-ffb8-49a5-add3-074a595f6c43",
          "Value": "085063c9-8180-e011-afbc-00155d04320c",
          "DisplayValue": "Документы"
        }
      ]
    },
    {
      "Row": [
        {
          "SchemaColumnUId": "ae0e45ca-c495-4fe7-a39d-3ab7278e1617",
          "Value": "e73e9bb0-5df7-4294-8b38-047472483efd"
        },
        {
          "SchemaColumnUId": "bd12ea8e-2bc2-42bf-925a-3ab766cc0b9f",
          "Value": 4
        },
        {
          "SchemaColumnUId": "0e3d3857-2203-40e4-b1ec-8e972007650e",
          "Value": "77bed087-06de-4f01-bb1a-7bfbc679b14e",
          "DisplayValue": "Системный администратор"
        },
        {
          "SchemaColumnUId": "991cf5ef-ffb8-49a5-add3-074a595f6c43",
          "Value": "0c5063c9-8180-e011-afbc-00155d04320c",
          "DisplayValue": "Отчеты"
        }
      ]
    },
    {
      "Row": [
        {
          "SchemaColumnUId": "ae0e45ca-c495-4fe7-a39d-3ab7278e1617",
          "Value": "44fb99b7-ea20-4afa-a005-d93770d03003"
        },
        {
          "SchemaColumnUId": "bd12ea8e-2bc2-42bf-925a-3ab766cc0b9f",
          "Value": 5
        },
        {
          "SchemaColumnUId": "0e3d3857-2203-40e4-b1ec-8e972007650e",
          "Value": "77bed087-06de-4f01-bb1a-7bfbc679b14e",
          "DisplayValue": "Системный администратор"
        },
        {
          "SchemaColumnUId": "991cf5ef-ffb8-49a5-add3-074a595f6c43",
          "Value": "065063c9-8180-e011-afbc-00155d04320c",
          "DisplayValue": "Контакты"
        }
      ]
    },
    {
      "Row": [
        {
          "SchemaColumnUId": "ae0e45ca-c495-4fe7-a39d-3ab7278e1617",
          "Value": "8f47d9f0-84f1-4096-adb7-6c89509312de"
        },
        {
          "SchemaColumnUId": "bd12ea8e-2bc2-42bf-925a-3ab766cc0b9f",
          "Value": 6
        },
        {
          "SchemaColumnUId": "0e3d3857-2203-40e4-b1ec-8e972007650e",
          "Value": "77bed087-06de-4f01-bb1a-7bfbc679b14e",
          "DisplayValue": "Системный администратор"
        },
        {
          "SchemaColumnUId": "991cf5ef-ffb8-49a5-add3-074a595f6c43",
          "Value": "005063c9-8180-e011-afbc-00155d04320c",
          "DisplayValue": "Контрагенты"
        }
      ]
    },
    {
      "Row": [
        {
          "SchemaColumnUId": "ae0e45ca-c495-4fe7-a39d-3ab7278e1617",
          "Value": "10941bf6-7878-4013-9398-adf8c6b5828f"
        },
        {
          "SchemaColumnUId": "bd12ea8e-2bc2-42bf-925a-3ab766cc0b9f",
          "Value": 8
        },
        {
          "SchemaColumnUId": "0e3d3857-2203-40e4-b1ec-8e972007650e",
          "Value": "77bed087-06de-4f01-bb1a-7bfbc679b14e",
          "DisplayValue": "Системный администратор"
        },
        {
          "SchemaColumnUId": "991cf5ef-ffb8-49a5-add3-074a595f6c43",
          "Value": "4e55cdcd-8cab-433e-aecd-a181ff149631",
          "DisplayValue": "Лента"
        }
      ]
    },
    {
      "Row": [
        {
          "SchemaColumnUId": "ae0e45ca-c495-4fe7-a39d-3ab7278e1617",
          "Value": "61d94100-bf79-4eac-9f2a-83789c84a991"
        },
        {
          "SchemaColumnUId": "bd12ea8e-2bc2-42bf-925a-3ab766cc0b9f",
          "Value": 10
        },
        {
          "SchemaColumnUId": "0e3d3857-2203-40e4-b1ec-8e972007650e",
          "Value": "77bed087-06de-4f01-bb1a-7bfbc679b14e",
          "DisplayValue": "Системный администратор"
        },
        {
          "SchemaColumnUId": "991cf5ef-ffb8-49a5-add3-074a595f6c43",
          "Value": "7f3f22d6-f36b-1410-6584-1c6f65e16a07",
          "DisplayValue": "Лиды"
        }
      ]
    },
    {
      "Row": [
        {
          "SchemaColumnUId": "ae0e45ca-c495-4fe7-a39d-3ab7278e1617",
          "Value": "a100bd5d-0036-4191-bab0-def7987663f1"
        },
        {
          "SchemaColumnUId": "bd12ea8e-2bc2-42bf-925a-3ab766cc0b9f",
          "Value": 11
        },
        {
          "SchemaColumnUId": "0e3d3857-2203-40e4-b1ec-8e972007650e",
          "Value": "77bed087-06de-4f01-bb1a-7bfbc679b14e",
          "DisplayValue": "Системный администратор"
        },
        {
          "SchemaColumnUId": "991cf5ef-ffb8-49a5-add3-074a595f6c43",
          "Value": "cb84e797-832d-4d51-98e3-64b69174e600",
          "DisplayValue": "Планирование"
        }
      ]
    },
    {
      "Row": [
        {
          "SchemaColumnUId": "ae0e45ca-c495-4fe7-a39d-3ab7278e1617",
          "Value": "c07cb9d5-9040-4136-bbd2-53fbc0729f7c"
        },
        {
          "SchemaColumnUId": "bd12ea8e-2bc2-42bf-925a-3ab766cc0b9f",
          "Value": 9
        },
        {
          "SchemaColumnUId": "0e3d3857-2203-40e4-b1ec-8e972007650e",
          "Value": "77bed087-06de-4f01-bb1a-7bfbc679b14e",
          "DisplayValue": "Системный администратор"
        },
        {
          "SchemaColumnUId": "991cf5ef-ffb8-49a5-add3-074a595f6c43",
          "Value": "075063c9-8180-e011-afbc-00155d04320c",
          "DisplayValue": "Продажи"
        }
      ]
    },
    {
      "Row": [
        {
          "SchemaColumnUId": "ae0e45ca-c495-4fe7-a39d-3ab7278e1617",
          "Value": "662a9196-ac8b-4581-8ba3-1a1c79020061"
        },
        {
          "SchemaColumnUId": "bd12ea8e-2bc2-42bf-925a-3ab766cc0b9f",
          "Value": 12
        },
        {
          "SchemaColumnUId": "0e3d3857-2203-40e4-b1ec-8e972007650e",
          "Value": "77bed087-06de-4f01-bb1a-7bfbc679b14e",
          "DisplayValue": "Системный администратор"
        },
        {
          "SchemaColumnUId": "991cf5ef-ffb8-49a5-add3-074a595f6c43",
          "Value": "2e6c2b9f-cd05-4e71-aeb0-599b9f69c66a",
          "DisplayValue": "Услуги"
        }
      ]
    },
    {
      "Row": [
        {
          "SchemaColumnUId": "ae0e45ca-c495-4fe7-a39d-3ab7278e1617",
          "Value": "72ea6dfb-3777-4277-b0a8-c8c720b97508"
        },
        {
          "SchemaColumnUId": "bd12ea8e-2bc2-42bf-925a-3ab766cc0b9f",
          "Value": 13
        },
        {
          "SchemaColumnUId": "0e3d3857-2203-40e4-b1ec-8e972007650e",
          "Value": "77bed087-06de-4f01-bb1a-7bfbc679b14e",
          "DisplayValue": "Системный администратор"
        },
        {
          "SchemaColumnUId": "991cf5ef-ffb8-49a5-add3-074a595f6c43",
          "Value": "3706db16-9714-4c45-bad5-e9642b863738",
          "DisplayValue": "Справочники"
        }
      ]
    },
    {
      "Row": [
        {
          "SchemaColumnUId": "ae0e45ca-c495-4fe7-a39d-3ab7278e1617",
          "Value": "113924fb-adad-4587-ad39-0593f29af00b"
        },
        {
          "SchemaColumnUId": "bd12ea8e-2bc2-42bf-925a-3ab766cc0b9f",
          "Value": 14
        },
        {
          "SchemaColumnUId": "0e3d3857-2203-40e4-b1ec-8e972007650e",
          "Value": "77bed087-06de-4f01-bb1a-7bfbc679b14e",
          "DisplayValue": "Системный администратор"
        },
        {
          "SchemaColumnUId": "991cf5ef-ffb8-49a5-add3-074a595f6c43",
          "Value": "025063c9-8180-e011-afbc-00155d04320c",
          "DisplayValue": "Счета"
        }
      ]
    },
    {
      "Row": [
        {
          "SchemaColumnUId": "ae0e45ca-c495-4fe7-a39d-3ab7278e1617",
          "Value": "f3d02ba2-21be-4504-804f-9da90fbb0138"
        },
        {
          "SchemaColumnUId": "bd12ea8e-2bc2-42bf-925a-3ab766cc0b9f",
          "Value": 1
        },
        {
          "SchemaColumnUId": "0e3d3857-2203-40e4-b1ec-8e972007650e",
          "Value": "0e785eca-9eea-428d-96f3-72020564dba1",
          "DisplayValue": "Руководитель отдела продаж"
        },
        {
          "SchemaColumnUId": "991cf5ef-ffb8-49a5-add3-074a595f6c43",
          "Value": "065063c9-8180-e011-afbc-00155d04320c",
          "DisplayValue": "Контакты"
        }
      ]
    },
    {
      "Row": [
        {
          "SchemaColumnUId": "ae0e45ca-c495-4fe7-a39d-3ab7278e1617",
          "Value": "1b169631-482d-40d3-ad96-cb5c54197d95"
        },
        {
          "SchemaColumnUId": "bd12ea8e-2bc2-42bf-925a-3ab766cc0b9f",
          "Value": 2
        },
        {
          "SchemaColumnUId": "0e3d3857-2203-40e4-b1ec-8e972007650e",
          "Value": "0e785eca-9eea-428d-96f3-72020564dba1",
          "DisplayValue": "Руководитель отдела продаж"
        },
        {
          "SchemaColumnUId": "991cf5ef-ffb8-49a5-add3-074a595f6c43",
          "Value": "7f3f22d6-f36b-1410-6584-1c6f65e16a07",
          "DisplayValue": "Лиды"
        }
      ]
    },
    {
      "Row": [
        {
          "SchemaColumnUId": "ae0e45ca-c495-4fe7-a39d-3ab7278e1617",
          "Value": "fee26c36-2c6b-4a94-88e3-abb1abdfa10f"
        },
        {
          "SchemaColumnUId": "bd12ea8e-2bc2-42bf-925a-3ab766cc0b9f",
          "Value": 0
        },
        {
          "SchemaColumnUId": "0e3d3857-2203-40e4-b1ec-8e972007650e",
          "Value": "0e785eca-9eea-428d-96f3-72020564dba1",
          "DisplayValue": "Руководитель отдела продаж"
        },
        {
          "SchemaColumnUId": "991cf5ef-ffb8-49a5-add3-074a595f6c43",
          "Value": "005063c9-8180-e011-afbc-00155d04320c",
          "DisplayValue": "Контрагенты"
        }
      ]
    },
    {
      "Row": [
        {
          "SchemaColumnUId": "ae0e45ca-c495-4fe7-a39d-3ab7278e1617",
          "Value": "a52b3d7b-3fbb-4ca0-8da6-e521dede4c20"
        },
        {
          "SchemaColumnUId": "bd12ea8e-2bc2-42bf-925a-3ab766cc0b9f",
          "Value": 3
        },
        {
          "SchemaColumnUId": "0e3d3857-2203-40e4-b1ec-8e972007650e",
          "Value": "0e785eca-9eea-428d-96f3-72020564dba1",
          "DisplayValue": "Руководитель отдела продаж"
        },
        {
          "SchemaColumnUId": "991cf5ef-ffb8-49a5-add3-074a595f6c43",
          "Value": "075063c9-8180-e011-afbc-00155d04320c",
          "DisplayValue": "Продажи"
        }
      ]
    },
    {
      "Row": [
        {
          "SchemaColumnUId": "ae0e45ca-c495-4fe7-a39d-3ab7278e1617",
          "Value": "40126c16-48ef-46d0-9ec4-701f1b888c63"
        },
        {
          "SchemaColumnUId": "bd12ea8e-2bc2-42bf-925a-3ab766cc0b9f",
          "Value": 6
        },
        {
          "SchemaColumnUId": "0e3d3857-2203-40e4-b1ec-8e972007650e",
          "Value": "0e785eca-9eea-428d-96f3-72020564dba1",
          "DisplayValue": "Руководитель отдела продаж"
        },
        {
          "SchemaColumnUId": "991cf5ef-ffb8-49a5-add3-074a595f6c43",
          "Value": "f87726a9-c0b2-4496-99ad-7ebb5118988d",
          "DisplayValue": "Договоры"
        }
      ]
    },
    {
      "Row": [
        {
          "SchemaColumnUId": "ae0e45ca-c495-4fe7-a39d-3ab7278e1617",
          "Value": "b18bd8ed-b2fd-433a-a3fe-03e73421a5f6"
        },
        {
          "SchemaColumnUId": "bd12ea8e-2bc2-42bf-925a-3ab766cc0b9f",
          "Value": 4
        },
        {
          "SchemaColumnUId": "0e3d3857-2203-40e4-b1ec-8e972007650e",
          "Value": "0e785eca-9eea-428d-96f3-72020564dba1",
          "DisplayValue": "Руководитель отдела продаж"
        },
        {
          "SchemaColumnUId": "991cf5ef-ffb8-49a5-add3-074a595f6c43",
          "Value": "0c5063c9-8180-e011-afbc-00155d04320c",
          "DisplayValue": "Отчеты"
        }
      ]
    }
  ]
}