﻿{
  "Descriptor": {
    "UId": "8444d931-228c-41b4-8acf-4360c9d950fa",
    "Name": "ITCelebrateInsertService",
    "ModifiedOnUtc": "\/Date(1507537089000)\/",
    "ManagerName": "SourceCodeSchemaManager",
    "Caption": "ITCelebrateInsertService",
    "DependsOn": []
  }
}