﻿{
  "Descriptor": {
    "UId": "194a6a7f-e9c3-4c11-85d1-306534958459",
    "Name": "ITMethodsOfFormingForm103_Data",
    "ModifiedOnUtc": "\/Date(1506343961000)\/",
    "InstallType": 0,
    "Schema": {
      "UId": "d74636fb-239a-485e-a651-22f01dc3591b",
      "Name": "ITMethodsOfFormingForm103"
    },
    "Columns": [
      {
        "ColumnUId": "ae0e45ca-c495-4fe7-a39d-3ab7278e1617",
        "IsForceUpdate": false,
        "IsKey": true,
        "ColumnName": "Id",
        "DataTypeValueUId": "23018567-a13c-4320-8687-fd6f9e3699bd"
      },
      {
        "ColumnUId": "736c30a7-c0ec-4fa9-b034-2552b319b633",
        "IsForceUpdate": false,
        "IsKey": false,
        "ColumnName": "Name",
        "DataTypeValueUId": "ddb3a1ee-07e8-4d62-b7a9-d0e618b00fbd"
      },
      {
        "ColumnUId": "9e53fd7c-dde4-4502-a64c-b9e34148108b",
        "IsForceUpdate": false,
        "IsKey": false,
        "ColumnName": "Description",
        "DataTypeValueUId": "ddb3a1ee-07e8-4d62-b7a9-d0e618b00fbd"
      },
      {
        "ColumnUId": "b992f4dc-e3bf-4981-af29-1e226069aa49",
        "IsForceUpdate": false,
        "IsKey": false,
        "ColumnName": "ITIndexNumber",
        "DataTypeValueUId": "6b6b74e2-820d-490e-a017-2b73d4ccf2b0"
      }
    ]
  }
}