﻿{
  "Descriptor": {
    "UId": "882b8c53-7750-4c5f-b9b7-54850be0eace",
    "Name": "ITVwLeadDataToDashboard",
    "ModifiedOnUtc": "\/Date(1507733717000)\/",
    "Parent": {
      "UId": "1bab9dcf-17d5-49f8-9536-8e0064f1dce0",
      "Name": "BaseEntity"
    },
    "ManagerName": "EntitySchemaManager",
    "Caption": "Представление таблицы лидов",
    "DependsOn": []
  }
}