﻿{
  "Descriptor": {
    "UId": "d9a609f7-dcd2-4660-9f5a-b7445fedc063",
    "Name": "Account",
    "ModifiedOnUtc": "\/Date(1481414899000)\/",
    "Parent": {
      "UId": "25d7c1ab-1de0-4501-b402-02e0e5a72d6e",
      "Name": "Account"
    },
    "ExtendParent": true,
    "ManagerName": "EntitySchemaManager",
    "Caption": "Контрагент",
    "DependsOn": []
  }
}