﻿{
  "Descriptor": {
    "UId": "df3880e4-5a19-4cb4-b416-0287d20c01fc",
    "Name": "TsForecastBuilder",
    "ModifiedOnUtc": "\/Date(1489604179881)\/",
    "ManagerName": "ClientUnitSchemaManager",
    "Caption": "TsForecastBuilder",
    "DependsOn": []
  }
}