﻿{
  "MetaData": {
    "Schema": {
      "ManagerName": "ClientUnitSchemaManager",
      "UId": "df3880e4-5a19-4cb4-b416-0287d20c01fc",
      "A2": "TsForecastBuilder",
      "A5": "1ecc155a-bc9b-48b5-ac76-7782a0e9b45b",
      "B1": [],
      "B2": [
        {
          "UId": "564ae8c1-0663-413c-80b6-d919057b7aea",
          "A2": "LeadTypeCaption",
          "A3": "df3880e4-5a19-4cb4-b416-0287d20c01fc",
          "A4": "df3880e4-5a19-4cb4-b416-0287d20c01fc",
          "A5": "1ecc155a-bc9b-48b5-ac76-7782a0e9b45b"
        },
        {
          "UId": "de7c2849-a8be-47ce-ae7f-9cd2f7151e25",
          "A2": "EmptyLeadTypeCaption",
          "A3": "df3880e4-5a19-4cb4-b416-0287d20c01fc",
          "A4": "df3880e4-5a19-4cb4-b416-0287d20c01fc",
          "A5": "1ecc155a-bc9b-48b5-ac76-7782a0e9b45b"
        }
      ],
      "B3": [],
      "B6": "12ec0688-188b-44d9-99c0-af66d25810d7",
      "B8": "7.8.3.1978",
      "HD1": "50e3acc0-26fc-4237-a095-849a1d534bd3",
      "HD4": 1,
      "HD6": "null",
      "HD5": [
        {
          "UId": "4ec2bd58-22a2-42bf-8a51-86e96e83f1cb",
          "A2": "ForecastBuilder",
          "A3": "df3880e4-5a19-4cb4-b416-0287d20c01fc",
          "A4": "df3880e4-5a19-4cb4-b416-0287d20c01fc",
          "HW1": "88dc986b-e61c-471e-a676-74d87dd5431f",
          "HW2": "ClientUnitSchemaManager"
        }
      ],
      "HD7": [],
      "HD8": [],
      "HD11": []
    }
  }