{
  "MetaData": {
    "Schema": {
      "ManagerName": "ProcessSchemaManager",
      "UId": "2fe06334-b0d9-4994-8481-5f86c9aa3c4f",
      "A2": "ITChangeAccountOwnerSubProces",
      "A5": "c96c2ab3-b60e-4151-bd60-9c2b786df0f0",
      "B1": [],
      "B2": [],
      "B3": [
        {
          "UId": "3dbc5fdb-a6b1-414a-a1be-99f84c643402",
          "A2": "Terrasoft.Configuration",
          "A3": "2fe06334-b0d9-4994-8481-5f86c9aa3c4f",
          "A4": "2fe06334-b0d9-4994-8481-5f86c9aa3c4f",
          "A5": "c96c2ab3-b60e-4151-bd60-9c2b786df0f0",
          "GF1": "null"
        },
        {
          "UId": "0ae2eb85-ca8e-45a9-bc5e-60611ccd36c3",
          "A2": "Terrasoft.Configuration.ITBase",
          "A3": "2fe06334-b0d9-4994-8481-5f86c9aa3c4f",
          "A4": "2fe06334-b0d9-4994-8481-5f86c9aa3c4f",
          "A5": "c96c2ab3-b60e-4151-bd60-9c2b786df0f0",
          "GF1": "null"
        },
        {
          "UId": "27aaad8d-cd4e-44a4-99be-5591e0205967",
          "A2": "Terrasoft.Core.Factories",
          "A3": "2fe06334-b0d9-4994-8481-5f86c9aa3c4f",
          "A4": "2fe06334-b0d9-4994-8481-5f86c9aa3c4f",
          "A5": "c96c2ab3-b60e-4151-bd60-9c2b786df0f0",
          "GF1": "null"
        },
        {
          "UId": "cc7324fd-db65-468b-9d10-53780c48d98b",
          "A2": "System.Linq",
          "A3": "2fe06334-b0d9-4994-8481-5f86c9aa3c4f",
          "A4": "2fe06334-b0d9-4994-8481-5f86c9aa3c4f",
          "A5": "c96c2ab3-b60e-4151-bd60-9c2b786df0f0",
          "GF1": "null"
        },
        {
          "UId": "05695df7-0771-4a8b-95f6-d4ebb8f69bec",
          "A2": "Terrasoft.Configuration.TsBase",
          "A3": "2fe06334-b0d9-4994-8481-5f86c9aa3c4f",
          "A4": "2fe06334-b0d9-4994-8481-5f86c9aa3c4f",
          "A5": "c96c2ab3-b60e-4151-bd60-9c2b786df0f0",
          "GF1": "null"
        }
      ],
      "B6": "b18a0f67-6bd3-4ff3-8fa3-c759fb72d073",
      "B8": "7.8.3.1978",
      "FJ1": [
        {
          "BL1": "Terrasoft.Core.Process.ProcessSchemaParameter",
          "UId": "eadce0e0-b963-48ac-acc3-5e56e4f0df54",
          "A2": "ExceptionOccureduserMessage",
          "A3": "2fe06334-b0d9-4994-8481-5f86c9aa3c4f",
          "A4": "2fe06334-b0d9-4994-8481-5f86c9aa3c4f",
          "L1": "5ca35f10-a101-4c67-a96a-383da6afacfc",
          "L8": {
            "GS1": 1,
            "GS5": "2fe06334-b0d9-4994-8481-5f86c9aa3c4f"
          }
        },
        {
          "BL1": "Terrasoft.Core.Process.ProcessSchemaParameter",
          "UId": "2f72dcda-ed07-4e46-86e8-84c1c3d63398",
          "A2": "SuccessChangeMessage",
          "A3": "2fe06334-b0d9-4994-8481-5f86c9aa3c4f",
          "A4": "2fe06334-b0d9-4994-8481-5f86c9aa3c4f",
          "L1": "5ca35f10-a101-4c67-a96a-383da6afacfc",
          "L8": {
            "GS1": 1,
            "GS5": "2fe06334-b0d9-4994-8481-5f86c9aa3c4f"
          }
        },
        {
          "BL1": "Terrasoft.Core.Process.ProcessSchemaParameter",
          "UId": "b522ba8d-ddd1-4acf-8f1a-71b768e118c9",
          "A2": "RemindDescription",
          "A3": "2fe06334-b0d9-4994-8481-5f86c9aa3c4f",
          "A4": "2fe06334-b0d9-4994-8481-5f86c9aa3c4f",
          "L1": "5ca35f10-a101-4c67-a96a-383da6afacfc",
          "L8": {}
        },
        {
          "BL1": "Terrasoft.Core.Process.ProcessSchemaParameter",
          "UId": "56ca6b63-face-4025-9127-bd374457e826",
          "A2": "OldOwnerId",
          "A3": "2fe06334-b0d9-4994-8481-5f86c9aa3c4f",
          "A4": "2fe06334-b0d9-4994-8481-5f86c9aa3c4f",
          "L1": "23018567-a13c-4320-8687-fd6f9e3699bd",
          "L8": {}
        },
        {
          "BL1": "Terrasoft.Core.Process.ProcessSchemaParameter",
          "UId": "c4e0b605-e160-4bb7-988d-6e9cbfd5f17d",
          "A2": "NewOwnerId",
          "A3": "2fe06334-b0d9-4994-8481-5f86c9aa3c4f",
          "A4": "2fe06334-b0d9-4994-8481-5f86c9aa3c4f",
          "L1": "23018567-a13c-4320-8687-fd6f9e3699bd",
          "L8": {}
        },
        {
          "BL1": "Terrasoft.Core.Process.ProcessSchemaParameter",
          "UId": "c01b06e7-cfb9-4ab1-ae92-ccbf826b04a9",
          "A2": "RemindingSubject",
          "A3": "2fe06334-b0d9-4994-8481-5f86c9aa3c4f",
          "A4": "2fe06334-b0d9-4994-8481-5f86c9aa3c4f",
          "L1": "5ca35f10-a101-4c67-a96a-383da6afacfc",
          "L8": {
            "GS1": 3,
            "GS2": "\"Смена ответственного контрагента выполнена. \" + [#[IsOwnerSchema:false].[IsSchema:false].[Parameter:{b522ba8d-ddd1-4acf-8f1a-71b768e118c9}]#]",
            "GS5": "2fe06334-b0d9-4994-8481-5f86c9aa3c4f"
          }
        },
        {
          "BL1": "Terrasoft.Core.Process.ProcessSchemaParameter",
          "UId": "0785900b-3013-42a3-b0d4-3d0d313e9385",
          "A2": "ChangeOwnerFlag",
          "A3": "2fe06334-b0d9-4994-8481-5f86c9aa3c4f",
          "A4": "2fe06334-b0d9-4994-8481-5f86c9aa3c4f",
          "L1": "90b65bf8-0ffc-4141-8779-2420877af907",
          "L8": {
            "GS1": 3,
            "GS2": "false",
            "GS5": "2fe06334-b0d9-4994-8481-5f86c9aa3c4f"
          }
        },
        {
          "BL1": "Terrasoft.Core.Process.ProcessSchemaParameter",
          "UId": "f3c62656-8439-4d55-a167-42717d70513d",
          "A2": "ChangeOwnerSupplierFlag",
          "A3": "2fe06334-b0d9-4994-8481-5f86c9aa3c4f",
          "A4": "2fe06334-b0d9-4994-8481-5f86c9aa3c4f",
          "L1": "90b65bf8-0ffc-4141-8779-2420877af907",
          "L8": {
            "GS1": 3,
            "GS2": "false",
            "GS5": "2fe06334-b0d9-4994-8481-5f86c9aa3c4f"
          }
        },
        {
          "BL1": "Terrasoft.Core.Process.ProcessSchemaParameter",
          "UId": "b3997c41-626e-454c-92eb-ea8e7eacdd60",
          "A2": "LeadType",
          "A3": "2fe06334-b0d9-4994-8481-5f86c9aa3c4f",
          "A4": "2fe06334-b0d9-4994-8481-5f86c9aa3c4f",
          "L1": "b295071f-7ea9-4e62-8d1a-919bf3732ff2",
          "L8": {
            "GS5": "2fe06334-b0d9-4994-8481-5f86c9aa3c4f"
          },
          "L9": "e0dbeb22-4932-4eee-a8f2-a247a5fce888"
        },
        {
          "BL1": "Terrasoft.Core.Process.ProcessSchemaParameter",
          "UId": "30341035-5398-40f0-a28d-fce0de9a00b7",
          "A2": "NewOwnerName",
          "A3": "2fe06334-b0d9-4994-8481-5f86c9aa3c4f",
          "A4": "2fe06334-b0d9-4994-8481-5f86c9aa3c4f",
          "L1": "5ca35f10-a101-4c67-a96a-383da6afacfc",
          "L8": {}
        },
        {
          "BL1": "Terrasoft.Core.Process.ProcessSchemaParameter",
          "UId": "cd5c0573-4fd7-4854-86c9-06aab3b2b313",
          "A2": "OldOwnerName",
          "A3": "2fe06334-b0d9-4994-8481-5f86c9aa3c4f",
          "A4": "2fe06334-b0d9-4994-8481-5f86c9aa3c4f",
          "L1": "5ca35f10-a101-4c67-a96a-383da6afacfc",
          "L8": {}
        }
      ],
      "IJ1": true,
      "BK1": "FFFFFFFF",
      "BK2": "FFBBBBBB",
      "BK3": [
        {
          "BL1": "Terrasoft.Core.Process.ProcessSchemaLaneSet",
          "UId": "16484d63-9abd-41ff-b6b0-2193885ec0c6",
          "A2": "LaneSet1",
          "A3": "2fe06334-b0d9-4994-8481-5f86c9aa3c4f",
          "A4": "2fe06334-b0d9-4994-8481-5f86c9aa3c4f",
          "A5": "b18a0f67-6bd3-4ff3-8fa3-c759fb72d073",
          "BL7": "11a47caf-a0d5-41fa-a274-a0b11f77447a",
          "BL8": "2fe06334-b0d9-4994-8481-5f86c9aa3c4f",
          "BM1": 0,
          "BM4": [
            {
              "BL1": "Terrasoft.Core.Process.ProcessSchemaLane",
              "UId": "d8caf62e-d70d-4345-9d60-f1771e00c24b",
              "A2": "Lane1",
              "A3": "2fe06334-b0d9-4994-8481-5f86c9aa3c4f",
              "A4": "2fe06334-b0d9-4994-8481-5f86c9aa3c4f",
              "A5": "b18a0f67-6bd3-4ff3-8fa3-c759fb72d073",
              "IL2": "16484d63-9abd-41ff-b6b0-2193885ec0c6",
              "BL7": "abcd74b9-5912-414b-82ac-f1aa4dcd554e",
              "BL8": "2fe06334-b0d9-4994-8481-5f86c9aa3c4f",
              "CD1": [],
              "CD2": [],
              "CD4": "16484d63-9abd-41ff-b6b0-2193885ec0c6",
              "CD7": []
            }
          ]
        }
      ],
      "BK5": [],
      "BK4": [
        {
          "BL1": "Terrasoft.Core.Process.ProcessSchemaStartEvent",
          "UId": "a05aad8d-5d4e-47fe-a975-6d73118c57be",
          "A2": "StartEvent1",
          "A3": "2fe06334-b0d9-4994-8481-5f86c9aa3c4f",
          "A4": "2fe06334-b0d9-4994-8481-5f86c9aa3c4f",
          "A5": "b18a0f67-6bd3-4ff3-8fa3-c759fb72d073",
          "IL2": "d8caf62e-d70d-4345-9d60-f1771e00c24b",
          "BL3": "20;184",
          "BL7": "53818048-7868-48f6-ada0-0ebaa65af628",
          "BL8": "2fe06334-b0d9-4994-8481-5f86c9aa3c4f",
          "BN2": "27;27",
          "BO3": true,
          "FC1": [],
          "ED1": false
        },
        {
          "BL1": "Terrasoft.Core.Process.ProcessSchemaTerminateEvent",
          "UId": "9805c6d1-7a8f-49dc-b443-7a1c7eaba433",
          "A2": "TerminateEvent1",
          "A3": "2fe06334-b0d9-4994-8481-5f86c9aa3c4f",
          "A4": "2fe06334-b0d9-4994-8481-5f86c9aa3c4f",
          "A5": "b18a0f67-6bd3-4ff3-8fa3-c759fb72d073",
          "IL2": "d8caf62e-d70d-4345-9d60-f1771e00c24b",
          "BL3": "600;184",
          "BL7": "1bd93619-0574-454e-bb4e-cf53b9eb9470",
          "BL8": "2fe06334-b0d9-4994-8481-5f86c9aa3c4f",
          "BN2": "27;27",
          "BO3": true,
          "FC1": []
        },
        {
          "BL1": "Terrasoft.Core.Process.ProcessSchemaScriptTask",
          "UId": "7819af7c-8d49-41f2-8fde-0f63d3931df5",
          "A2": "ScriptTask1",
          "A3": "2fe06334-b0d9-4994-8481-5f86c9aa3c4f",
          "A4": "2fe06334-b0d9-4994-8481-5f86c9aa3c4f",
          "A5": "b18a0f67-6bd3-4ff3-8fa3-c759fb72d073",
          "IL2": "d8caf62e-d70d-4345-9d60-f1771e00c24b",
          "BL3": "453;170",
          "BL7": "0e490dda-e140-4441-b600-6f5c64d024df",
          "BL8": "2fe06334-b0d9-4994-8481-5f86c9aa3c4f",
          "BN2": "69;55",
          "BO3": true,
          "BP2": [],
          "CL2": "FFFFFFFF",
          "CH1": "var accountUtils = Terrasoft.Core.Factories.ClassFactory.Get<ITAccountUtils>(new ConstructorArgument(\"userConnection\", context.UserConnection));\nException exception;\ntry {\n\tList<ChangeExecutiveLog> changeExecutiveLogList = \n\t\taccountUtils.ChangeAccountAndRelatedEntitiesOwner(Get<Guid>(\"OldOwnerId\"), Get<Guid>(\"NewOwnerId\"),\n\tGet<Guid>(\"LeadType\"), Get<bool>(\"ChangeOwnerFlag\"), Get<bool>(\"ChangeOwnerSupplierFlag\"));\n\tvar changedRowsCounts = changeExecutiveLogList.OrderBy(log => (int) log.Entity).Select(log=>log.ChangedRowCount).Cast<object>().ToArray();\n\tSet<string>(\"RemindDescription\", string.Format(Get<string>(\"SuccessChangeMessage\"), changedRowsCounts));\n\tEntitySchema processLogSchema = context.UserConnection.EntitySchemaManager.FindInstanceByName(\"SysProcessLog\");\n\t\n\tvar remindingEntity = new Reminding(context.UserConnection);\n\tremindingEntity.SetDefColumnValues();\n\tremindingEntity.SetColumnValue(\"AuthorId\", context.UserConnection.CurrentUser.ContactId);\n\tremindingEntity.SetColumnValue(\"ContactId\", context.UserConnection.CurrentUser.ContactId);\n\tremindingEntity.SetColumnValue(\"SourceId\", RemindingConsts.RemindingSourceAuthorId);\n\tremindingEntity.SetColumnValue(\"RemindTime\", context.UserConnection.CurrentUser.GetCurrentDateTime());\n\tremindingEntity.SetColumnValue(\"Description\", Get<string>(\"RemindDescription\"));\n\tremindingEntity.SetColumnValue(\"SubjectCaption\", Get<string>(\"RemindingSubject\"));\n\tremindingEntity.SetColumnValue(\"SysEntitySchemaId\", processLogSchema.UId);\n\tremindingEntity.SetColumnValue(\"SubjectId\", context.Process.InstanceUId);\n\tremindingEntity.Save();\n} catch {\n\tSet<string>(\"RemindDescription\", Get<string>(\"ExceptionOccureduserMessage\"));\t\n\tEntitySchema processLogSchema = context.UserConnection.EntitySchemaManager.FindInstanceByName(\"SysProcessLog\");\n\t\n\tvar remindingEntity = new Reminding(context.UserConnection);\n\tremindingEntity.SetDefColumnValues();\n\tremindingEntity.SetColumnValue(\"AuthorId\", context.UserConnection.CurrentUser.ContactId);\n\tremindingEntity.SetColumnValue(\"ContactId\", context.UserConnection.CurrentUser.ContactId);\n\tremindingEntity.SetColumnValue(\"SourceId\", RemindingConsts.RemindingSourceAuthorId);\n\tremindingEntity.SetColumnValue(\"RemindTime\", context.UserConnection.CurrentUser.GetCurrentDateTime());\n\tremindingEntity.SetColumnValue(\"Description\", Get<string>(\"RemindDescription\"));\n\tremindingEntity.SetColumnValue(\"SubjectCaption\", Get<string>(\"RemindingSubject\"));\n\tremindingEntity.SetColumnValue(\"SysEntitySchemaId\", processLogSchema.UId);\n\tremindingEntity.SetColumnValue(\"SubjectId\", context.Process.InstanceUId);\n\tremindingEntity.Save();\n\tthrow;\n}\n\n//Message for OldOwner\ntry\n{\n    EntitySchema processLogSchema = context.UserConnection.EntitySchemaManager.FindInstanceByName(\"SysProcessLog\");\n    var remindingEntity = new Reminding(context.UserConnection);\n    remindingEntity.SetDefColumnValues();\n    remindingEntity.SetColumnValue(\"AuthorId\", context.UserConnection.CurrentUser.ContactId);\n    remindingEntity.SetColumnValue(\"ContactId\", Get<Guid>(\"OldOwnerId\"));\n    remindingEntity.SetColumnValue(\"SourceId\", RemindingConsts.RemindingSourceAuthorId);\n    remindingEntity.SetColumnValue(\"RemindTime\", context.UserConnection.CurrentUser.GetCurrentDateTime());\n    remindingEntity.SetColumnValue(\"Description\", Get<string>(\"RemindDescription\"));\n    remindingEntity.SetColumnValue(\"SubjectCaption\", \"Срок замещения сотрудника \" +\n            Get<string>(\"NewOwnerName\") + \" истек. Работа с соответствующими клиентами передана данному сотруднику\");\n    remindingEntity.SetColumnValue(\"SysEntitySchemaId\", processLogSchema.UId);\n    remindingEntity.SetColumnValue(\"SubjectId\", context.Process.InstanceUId);\n    remindingEntity.Save();\n}\ncatch\n{\n    Set<string>(\"RemindDescription\", Get<string>(\"ExceptionOccureduserMessage\"));\n    EntitySchema processLogSchema = context.UserConnection.EntitySchemaManager.FindInstanceByName(\"SysProcessLog\");\n\n    var remindingEntity = new Reminding(context.UserConnection);\n    remindingEntity.SetDefColumnValues();\n    remindingEntity.SetColumnValue(\"AuthorId\", context.UserConnection.CurrentUser.ContactId);\n    remindingEntity.SetColumnValue(\"ContactId\", Get<Guid>(\"OldOwnerId\"));\n    remindingEntity.SetColumnValue(\"SourceId\", RemindingConsts.RemindingSourceAuthorId);\n    remindingEntity.SetColumnValue(\"RemindTime\", context.UserConnection.CurrentUser.GetCurrentDateTime());\n    remindingEntity.SetColumnValue(\"Description\", Get<string>(\"RemindDescription\"));\n    remindingEntity.SetColumnValue(\"SubjectCaption\", \"Срок замещения сотрудника \" +\n            Get<string>(\"NewOwnerName\") + \" истек. Работа с соответствующими клиентами передана данному сотруднику\");\n    remindingEntity.SetColumnValue(\"SysEntitySchemaId\", processLogSchema.UId);\n    remindingEntity.SetColumnValue(\"SubjectId\", context.Process.InstanceUId);\n    remindingEntity.Save();\n    throw;\n}\n\n//Message for NewOwner\ntry\n{\n    EntitySchema processLogSchema = context.UserConnection.EntitySchemaManager.FindInstanceByName(\"SysProcessLog\");\n    var remindingEntity = new Reminding(context.UserConnection);\n    remindingEntity.SetDefColumnValues();\n    remindingEntity.SetColumnValue(\"AuthorId\", context.UserConnection.CurrentUser.ContactId);\n    remindingEntity.SetColumnValue(\"ContactId\", Get<Guid>(\"NewOwnerId\"));\n    remindingEntity.SetColumnValue(\"SourceId\", RemindingConsts.RemindingSourceAuthorId);\n    remindingEntity.SetColumnValue(\"RemindTime\", context.UserConnection.CurrentUser.GetCurrentDateTime());\n    remindingEntity.SetColumnValue(\"Description\", Get<string>(\"RemindDescription\"));\n    remindingEntity.SetColumnValue(\"SubjectCaption\", \"Срок замещения сотрудником \" +\n            Get<string>(\"OldOwnerName\") + \" истек. Работа с соответствующими клиентами передана вам.\");\n    remindingEntity.SetColumnValue(\"SysEntitySchemaId\", processLogSchema.UId);\n    remindingEntity.SetColumnValue(\"SubjectId\", context.Process.InstanceUId);\n    remindingEntity.Save();\n}\ncatch\n{\n    Set<string>(\"RemindDescription\", Get<string>(\"ExceptionOccureduserMessage\"));\n    EntitySchema processLogSchema = context.UserConnection.EntitySchemaManager.FindInstanceByName(\"SysProcessLog\");\n\n    var remindingEntity = new Reminding(context.UserConnection);\n    remindingEntity.SetDefColumnValues();\n    remindingEntity.SetColumnValue(\"AuthorId\", context.UserConnection.CurrentUser.ContactId);\n    remindingEntity.SetColumnValue(\"ContactId\", Get<Guid>(\"OldOwnerId\"));\n    remindingEntity.SetColumnValue(\"SourceId\", RemindingConsts.RemindingSourceAuthorId);\n    remindingEntity.SetColumnValue(\"RemindTime\", context.UserConnection.CurrentUser.GetCurrentDateTime());\n    remindingEntity.SetColumnValue(\"Description\", Get<string>(\"RemindDescription\"));\n    remindingEntity.SetColumnValue(\"SubjectCaption\", \"Срок замещения сотрудником \" +\n            Get<string>(\"OldOwnerName\") + \" истек. Работа с соответствующими клиентами передана вам.\");\n    remindingEntity.SetColumnValue(\"SysEntitySchemaId\", processLogSchema.UId);\n    remindingEntity.SetColumnValue(\"SubjectId\", context.Process.InstanceUId);\n    remindingEntity.Save();\n    throw;\n}\nreturn true;",
          "CH2": true
        },
        {
          "BL1": "Terrasoft.Core.Process.ProcessSchemaUserTask",
          "UId": "3307c32c-92cb-4f0d-b270-690fa5a03a93",
          "A2": "ReadDataUserTask1",
          "A3": "2fe06334-b0d9-4994-8481-5f86c9aa3c4f",
          "A4": "2fe06334-b0d9-4994-8481-5f86c9aa3c4f",
          "A5": "b18a0f67-6bd3-4ff3-8fa3-c759fb72d073",
          "IL2": "d8caf62e-d70d-4345-9d60-f1771e00c24b",
          "BL3": "151;105",
          "BL7": "cb455b6f-78ff-4b1e-b241-c2bbc0b37e9f",
          "BL8": "2fe06334-b0d9-4994-8481-5f86c9aa3c4f",
          "BN2": "69;55",
          "BO2": true,
          "BO3": true,
          "BP2": [
            {
              "BL1": "Terrasoft.Core.Process.ProcessSchemaParameter",
              "UId": "02ab618b-f213-477d-8abf-f68729613446",
              "A2": "DataSourceFilters",
              "A3": "cb455b6f-78ff-4b1e-b241-c2bbc0b37e9f",
              "A4": "cb455b6f-78ff-4b1e-b241-c2bbc0b37e9f",
              "A5": "66e9e705-64b4-4dda-925e-d1e05a389eb6",
              "IL2": "3307c32c-92cb-4f0d-b270-690fa5a03a93",
              "L1": "394e160f-c8e0-46fa-9c0d-75d97e9e9169",
              "L8": {
                "GS1": 1,
                "GS2": "{\"className\":\"Terrasoft.FilterGroup\",\"serializedFilterEditData\":\"{\\\"className\\\":\\\"Terrasoft.FilterGroup\\\",\\\"items\\\":{\\\"a83bbf38-ce4d-4fb5-8983-38bc2e6692e4\\\":{\\\"className\\\":\\\"Terrasoft.CompareFilter\\\",\\\"filterType\\\":1,\\\"comparisonType\\\":3,\\\"isEnabled\\\":true,\\\"trimDateTimeParameterToDate\\\":false,\\\"leftExpression\\\":{\\\"className\\\":\\\"Terrasoft.ColumnExpression\\\",\\\"expressionType\\\":0,\\\"columnPath\\\":\\\"Id\\\"},\\\"isAggregative\\\":false,\\\"key\\\":\\\"a83bbf38-ce4d-4fb5-8983-38bc2e6692e4\\\",\\\"dataValueType\\\":0,\\\"leftExpressionCaption\\\":\\\"Id\\\",\\\"rightExpression\\\":{\\\"className\\\":\\\"Terrasoft.ParameterExpression\\\",\\\"expressionType\\\":2,\\\"parameter\\\":{\\\"className\\\":\\\"Terrasoft.Parameter\\\",\\\"dataValueType\\\":26,\\\"value\\\":{\\\"value\\\":\\\"[IsOwnerSchema:false].[IsSchema:false].[Parameter:{56ca6b63-face-4025-9127-bd374457e826}]\\\",\\\"displayValue\\\":\\\"Старый ответственный\\\"}}}}},\\\"logicalOperation\\\":0,\\\"isEnabled\\\":true,\\\"filterType\\\":6,\\\"rootSchemaName\\\":\\\"Contact\\\",\\\"key\\\":\\\"\\\"}\",\"dataSourceFilters\":\"{\\\"items\\\":{\\\"a83bbf38-ce4d-4fb5-8983-38bc2e6692e4\\\":{\\\"filterType\\\":1,\\\"comparisonType\\\":3,\\\"isEnabled\\\":true,\\\"trimDateTimeParameterToDate\\\":false,\\\"leftExpression\\\":{\\\"expressionType\\\":0,\\\"columnPath\\\":\\\"Id\\\"},\\\"rightExpression\\\":{\\\"expressionType\\\":2,\\\"parameter\\\":{\\\"dataValueType\\\":26,\\\"value\\\":{\\\"value\\\":\\\"[IsOwnerSchema:false].[IsSchema:false].[Parameter:{56ca6b63-face-4025-9127-bd374457e826}]\\\"}}}}},\\\"logicalOperation\\\":0,\\\"isEnabled\\\":true,\\\"filterType\\\":6,\\\"rootSchemaName\\\":\\\"Contact\\\"}\"}",
                "GS5": "2fe06334-b0d9-4994-8481-5f86c9aa3c4f"
              }
            },
            {
              "BL1": "Terrasoft.Core.Process.ProcessSchemaParameter",
              "UId": "cc4dd2e9-6023-46e6-81cb-353e9c692c78",
              "A2": "ResultType",
              "A3": "cb455b6f-78ff-4b1e-b241-c2bbc0b37e9f",
              "A4": "cb455b6f-78ff-4b1e-b241-c2bbc0b37e9f",
              "IL2": "3307c32c-92cb-4f0d-b270-690fa5a03a93",
              "L1": "6b6b74e2-820d-490e-a017-2b73d4ccf2b0",
              "L8": {
                "GS1": 1,
                "GS2": "0",
                "GS5": "cb455b6f-78ff-4b1e-b241-c2bbc0b37e9f"
              }
            },
            {
              "BL1": "Terrasoft.Core.Process.ProcessSchemaParameter",
              "UId": "1ad33149-4e9f-400a-b435-df5ed6adc73f",
              "A2": "ReadSomeTopRecords",
              "A3": "cb455b6f-78ff-4b1e-b241-c2bbc0b37e9f",
              "A4": "cb455b6f-78ff-4b1e-b241-c2bbc0b37e9f",
              "IL2": "3307c32c-92cb-4f0d-b270-690fa5a03a93",
              "L1": "90b65bf8-0ffc-4141-8779-2420877af907",
              "L8": {
                "GS2": ""
              }
            },
            {
              "BL1": "Terrasoft.Core.Process.ProcessSchemaParameter",
              "UId": "20d7e783-8558-4980-b085-4e76ef4711da",
              "A2": "NumberOfRecords",
              "A3": "cb455b6f-78ff-4b1e-b241-c2bbc0b37e9f",
              "A4": "cb455b6f-78ff-4b1e-b241-c2bbc0b37e9f",
              "IL2": "3307c32c-92cb-4f0d-b270-690fa5a03a93",
              "L1": "6b6b74e2-820d-490e-a017-2b73d4ccf2b0",
              "L8": {
                "GS2": ""
              }
            },
            {
              "BL1": "Terrasoft.Core.Process.ProcessSchemaParameter",
              "UId": "3aea9960-eaf4-423b-910a-720fa7ffffb4",
              "A2": "FunctionType",
              "A3": "cb455b6f-78ff-4b1e-b241-c2bbc0b37e9f",
              "A4": "cb455b6f-78ff-4b1e-b241-c2bbc0b37e9f",
              "IL2": "3307c32c-92cb-4f0d-b270-690fa5a03a93",
              "L1": "6b6b74e2-820d-490e-a017-2b73d4ccf2b0",
              "L8": {
                "GS1": 1,
                "GS2": "0",
                "GS5": "2fe06334-b0d9-4994-8481-5f86c9aa3c4f"
              }
            },
            {
              "BL1": "Terrasoft.Core.Process.ProcessSchemaParameter",
              "UId": "5229b845-7b17-41e5-a7b9-f0ddbd3cac90",
              "A2": "AggregationColumnName",
              "A3": "cb455b6f-78ff-4b1e-b241-c2bbc0b37e9f",
              "A4": "cb455b6f-78ff-4b1e-b241-c2bbc0b37e9f",
              "IL2": "3307c32c-92cb-4f0d-b270-690fa5a03a93",
              "L1": "394e160f-c8e0-46fa-9c0d-75d97e9e9169",
              "L8": {
                "GS2": ""
              }
            },
            {
              "BL1": "Terrasoft.Core.Process.ProcessSchemaParameter",
              "UId": "06caea51-3565-4caf-94aa-290a3b239ac6",
              "A2": "OrderInfo",
              "A3": "cb455b6f-78ff-4b1e-b241-c2bbc0b37e9f",
              "A4": "cb455b6f-78ff-4b1e-b241-c2bbc0b37e9f",
              "IL2": "3307c32c-92cb-4f0d-b270-690fa5a03a93",
              "L1": "394e160f-c8e0-46fa-9c0d-75d97e9e9169",
              "L8": {
                "GS1": 1,
                "GS2": "Name:1:1",
                "GS5": "2fe06334-b0d9-4994-8481-5f86c9aa3c4f"
              }
            },
            {
              "BL1": "Terrasoft.Core.Process.ProcessSchemaParameter",
              "UId": "b267fa8a-ecce-4a6d-b46f-f89b83f184db",
              "A2": "ResultEntity",
              "A3": "cb455b6f-78ff-4b1e-b241-c2bbc0b37e9f",
              "A4": "cb455b6f-78ff-4b1e-b241-c2bbc0b37e9f",
              "A5": "66e9e705-64b4-4dda-925e-d1e05a389eb6",
              "IL2": "3307c32c-92cb-4f0d-b270-690fa5a03a93",
              "L1": "ebd85d37-0abf-4bbf-bb32-97dc3dffcc8c",
              "L8": {
                "GS1": 1,
                "GS5": "2fe06334-b0d9-4994-8481-5f86c9aa3c4f"
              },
              "L9": "16be3651-8fe2-4159-8dd0-a803d4683dd3",
              "L13": true,
              "L16": "Contact"
            },
            {
              "BL1": "Terrasoft.Core.Process.ProcessSchemaParameter",
              "UId": "03e5f9ec-8bd2-4ede-a1d0-a5ad9a11c7d5",
              "A2": "ResultCount",
              "A3": "cb455b6f-78ff-4b1e-b241-c2bbc0b37e9f",
              "A4": "cb455b6f-78ff-4b1e-b241-c2bbc0b37e9f",
              "IL2": "3307c32c-92cb-4f0d-b270-690fa5a03a93",
              "L1": "6b6b74e2-820d-490e-a017-2b73d4ccf2b0",
              "L8": {
                "GS2": ""
              }
            },
            {
              "BL1": "Terrasoft.Core.Process.ProcessSchemaParameter",
              "UId": "7c21d376-e793-4e40-9e04-033dca19b69b",
              "A2": "ResultIntegerFunction",
              "A3": "cb455b6f-78ff-4b1e-b241-c2bbc0b37e9f",
              "A4": "cb455b6f-78ff-4b1e-b241-c2bbc0b37e9f",
              "IL2": "3307c32c-92cb-4f0d-b270-690fa5a03a93",
              "L1": "6b6b74e2-820d-490e-a017-2b73d4ccf2b0",
              "L8": {
                "GS2": ""
              }
            },
            {
              "BL1": "Terrasoft.Core.Process.ProcessSchemaParameter",
              "UId": "cd1a2904-9945-4535-b325-6ef919ca1674",
              "A2": "ResultFloatFunction",
              "A3": "cb455b6f-78ff-4b1e-b241-c2bbc0b37e9f",
              "A4": "cb455b6f-78ff-4b1e-b241-c2bbc0b37e9f",
              "IL2": "3307c32c-92cb-4f0d-b270-690fa5a03a93",
              "L1": "ff22e049-4d16-46ee-a529-92d8808932dc",
              "L8": {
                "GS2": ""
              }
            },
            {
              "BL1": "Terrasoft.Core.Process.ProcessSchemaParameter",
              "UId": "7a8ac5c3-ceeb-427f-8594-f6259894d7d3",
              "A2": "ResultDateTimeFunction",
              "A3": "cb455b6f-78ff-4b1e-b241-c2bbc0b37e9f",
              "A4": "cb455b6f-78ff-4b1e-b241-c2bbc0b37e9f",
              "IL2": "3307c32c-92cb-4f0d-b270-690fa5a03a93",
              "L1": "d21e9ef4-c064-4012-b286-fa1a8171da44",
              "L8": {
                "GS2": ""
              }
            },
            {
              "BL1": "Terrasoft.Core.Process.ProcessSchemaParameter",
              "UId": "b1d33487-3d60-466c-b1ab-3359bcd32f76",
              "A2": "ResultRowsCount",
              "A3": "cb455b6f-78ff-4b1e-b241-c2bbc0b37e9f",
              "A4": "cb455b6f-78ff-4b1e-b241-c2bbc0b37e9f",
              "IL2": "3307c32c-92cb-4f0d-b270-690fa5a03a93",
              "L1": "6b6b74e2-820d-490e-a017-2b73d4ccf2b0",
              "L8": {
                "GS2": ""
              }
            },
            {
              "BL1": "Terrasoft.Core.Process.ProcessSchemaParameter",
              "UId": "f28e5581-8781-4d3c-90c7-ed00d00eb0bb",
              "A2": "CanReadUncommitedData",
              "A3": "cb455b6f-78ff-4b1e-b241-c2bbc0b37e9f",
              "A4": "cb455b6f-78ff-4b1e-b241-c2bbc0b37e9f",
              "IL2": "3307c32c-92cb-4f0d-b270-690fa5a03a93",
              "L1": "90b65bf8-0ffc-4141-8779-2420877af907",
              "L8": {
                "GS1": 1,
                "GS2": "true",
                "GS5": "cb455b6f-78ff-4b1e-b241-c2bbc0b37e9f"
              }
            },
            {
              "BL1": "Terrasoft.Core.Process.ProcessSchemaParameter",
              "UId": "57671b1e-54c8-40ba-b0d0-937c85711c10",
              "A2": "ResultEntityCollection",
              "A3": "cb455b6f-78ff-4b1e-b241-c2bbc0b37e9f",
              "A4": "cb455b6f-78ff-4b1e-b241-c2bbc0b37e9f",
              "IL2": "3307c32c-92cb-4f0d-b270-690fa5a03a93",
              "L1": "51fb23ba-3eb2-11e2-b7d5-b0c76188709b",
              "L8": {
                "GS2": ""
              }
            },
            {
              "BL1": "Terrasoft.Core.Process.ProcessSchemaParameter",
              "UId": "74c41c35-6bb9-497a-90f8-b03f6619085d",
              "A2": "EntityColumnMetaPathes",
              "A3": "cb455b6f-78ff-4b1e-b241-c2bbc0b37e9f",
              "A4": "cb455b6f-78ff-4b1e-b241-c2bbc0b37e9f",
              "IL2": "3307c32c-92cb-4f0d-b270-690fa5a03a93",
              "L1": "394e160f-c8e0-46fa-9c0d-75d97e9e9169",
              "L8": {
                "GS1": 1,
                "GS2": "a5cca792-47dd-428a-83fb-5c92bdd97ff8",
                "GS5": "2fe06334-b0d9-4994-8481-5f86c9aa3c4f"
              }
            },
            {
              "BL1": "Terrasoft.Core.Process.ProcessSchemaParameter",
              "UId": "f1e2924a-ad48-43c7-b870-6f3e36de2f8c",
              "A2": "IgnoreDisplayValues",
              "A3": "cb455b6f-78ff-4b1e-b241-c2bbc0b37e9f",
              "A4": "cb455b6f-78ff-4b1e-b241-c2bbc0b37e9f",
              "IL2": "3307c32c-92cb-4f0d-b270-690fa5a03a93",
              "L1": "90b65bf8-0ffc-4141-8779-2420877af907",
              "L8": {
                "GS2": ""
              }
            }
          ],
          "CL2": "FFFFFFFF",
          "J6": "cb455b6f-78ff-4b1e-b241-c2bbc0b37e9f",
          "J5": "ProcessUserTaskSchemaManager"
        },
        {
          "BL1": "Terrasoft.Core.Process.ProcessSchemaFormulaTask",
          "UId": "560444f6-a0b0-43c4-a056-9923c0c09703",
          "A2": "FormulaTask1",
          "A3": "2fe06334-b0d9-4994-8481-5f86c9aa3c4f",
          "A4": "2fe06334-b0d9-4994-8481-5f86c9aa3c4f",
          "A5": "b18a0f67-6bd3-4ff3-8fa3-c759fb72d073",
          "IL2": "d8caf62e-d70d-4345-9d60-f1771e00c24b",
          "BL3": "260;105",
          "BL7": "d334d28f-b11a-477e-9ff0-0a95fa73d53b",
          "BL8": "2fe06334-b0d9-4994-8481-5f86c9aa3c4f",
          "BN2": "69;55",
          "BO3": true,
          "BP2": [],
          "CL2": "FFFFFFFF",
          "CH1": "[#[IsOwnerSchema:false].[IsSchema:false].[Element:{3307c32c-92cb-4f0d-b270-690fa5a03a93}].[Parameter:{b267fa8a-ecce-4a6d-b46f-f89b83f184db}].[EntityColumn:{a5cca792-47dd-428a-83fb-5c92bdd97ff8}]#]",
          "HS1": "cd5c0573-4fd7-4854-86c9-06aab3b2b313"
        },
        {
          "BL1": "Terrasoft.Core.Process.ProcessSchemaParallelGateway",
          "UId": "668598de-a21c-4d8c-bb93-f752434a51ee",
          "A2": "ParallelGateway1",
          "A3": "2fe06334-b0d9-4994-8481-5f86c9aa3c4f",
          "A4": "2fe06334-b0d9-4994-8481-5f86c9aa3c4f",
          "A5": "b18a0f67-6bd3-4ff3-8fa3-c759fb72d073",
          "IL2": "d8caf62e-d70d-4345-9d60-f1771e00c24b",
          "BL3": "371;170",
          "BL7": "e9e1e6de-7066-4eb1-bbb4-5b75b13d4f56",
          "BL8": "2fe06334-b0d9-4994-8481-5f86c9aa3c4f",
          "BN2": "55;55",
          "BO3": true,
          "CG1": {}
        },
        {
          "BL1": "Terrasoft.Core.Process.ProcessSchemaParallelGateway",
          "UId": "c2d2cf2b-1cb5-4a25-ab82-ed99cfdd7a4e",
          "A2": "ParallelGateway2",
          "A3": "2fe06334-b0d9-4994-8481-5f86c9aa3c4f",
          "A4": "2fe06334-b0d9-4994-8481-5f86c9aa3c4f",
          "A5": "b18a0f67-6bd3-4ff3-8fa3-c759fb72d073",
          "IL2": "d8caf62e-d70d-4345-9d60-f1771e00c24b",
          "BL3": "85;170",
          "BL7": "e9e1e6de-7066-4eb1-bbb4-5b75b13d4f56",
          "BL8": "2fe06334-b0d9-4994-8481-5f86c9aa3c4f",
          "BN2": "55;55",
          "BO3": true,
          "CG1": {}
        },
        {
          "BL1": "Terrasoft.Core.Process.ProcessSchemaUserTask",
          "UId": "54536af1-7f37-4a1d-8887-6934ab5ab3ad",
          "A2": "ReadDataUserTask2",
          "A3": "2fe06334-b0d9-4994-8481-5f86c9aa3c4f",
          "A4": "2fe06334-b0d9-4994-8481-5f86c9aa3c4f",
          "A5": "b18a0f67-6bd3-4ff3-8fa3-c759fb72d073",
          "IL2": "d8caf62e-d70d-4345-9d60-f1771e00c24b",
          "BL3": "151;225",
          "BL7": "cb455b6f-78ff-4b1e-b241-c2bbc0b37e9f",
          "BL8": "2fe06334-b0d9-4994-8481-5f86c9aa3c4f",
          "BN2": "69;55",
          "BO2": true,
          "BO3": true,
          "BP2": [
            {
              "BL1": "Terrasoft.Core.Process.ProcessSchemaParameter",
              "UId": "6e637254-23ef-4dfa-a4ca-132fbbb17eb4",
              "A2": "DataSourceFilters",
              "A3": "cb455b6f-78ff-4b1e-b241-c2bbc0b37e9f",
              "A4": "cb455b6f-78ff-4b1e-b241-c2bbc0b37e9f",
              "A5": "66e9e705-64b4-4dda-925e-d1e05a389eb6",
              "IL2": "54536af1-7f37-4a1d-8887-6934ab5ab3ad",
              "L1": "394e160f-c8e0-46fa-9c0d-75d97e9e9169",
              "L8": {
                "GS1": 1,
                "GS2": "{\"className\":\"Terrasoft.FilterGroup\",\"serializedFilterEditData\":\"{\\\"className\\\":\\\"Terrasoft.FilterGroup\\\",\\\"items\\\":{\\\"5fb72784-b5b0-4ea0-81e4-edce4c155e60\\\":{\\\"className\\\":\\\"Terrasoft.CompareFilter\\\",\\\"filterType\\\":1,\\\"comparisonType\\\":3,\\\"isEnabled\\\":true,\\\"trimDateTimeParameterToDate\\\":false,\\\"leftExpression\\\":{\\\"className\\\":\\\"Terrasoft.ColumnExpression\\\",\\\"expressionType\\\":0,\\\"columnPath\\\":\\\"Id\\\"},\\\"isAggregative\\\":false,\\\"key\\\":\\\"5fb72784-b5b0-4ea0-81e4-edce4c155e60\\\",\\\"dataValueType\\\":0,\\\"leftExpressionCaption\\\":\\\"Id\\\",\\\"rightExpression\\\":{\\\"className\\\":\\\"Terrasoft.ParameterExpression\\\",\\\"expressionType\\\":2,\\\"parameter\\\":{\\\"className\\\":\\\"Terrasoft.Parameter\\\",\\\"dataValueType\\\":26,\\\"value\\\":{\\\"value\\\":\\\"[IsOwnerSchema:false].[IsSchema:false].[Parameter:{c4e0b605-e160-4bb7-988d-6e9cbfd5f17d}]\\\",\\\"displayValue\\\":\\\"Новый ответственный\\\"}}}}},\\\"logicalOperation\\\":0,\\\"isEnabled\\\":true,\\\"filterType\\\":6,\\\"rootSchemaName\\\":\\\"Contact\\\",\\\"key\\\":\\\"\\\"}\",\"dataSourceFilters\":\"{\\\"items\\\":{\\\"5fb72784-b5b0-4ea0-81e4-edce4c155e60\\\":{\\\"filterType\\\":1,\\\"comparisonType\\\":3,\\\"isEnabled\\\":true,\\\"trimDateTimeParameterToDate\\\":false,\\\"leftExpression\\\":{\\\"expressionType\\\":0,\\\"columnPath\\\":\\\"Id\\\"},\\\"rightExpression\\\":{\\\"expressionType\\\":2,\\\"parameter\\\":{\\\"dataValueType\\\":26,\\\"value\\\":{\\\"value\\\":\\\"[IsOwnerSchema:false].[IsSchema:false].[Parameter:{c4e0b605-e160-4bb7-988d-6e9cbfd5f17d}]\\\"}}}}},\\\"logicalOperation\\\":0,\\\"isEnabled\\\":true,\\\"filterType\\\":6,\\\"rootSchemaName\\\":\\\"Contact\\\"}\"}",
                "GS5": "2fe06334-b0d9-4994-8481-5f86c9aa3c4f"
              }
            },
            {
              "BL1": "Terrasoft.Core.Process.ProcessSchemaParameter",
              "UId": "10853cf2-efd3-4e96-9877-c8b12c96aa36",
              "A2": "ResultType",
              "A3": "cb455b6f-78ff-4b1e-b241-c2bbc0b37e9f",
              "A4": "cb455b6f-78ff-4b1e-b241-c2bbc0b37e9f",
              "IL2": "54536af1-7f37-4a1d-8887-6934ab5ab3ad",
              "L1": "6b6b74e2-820d-490e-a017-2b73d4ccf2b0",
              "L8": {
                "GS1": 1,
                "GS2": "0",
                "GS5": "cb455b6f-78ff-4b1e-b241-c2bbc0b37e9f"
              }
            },
            {
              "BL1": "Terrasoft.Core.Process.ProcessSchemaParameter",
              "UId": "731284b1-2c99-4ba3-ad62-12db46e449d3",
              "A2": "ReadSomeTopRecords",
              "A3": "cb455b6f-78ff-4b1e-b241-c2bbc0b37e9f",
              "A4": "cb455b6f-78ff-4b1e-b241-c2bbc0b37e9f",
              "IL2": "54536af1-7f37-4a1d-8887-6934ab5ab3ad",
              "L1": "90b65bf8-0ffc-4141-8779-2420877af907",
              "L8": {
                "GS2": ""
              }
            },
            {
              "BL1": "Terrasoft.Core.Process.ProcessSchemaParameter",
              "UId": "d3bda675-00de-4761-bf1b-6fc43f6798f6",
              "A2": "NumberOfRecords",
              "A3": "cb455b6f-78ff-4b1e-b241-c2bbc0b37e9f",
              "A4": "cb455b6f-78ff-4b1e-b241-c2bbc0b37e9f",
              "IL2": "54536af1-7f37-4a1d-8887-6934ab5ab3ad",
              "L1": "6b6b74e2-820d-490e-a017-2b73d4ccf2b0",
              "L8": {
                "GS2": ""
              }
            },
            {
              "BL1": "Terrasoft.Core.Process.ProcessSchemaParameter",
              "UId": "775e0370-5e0f-4c7d-a6c5-28e46bdd5b60",
              "A2": "FunctionType",
              "A3": "cb455b6f-78ff-4b1e-b241-c2bbc0b37e9f",
              "A4": "cb455b6f-78ff-4b1e-b241-c2bbc0b37e9f",
              "IL2": "54536af1-7f37-4a1d-8887-6934ab5ab3ad",
              "L1": "6b6b74e2-820d-490e-a017-2b73d4ccf2b0",
              "L8": {
                "GS1": 1,
                "GS2": "0",
                "GS5": "2fe06334-b0d9-4994-8481-5f86c9aa3c4f"
              }
            },
            {
              "BL1": "Terrasoft.Core.Process.ProcessSchemaParameter",
              "UId": "9eff1e39-8239-4f88-8fca-560653b9d11c",
              "A2": "AggregationColumnName",
              "A3": "cb455b6f-78ff-4b1e-b241-c2bbc0b37e9f",
              "A4": "cb455b6f-78ff-4b1e-b241-c2bbc0b37e9f",
              "IL2": "54536af1-7f37-4a1d-8887-6934ab5ab3ad",
              "L1": "394e160f-c8e0-46fa-9c0d-75d97e9e9169",
              "L8": {
                "GS2": ""
              }
            },
            {
              "BL1": "Terrasoft.Core.Process.ProcessSchemaParameter",
              "UId": "72d5ac5d-138a-4265-9ff1-9ba87df49723",
              "A2": "OrderInfo",
              "A3": "cb455b6f-78ff-4b1e-b241-c2bbc0b37e9f",
              "A4": "cb455b6f-78ff-4b1e-b241-c2bbc0b37e9f",
              "IL2": "54536af1-7f37-4a1d-8887-6934ab5ab3ad",
              "L1": "394e160f-c8e0-46fa-9c0d-75d97e9e9169",
              "L8": {
                "GS1": 1,
                "GS2": "Name:1:1",
                "GS5": "2fe06334-b0d9-4994-8481-5f86c9aa3c4f"
              }
            },
            {
              "BL1": "Terrasoft.Core.Process.ProcessSchemaParameter",
              "UId": "561e51fb-bc45-439b-b297-e8778f00a99c",
              "A2": "ResultEntity",
              "A3": "cb455b6f-78ff-4b1e-b241-c2bbc0b37e9f",
              "A4": "cb455b6f-78ff-4b1e-b241-c2bbc0b37e9f",
              "A5": "66e9e705-64b4-4dda-925e-d1e05a389eb6",
              "IL2": "54536af1-7f37-4a1d-8887-6934ab5ab3ad",
              "L1": "ebd85d37-0abf-4bbf-bb32-97dc3dffcc8c",
              "L8": {
                "GS1": 1,
                "GS5": "2fe06334-b0d9-4994-8481-5f86c9aa3c4f"
              },
              "L9": "16be3651-8fe2-4159-8dd0-a803d4683dd3",
              "L13": true,
              "L16": "Contact"
            },
            {
              "BL1": "Terrasoft.Core.Process.ProcessSchemaParameter",
              "UId": "ecce4274-d818-4e5b-bb77-4ff84e51f66d",
              "A2": "ResultCount",
              "A3": "cb455b6f-78ff-4b1e-b241-c2bbc0b37e9f",
              "A4": "cb455b6f-78ff-4b1e-b241-c2bbc0b37e9f",
              "IL2": "54536af1-7f37-4a1d-8887-6934ab5ab3ad",
              "L1": "6b6b74e2-820d-490e-a017-2b73d4ccf2b0",
              "L8": {
                "GS2": ""
              }
            },
            {
              "BL1": "Terrasoft.Core.Process.ProcessSchemaParameter",
              "UId": "6552d450-5051-49db-b59e-fa084153355f",
              "A2": "ResultIntegerFunction",
              "A3": "cb455b6f-78ff-4b1e-b241-c2bbc0b37e9f",
              "A4": "cb455b6f-78ff-4b1e-b241-c2bbc0b37e9f",
              "IL2": "54536af1-7f37-4a1d-8887-6934ab5ab3ad",
              "L1": "6b6b74e2-820d-490e-a017-2b73d4ccf2b0",
              "L8": {
                "GS2": ""
              }
            },
            {
              "BL1": "Terrasoft.Core.Process.ProcessSchemaParameter",
              "UId": "869fdf90-1190-48c5-a96a-7df542d4069b",
              "A2": "ResultFloatFunction",
              "A3": "cb455b6f-78ff-4b1e-b241-c2bbc0b37e9f",
              "A4": "cb455b6f-78ff-4b1e-b241-c2bbc0b37e9f",
              "IL2": "54536af1-7f37-4a1d-8887-6934ab5ab3ad",
              "L1": "ff22e049-4d16-46ee-a529-92d8808932dc",
              "L8": {
                "GS2": ""
              }
            },
            {
              "BL1": "Terrasoft.Core.Process.ProcessSchemaParameter",
              "UId": "fe840a7b-2aef-4c15-8028-c2c5ff63c43d",
              "A2": "ResultDateTimeFunction",
              "A3": "cb455b6f-78ff-4b1e-b241-c2bbc0b37e9f",
              "A4": "cb455b6f-78ff-4b1e-b241-c2bbc0b37e9f",
              "IL2": "54536af1-7f37-4a1d-8887-6934ab5ab3ad",
              "L1": "d21e9ef4-c064-4012-b286-fa1a8171da44",
              "L8": {
                "GS2": ""
              }
            },
            {
              "BL1": "Terrasoft.Core.Process.ProcessSchemaParameter",
              "UId": "e6fbdc24-1e4b-4315-90ba-4ac4702f6f55",
              "A2": "ResultRowsCount",
              "A3": "cb455b6f-78ff-4b1e-b241-c2bbc0b37e9f",
              "A4": "cb455b6f-78ff-4b1e-b241-c2bbc0b37e9f",
              "IL2": "54536af1-7f37-4a1d-8887-6934ab5ab3ad",
              "L1": "6b6b74e2-820d-490e-a017-2b73d4ccf2b0",
              "L8": {
                "GS2": ""
              }
            },
            {
              "BL1": "Terrasoft.Core.Process.ProcessSchemaParameter",
              "UId": "f5636dee-fc35-4804-9666-87afef36bc11",
              "A2": "CanReadUncommitedData",
              "A3": "cb455b6f-78ff-4b1e-b241-c2bbc0b37e9f",
              "A4": "cb455b6f-78ff-4b1e-b241-c2bbc0b37e9f",
              "IL2": "54536af1-7f37-4a1d-8887-6934ab5ab3ad",
              "L1": "90b65bf8-0ffc-4141-8779-2420877af907",
              "L8": {
                "GS1": 1,
                "GS2": "true",
                "GS5": "cb455b6f-78ff-4b1e-b241-c2bbc0b37e9f"
              }
            },
            {
              "BL1": "Terrasoft.Core.Process.ProcessSchemaParameter",
              "UId": "5c1291e1-be94-43bb-a2b3-6b8104d61634",
              "A2": "ResultEntityCollection",
              "A3": "cb455b6f-78ff-4b1e-b241-c2bbc0b37e9f",
              "A4": "cb455b6f-78ff-4b1e-b241-c2bbc0b37e9f",
              "IL2": "54536af1-7f37-4a1d-8887-6934ab5ab3ad",
              "L1": "51fb23ba-3eb2-11e2-b7d5-b0c76188709b",
              "L8": {
                "GS2": ""
              }
            },
            {
              "BL1": "Terrasoft.Core.Process.ProcessSchemaParameter",
              "UId": "273e671e-8ec4-41d4-a90a-24198e4d3aaf",
              "A2": "EntityColumnMetaPathes",
              "A3": "cb455b6f-78ff-4b1e-b241-c2bbc0b37e9f",
              "A4": "cb455b6f-78ff-4b1e-b241-c2bbc0b37e9f",
              "IL2": "54536af1-7f37-4a1d-8887-6934ab5ab3ad",
              "L1": "394e160f-c8e0-46fa-9c0d-75d97e9e9169",
              "L8": {
                "GS1": 1,
                "GS2": "a5cca792-47dd-428a-83fb-5c92bdd97ff8",
                "GS5": "2fe06334-b0d9-4994-8481-5f86c9aa3c4f"
              }
            },
            {
              "BL1": "Terrasoft.Core.Process.ProcessSchemaParameter",
              "UId": "5f20d6cd-5baa-4b3f-944e-1d2a539ae7ee",
              "A2": "IgnoreDisplayValues",
              "A3": "cb455b6f-78ff-4b1e-b241-c2bbc0b37e9f",
              "A4": "cb455b6f-78ff-4b1e-b241-c2bbc0b37e9f",
              "IL2": "54536af1-7f37-4a1d-8887-6934ab5ab3ad",
              "L1": "90b65bf8-0ffc-4141-8779-2420877af907",
              "L8": {
                "GS2": ""
              }
            }
          ],
          "CL2": "FFFFFFFF",
          "J6": "cb455b6f-78ff-4b1e-b241-c2bbc0b37e9f",
          "J5": "ProcessUserTaskSchemaManager"
        },
        {
          "BL1": "Terrasoft.Core.Process.ProcessSchemaFormulaTask",
          "UId": "f1f431ad-78f1-4476-a5b4-1cf511126e2a",
          "A2": "FormulaTask2",
          "A3": "2fe06334-b0d9-4994-8481-5f86c9aa3c4f",
          "A4": "2fe06334-b0d9-4994-8481-5f86c9aa3c4f",
          "A5": "b18a0f67-6bd3-4ff3-8fa3-c759fb72d073",
          "IL2": "d8caf62e-d70d-4345-9d60-f1771e00c24b",
          "BL3": "260;225",
          "BL7": "d334d28f-b11a-477e-9ff0-0a95fa73d53b",
          "BL8": "2fe06334-b0d9-4994-8481-5f86c9aa3c4f",
          "BN2": "69;55",
          "BO3": true,
          "BP2": [],
          "CL2": "FFFFFFFF",
          "CH1": "[#[IsOwnerSchema:false].[IsSchema:false].[Element:{54536af1-7f37-4a1d-8887-6934ab5ab3ad}].[Parameter:{561e51fb-bc45-439b-b297-e8778f00a99c}].[EntityColumn:{a5cca792-47dd-428a-83fb-5c92bdd97ff8}]#]",
          "HS1": "30341035-5398-40f0-a28d-fce0de9a00b7"
        },
        {
          "BL1": "Terrasoft.Core.Process.ProcessSchemaSequenceFlow",
          "UId": "f614b8c3-b312-457c-8e9f-fa47a0c413bf",
          "A2": "SequenceFlow1",
          "A3": "2fe06334-b0d9-4994-8481-5f86c9aa3c4f",
          "A4": "2fe06334-b0d9-4994-8481-5f86c9aa3c4f",
          "A5": "b18a0f67-6bd3-4ff3-8fa3-c759fb72d073",
          "BL7": "0d8351f6-c2f4-4737-bdd9-6fbfe0837fec",
          "BL8": "2fe06334-b0d9-4994-8481-5f86c9aa3c4f",
          "CI1": "a05aad8d-5d4e-47fe-a975-6d73118c57be",
          "CI2": "c2d2cf2b-1cb5-4a25-ab82-ed99cfdd7a4e",
          "CI3": "null",
          "CI5": "FF939598",
          "CI6": 1,
          "CI8": "-1;0"
        },
        {
          "BL1": "Terrasoft.Core.Process.ProcessSchemaSequenceFlow",
          "UId": "d0b64e05-59ad-43fa-ac97-f909281b46c0",
          "A2": "SequenceFlow2",
          "A3": "2fe06334-b0d9-4994-8481-5f86c9aa3c4f",
          "A4": "2fe06334-b0d9-4994-8481-5f86c9aa3c4f",
          "A5": "b18a0f67-6bd3-4ff3-8fa3-c759fb72d073",
          "BL7": "0d8351f6-c2f4-4737-bdd9-6fbfe0837fec",
          "BL8": "2fe06334-b0d9-4994-8481-5f86c9aa3c4f",
          "CI1": "7819af7c-8d49-41f2-8fde-0f63d3931df5",
          "CI2": "9805c6d1-7a8f-49dc-b443-7a1c7eaba433",
          "CI3": "null",
          "CI5": "FF939598",
          "CI6": 1,
          "CI7": "1;0",
          "CI8": "-1;0"
        },
        {
          "BL1": "Terrasoft.Core.Process.ProcessSchemaSequenceFlow",
          "UId": "3bcc49c0-a191-4d0d-a0db-f3811d9ec0bb",
          "A2": "SequenceFlow3",
          "A3": "2fe06334-b0d9-4994-8481-5f86c9aa3c4f",
          "A4": "2fe06334-b0d9-4994-8481-5f86c9aa3c4f",
          "A5": "b18a0f67-6bd3-4ff3-8fa3-c759fb72d073",
          "BL7": "0d8351f6-c2f4-4737-bdd9-6fbfe0837fec",
          "BL8": "2fe06334-b0d9-4994-8481-5f86c9aa3c4f",
          "CI1": "668598de-a21c-4d8c-bb93-f752434a51ee",
          "CI2": "7819af7c-8d49-41f2-8fde-0f63d3931df5",
          "CI3": "null",
          "CI5": "FF939598",
          "CI6": 1,
          "CI7": "1;0",
          "CI8": "-1;0"
        },
        {
          "BL1": "Terrasoft.Core.Process.ProcessSchemaSequenceFlow",
          "UId": "e9a43217-de28-44cd-adfe-649982490133",
          "A2": "SequenceFlow4",
          "A3": "2fe06334-b0d9-4994-8481-5f86c9aa3c4f",
          "A4": "2fe06334-b0d9-4994-8481-5f86c9aa3c4f",
          "A5": "b18a0f67-6bd3-4ff3-8fa3-c759fb72d073",
          "BL7": "0d8351f6-c2f4-4737-bdd9-6fbfe0837fec",
          "BL8": "2fe06334-b0d9-4994-8481-5f86c9aa3c4f",
          "CI1": "3307c32c-92cb-4f0d-b270-690fa5a03a93",
          "CI2": "560444f6-a0b0-43c4-a056-9923c0c09703",
          "CI3": "null",
          "CI5": "FF939598",
          "CI6": 1,
          "CI7": "1;0",
          "CI8": "-1;0"
        },
        {
          "BL1": "Terrasoft.Core.Process.ProcessSchemaSequenceFlow",
          "UId": "b7a6037f-bfd5-4415-bd17-43d34e7301e2",
          "A2": "SequenceFlow6",
          "A3": "2fe06334-b0d9-4994-8481-5f86c9aa3c4f",
          "A4": "2fe06334-b0d9-4994-8481-5f86c9aa3c4f",
          "A5": "b18a0f67-6bd3-4ff3-8fa3-c759fb72d073",
          "BL7": "0d8351f6-c2f4-4737-bdd9-6fbfe0837fec",
          "BL8": "2fe06334-b0d9-4994-8481-5f86c9aa3c4f",
          "CI1": "c2d2cf2b-1cb5-4a25-ab82-ed99cfdd7a4e",
          "CI2": "3307c32c-92cb-4f0d-b270-690fa5a03a93",
          "CI3": "null",
          "CI5": "FF939598",
          "CI6": 1,
          "CI7": "0;1",
          "CI8": "-1;0",
          "CI10": {
            "Item0": "112;132"
          }
        },
        {
          "BL1": "Terrasoft.Core.Process.ProcessSchemaSequenceFlow",
          "UId": "9f5dba54-4f75-492e-aca2-9ca3bc3ce108",
          "A2": "SequenceFlow5",
          "A3": "2fe06334-b0d9-4994-8481-5f86c9aa3c4f",
          "A4": "2fe06334-b0d9-4994-8481-5f86c9aa3c4f",
          "A5": "b18a0f67-6bd3-4ff3-8fa3-c759fb72d073",
          "BL7": "0d8351f6-c2f4-4737-bdd9-6fbfe0837fec",
          "BL8": "2fe06334-b0d9-4994-8481-5f86c9aa3c4f",
          "CI1": "560444f6-a0b0-43c4-a056-9923c0c09703",
          "CI2": "668598de-a21c-4d8c-bb93-f752434a51ee",
          "CI3": "null",
          "CI5": "FF939598",
          "CI6": 1,
          "CI7": "1;0",
          "CI8": "0;1",
          "CI10": {
            "Item0": "399;132"
          }
        },
        {
          "BL1": "Terrasoft.Core.Process.ProcessSchemaSequenceFlow",
          "UId": "770eacb0-9a5a-4ffb-8b8d-4fa383950a88",
          "A2": "SequenceFlow7",
          "A3": "2fe06334-b0d9-4994-8481-5f86c9aa3c4f",
          "A4": "2fe06334-b0d9-4994-8481-5f86c9aa3c4f",
          "A5": "b18a0f67-6bd3-4ff3-8fa3-c759fb72d073",
          "BL7": "0d8351f6-c2f4-4737-bdd9-6fbfe0837fec",
          "BL8": "2fe06334-b0d9-4994-8481-5f86c9aa3c4f",
          "CI1": "c2d2cf2b-1cb5-4a25-ab82-ed99cfdd7a4e",
          "CI2": "54536af1-7f37-4a1d-8887-6934ab5ab3ad",
          "CI3": "null",
          "CI5": "FF939598",
          "CI6": 1,
          "CI7": "0;-1",
          "CI8": "-1;0",
          "CI10": {
            "Item0": "112;252"
          }
        },
        {
          "BL1": "Terrasoft.Core.Process.ProcessSchemaSequenceFlow",
          "UId": "2f05b521-f2bd-48ef-8e86-9404f0f222e3",
          "A2": "SequenceFlow8",
          "A3": "2fe06334-b0d9-4994-8481-5f86c9aa3c4f",
          "A4": "2fe06334-b0d9-4994-8481-5f86c9aa3c4f",
          "A5": "b18a0f67-6bd3-4ff3-8fa3-c759fb72d073",
          "BL7": "0d8351f6-c2f4-4737-bdd9-6fbfe0837fec",
          "BL8": "2fe06334-b0d9-4994-8481-5f86c9aa3c4f",
          "CI1": "54536af1-7f37-4a1d-8887-6934ab5ab3ad",
          "CI2": "f1f431ad-78f1-4476-a5b4-1cf511126e2a",
          "CI3": "null",
          "CI5": "FF939598",
          "CI6": 1,
          "CI7": "1;0",
          "CI8": "-1;0"
        },
        {
          "BL1": "Terrasoft.Core.Process.ProcessSchemaSequenceFlow",
          "UId": "4f806389-8aa4-486e-8b3f-5d424512b3d1",
          "A2": "SequenceFlow9",
          "A3": "2fe06334-b0d9-4994-8481-5f86c9aa3c4f",
          "A4": "2fe06334-b0d9-4994-8481-5f86c9aa3c4f",
          "A5": "b18a0f67-6bd3-4ff3-8fa3-c759fb72d073",
          "BL7": "0d8351f6-c2f4-4737-bdd9-6fbfe0837fec",
          "BL8": "2fe06334-b0d9-4994-8481-5f86c9aa3c4f",
          "CI1": "f1f431ad-78f1-4476-a5b4-1cf511126e2a",
          "CI2": "668598de-a21c-4d8c-bb93-f752434a51ee",
          "CI3": "null",
          "CI5": "FF939598",
          "CI6": 1,
          "CI7": "1;0",
          "CI8": "0;-1",
          "CI10": {
            "Item0": "399;252"
          }
        }
      ],
      "BK9": [],
      "BK8": "bb4d6607-026b-4b27-b640-8f5c77c1e89d",
      "BK18": "Business Process",
      "BK15": [
        {
          "BL1": "Terrasoft.Core.Process.ProcessSchemaMapping",
          "UId": "2273e346-24e0-4b2f-82ad-6c316b64b0d1",
          "A2": "ReadDataUserTask1",
          "A3": "2fe06334-b0d9-4994-8481-5f86c9aa3c4f",
          "A4": "2fe06334-b0d9-4994-8481-5f86c9aa3c4f",
          "GT2": "[Element:{3307c32c-92cb-4f0d-b270-690fa5a03a93}].[Parameter:{02ab618b-f213-477d-8abf-f68729613446}]",
          "GT3": "02ab618b-f213-477d-8abf-f68729613446",
          "GT5": "5d9ac9a7-7782-49ce-8990-dcb1c73832b0",
          "GT4": "cb455b6f-78ff-4b1e-b241-c2bbc0b37e9f",
          "GT1": {
            "GS1": 1,
            "GS2": "{\"className\":\"Terrasoft.FilterGroup\",\"serializedFilterEditData\":\"{\\\"className\\\":\\\"Terrasoft.FilterGroup\\\",\\\"items\\\":{\\\"a83bbf38-ce4d-4fb5-8983-38bc2e6692e4\\\":{\\\"className\\\":\\\"Terrasoft.CompareFilter\\\",\\\"filterType\\\":1,\\\"comparisonType\\\":3,\\\"isEnabled\\\":true,\\\"trimDateTimeParameterToDate\\\":false,\\\"leftExpression\\\":{\\\"className\\\":\\\"Terrasoft.ColumnExpression\\\",\\\"expressionType\\\":0,\\\"columnPath\\\":\\\"Id\\\"},\\\"isAggregative\\\":false,\\\"key\\\":\\\"a83bbf38-ce4d-4fb5-8983-38bc2e6692e4\\\",\\\"dataValueType\\\":0,\\\"leftExpressionCaption\\\":\\\"Id\\\",\\\"rightExpression\\\":{\\\"className\\\":\\\"Terrasoft.ParameterExpression\\\",\\\"expressionType\\\":2,\\\"parameter\\\":{\\\"className\\\":\\\"Terrasoft.Parameter\\\",\\\"dataValueType\\\":26,\\\"value\\\":{\\\"value\\\":\\\"[IsOwnerSchema:false].[IsSchema:false].[Parameter:{56ca6b63-face-4025-9127-bd374457e826}]\\\",\\\"displayValue\\\":\\\"Старый ответственный\\\"}}}}},\\\"logicalOperation\\\":0,\\\"isEnabled\\\":true,\\\"filterType\\\":6,\\\"rootSchemaName\\\":\\\"Contact\\\",\\\"key\\\":\\\"\\\"}\",\"dataSourceFilters\":\"{\\\"items\\\":{\\\"a83bbf38-ce4d-4fb5-8983-38bc2e6692e4\\\":{\\\"filterType\\\":1,\\\"comparisonType\\\":3,\\\"isEnabled\\\":true,\\\"trimDateTimeParameterToDate\\\":false,\\\"leftExpression\\\":{\\\"expressionType\\\":0,\\\"columnPath\\\":\\\"Id\\\"},\\\"rightExpression\\\":{\\\"expressionType\\\":2,\\\"parameter\\\":{\\\"dataValueType\\\":26,\\\"value\\\":{\\\"value\\\":\\\"[IsOwnerSchema:false].[IsSchema:false].[Parameter:{56ca6b63-face-4025-9127-bd374457e826}]\\\"}}}}},\\\"logicalOperation\\\":0,\\\"isEnabled\\\":true,\\\"filterType\\\":6,\\\"rootSchemaName\\\":\\\"Contact\\\"}\"}",
            "GS5": "2fe06334-b0d9-4994-8481-5f86c9aa3c4f"
          }
        },
        {
          "BL1": "Terrasoft.Core.Process.ProcessSchemaMapping",
          "UId": "3e83eaf7-c99a-4565-a292-97b0d0a00d3b",
          "A2": "ReadDataUserTask1",
          "A3": "2fe06334-b0d9-4994-8481-5f86c9aa3c4f",
          "A4": "2fe06334-b0d9-4994-8481-5f86c9aa3c4f",
          "GT2": "[Element:{3307c32c-92cb-4f0d-b270-690fa5a03a93}].[Parameter:{cc4dd2e9-6023-46e6-81cb-353e9c692c78}]",
          "GT3": "cc4dd2e9-6023-46e6-81cb-353e9c692c78",
          "GT5": "643e4d6d-7ec8-49f0-842a-066a996fbe8b",
          "GT4": "cb455b6f-78ff-4b1e-b241-c2bbc0b37e9f",
          "GT1": {
            "GS1": 1,
            "GS2": "0",
            "GS5": "cb455b6f-78ff-4b1e-b241-c2bbc0b37e9f"
          }
        },
        {
          "BL1": "Terrasoft.Core.Process.ProcessSchemaMapping",
          "UId": "4f34246e-8546-4984-b905-e75dd6614236",
          "A2": "ReadDataUserTask1",
          "A3": "2fe06334-b0d9-4994-8481-5f86c9aa3c4f",
          "A4": "2fe06334-b0d9-4994-8481-5f86c9aa3c4f",
          "GT2": "[Element:{3307c32c-92cb-4f0d-b270-690fa5a03a93}].[Parameter:{1ad33149-4e9f-400a-b435-df5ed6adc73f}]",
          "GT3": "1ad33149-4e9f-400a-b435-df5ed6adc73f",
          "GT5": "29115add-7520-4ad4-8371-d91f537ac913",
          "GT4": "cb455b6f-78ff-4b1e-b241-c2bbc0b37e9f",
          "GT1": {
            "GS2": ""
          }
        },
        {
          "BL1": "Terrasoft.Core.Process.ProcessSchemaMapping",
          "UId": "88e065e9-7214-448b-9010-a983374f0ee5",
          "A2": "ReadDataUserTask1",
          "A3": "2fe06334-b0d9-4994-8481-5f86c9aa3c4f",
          "A4": "2fe06334-b0d9-4994-8481-5f86c9aa3c4f",
          "GT2": "[Element:{3307c32c-92cb-4f0d-b270-690fa5a03a93}].[Parameter:{20d7e783-8558-4980-b085-4e76ef4711da}]",
          "GT3": "20d7e783-8558-4980-b085-4e76ef4711da",
          "GT5": "f29e5660-c5ef-4d84-8331-9046c3093519",
          "GT4": "cb455b6f-78ff-4b1e-b241-c2bbc0b37e9f",
          "GT1": {
            "GS2": ""
          }
        },
        {
          "BL1": "Terrasoft.Core.Process.ProcessSchemaMapping",
          "UId": "301b9054-9788-497f-bb74-598e9333741b",
          "A2": "ReadDataUserTask1",
          "A3": "2fe06334-b0d9-4994-8481-5f86c9aa3c4f",
          "A4": "2fe06334-b0d9-4994-8481-5f86c9aa3c4f",
          "GT2": "[Element:{3307c32c-92cb-4f0d-b270-690fa5a03a93}].[Parameter:{3aea9960-eaf4-423b-910a-720fa7ffffb4}]",
          "GT3": "3aea9960-eaf4-423b-910a-720fa7ffffb4",
          "GT5": "94ba9876-18c1-4a68-bcef-08f7e7f0e25c",
          "GT4": "cb455b6f-78ff-4b1e-b241-c2bbc0b37e9f",
          "GT1": {
            "GS1": 1,
            "GS2": "0",
            "GS5": "2fe06334-b0d9-4994-8481-5f86c9aa3c4f"
          }
        },
        {
          "BL1": "Terrasoft.Core.Process.ProcessSchemaMapping",
          "UId": "a30c2224-3763-4a1c-b0b9-1e5bdea25e86",
          "A2": "ReadDataUserTask1",
          "A3": "2fe06334-b0d9-4994-8481-5f86c9aa3c4f",
          "A4": "2fe06334-b0d9-4994-8481-5f86c9aa3c4f",
          "GT2": "[Element:{3307c32c-92cb-4f0d-b270-690fa5a03a93}].[Parameter:{5229b845-7b17-41e5-a7b9-f0ddbd3cac90}]",
          "GT3": "5229b845-7b17-41e5-a7b9-f0ddbd3cac90",
          "GT5": "cb5d6d26-7e81-4cbe-8730-8b7169000d14",
          "GT4": "cb455b6f-78ff-4b1e-b241-c2bbc0b37e9f",
          "GT1": {
            "GS2": ""
          }
        },
        {
          "BL1": "Terrasoft.Core.Process.ProcessSchemaMapping",
          "UId": "3faaf445-3fdd-49bd-a33e-3536d1c18718",
          "A2": "ReadDataUserTask1",
          "A3": "2fe06334-b0d9-4994-8481-5f86c9aa3c4f",
          "A4": "2fe06334-b0d9-4994-8481-5f86c9aa3c4f",
          "GT2": "[Element:{3307c32c-92cb-4f0d-b270-690fa5a03a93}].[Parameter:{06caea51-3565-4caf-94aa-290a3b239ac6}]",
          "GT3": "06caea51-3565-4caf-94aa-290a3b239ac6",
          "GT5": "473e79e2-727e-40a7-8829-7eefc576b403",
          "GT4": "cb455b6f-78ff-4b1e-b241-c2bbc0b37e9f",
          "GT1": {
            "GS1": 1,
            "GS2": "Name:1:1",
            "GS5": "2fe06334-b0d9-4994-8481-5f86c9aa3c4f"
          }
        },
        {
          "BL1": "Terrasoft.Core.Process.ProcessSchemaMapping",
          "UId": "92648fe9-c15c-4ae5-9156-ba773ee90de5",
          "A2": "ReadDataUserTask1",
          "A3": "2fe06334-b0d9-4994-8481-5f86c9aa3c4f",
          "A4": "2fe06334-b0d9-4994-8481-5f86c9aa3c4f",
          "GT2": "[Element:{3307c32c-92cb-4f0d-b270-690fa5a03a93}].[Parameter:{b267fa8a-ecce-4a6d-b46f-f89b83f184db}]",
          "GT3": "b267fa8a-ecce-4a6d-b46f-f89b83f184db",
          "GT5": "e2fced10-4842-423e-ada0-523bf7ea8ad3",
          "GT4": "cb455b6f-78ff-4b1e-b241-c2bbc0b37e9f",
          "GT1": {
            "GS1": 1,
            "GS5": "2fe06334-b0d9-4994-8481-5f86c9aa3c4f"
          }
        },
        {
          "BL1": "Terrasoft.Core.Process.ProcessSchemaMapping",
          "UId": "61c64ca5-768e-481c-a404-6ca860dd92d1",
          "A2": "ReadDataUserTask1",
          "A3": "2fe06334-b0d9-4994-8481-5f86c9aa3c4f",
          "A4": "2fe06334-b0d9-4994-8481-5f86c9aa3c4f",
          "GT2": "[Element:{3307c32c-92cb-4f0d-b270-690fa5a03a93}].[Parameter:{03e5f9ec-8bd2-4ede-a1d0-a5ad9a11c7d5}]",
          "GT3": "03e5f9ec-8bd2-4ede-a1d0-a5ad9a11c7d5",
          "GT5": "2e63ea99-8125-4254-88bd-20d3610bd471",
          "GT4": "cb455b6f-78ff-4b1e-b241-c2bbc0b37e9f",
          "GT1": {
            "GS2": ""
          }
        },
        {
          "BL1": "Terrasoft.Core.Process.ProcessSchemaMapping",
          "UId": "b96396b1-cd33-43ee-b603-daa2f858f55e",
          "A2": "ReadDataUserTask1",
          "A3": "2fe06334-b0d9-4994-8481-5f86c9aa3c4f",
          "A4": "2fe06334-b0d9-4994-8481-5f86c9aa3c4f",
          "GT2": "[Element:{3307c32c-92cb-4f0d-b270-690fa5a03a93}].[Parameter:{7c21d376-e793-4e40-9e04-033dca19b69b}]",
          "GT3": "7c21d376-e793-4e40-9e04-033dca19b69b",
          "GT5": "a3660fce-a8f9-4a68-a3c1-b4f2f7983635",
          "GT4": "cb455b6f-78ff-4b1e-b241-c2bbc0b37e9f",
          "GT1": {
            "GS2": ""
          }
        },
        {
          "BL1": "Terrasoft.Core.Process.ProcessSchemaMapping",
          "UId": "f63d9f3c-7eef-4092-a273-6836c44bb241",
          "A2": "ReadDataUserTask1",
          "A3": "2fe06334-b0d9-4994-8481-5f86c9aa3c4f",
          "A4": "2fe06334-b0d9-4994-8481-5f86c9aa3c4f",
          "GT2": "[Element:{3307c32c-92cb-4f0d-b270-690fa5a03a93}].[Parameter:{cd1a2904-9945-4535-b325-6ef919ca1674}]",
          "GT3": "cd1a2904-9945-4535-b325-6ef919ca1674",
          "GT5": "9a594933-75da-4304-b6a3-5945dba159e3",
          "GT4": "cb455b6f-78ff-4b1e-b241-c2bbc0b37e9f",
          "GT1": {
            "GS2": ""
          }
        },
        {
          "BL1": "Terrasoft.Core.Process.ProcessSchemaMapping",
          "UId": "1b1992e9-9ac5-476b-90b5-9346003cd166",
          "A2": "ReadDataUserTask1",
          "A3": "2fe06334-b0d9-4994-8481-5f86c9aa3c4f",
          "A4": "2fe06334-b0d9-4994-8481-5f86c9aa3c4f",
          "GT2": "[Element:{3307c32c-92cb-4f0d-b270-690fa5a03a93}].[Parameter:{7a8ac5c3-ceeb-427f-8594-f6259894d7d3}]",
          "GT3": "7a8ac5c3-ceeb-427f-8594-f6259894d7d3",
          "GT5": "11fb235f-c06a-4111-84cd-a5dbf9a440d5",
          "GT4": "cb455b6f-78ff-4b1e-b241-c2bbc0b37e9f",
          "GT1": {
            "GS2": ""
          }
        },
        {
          "BL1": "Terrasoft.Core.Process.ProcessSchemaMapping",
          "UId": "8ff2d94c-d82d-4796-bfdc-88f9b4a15c92",
          "A2": "ReadDataUserTask1",
          "A3": "2fe06334-b0d9-4994-8481-5f86c9aa3c4f",
          "A4": "2fe06334-b0d9-4994-8481-5f86c9aa3c4f",
          "GT2": "[Element:{3307c32c-92cb-4f0d-b270-690fa5a03a93}].[Parameter:{b1d33487-3d60-466c-b1ab-3359bcd32f76}]",
          "GT3": "b1d33487-3d60-466c-b1ab-3359bcd32f76",
          "GT5": "78252e95-b759-416a-9c48-c128fbdf59ef",
          "GT4": "cb455b6f-78ff-4b1e-b241-c2bbc0b37e9f",
          "GT1": {
            "GS2": ""
          }
        },
        {
          "BL1": "Terrasoft.Core.Process.ProcessSchemaMapping",
          "UId": "48416b71-71a0-473a-bb37-d2094dff0fc7",
          "A2": "ReadDataUserTask1",
          "A3": "2fe06334-b0d9-4994-8481-5f86c9aa3c4f",
          "A4": "2fe06334-b0d9-4994-8481-5f86c9aa3c4f",
          "GT2": "[Element:{3307c32c-92cb-4f0d-b270-690fa5a03a93}].[Parameter:{f28e5581-8781-4d3c-90c7-ed00d00eb0bb}]",
          "GT3": "f28e5581-8781-4d3c-90c7-ed00d00eb0bb",
          "GT5": "2f797429-6f43-4594-96bb-62fbc7b7deec",
          "GT4": "cb455b6f-78ff-4b1e-b241-c2bbc0b37e9f",
          "GT1": {
            "GS1": 1,
            "GS2": "true",
            "GS5": "cb455b6f-78ff-4b1e-b241-c2bbc0b37e9f"
          }
        },
        {
          "BL1": "Terrasoft.Core.Process.ProcessSchemaMapping",
          "UId": "8b20384c-73db-44fb-828d-67d5a0d3e149",
          "A2": "ReadDataUserTask1",
          "A3": "2fe06334-b0d9-4994-8481-5f86c9aa3c4f",
          "A4": "2fe06334-b0d9-4994-8481-5f86c9aa3c4f",
          "GT2": "[Element:{3307c32c-92cb-4f0d-b270-690fa5a03a93}].[Parameter:{57671b1e-54c8-40ba-b0d0-937c85711c10}]",
          "GT3": "57671b1e-54c8-40ba-b0d0-937c85711c10",
          "GT5": "be4a0d16-6a15-41cf-ac44-a8b757565428",
          "GT4": "cb455b6f-78ff-4b1e-b241-c2bbc0b37e9f",
          "GT1": {
            "GS2": ""
          }
        },
        {
          "BL1": "Terrasoft.Core.Process.ProcessSchemaMapping",
          "UId": "d514c021-ec66-483a-9d8c-80379639af8f",
          "A2": "ReadDataUserTask1",
          "A3": "2fe06334-b0d9-4994-8481-5f86c9aa3c4f",
          "A4": "2fe06334-b0d9-4994-8481-5f86c9aa3c4f",
          "GT2": "[Element:{3307c32c-92cb-4f0d-b270-690fa5a03a93}].[Parameter:{74c41c35-6bb9-497a-90f8-b03f6619085d}]",
          "GT3": "74c41c35-6bb9-497a-90f8-b03f6619085d",
          "GT5": "cc12005f-f434-4a40-b9d0-dc8f81755545",
          "GT4": "cb455b6f-78ff-4b1e-b241-c2bbc0b37e9f",
          "GT1": {
            "GS1": 1,
            "GS2": "a5cca792-47dd-428a-83fb-5c92bdd97ff8",
            "GS5": "2fe06334-b0d9-4994-8481-5f86c9aa3c4f"
          }
        },
        {
          "BL1": "Terrasoft.Core.Process.ProcessSchemaMapping",
          "UId": "4dc0b78e-4db4-458d-994d-10597799656b",
          "A2": "ReadDataUserTask1",
          "A3": "2fe06334-b0d9-4994-8481-5f86c9aa3c4f",
          "A4": "2fe06334-b0d9-4994-8481-5f86c9aa3c4f",
          "GT2": "[Element:{3307c32c-92cb-4f0d-b270-690fa5a03a93}].[Parameter:{f1e2924a-ad48-43c7-b870-6f3e36de2f8c}]",
          "GT3": "f1e2924a-ad48-43c7-b870-6f3e36de2f8c",
          "GT5": "6dada847-859b-4e0a-9297-b3c9572530b6",
          "GT4": "cb455b6f-78ff-4b1e-b241-c2bbc0b37e9f",
          "GT1": {
            "GS2": ""
          }
        },
        {
          "BL1": "Terrasoft.Core.Process.ProcessSchemaMapping",
          "UId": "81b587bb-aee5-4dc0-ad49-7678d4bd35bf",
          "A2": "ReadDataUserTask2",
          "A3": "2fe06334-b0d9-4994-8481-5f86c9aa3c4f",
          "A4": "2fe06334-b0d9-4994-8481-5f86c9aa3c4f",
          "GT2": "[Element:{54536af1-7f37-4a1d-8887-6934ab5ab3ad}].[Parameter:{6e637254-23ef-4dfa-a4ca-132fbbb17eb4}]",
          "GT3": "6e637254-23ef-4dfa-a4ca-132fbbb17eb4",
          "GT5": "5d9ac9a7-7782-49ce-8990-dcb1c73832b0",
          "GT4": "cb455b6f-78ff-4b1e-b241-c2bbc0b37e9f",
          "GT1": {
            "GS1": 1,
            "GS2": "{\"className\":\"Terrasoft.FilterGroup\",\"serializedFilterEditData\":\"{\\\"className\\\":\\\"Terrasoft.FilterGroup\\\",\\\"items\\\":{\\\"5fb72784-b5b0-4ea0-81e4-edce4c155e60\\\":{\\\"className\\\":\\\"Terrasoft.CompareFilter\\\",\\\"filterType\\\":1,\\\"comparisonType\\\":3,\\\"isEnabled\\\":true,\\\"trimDateTimeParameterToDate\\\":false,\\\"leftExpression\\\":{\\\"className\\\":\\\"Terrasoft.ColumnExpression\\\",\\\"expressionType\\\":0,\\\"columnPath\\\":\\\"Id\\\"},\\\"isAggregative\\\":false,\\\"key\\\":\\\"5fb72784-b5b0-4ea0-81e4-edce4c155e60\\\",\\\"dataValueType\\\":0,\\\"leftExpressionCaption\\\":\\\"Id\\\",\\\"rightExpression\\\":{\\\"className\\\":\\\"Terrasoft.ParameterExpression\\\",\\\"expressionType\\\":2,\\\"parameter\\\":{\\\"className\\\":\\\"Terrasoft.Parameter\\\",\\\"dataValueType\\\":26,\\\"value\\\":{\\\"value\\\":\\\"[IsOwnerSchema:false].[IsSchema:false].[Parameter:{c4e0b605-e160-4bb7-988d-6e9cbfd5f17d}]\\\",\\\"displayValue\\\":\\\"Новый ответственный\\\"}}}}},\\\"logicalOperation\\\":0,\\\"isEnabled\\\":true,\\\"filterType\\\":6,\\\"rootSchemaName\\\":\\\"Contact\\\",\\\"key\\\":\\\"\\\"}\",\"dataSourceFilters\":\"{\\\"items\\\":{\\\"5fb72784-b5b0-4ea0-81e4-edce4c155e60\\\":{\\\"filterType\\\":1,\\\"comparisonType\\\":3,\\\"isEnabled\\\":true,\\\"trimDateTimeParameterToDate\\\":false,\\\"leftExpression\\\":{\\\"expressionType\\\":0,\\\"columnPath\\\":\\\"Id\\\"},\\\"rightExpression\\\":{\\\"expressionType\\\":2,\\\"parameter\\\":{\\\"dataValueType\\\":26,\\\"value\\\":{\\\"value\\\":\\\"[IsOwnerSchema:false].[IsSchema:false].[Parameter:{c4e0b605-e160-4bb7-988d-6e9cbfd5f17d}]\\\"}}}}},\\\"logicalOperation\\\":0,\\\"isEnabled\\\":true,\\\"filterType\\\":6,\\\"rootSchemaName\\\":\\\"Contact\\\"}\"}",
            "GS5": "2fe06334-b0d9-4994-8481-5f86c9aa3c4f"
          }
        },
        {
          "BL1": "Terrasoft.Core.Process.ProcessSchemaMapping",
          "UId": "3c2cbdb6-23c7-4b99-bb58-bf1d267c4736",
          "A2": "ReadDataUserTask2",
          "A3": "2fe06334-b0d9-4994-8481-5f86c9aa3c4f",
          "A4": "2fe06334-b0d9-4994-8481-5f86c9aa3c4f",
          "GT2": "[Element:{54536af1-7f37-4a1d-8887-6934ab5ab3ad}].[Parameter:{10853cf2-efd3-4e96-9877-c8b12c96aa36}]",
          "GT3": "10853cf2-efd3-4e96-9877-c8b12c96aa36",
          "GT5": "643e4d6d-7ec8-49f0-842a-066a996fbe8b",
          "GT4": "cb455b6f-78ff-4b1e-b241-c2bbc0b37e9f",
          "GT1": {
            "GS1": 1,
            "GS2": "0",
            "GS5": "cb455b6f-78ff-4b1e-b241-c2bbc0b37e9f"
          }
        },
        {
          "BL1": "Terrasoft.Core.Process.ProcessSchemaMapping",
          "UId": "9a35ee15-7874-4c19-918f-7fa3dd103e84",
          "A2": "ReadDataUserTask2",
          "A3": "2fe06334-b0d9-4994-8481-5f86c9aa3c4f",
          "A4": "2fe06334-b0d9-4994-8481-5f86c9aa3c4f",
          "GT2": "[Element:{54536af1-7f37-4a1d-8887-6934ab5ab3ad}].[Parameter:{731284b1-2c99-4ba3-ad62-12db46e449d3}]",
          "GT3": "731284b1-2c99-4ba3-ad62-12db46e449d3",
          "GT5": "29115add-7520-4ad4-8371-d91f537ac913",
          "GT4": "cb455b6f-78ff-4b1e-b241-c2bbc0b37e9f",
          "GT1": {
            "GS2": ""
          }
        },
        {
          "BL1": "Terrasoft.Core.Process.ProcessSchemaMapping",
          "UId": "d7266004-fd58-4b9d-b5ec-59a285989892",
          "A2": "ReadDataUserTask2",
          "A3": "2fe06334-b0d9-4994-8481-5f86c9aa3c4f",
          "A4": "2fe06334-b0d9-4994-8481-5f86c9aa3c4f",
          "GT2": "[Element:{54536af1-7f37-4a1d-8887-6934ab5ab3ad}].[Parameter:{d3bda675-00de-4761-bf1b-6fc43f6798f6}]",
          "GT3": "d3bda675-00de-4761-bf1b-6fc43f6798f6",
          "GT5": "f29e5660-c5ef-4d84-8331-9046c3093519",
          "GT4": "cb455b6f-78ff-4b1e-b241-c2bbc0b37e9f",
          "GT1": {
            "GS2": ""
          }
        },
        {
          "BL1": "Terrasoft.Core.Process.ProcessSchemaMapping",
          "UId": "6765e540-d883-4d31-9002-76fd5971327c",
          "A2": "ReadDataUserTask2",
          "A3": "2fe06334-b0d9-4994-8481-5f86c9aa3c4f",
          "A4": "2fe06334-b0d9-4994-8481-5f86c9aa3c4f",
          "GT2": "[Element:{54536af1-7f37-4a1d-8887-6934ab5ab3ad}].[Parameter:{775e0370-5e0f-4c7d-a6c5-28e46bdd5b60}]",
          "GT3": "775e0370-5e0f-4c7d-a6c5-28e46bdd5b60",
          "GT5": "94ba9876-18c1-4a68-bcef-08f7e7f0e25c",
          "GT4": "cb455b6f-78ff-4b1e-b241-c2bbc0b37e9f",
          "GT1": {
            "GS1": 1,
            "GS2": "0",
            "GS5": "2fe06334-b0d9-4994-8481-5f86c9aa3c4f"
          }
        },
        {
          "BL1": "Terrasoft.Core.Process.ProcessSchemaMapping",
          "UId": "0749664e-c6a1-4833-922c-0581b85f30a7",
          "A2": "ReadDataUserTask2",
          "A3": "2fe06334-b0d9-4994-8481-5f86c9aa3c4f",
          "A4": "2fe06334-b0d9-4994-8481-5f86c9aa3c4f",
          "GT2": "[Element:{54536af1-7f37-4a1d-8887-6934ab5ab3ad}].[Parameter:{9eff1e39-8239-4f88-8fca-560653b9d11c}]",
          "GT3": "9eff1e39-8239-4f88-8fca-560653b9d11c",
          "GT5": "cb5d6d26-7e81-4cbe-8730-8b7169000d14",
          "GT4": "cb455b6f-78ff-4b1e-b241-c2bbc0b37e9f",
          "GT1": {
            "GS2": ""
          }
        },
        {
          "BL1": "Terrasoft.Core.Process.ProcessSchemaMapping",
          "UId": "fc386ab6-70e0-4de7-bc4f-18c57b2d8301",
          "A2": "ReadDataUserTask2",
          "A3": "2fe06334-b0d9-4994-8481-5f86c9aa3c4f",
          "A4": "2fe06334-b0d9-4994-8481-5f86c9aa3c4f",
          "GT2": "[Element:{54536af1-7f37-4a1d-8887-6934ab5ab3ad}].[Parameter:{72d5ac5d-138a-4265-9ff1-9ba87df49723}]",
          "GT3": "72d5ac5d-138a-4265-9ff1-9ba87df49723",
          "GT5": "473e79e2-727e-40a7-8829-7eefc576b403",
          "GT4": "cb455b6f-78ff-4b1e-b241-c2bbc0b37e9f",
          "GT1": {
            "GS1": 1,
            "GS2": "Name:1:1",
            "GS5": "2fe06334-b0d9-4994-8481-5f86c9aa3c4f"
          }
        },
        {
          "BL1": "Terrasoft.Core.Process.ProcessSchemaMapping",
          "UId": "17a09b01-88ae-4e3e-8810-a6f70da72b27",
          "A2": "ReadDataUserTask2",
          "A3": "2fe06334-b0d9-4994-8481-5f86c9aa3c4f",
          "A4": "2fe06334-b0d9-4994-8481-5f86c9aa3c4f",
          "GT2": "[Element:{54536af1-7f37-4a1d-8887-6934ab5ab3ad}].[Parameter:{561e51fb-bc45-439b-b297-e8778f00a99c}]",
          "GT3": "561e51fb-bc45-439b-b297-e8778f00a99c",
          "GT5": "e2fced10-4842-423e-ada0-523bf7ea8ad3",
          "GT4": "cb455b6f-78ff-4b1e-b241-c2bbc0b37e9f",
          "GT1": {
            "GS1": 1,
            "GS5": "2fe06334-b0d9-4994-8481-5f86c9aa3c4f"
          }
        },
        {
          "BL1": "Terrasoft.Core.Process.ProcessSchemaMapping",
          "UId": "0ad2fb96-ee08-481a-831a-2f85f5200a9c",
          "A2": "ReadDataUserTask2",
          "A3": "2fe06334-b0d9-4994-8481-5f86c9aa3c4f",
          "A4": "2fe06334-b0d9-4994-8481-5f86c9aa3c4f",
          "GT2": "[Element:{54536af1-7f37-4a1d-8887-6934ab5ab3ad}].[Parameter:{ecce4274-d818-4e5b-bb77-4ff84e51f66d}]",
          "GT3": "ecce4274-d818-4e5b-bb77-4ff84e51f66d",
          "GT5": "2e63ea99-8125-4254-88bd-20d3610bd471",
          "GT4": "cb455b6f-78ff-4b1e-b241-c2bbc0b37e9f",
          "GT1": {
            "GS2": ""
          }
        },
        {
          "BL1": "Terrasoft.Core.Process.ProcessSchemaMapping",
          "UId": "3e83c6a5-3728-46a6-a65b-18906ba7ba8e",
          "A2": "ReadDataUserTask2",
          "A3": "2fe06334-b0d9-4994-8481-5f86c9aa3c4f",
          "A4": "2fe06334-b0d9-4994-8481-5f86c9aa3c4f",
          "GT2": "[Element:{54536af1-7f37-4a1d-8887-6934ab5ab3ad}].[Parameter:{6552d450-5051-49db-b59e-fa084153355f}]",
          "GT3": "6552d450-5051-49db-b59e-fa084153355f",
          "GT5": "a3660fce-a8f9-4a68-a3c1-b4f2f7983635",
          "GT4": "cb455b6f-78ff-4b1e-b241-c2bbc0b37e9f",
          "GT1": {
            "GS2": ""
          }
        },
        {
          "BL1": "Terrasoft.Core.Process.ProcessSchemaMapping",
          "UId": "bfff1a26-c509-489c-8508-6ec1bf835fef",
          "A2": "ReadDataUserTask2",
          "A3": "2fe06334-b0d9-4994-8481-5f86c9aa3c4f",
          "A4": "2fe06334-b0d9-4994-8481-5f86c9aa3c4f",
          "GT2": "[Element:{54536af1-7f37-4a1d-8887-6934ab5ab3ad}].[Parameter:{869fdf90-1190-48c5-a96a-7df542d4069b}]",
          "GT3": "869fdf90-1190-48c5-a96a-7df542d4069b",
          "GT5": "9a594933-75da-4304-b6a3-5945dba159e3",
          "GT4": "cb455b6f-78ff-4b1e-b241-c2bbc0b37e9f",
          "GT1": {
            "GS2": ""
          }
        },
        {
          "BL1": "Terrasoft.Core.Process.ProcessSchemaMapping",
          "UId": "7e880183-600d-4ac3-8f4d-669120ef509a",
          "A2": "ReadDataUserTask2",
          "A3": "2fe06334-b0d9-4994-8481-5f86c9aa3c4f",
          "A4": "2fe06334-b0d9-4994-8481-5f86c9aa3c4f",
          "GT2": "[Element:{54536af1-7f37-4a1d-8887-6934ab5ab3ad}].[Parameter:{fe840a7b-2aef-4c15-8028-c2c5ff63c43d}]",
          "GT3": "fe840a7b-2aef-4c15-8028-c2c5ff63c43d",
          "GT5": "11fb235f-c06a-4111-84cd-a5dbf9a440d5",
          "GT4": "cb455b6f-78ff-4b1e-b241-c2bbc0b37e9f",
          "GT1": {
            "GS2": ""
          }
        },
        {
          "BL1": "Terrasoft.Core.Process.ProcessSchemaMapping",
          "UId": "8fd6cadc-22ad-4f7b-b52e-05c5eb5d3df3",
          "A2": "ReadDataUserTask2",
          "A3": "2fe06334-b0d9-4994-8481-5f86c9aa3c4f",
          "A4": "2fe06334-b0d9-4994-8481-5f86c9aa3c4f",
          "GT2": "[Element:{54536af1-7f37-4a1d-8887-6934ab5ab3ad}].[Parameter:{e6fbdc24-1e4b-4315-90ba-4ac4702f6f55}]",
          "GT3": "e6fbdc24-1e4b-4315-90ba-4ac4702f6f55",
          "GT5": "78252e95-b759-416a-9c48-c128fbdf59ef",
          "GT4": "cb455b6f-78ff-4b1e-b241-c2bbc0b37e9f",
          "GT1": {
            "GS2": ""
          }
        },
        {
          "BL1": "Terrasoft.Core.Process.ProcessSchemaMapping",
          "UId": "7a8f75cd-747a-42ab-9dbe-74d51fc22d11",
          "A2": "ReadDataUserTask2",
          "A3": "2fe06334-b0d9-4994-8481-5f86c9aa3c4f",
          "A4": "2fe06334-b0d9-4994-8481-5f86c9aa3c4f",
          "GT2": "[Element:{54536af1-7f37-4a1d-8887-6934ab5ab3ad}].[Parameter:{f5636dee-fc35-4804-9666-87afef36bc11}]",
          "GT3": "f5636dee-fc35-4804-9666-87afef36bc11",
          "GT5": "2f797429-6f43-4594-96bb-62fbc7b7deec",
          "GT4": "cb455b6f-78ff-4b1e-b241-c2bbc0b37e9f",
          "GT1": {
            "GS1": 1,
            "GS2": "true",
            "GS5": "cb455b6f-78ff-4b1e-b241-c2bbc0b37e9f"
          }
        },
        {
          "BL1": "Terrasoft.Core.Process.ProcessSchemaMapping",
          "UId": "a964ace3-c595-487b-b610-d194911daad4",
          "A2": "ReadDataUserTask2",
          "A3": "2fe06334-b0d9-4994-8481-5f86c9aa3c4f",
          "A4": "2fe06334-b0d9-4994-8481-5f86c9aa3c4f",
          "GT2": "[Element:{54536af1-7f37-4a1d-8887-6934ab5ab3ad}].[Parameter:{5c1291e1-be94-43bb-a2b3-6b8104d61634}]",
          "GT3": "5c1291e1-be94-43bb-a2b3-6b8104d61634",
          "GT5": "be4a0d16-6a15-41cf-ac44-a8b757565428",
          "GT4": "cb455b6f-78ff-4b1e-b241-c2bbc0b37e9f",
          "GT1": {
            "GS2": ""
          }
        },
        {
          "BL1": "Terrasoft.Core.Process.ProcessSchemaMapping",
          "UId": "bccc2f0a-4200-4b5a-a0bd-0a6cc9bf0b94",
          "A2": "ReadDataUserTask2",
          "A3": "2fe06334-b0d9-4994-8481-5f86c9aa3c4f",
          "A4": "2fe06334-b0d9-4994-8481-5f86c9aa3c4f",
          "GT2": "[Element:{54536af1-7f37-4a1d-8887-6934ab5ab3ad}].[Parameter:{273e671e-8ec4-41d4-a90a-24198e4d3aaf}]",
          "GT3": "273e671e-8ec4-41d4-a90a-24198e4d3aaf",
          "GT5": "cc12005f-f434-4a40-b9d0-dc8f81755545",
          "GT4": "cb455b6f-78ff-4b1e-b241-c2bbc0b37e9f",
          "GT1": {
            "GS1": 1,
            "GS2": "a5cca792-47dd-428a-83fb-5c92bdd97ff8",
            "GS5": "2fe06334-b0d9-4994-8481-5f86c9aa3c4f"
          }
        },
        {
          "BL1": "Terrasoft.Core.Process.ProcessSchemaMapping",
          "UId": "7cd0fdeb-3818-476b-8d12-ce5e5f823293",
          "A2": "ReadDataUserTask2",
          "A3": "2fe06334-b0d9-4994-8481-5f86c9aa3c4f",
          "A4": "2fe06334-b0d9-4994-8481-5f86c9aa3c4f",
          "GT2": "[Element:{54536af1-7f37-4a1d-8887-6934ab5ab3ad}].[Parameter:{5f20d6cd-5baa-4b3f-944e-1d2a539ae7ee}]",
          "GT3": "5f20d6cd-5baa-4b3f-944e-1d2a539ae7ee",
          "GT5": "6dada847-859b-4e0a-9297-b3c9572530b6",
          "GT4": "cb455b6f-78ff-4b1e-b241-c2bbc0b37e9f",
          "GT1": {
            "GS2": ""
          }
        }
      ],
      "BK29": true,
      "BK31": true,
      "BK34": "null",
      "BK24": []
    }
  }