﻿{
  "Descriptor": {
    "UId": "c09ed5a7-47d7-4556-a46f-27cc3564a2d9",
    "Name": "OpportunityCompetitorDetailV2",
    "ModifiedOnUtc": "\/Date(1482306947000)\/",
    "Parent": {
      "UId": "9be40cc1-1fce-41a9-89df-680f08c4bff6",
      "Name": "OpportunityCompetitorDetailV2"
    },
    "ExtendParent": true,
    "ManagerName": "ClientUnitSchemaManager",
    "Caption": "Деталь конкурентов в продаже",
    "DependsOn": []
  }
}