﻿{
  "SqlScript": {
    "UId": "8ca62a8d-43f8-40d7-8e26-0b0b3f4a3c90",
    "Name": "AnOldITVwIntegrationKartotekaDrop",
    "DBEngineType": 0,
    "InstallType": 2,
    "ModifiedOnUtc": "\/Date(1505985845000)\/",
    "DependsOn": []
  }
}