﻿{
  "Descriptor": {
    "UId": "340b4df8-106f-4ba0-ae73-7cbaa4b73366",
    "Name": "TsVwLeadExceedStageDuration",
    "ModifiedOnUtc": "\/Date(1478710584000)\/",
    "ManagerName": "EntitySchemaManager",
    "Caption": "Лид превышающий продолжительность стадии",
    "DependsOn": []
  }
}