﻿{
  "Descriptor": {
    "UId": "94a43e5c-54c2-488e-98ff-96d0a81bb4b3",
    "Name": "SysDashboard_LeadAnalytics",
    "ModifiedOnUtc": "\/Date(1507548123000)\/",
    "InstallType": 0,
    "Schema": {
      "UId": "873fa71c-3434-43e7-93cb-6f77e1191e11",
      "Name": "SysDashboard"
    },
    "Columns": [
      {
        "ColumnUId": "ae0e45ca-c495-4fe7-a39d-3ab7278e1617",
        "IsForceUpdate": false,
        "IsKey": true,
        "ColumnName": "Id",
        "DataTypeValueUId": "23018567-a13c-4320-8687-fd6f9e3699bd"
      },
      {
        "ColumnUId": "a215f575-7283-41bd-8852-b2415a935051",
        "IsForceUpdate": false,
        "IsKey": false,
        "ColumnName": "Caption",
        "DataTypeValueUId": "325a73b8-0f47-44a0-8412-7606f78003ac"
      },
      {
        "ColumnUId": "78ed4015-b81f-49fc-9d50-847cf8df5e6c",
        "IsForceUpdate": false,
        "IsKey": false,
        "ColumnName": "Position",
        "DataTypeValueUId": "6b6b74e2-820d-490e-a017-2b73d4ccf2b0"
      },
      {
        "ColumnUId": "fb750eb9-35b6-463e-b3b8-1a69ec871e43",
        "IsForceUpdate": true,
        "IsKey": false,
        "ColumnName": "ViewConfig",
        "DataTypeValueUId": "c0f04627-4620-4bc0-84e5-9419dc8516b1"
      },
      {
        "ColumnUId": "551ce105-25dc-4a76-b318-cf37635e88c3",
        "IsForceUpdate": true,
        "IsKey": false,
        "ColumnName": "Items",
        "DataTypeValueUId": "c0f04627-4620-4bc0-84e5-9419dc8516b1"
      },
      {
        "ColumnUId": "9eedf8ab-d02e-4a4a-9f9d-19ede1c873bc",
        "IsForceUpdate": false,
        "IsKey": false,
        "ColumnName": "Section",
        "DataTypeValueUId": "b295071f-7ea9-4e62-8d1a-919bf3732ff2"
      }
    ]
  }
}