﻿{
  "SqlScript": {
    "UId": "e4bfb88d-b066-487e-b0e5-88e54f8d2968",
    "Name": "Dimension_DeleteRedundant",
    "DBEngineType": 0,
    "InstallType": 2,
    "ModifiedOnUtc": "\/Date(1480084498000)\/",
    "DependsOn": []
  }
}