﻿{
  "Descriptor": {
    "UId": "fff7c84e-dc4b-43ba-b488-84a28bd2f1b3",
    "Name": "NotificationProvider_Notification_TsActivity",
    "ModifiedOnUtc": "\/Date(1479318364000)\/",
    "InstallType": 0,
    "Schema": {
      "UId": "74494ba7-82f2-4966-84cc-3af84d4eb6fb",
      "Name": "NotificationProvider"
    },
    "Columns": [
      {
        "ColumnUId": "ae0e45ca-c495-4fe7-a39d-3ab7278e1617",
        "IsForceUpdate": true,
        "IsKey": true,
        "ColumnName": "Id",
        "DataTypeValueUId": "23018567-a13c-4320-8687-fd6f9e3699bd"
      },
      {
        "ColumnUId": "736c30a7-c0ec-4fa9-b034-2552b319b633",
        "IsForceUpdate": true,
        "IsKey": false,
        "ColumnName": "Name",
        "DataTypeValueUId": "ddb3a1ee-07e8-4d62-b7a9-d0e618b00fbd"
      },
      {
        "ColumnUId": "9e53fd7c-dde4-4502-a64c-b9e34148108b",
        "IsForceUpdate": true,
        "IsKey": false,
        "ColumnName": "Description",
        "DataTypeValueUId": "ddb3a1ee-07e8-4d62-b7a9-d0e618b00fbd"
      },
      {
        "ColumnUId": "c84e4a7d-70dc-4ad9-9ac5-bd885086b5b9",
        "IsForceUpdate": true,
        "IsKey": false,
        "ColumnName": "Type",
        "DataTypeValueUId": "6b6b74e2-820d-490e-a017-2b73d4ccf2b0"
      },
      {
        "ColumnUId": "a664c9a9-6373-437f-9be3-23f33a134628",
        "IsForceUpdate": true,
        "IsKey": false,
        "ColumnName": "ClassName",
        "DataTypeValueUId": "5ca35f10-a101-4c67-a96a-383da6afacfc"
      }
    ]
  }
}