﻿{
  "Descriptor": {
    "UId": "4afdefe0-2c0e-420c-9303-a28968a14fd5",
    "Name": "Order",
    "ModifiedOnUtc": "\/Date(1490275898000)\/",
    "Parent": {
      "UId": "80294582-06b5-4faa-a85f-3323e5536b71",
      "Name": "Order"
    },
    "ExtendParent": true,
    "ManagerName": "EntitySchemaManager",
    "Caption": "Заказ",
    "DependsOn": []
  }
}