﻿{
  "SqlScript": {
    "UId": "1d7d2d07-b86b-4c25-8dc9-388970e99bb9",
    "Name": "TsCleanLeadTypeJobProjectRole",
    "DBEngineType": 0,
    "InstallType": 2,
    "ModifiedOnUtc": "\/Date(1474299838000)\/",
    "DependsOn": []
  }
}