﻿{
  "PackageData": [
    {
      "Row": [
        {
          "SchemaColumnUId": "ae0e45ca-c495-4fe7-a39d-3ab7278e1617",
          "Value": "fdf06fae-a505-4b94-a073-6ba5baf7caaf"
        },
        {
          "SchemaColumnUId": "a4fbd6e3-715c-4bc4-b77f-beaa805273f0",
          "Value": "d790a45d-03ff-4ddb-9dea-8087722c582c",
          "DisplayValue": "Квалификация"
        },
        {
          "SchemaColumnUId": "8f497477-a5e0-4325-9a74-f030fc8382f5",
          "Value": 2
        }
      ]
    },
    {
      "Row": [
        {
          "SchemaColumnUId": "ae0e45ca-c495-4fe7-a39d-3ab7278e1617",
          "Value": "b36955b6-ef34-4a0f-8f7e-ae5410c9a714"
        },
        {
          "SchemaColumnUId": "a4fbd6e3-715c-4bc4-b77f-beaa805273f0",
          "Value": "7a90900b-53b5-4598-92b3-0aee90626c56",
          "DisplayValue": "Ожидание продажи"
        },
        {
          "SchemaColumnUId": "8f497477-a5e0-4325-9a74-f030fc8382f5",
          "Value": 30
        }
      ]
    },
    {
      "Row": [
        {
          "SchemaColumnUId": "ae0e45ca-c495-4fe7-a39d-3ab7278e1617",
          "Value": "1d6315f6-075b-4821-8430-c7443aa678c6"
        },
        {
          "SchemaColumnUId": "a4fbd6e3-715c-4bc4-b77f-beaa805273f0",
          "Value": "ceb70b3c-985f-4867-ae7c-88f9dd710688",
          "DisplayValue": "Перевод в продажу"
        },
        {
          "SchemaColumnUId": "8f497477-a5e0-4325-9a74-f030fc8382f5",
          "Value": 2
        }
      ]
    },
    {
      "Row": [
        {
          "SchemaColumnUId": "ae0e45ca-c495-4fe7-a39d-3ab7278e1617",
          "Value": "486cadef-6706-4055-bdad-70fb4a4a0b51"
        },
        {
          "SchemaColumnUId": "a4fbd6e3-715c-4bc4-b77f-beaa805273f0",
          "Value": "14cfc644-e3ed-497e-8279-ed4319bb8093",
          "DisplayValue": "Распределение"
        },
        {
          "SchemaColumnUId": "8f497477-a5e0-4325-9a74-f030fc8382f5",
          "Value": 2
        }
      ]
    }
  ]
}