﻿{
  "Descriptor": {
    "UId": "a6d4f917-e105-41a7-855a-91f252957bba",
    "Name": "ITParcelUnitSupporting",
    "ModifiedOnUtc": "\/Date(1499859239000)\/",
    "ManagerName": "ProcessSchemaManager",
    "Caption": "Процесс сопровождения посылочного блока - ITBase",
    "DependsOn": []
  }
}