﻿{
  "Descriptor": {
    "UId": "aa6ee160-eab4-497b-a463-d80a75698934",
    "Name": "ITAnniversaryList",
    "ModifiedOnUtc": "\/Date(1507537958000)\/",
    "Parent": {
      "UId": "11ab4bcb-9b23-4b6d-9c86-520fae925d75",
      "Name": "BaseLookup"
    },
    "ManagerName": "EntitySchemaManager",
    "Caption": "Профессиональный праздник",
    "DependsOn": []
  }
}