﻿{
  "PackageData": [
    {
      "Row": [
        {
          "SchemaColumnUId": "ae0e45ca-c495-4fe7-a39d-3ab7278e1617",
          "Value": "b42add3d-67af-4667-818d-5769b1965b8d"
        }
      ]
    }
  ]
}