﻿{
  "SqlScript": {
    "UId": "a26b149e-c930-4e50-8d9b-e338aeb1eded",
    "Name": "ITVwAccountCateg",
    "DBEngineType": 0,
    "InstallType": 0,
    "ModifiedOnUtc": "\/Date(1488373016000)\/",
    "DependsOn": []
  }
}