﻿{
  "Descriptor": {
    "UId": "d710ee25-2840-4101-8223-51f488a03936",
    "Name": "TsSubscriptionServiceCOSigning",
    "ModifiedOnUtc": "\/Date(1477572217000)\/",
    "ManagerName": "ProcessSchemaManager",
    "Caption": "Процесс заключения договора подписных сервисов",
    "DependsOn": []
  }
}