﻿{
  "Descriptor": {
    "UId": "ab9a4126-2d57-4d77-b025-7a17965c218a",
    "Name": "ITVwContactAnniversaryForTom",
    "ModifiedOnUtc": "\/Date(1490190124000)\/",
    "Parent": {
      "UId": "1bab9dcf-17d5-49f8-9536-8e0064f1dce0",
      "Name": "BaseEntity"
    },
    "ManagerName": "EntitySchemaManager",
    "Caption": "ITVwContactAnniversaryForTom",
    "DependsOn": []
  }
}