﻿{
  "Descriptor": {
    "UId": "5b4140d4-3345-46de-b8a1-ed3204bc5a59",
    "Name": "ITBaseDashboardItemViewConfig",
    "ModifiedOnUtc": "\/Date(1496063044000)\/",
    "ManagerName": "ClientUnitSchemaManager",
    "Caption": "ITBaseDashboardItemViewConfig",
    "DependsOn": []
  }
}