﻿{
  "Descriptor": {
    "UId": "db6b631a-6acf-48ff-b8a6-3417ce06b850",
    "Name": "ITDeliveryPointPage",
    "ModifiedOnUtc": "\/Date(1507797780000)\/",
    "Parent": {
      "UId": "d3cc497c-f286-4f13-99c1-751c468733c0",
      "Name": "BasePageV2"
    },
    "ManagerName": "ClientUnitSchemaManager",
    "Caption": "Страница редактирования раздела Точка сдачи",
    "DependsOn": []
  }
}