﻿{
  "Descriptor": {
    "UId": "d947bbe1-8aef-46fb-bb46-ee254049640f",
    "Name": "TsDiscountInAccountPageV2",
    "ModifiedOnUtc": "\/Date(1476369509000)\/",
    "Parent": {
      "UId": "d3cc497c-f286-4f13-99c1-751c468733c0",
      "Name": "BasePageV2"
    },
    "ManagerName": "ClientUnitSchemaManager",
    "Caption": "Карточка схемы: \"Скидка в Контрагенте\"",
    "DependsOn": []
  }
}