﻿{
  "Descriptor": {
    "UId": "5751b359-f2c9-4748-a2fa-3a793b0f5ff4",
    "Name": "AddressSelectionResultDetailV2",
    "ModifiedOnUtc": "\/Date(1474957873000)\/",
    "Parent": {
      "UId": "d8032c62-6f7c-4a62-979e-073aea7b9de1",
      "Name": "AddressSelectionResultDetailV2"
    },
    "ExtendParent": true,
    "ManagerName": "ClientUnitSchemaManager",
    "Caption": "Деталь выбора адреса на вкладкае итогов",
    "DependsOn": []
  }
}