﻿{
  "Descriptor": {
    "UId": "793d84ca-460c-487f-bd6b-633ab949a55e",
    "Name": "LeadProductDetailV2",
    "ModifiedOnUtc": "\/Date(1475598443000)\/",
    "Parent": {
      "UId": "107f1435-9932-445f-bc41-568000592c90",
      "Name": "LeadProductDetailV2"
    },
    "ExtendParent": true,
    "ManagerName": "ClientUnitSchemaManager",
    "Caption": "Схема детали \"Продукт в лиде\"",
    "DependsOn": []
  }
}