﻿{
  "SqlScript": {
    "UId": "22bfd811-4867-4e24-bf67-44c77631cc24",
    "Name": "VwAccountBillingInfoDuplicateSearch",
    "DBEngineType": 0,
    "InstallType": 1,
    "ModifiedOnUtc": "\/Date(1481415421000)\/",
    "DependsOn": []
  }
}