﻿{
  "PackageData": [
    {
      "Row": [
        {
          "SchemaColumnUId": "ae0e45ca-c495-4fe7-a39d-3ab7278e1617",
          "Value": "9d63d61b-3060-4768-bf75-b10b6fecc2b9"
        },
        {
          "SchemaColumnUId": "c319c5f3-ef2b-4b23-ad58-bfdfc2a08837",
          "Value": "ae46fb87-c02c-4ae8-ad31-a923cdd994cf"
        },
        {
          "SchemaColumnUId": "fa05dc91-1467-4da7-a00c-88d04cc07862",
          "Value": "Opportunity"
        },
        {
          "SchemaColumnUId": "df1b82da-c0c7-4c4a-8b3b-7400bedcb1b5",
          "Value": "d4346752-cb02-4edf-b071-6946738e1d40",
          "DisplayValue": "Квартал"
        }
      ]
    },
    {
      "Row": [
        {
          "SchemaColumnUId": "ae0e45ca-c495-4fe7-a39d-3ab7278e1617",
          "Value": "1155ecd0-5bfb-4ba0-9ccc-83530b45456b"
        },
        {
          "SchemaColumnUId": "c319c5f3-ef2b-4b23-ad58-bfdfc2a08837",
          "Value": "ae46fb87-c02c-4ae8-ad31-a923cdd994cf"
        },
        {
          "SchemaColumnUId": "fa05dc91-1467-4da7-a00c-88d04cc07862",
          "Value": "Opportunity"
        },
        {
          "SchemaColumnUId": "df1b82da-c0c7-4c4a-8b3b-7400bedcb1b5",
          "Value": "d4346752-cb02-4edf-b071-6946738e1d40",
          "DisplayValue": "Квартал"
        }
      ]
    },
    {
      "Row": [
        {
          "SchemaColumnUId": "ae0e45ca-c495-4fe7-a39d-3ab7278e1617",
          "Value": "929f2eb2-5176-4b50-a9b0-502266bb0558"
        },
        {
          "SchemaColumnUId": "c319c5f3-ef2b-4b23-ad58-bfdfc2a08837",
          "Value": "ae46fb87-c02c-4ae8-ad31-a923cdd994cf"
        },
        {
          "SchemaColumnUId": "fa05dc91-1467-4da7-a00c-88d04cc07862",
          "Value": "Opportunity"
        },
        {
          "SchemaColumnUId": "df1b82da-c0c7-4c4a-8b3b-7400bedcb1b5",
          "Value": "d4346752-cb02-4edf-b071-6946738e1d40",
          "DisplayValue": "Квартал"
        }
      ]
    },
    {
      "Row": [
        {
          "SchemaColumnUId": "ae0e45ca-c495-4fe7-a39d-3ab7278e1617",
          "Value": "56f9e532-d548-4cb8-9147-cebe5fba5ff5"
        },
        {
          "SchemaColumnUId": "c319c5f3-ef2b-4b23-ad58-bfdfc2a08837",
          "Value": "ae46fb87-c02c-4ae8-ad31-a923cdd994cf"
        },
        {
          "SchemaColumnUId": "fa05dc91-1467-4da7-a00c-88d04cc07862",
          "Value": "Opportunity"
        },
        {
          "SchemaColumnUId": "df1b82da-c0c7-4c4a-8b3b-7400bedcb1b5",
          "Value": "d4346752-cb02-4edf-b071-6946738e1d40",
          "DisplayValue": "Квартал"
        }
      ]
    }
  ]
}