﻿{
  "Descriptor": {
    "UId": "2e7d18fd-64ba-4b7b-9e04-186176c97c05",
    "Name": "TsResponsibilityField",
    "ModifiedOnUtc": "\/Date(1478710544000)\/",
    "Parent": {
      "UId": "11ab4bcb-9b23-4b6d-9c86-520fae925d75",
      "Name": "BaseLookup"
    },
    "ManagerName": "EntitySchemaManager",
    "Caption": "Зона ответственности",
    "DependsOn": []
  }
}