﻿{
  "SqlScript": {
    "UId": "2a10a3b7-40dc-411a-8229-19907834dd90",
    "Name": "Disable_OpportunityManagement",
    "DBEngineType": 0,
    "InstallType": 2,
    "ModifiedOnUtc": "\/Date(1477005401000)\/",
    "DependsOn": []
  }
}