﻿{
  "Descriptor": {
    "UId": "02144cbd-cbba-4475-9622-c77682a0eb8d",
    "Name": "ContactMiniPage",
    "ModifiedOnUtc": "\/Date(1501848993000)\/",
    "Parent": {
      "UId": "2741dd1e-7c35-432c-915a-9aa228eb057b",
      "Name": "ContactMiniPage"
    },
    "ExtendParent": true,
    "ManagerName": "ClientUnitSchemaManager",
    "Caption": "ContactMiniPage",
    "DependsOn": []
  }
}