﻿{
  "PackageData": [
    {
      "Row": [
        {
          "SchemaColumnUId": "ae0e45ca-c495-4fe7-a39d-3ab7278e1617",
          "Value": "fb38fbae-f52d-4de7-8b5d-c03f71a96061"
        },
        {
          "SchemaColumnUId": "981348e2-b15b-4ae9-91cb-0ba6582d4731",
          "Value": 0
        },
        {
          "SchemaColumnUId": "c429d17c-718f-4c4b-86e2-a94474bbc04f",
          "Value": "f384faa9-e212-4673-8a57-b1a925882c16",
          "DisplayValue": "Финансовая"
        }
      ]
    },
    {
      "Row": [
        {
          "SchemaColumnUId": "ae0e45ca-c495-4fe7-a39d-3ab7278e1617",
          "Value": "2b4b76e4-5c71-4e4a-bb43-d3123a6ba5e0"
        },
        {
          "SchemaColumnUId": "981348e2-b15b-4ae9-91cb-0ba6582d4731",
          "Value": 0
        },
        {
          "SchemaColumnUId": "c429d17c-718f-4c4b-86e2-a94474bbc04f",
          "Value": "a9465bf3-3ced-48d4-851d-8822fcef61d4",
          "DisplayValue": "Бюджетная организация"
        }
      ]
    },
    {
      "Row": [
        {
          "SchemaColumnUId": "ae0e45ca-c495-4fe7-a39d-3ab7278e1617",
          "Value": "6036a9d7-fa60-4a4e-99b7-bb9f7528bb5f"
        },
        {
          "SchemaColumnUId": "981348e2-b15b-4ae9-91cb-0ba6582d4731",
          "Value": 0
        },
        {
          "SchemaColumnUId": "c429d17c-718f-4c4b-86e2-a94474bbc04f",
          "Value": "f382d007-d1a5-4f31-94e8-cd08d19e4a01",
          "DisplayValue": "Торговля"
        }
      ]
    },
    {
      "Row": [
        {
          "SchemaColumnUId": "ae0e45ca-c495-4fe7-a39d-3ab7278e1617",
          "Value": "6d247078-aef9-49bd-9901-0b638f496cc2"
        },
        {
          "SchemaColumnUId": "981348e2-b15b-4ae9-91cb-0ba6582d4731",
          "Value": 0
        },
        {
          "SchemaColumnUId": "c429d17c-718f-4c4b-86e2-a94474bbc04f",
          "Value": "a9465bf3-3ced-48d4-851d-8822fcef61d4",
          "DisplayValue": "Бюджетная организация"
        }
      ]
    },
    {
      "Row": [
        {
          "SchemaColumnUId": "ae0e45ca-c495-4fe7-a39d-3ab7278e1617",
          "Value": "65a4ccac-1f64-490f-aa6c-9f4aa0e75d6f"
        },
        {
          "SchemaColumnUId": "981348e2-b15b-4ae9-91cb-0ba6582d4731",
          "Value": 0
        },
        {
          "SchemaColumnUId": "c429d17c-718f-4c4b-86e2-a94474bbc04f",
          "Value": "ee852a6e-411b-42aa-969d-e59b07b65f4f",
          "DisplayValue": "ЖКХ"
        }
      ]
    },
    {
      "Row": [
        {
          "SchemaColumnUId": "ae0e45ca-c495-4fe7-a39d-3ab7278e1617",
          "Value": "f101bfa2-52f3-4f08-bbc9-6be525b51075"
        },
        {
          "SchemaColumnUId": "981348e2-b15b-4ae9-91cb-0ba6582d4731",
          "Value": 0
        },
        {
          "SchemaColumnUId": "c429d17c-718f-4c4b-86e2-a94474bbc04f",
          "Value": "5e2b953b-9927-4aad-9c9f-6f619fbad2b4",
          "DisplayValue": "Связь"
        }
      ]
    },
    {
      "Row": [
        {
          "SchemaColumnUId": "ae0e45ca-c495-4fe7-a39d-3ab7278e1617",
          "Value": "f51b39fe-d7fb-48b1-96fd-40234b52a2aa"
        },
        {
          "SchemaColumnUId": "981348e2-b15b-4ae9-91cb-0ba6582d4731",
          "Value": 0
        },
        {
          "SchemaColumnUId": "c429d17c-718f-4c4b-86e2-a94474bbc04f",
          "Value": "a9465bf3-3ced-48d4-851d-8822fcef61d4",
          "DisplayValue": "Бюджетная организация"
        }
      ]
    },
    {
      "Row": [
        {
          "SchemaColumnUId": "ae0e45ca-c495-4fe7-a39d-3ab7278e1617",
          "Value": "323530ae-d05d-4971-9ed8-8b09f229f0c0"
        },
        {
          "SchemaColumnUId": "981348e2-b15b-4ae9-91cb-0ba6582d4731",
          "Value": 0
        },
        {
          "SchemaColumnUId": "c429d17c-718f-4c4b-86e2-a94474bbc04f",
          "Value": "ebff32b5-3812-42ee-8f18-14cb8bea6068",
          "DisplayValue": "Крупный средний малый бизнес"
        }
      ]
    },
    {
      "Row": [
        {
          "SchemaColumnUId": "ae0e45ca-c495-4fe7-a39d-3ab7278e1617",
          "Value": "af5740a9-7d4b-4513-b1de-c321c493a914"
        },
        {
          "SchemaColumnUId": "981348e2-b15b-4ae9-91cb-0ba6582d4731",
          "Value": 0
        },
        {
          "SchemaColumnUId": "c429d17c-718f-4c4b-86e2-a94474bbc04f",
          "Value": "ebff32b5-3812-42ee-8f18-14cb8bea6068",
          "DisplayValue": "Крупный средний малый бизнес"
        }
      ]
    },
    {
      "Row": [
        {
          "SchemaColumnUId": "ae0e45ca-c495-4fe7-a39d-3ab7278e1617",
          "Value": "e17d583f-dcac-42f9-8581-0904097e8e72"
        },
        {
          "SchemaColumnUId": "981348e2-b15b-4ae9-91cb-0ba6582d4731",
          "Value": 0
        },
        {
          "SchemaColumnUId": "c429d17c-718f-4c4b-86e2-a94474bbc04f",
          "Value": "5e2b953b-9927-4aad-9c9f-6f619fbad2b4",
          "DisplayValue": "Связь"
        }
      ]
    },
    {
      "Row": [
        {
          "SchemaColumnUId": "ae0e45ca-c495-4fe7-a39d-3ab7278e1617",
          "Value": "41739413-d117-41e7-853c-e2d79d652cfa"
        },
        {
          "SchemaColumnUId": "981348e2-b15b-4ae9-91cb-0ba6582d4731",
          "Value": 0
        },
        {
          "SchemaColumnUId": "c429d17c-718f-4c4b-86e2-a94474bbc04f",
          "Value": "a9465bf3-3ced-48d4-851d-8822fcef61d4",
          "DisplayValue": "Бюджетная организация"
        }
      ]
    },
    {
      "Row": [
        {
          "SchemaColumnUId": "ae0e45ca-c495-4fe7-a39d-3ab7278e1617",
          "Value": "667dfa99-eb96-4ebd-b7d9-b22e557f9f59"
        },
        {
          "SchemaColumnUId": "981348e2-b15b-4ae9-91cb-0ba6582d4731",
          "Value": 0
        },
        {
          "SchemaColumnUId": "c429d17c-718f-4c4b-86e2-a94474bbc04f",
          "Value": "ebff32b5-3812-42ee-8f18-14cb8bea6068",
          "DisplayValue": "Крупный средний малый бизнес"
        }
      ]
    },
    {
      "Row": [
        {
          "SchemaColumnUId": "ae0e45ca-c495-4fe7-a39d-3ab7278e1617",
          "Value": "e2860e21-cd8a-48a6-b1d1-82418baeb57e"
        },
        {
          "SchemaColumnUId": "981348e2-b15b-4ae9-91cb-0ba6582d4731",
          "Value": 0
        },
        {
          "SchemaColumnUId": "c429d17c-718f-4c4b-86e2-a94474bbc04f",
          "Value": "4be07f50-bc01-49a4-84de-7bb47e35742e",
          "DisplayValue": "Общественная организация"
        }
      ]
    },
    {
      "Row": [
        {
          "SchemaColumnUId": "ae0e45ca-c495-4fe7-a39d-3ab7278e1617",
          "Value": "2777acef-b3ac-47c6-90cd-5698a839a6ca"
        },
        {
          "SchemaColumnUId": "981348e2-b15b-4ae9-91cb-0ba6582d4731",
          "Value": 0
        },
        {
          "SchemaColumnUId": "c429d17c-718f-4c4b-86e2-a94474bbc04f",
          "Value": "f382d007-d1a5-4f31-94e8-cd08d19e4a01",
          "DisplayValue": "Торговля"
        }
      ]
    },
    {
      "Row": [
        {
          "SchemaColumnUId": "ae0e45ca-c495-4fe7-a39d-3ab7278e1617",
          "Value": "35de8166-18b6-4084-b6af-ff221284f96c"
        },
        {
          "SchemaColumnUId": "981348e2-b15b-4ae9-91cb-0ba6582d4731",
          "Value": 0
        },
        {
          "SchemaColumnUId": "c429d17c-718f-4c4b-86e2-a94474bbc04f",
          "Value": "a9465bf3-3ced-48d4-851d-8822fcef61d4",
          "DisplayValue": "Бюджетная организация"
        }
      ]
    },
    {
      "Row": [
        {
          "SchemaColumnUId": "ae0e45ca-c495-4fe7-a39d-3ab7278e1617",
          "Value": "852092c3-3ce9-452b-97ce-e479ba69e1ea"
        },
        {
          "SchemaColumnUId": "981348e2-b15b-4ae9-91cb-0ba6582d4731",
          "Value": 0
        },
        {
          "SchemaColumnUId": "c429d17c-718f-4c4b-86e2-a94474bbc04f",
          "Value": "f384faa9-e212-4673-8a57-b1a925882c16",
          "DisplayValue": "Финансовая"
        }
      ]
    },
    {
      "Row": [
        {
          "SchemaColumnUId": "ae0e45ca-c495-4fe7-a39d-3ab7278e1617",
          "Value": "ec138478-e515-41af-8262-85f66d22c5c0"
        },
        {
          "SchemaColumnUId": "981348e2-b15b-4ae9-91cb-0ba6582d4731",
          "Value": 0
        },
        {
          "SchemaColumnUId": "c429d17c-718f-4c4b-86e2-a94474bbc04f",
          "Value": "f382d007-d1a5-4f31-94e8-cd08d19e4a01",
          "DisplayValue": "Торговля"
        }
      ]
    },
    {
      "Row": [
        {
          "SchemaColumnUId": "ae0e45ca-c495-4fe7-a39d-3ab7278e1617",
          "Value": "5ea9b7e7-8ef4-4ae0-bb86-4f1ae2241302"
        },
        {
          "SchemaColumnUId": "981348e2-b15b-4ae9-91cb-0ba6582d4731",
          "Value": 0
        },
        {
          "SchemaColumnUId": "c429d17c-718f-4c4b-86e2-a94474bbc04f",
          "Value": "f384faa9-e212-4673-8a57-b1a925882c16",
          "DisplayValue": "Финансовая"
        }
      ]
    },
    {
      "Row": [
        {
          "SchemaColumnUId": "ae0e45ca-c495-4fe7-a39d-3ab7278e1617",
          "Value": "d1d243bb-7d90-42d7-b9c6-1c1a2d188313"
        },
        {
          "SchemaColumnUId": "981348e2-b15b-4ae9-91cb-0ba6582d4731",
          "Value": 0
        },
        {
          "SchemaColumnUId": "c429d17c-718f-4c4b-86e2-a94474bbc04f",
          "Value": "a9465bf3-3ced-48d4-851d-8822fcef61d4",
          "DisplayValue": "Бюджетная организация"
        }
      ]
    },
    {
      "Row": [
        {
          "SchemaColumnUId": "ae0e45ca-c495-4fe7-a39d-3ab7278e1617",
          "Value": "cef8dc34-43f1-47ae-9dcd-28a7f1a8fe01"
        },
        {
          "SchemaColumnUId": "981348e2-b15b-4ae9-91cb-0ba6582d4731",
          "Value": 0
        },
        {
          "SchemaColumnUId": "c429d17c-718f-4c4b-86e2-a94474bbc04f",
          "Value": "a9465bf3-3ced-48d4-851d-8822fcef61d4",
          "DisplayValue": "Бюджетная организация"
        }
      ]
    },
    {
      "Row": [
        {
          "SchemaColumnUId": "ae0e45ca-c495-4fe7-a39d-3ab7278e1617",
          "Value": "7d2bc88c-9143-4f38-91c9-8454c0caeeee"
        },
        {
          "SchemaColumnUId": "981348e2-b15b-4ae9-91cb-0ba6582d4731",
          "Value": 0
        },
        {
          "SchemaColumnUId": "c429d17c-718f-4c4b-86e2-a94474bbc04f",
          "Value": "5e2b953b-9927-4aad-9c9f-6f619fbad2b4",
          "DisplayValue": "Связь"
        }
      ]
    },
    {
      "Row": [
        {
          "SchemaColumnUId": "ae0e45ca-c495-4fe7-a39d-3ab7278e1617",
          "Value": "d3174794-6623-4496-957f-945bf94ce848"
        },
        {
          "SchemaColumnUId": "981348e2-b15b-4ae9-91cb-0ba6582d4731",
          "Value": 0
        },
        {
          "SchemaColumnUId": "c429d17c-718f-4c4b-86e2-a94474bbc04f",
          "Value": "ee852a6e-411b-42aa-969d-e59b07b65f4f",
          "DisplayValue": "ЖКХ"
        }
      ]
    }
  ]
}