﻿{
  "Descriptor": {
    "UId": "ab84031b-ae49-464a-a381-e7cdc928c687",
    "Name": "ITContactDesisionService",
    "ModifiedOnUtc": "\/Date(1506951355000)\/",
    "ManagerName": "SourceCodeSchemaManager",
    "Caption": "ITContactDesisionService",
    "DependsOn": []
  }
}