﻿{
  "SqlScript": {
    "UId": "a878979f-b8bb-4eff-a0c2-0414c29f4d46",
    "Name": "ITVwAccBillingInfoKart",
    "DBEngineType": 0,
    "InstallType": 2,
    "ModifiedOnUtc": "\/Date(1505996995000)\/",
    "DependsOn": []
  }
}