﻿{
  "PackageData": [
    {
      "Row": [
        {
          "SchemaColumnUId": "ae0e45ca-c495-4fe7-a39d-3ab7278e1617",
          "Value": "a8d36f9a-8fb5-4746-bb1e-efd9557e6c92"
        }
      ]
    }
  ]
}