﻿{
  "SqlScript": {
    "UId": "fff199ae-309e-438a-aec5-c2d7daf6bcf4",
    "Name": "UpdateStructure",
    "DBEngineType": 0,
    "InstallType": 2,
    "ModifiedOnUtc": "\/Date(1505997005000)\/",
    "DependsOn": [
      {
        "UId": "505c283a-8056-4ec9-9a22-6d6257805b25",
        "Name": "ITPwCreateVwIntegrationKartoteka_Proc"
      }
    ]
  }
}