﻿{
  "PackageData": [
    {
      "Row": [
        {
          "SchemaColumnUId": "ae0e45ca-c495-4fe7-a39d-3ab7278e1617",
          "ColumnName": "Id",
          "Value": "04f34100-e082-449c-94fb-10f75031fae6"
        },
        {
          "SchemaColumnUId": "a215f575-7283-41bd-8852-b2415a935051",
          "ColumnName": "Caption",
          "Value": "Account analytics"
        },
        {
          "SchemaColumnUId": "551ce105-25dc-4a76-b318-cf37635e88c3",
          "ColumnName": "Items",
          "Value": "{\"Chart\":{\"parameters\":{\"seriesConfig\":[],\"orderBy\":\"GroupByField\",\"orderDirection\":\"Ascending\",\"dateTimeFormat\":\"Month;Year\",\"caption\":\"Customer base growth\",\"sectionId\":\"005063c9-8180-e011-afbc-00155d04320c\",\"primaryColumnName\":\"Id\",\"yAxisConfig\":{\"position\":0},\"schemaName\":\"Account\",\"sectionBindingColumn\":\"Id\",\"func\":1,\"type\":\"column\",\"xAxisColumn\":\"CreatedOn\",\"YAxisCaption\":\"Number of new customers\",\"styleColor\":\"widget-green\",\"filterData\":\"{\\\"className\\\":\\\"Terrasoft.FilterGroup\\\",\\\"items\\\":{\\\"1581d34a-f705-4eeb-9c40-06b2a530b3e2\\\":{\\\"className\\\":\\\"Terrasoft.InFilter\\\",\\\"filterType\\\":4,\\\"comparisonType\\\":3,\\\"isEnabled\\\":true,\\\"trimDateTimeParameterToDate\\\":false,\\\"leftExpression\\\":{\\\"className\\\":\\\"Terrasoft.ColumnExpression\\\",\\\"expressionType\\\":0,\\\"columnPath\\\":\\\"Type\\\"},\\\"isAggregative\\\":false,\\\"key\\\":\\\"1581d34a-f705-4eeb-9c40-06b2a530b3e2\\\",\\\"dataValueType\\\":10,\\\"leftExpressionCaption\\\":\\\"Type\\\",\\\"referenceSchemaName\\\":\\\"AccountType\\\",\\\"rightExpressions\\\":[{\\\"className\\\":\\\"Terrasoft.ParameterExpression\\\",\\\"expressionType\\\":2,\\\"parameter\\\":{\\\"className\\\":\\\"Terrasoft.Parameter\\\",\\\"dataValueType\\\":10,\\\"value\\\":{\\\"Name\\\":\\\"Customer\\\",\\\"Id\\\":\\\"03a75490-53e6-df11-971b-001d60e938c6\\\",\\\"value\\\":\\\"03a75490-53e6-df11-971b-001d60e938c6\\\",\\\"displayValue\\\":\\\"Customer\\\"}}}]}},\\\"logicalOperation\\\":0,\\\"isEnabled\\\":true,\\\"filterType\\\":6,\\\"rootSchemaName\\\":\\\"Account\\\",\\\"key\\\":\\\"\\\"}\"},\"widgetType\":\"Chart\"},\"Chart1\":{\"parameters\":{\"primaryColumnName\":\"Id\",\"yAxisConfig\":{\"position\":0},\"schemaName\":\"Account\",\"func\":1,\"type\":\"pie\",\"xAxisColumn\":\"City\",\"yAxisColumn\":null,\"YAxisCaption\":\"Number of customers\",\"styleColor\":\"widget-coral\",\"filterData\":\"{\\\"className\\\":\\\"Terrasoft.FilterGroup\\\",\\\"items\\\":{\\\"a345081e-5a0b-4355-8777-bec3fc70f438\\\":{\\\"className\\\":\\\"Terrasoft.InFilter\\\",\\\"filterType\\\":4,\\\"comparisonType\\\":3,\\\"isEnabled\\\":true,\\\"trimDateTimeParameterToDate\\\":false,\\\"leftExpression\\\":{\\\"className\\\":\\\"Terrasoft.ColumnExpression\\\",\\\"expressionType\\\":0,\\\"columnPath\\\":\\\"Type\\\"},\\\"isAggregative\\\":false,\\\"key\\\":\\\"a345081e-5a0b-4355-8777-bec3fc70f438\\\",\\\"dataValueType\\\":10,\\\"leftExpressionCaption\\\":\\\"Type\\\",\\\"referenceSchemaName\\\":\\\"AccountType\\\",\\\"rightExpressions\\\":[{\\\"className\\\":\\\"Terrasoft.ParameterExpression\\\",\\\"expressionType\\\":2,\\\"parameter\\\":{\\\"className\\\":\\\"Terrasoft.Parameter\\\",\\\"dataValueType\\\":10,\\\"value\\\":{\\\"Name\\\":\\\"Customer\\\",\\\"Id\\\":\\\"03a75490-53e6-df11-971b-001d60e938c6\\\",\\\"value\\\":\\\"03a75490-53e6-df11-971b-001d60e938c6\\\",\\\"displayValue\\\":\\\"Customer\\\"}}}]}},\\\"logicalOperation\\\":0,\\\"isEnabled\\\":true,\\\"filterType\\\":6,\\\"rootSchemaName\\\":\\\"Account\\\",\\\"key\\\":\\\"\\\"}\",\"caption\":\"Customers by city\",\"sectionBindingColumn\":\"Id\",\"sectionId\":\"005063c9-8180-e011-afbc-00155d04320c\",\"orderBy\":\"ChartEntityColumn\",\"orderDirection\":\"Ascending\",\"dateTimeFormat\":null,\"seriesConfig\":[]},\"widgetType\":\"Chart\"},\"Chart2\":{\"parameters\":{\"primaryColumnName\":\"Id\",\"yAxisConfig\":{\"position\":0},\"schemaName\":\"Account\",\"func\":1,\"type\":\"pie\",\"xAxisColumn\":\"Industry\",\"yAxisColumn\":null,\"YAxisCaption\":\"Number of customers\",\"styleColor\":\"widget-blue\",\"filterData\":\"{\\\"className\\\":\\\"Terrasoft.FilterGroup\\\",\\\"items\\\":{\\\"30bd45a5-7b36-410a-88c6-a51f19166adb\\\":{\\\"className\\\":\\\"Terrasoft.InFilter\\\",\\\"filterType\\\":4,\\\"comparisonType\\\":3,\\\"isEnabled\\\":true,\\\"trimDateTimeParameterToDate\\\":false,\\\"leftExpression\\\":{\\\"className\\\":\\\"Terrasoft.ColumnExpression\\\",\\\"expressionType\\\":0,\\\"columnPath\\\":\\\"Type\\\"},\\\"isAggregative\\\":false,\\\"key\\\":\\\"30bd45a5-7b36-410a-88c6-a51f19166adb\\\",\\\"dataValueType\\\":10,\\\"leftExpressionCaption\\\":\\\"Type\\\",\\\"referenceSchemaName\\\":\\\"AccountType\\\",\\\"rightExpressions\\\":[{\\\"className\\\":\\\"Terrasoft.ParameterExpression\\\",\\\"expressionType\\\":2,\\\"parameter\\\":{\\\"className\\\":\\\"Terrasoft.Parameter\\\",\\\"dataValueType\\\":10,\\\"value\\\":{\\\"Name\\\":\\\"Customer\\\",\\\"Id\\\":\\\"03a75490-53e6-df11-971b-001d60e938c6\\\",\\\"value\\\":\\\"03a75490-53e6-df11-971b-001d60e938c6\\\",\\\"displayValue\\\":\\\"Customer\\\"}}}]}},\\\"logicalOperation\\\":0,\\\"isEnabled\\\":true,\\\"filterType\\\":6,\\\"rootSchemaName\\\":\\\"Account\\\",\\\"key\\\":\\\"\\\"}\",\"caption\":\"Customers by industry\",\"sectionBindingColumn\":\"Id\",\"sectionId\":\"005063c9-8180-e011-afbc-00155d04320c\",\"orderBy\":\"ChartEntityColumn\",\"orderDirection\":\"Ascending\",\"dateTimeFormat\":null,\"seriesConfig\":[]},\"widgetType\":\"Chart\"},\"DashboardGrid\":{\"parameters\":{\"caption\":\"Customers with no recent activity\",\"sectionBindingColumn\":\"Id\",\"sectionId\":\"005063c9-8180-e011-afbc-00155d04320c\",\"entitySchemaName\":\"Account\",\"filterData\":\"{\\\"className\\\":\\\"Terrasoft.FilterGroup\\\",\\\"items\\\":{\\\"522ea314-c31a-4f8a-b3a2-4504382e8afc\\\":{\\\"className\\\":\\\"Terrasoft.InFilter\\\",\\\"filterType\\\":4,\\\"comparisonType\\\":3,\\\"isEnabled\\\":true,\\\"trimDateTimeParameterToDate\\\":false,\\\"leftExpression\\\":{\\\"className\\\":\\\"Terrasoft.ColumnExpression\\\",\\\"expressionType\\\":0,\\\"columnPath\\\":\\\"Type\\\"},\\\"isAggregative\\\":false,\\\"key\\\":\\\"522ea314-c31a-4f8a-b3a2-4504382e8afc\\\",\\\"dataValueType\\\":10,\\\"leftExpressionCaption\\\":\\\"Type\\\",\\\"referenceSchemaName\\\":\\\"AccountType\\\",\\\"rightExpressions\\\":[{\\\"className\\\":\\\"Terrasoft.ParameterExpression\\\",\\\"expressionType\\\":2,\\\"parameter\\\":{\\\"className\\\":\\\"Terrasoft.Parameter\\\",\\\"dataValueType\\\":10,\\\"value\\\":{\\\"Name\\\":\\\"Customer\\\",\\\"Id\\\":\\\"03a75490-53e6-df11-971b-001d60e938c6\\\",\\\"value\\\":\\\"03a75490-53e6-df11-971b-001d60e938c6\\\",\\\"displayValue\\\":\\\"Customer\\\"}}}]}},\\\"logicalOperation\\\":0,\\\"isEnabled\\\":true,\\\"filterType\\\":6,\\\"rootSchemaName\\\":\\\"Account\\\",\\\"key\\\":\\\"\\\"}\",\"style\":\"widget-coral\",\"rowCount\":5,\"gridConfig\":{\"items\":[{\"bindTo\":\"Name\",\"caption\":\"Name\",\"type\":\"link\",\"position\":{\"column\":0,\"colSpan\":7,\"row\":1},\"aggregationType\":\"\",\"metaCaptionPath\":\"Name\",\"metaPath\":\"Name\",\"serializedFilter\":\"{\\\"className\\\":\\\"Terrasoft.FilterGroup\\\",\\\"items\\\":{},\\\"logicalOperation\\\":0,\\\"isEnabled\\\":true,\\\"filterType\\\":6,\\\"key\\\":\\\"\\\"}\"},{\"bindTo\":\"Owner\",\"caption\":\"Owner\",\"type\":\"link\",\"position\":{\"column\":7,\"colSpan\":10,\"row\":1},\"dataValueType\":10,\"aggregationType\":\"\",\"metaCaptionPath\":\"Owner\",\"metaPath\":\"Owner\",\"serializedFilter\":\"{\\\"className\\\":\\\"Terrasoft.FilterGroup\\\",\\\"items\\\":{},\\\"logicalOperation\\\":0,\\\"isEnabled\\\":true,\\\"filterType\\\":6,\\\"key\\\":\\\"\\\"}\"},{\"bindTo\":\"[Activity:Account].DueDate\",\"caption\":\"Last activity date\",\"position\":{\"column\":17,\"colSpan\":7,\"row\":1},\"orderDirection\":1,\"orderPosition\":1,\"dataValueType\":7,\"aggregationType\":5,\"isBackward\":true,\"metaPath\":\"[Activity:Account].DueDate\",\"serializedFilter\":\"{\\\"className\\\":\\\"Terrasoft.FilterGroup\\\",\\\"items\\\":{},\\\"logicalOperation\\\":0,\\\"isEnabled\\\":true,\\\"filterType\\\":6,\\\"rootSchemaName\\\":\\\"Activity\\\",\\\"key\\\":\\\"\\\"}\"}]}},\"widgetType\":\"DashboardGrid\"},\"DashboardGrid1\":{\"parameters\":{\"caption\":\"Customers with no contacts specified\",\"sectionBindingColumn\":\"Id\",\"sectionId\":\"005063c9-8180-e011-afbc-00155d04320c\",\"entitySchemaName\":\"Account\",\"filterData\":\"{\\\"className\\\":\\\"Terrasoft.FilterGroup\\\",\\\"items\\\":{\\\"cc5919dd-4ec8-45a6-94de-dd2ed6e8e81a\\\":{\\\"className\\\":\\\"Terrasoft.CompareFilter\\\",\\\"filterType\\\":1,\\\"comparisonType\\\":3,\\\"isEnabled\\\":true,\\\"trimDateTimeParameterToDate\\\":false,\\\"leftExpression\\\":{\\\"className\\\":\\\"Terrasoft.AggregationQueryExpression\\\",\\\"expressionType\\\":3,\\\"functionType\\\":2,\\\"aggregationType\\\":1,\\\"columnPath\\\":\\\"[Contact:Account].Id\\\",\\\"subFilters\\\":{\\\"className\\\":\\\"Terrasoft.FilterGroup\\\",\\\"items\\\":{},\\\"logicalOperation\\\":0,\\\"isEnabled\\\":true,\\\"filterType\\\":6,\\\"rootSchemaName\\\":\\\"Contact\\\",\\\"key\\\":\\\"2911ee56-e407-463f-b701-69fc6683cbed\\\"}},\\\"isAggregative\\\":true,\\\"key\\\":\\\"cc5919dd-4ec8-45a6-94de-dd2ed6e8e81a\\\",\\\"dataValueType\\\":4,\\\"leftExpressionCaption\\\":\\\"Contact (by the Account column)\\\",\\\"rightExpression\\\":{\\\"className\\\":\\\"Terrasoft.ParameterExpression\\\",\\\"expressionType\\\":2,\\\"parameter\\\":{\\\"className\\\":\\\"Terrasoft.Parameter\\\",\\\"dataValueType\\\":4,\\\"value\\\":0}}},\\\"e513a7f2-91f5-439c-83ec-9192e11394ca\\\":{\\\"className\\\":\\\"Terrasoft.InFilter\\\",\\\"filterType\\\":4,\\\"comparisonType\\\":3,\\\"isEnabled\\\":true,\\\"trimDateTimeParameterToDate\\\":false,\\\"leftExpression\\\":{\\\"className\\\":\\\"Terrasoft.ColumnExpression\\\",\\\"expressionType\\\":0,\\\"columnPath\\\":\\\"Type\\\"},\\\"isAggregative\\\":false,\\\"key\\\":\\\"e513a7f2-91f5-439c-83ec-9192e11394ca\\\",\\\"dataValueType\\\":10,\\\"leftExpressionCaption\\\":\\\"Type\\\",\\\"referenceSchemaName\\\":\\\"AccountType\\\",\\\"rightExpressions\\\":[{\\\"className\\\":\\\"Terrasoft.ParameterExpression\\\",\\\"expressionType\\\":2,\\\"parameter\\\":{\\\"className\\\":\\\"Terrasoft.Parameter\\\",\\\"dataValueType\\\":10,\\\"value\\\":{\\\"Name\\\":\\\"Customer\\\",\\\"Id\\\":\\\"03a75490-53e6-df11-971b-001d60e938c6\\\",\\\"value\\\":\\\"03a75490-53e6-df11-971b-001d60e938c6\\\",\\\"displayValue\\\":\\\"Customer\\\"}}}]}},\\\"logicalOperation\\\":0,\\\"isEnabled\\\":true,\\\"filterType\\\":6,\\\"rootSchemaName\\\":\\\"Account\\\",\\\"key\\\":\\\"\\\"}\",\"style\":\"widget-turquoise\",\"rowCount\":5,\"gridConfig\":{\"items\":[{\"bindTo\":\"Name\",\"caption\":\"Name\",\"type\":\"link\",\"position\":{\"column\":0,\"colSpan\":12,\"row\":1},\"orderDirection\":1,\"orderPosition\":1,\"aggregationType\":\"\",\"metaCaptionPath\":\"Name\",\"metaPath\":\"Name\",\"serializedFilter\":\"{\\\"className\\\":\\\"Terrasoft.FilterGroup\\\",\\\"items\\\":{},\\\"logicalOperation\\\":0,\\\"isEnabled\\\":true,\\\"filterType\\\":6,\\\"key\\\":\\\"\\\"}\"},{\"bindTo\":\"Owner\",\"caption\":\"Owner\",\"type\":\"link\",\"position\":{\"column\":12,\"colSpan\":12,\"row\":1},\"dataValueType\":10,\"aggregationType\":\"\",\"metaCaptionPath\":\"Owner\",\"metaPath\":\"Owner\",\"serializedFilter\":\"{\\\"className\\\":\\\"Terrasoft.FilterGroup\\\",\\\"items\\\":{},\\\"logicalOperation\\\":0,\\\"isEnabled\\\":true,\\\"filterType\\\":6,\\\"key\\\":\\\"\\\"}\"}]}},\"widgetType\":\"DashboardGrid\"},\"Indicator\":{\"parameters\":{\"caption\":\"Number of customers\",\"sectionBindingColumn\":\"Id\",\"sectionId\":\"005063c9-8180-e011-afbc-00155d04320c\",\"entitySchemaName\":\"Account\",\"filterData\":\"{\\\"className\\\":\\\"Terrasoft.FilterGroup\\\",\\\"items\\\":{\\\"48f439a0-dfc5-4518-b35c-03f0d3a8e1c0\\\":{\\\"className\\\":\\\"Terrasoft.InFilter\\\",\\\"filterType\\\":4,\\\"comparisonType\\\":3,\\\"isEnabled\\\":true,\\\"trimDateTimeParameterToDate\\\":false,\\\"leftExpression\\\":{\\\"className\\\":\\\"Terrasoft.ColumnExpression\\\",\\\"expressionType\\\":0,\\\"columnPath\\\":\\\"Type\\\"},\\\"isAggregative\\\":false,\\\"key\\\":\\\"48f439a0-dfc5-4518-b35c-03f0d3a8e1c0\\\",\\\"dataValueType\\\":10,\\\"leftExpressionCaption\\\":\\\"Type\\\",\\\"referenceSchemaName\\\":\\\"AccountType\\\",\\\"rightExpressions\\\":[{\\\"className\\\":\\\"Terrasoft.ParameterExpression\\\",\\\"expressionType\\\":2,\\\"parameter\\\":{\\\"className\\\":\\\"Terrasoft.Parameter\\\",\\\"dataValueType\\\":10,\\\"value\\\":{\\\"Name\\\":\\\"Customer\\\",\\\"Id\\\":\\\"03a75490-53e6-df11-971b-001d60e938c6\\\",\\\"value\\\":\\\"03a75490-53e6-df11-971b-001d60e938c6\\\",\\\"displayValue\\\":\\\"Customer\\\"}}}]}},\\\"logicalOperation\\\":0,\\\"isEnabled\\\":true,\\\"filterType\\\":6,\\\"rootSchemaName\\\":\\\"Account\\\",\\\"key\\\":\\\"\\\"}\",\"aggregationType\":1,\"columnName\":null,\"style\":\"widget-violet\",\"fontStyle\":\"default-indicator-font-size\",\"format\":{\"textDecorator\":\"{0}\",\"type\":4,\"decimalPrecision\":0}},\"widgetType\":\"Indicator\"}}"
        }
      ]
    }
  ]
}