﻿{
  "Descriptor": {
    "UId": "af1ce453-33ef-4f6a-8f6a-380cdcbb2a99",
    "Name": "Contract",
    "ModifiedOnUtc": "\/Date(1481798367000)\/",
    "Parent": {
      "UId": "897be3e4-0333-467d-88e2-b7a945c0d810",
      "Name": "Contract"
    },
    "ExtendParent": true,
    "ManagerName": "EntitySchemaManager",
    "Caption": "Договор",
    "DependsOn": []
  }
}