﻿{
  "PackageData": [
    {
      "Row": [
        {
          "SchemaColumnUId": "ae0e45ca-c495-4fe7-a39d-3ab7278e1617",
          "ColumnName": "Id",
          "Value": "ff450556-8d5f-4e14-8c06-126fd0c677ce"
        },
        {
          "SchemaColumnUId": "a215f575-7283-41bd-8852-b2415a935051",
          "ColumnName": "Caption",
          "Value": "Эффективность менеджеров в текущем месяце"
        },
        {
          "SchemaColumnUId": "551ce105-25dc-4a76-b318-cf37635e88c3",
          "ColumnName": "Items",
          "Value": "{\"Chart\":{\"parameters\":{\"seriesConfig\":\"\",\"orderBy\":\"ChartEntityColumn:0\",\"orderDirection\":\"Descending\",\"caption\":\"Активности по лидам\",\"sectionId\":\"7f3f22d6-f36b-1410-6584-1c6f65e16a07\",\"primaryColumnName\":\"Id\",\"yAxisConfig\":\"@{position=0}\",\"schemaName\":\"Activity\",\"sectionBindingColumn\":\"Lead\",\"func\":1,\"type\":\"bar\",\"xAxisColumn\":\"Owner\",\"YAxisCaption\":\"Количество\",\"styleColor\":\"widget-violet\",\"filterData\":\"{\\\"className\\\":\\\"Terrasoft.FilterGroup\\\",\\\"items\\\":{\\\"66f81a15-1f31-4ef0-b32e-7da8b473717c\\\":{\\\"className\\\":\\\"Terrasoft.IsNullFilter\\\",\\\"filterType\\\":2,\\\"comparisonType\\\":2,\\\"isEnabled\\\":true,\\\"trimDateTimeParameterToDate\\\":false,\\\"leftExpression\\\":{\\\"className\\\":\\\"Terrasoft.ColumnExpression\\\",\\\"expressionType\\\":0,\\\"columnPath\\\":\\\"Lead\\\"},\\\"isAggregative\\\":false,\\\"key\\\":\\\"66f81a15-1f31-4ef0-b32e-7da8b473717c\\\",\\\"dataValueType\\\":10,\\\"leftExpressionCaption\\\":\\\"Лид\\\",\\\"referenceSchemaName\\\":\\\"Lead\\\",\\\"isNull\\\":false},\\\"e713996e-de49-4d9d-b1fa-17e9cbac1d70\\\":{\\\"className\\\":\\\"Terrasoft.CompareFilter\\\",\\\"filterType\\\":1,\\\"comparisonType\\\":3,\\\"isEnabled\\\":true,\\\"trimDateTimeParameterToDate\\\":true,\\\"leftExpression\\\":{\\\"className\\\":\\\"Terrasoft.ColumnExpression\\\",\\\"expressionType\\\":0,\\\"columnPath\\\":\\\"StartDate\\\"},\\\"isAggregative\\\":false,\\\"key\\\":\\\"e713996e-de49-4d9d-b1fa-17e9cbac1d70\\\",\\\"dataValueType\\\":7,\\\"leftExpressionCaption\\\":\\\"Начало\\\",\\\"rightExpression\\\":{\\\"className\\\":\\\"Terrasoft.FunctionExpression\\\",\\\"expressionType\\\":1,\\\"functionType\\\":1,\\\"macrosType\\\":10}}},\\\"logicalOperation\\\":0,\\\"isEnabled\\\":true,\\\"filterType\\\":6,\\\"rootSchemaName\\\":\\\"Activity\\\",\\\"key\\\":\\\"\\\"}\"},\"widgetType\":\"Chart\"},\"Chart1\":{\"parameters\":{\"seriesConfig\":\"\",\"orderBy\":\"ChartEntityColumn:0\",\"orderDirection\":\"Descending\",\"caption\":\"Результативные активности по лидам\",\"sectionId\":\"7f3f22d6-f36b-1410-6584-1c6f65e16a07\",\"primaryColumnName\":\"Id\",\"yAxisConfig\":\"@{position=0}\",\"schemaName\":\"Activity\",\"sectionBindingColumn\":\"Lead\",\"func\":1,\"type\":\"bar\",\"xAxisColumn\":\"Owner\",\"YAxisCaption\":\"Количество\",\"styleColor\":\"widget-blue\",\"filterData\":\"{\\\"className\\\":\\\"Terrasoft.FilterGroup\\\",\\\"items\\\":{\\\"18e05874-ef45-4993-ad56-2c5b300a0e4c\\\":{\\\"className\\\":\\\"Terrasoft.InFilter\\\",\\\"filterType\\\":4,\\\"comparisonType\\\":3,\\\"isEnabled\\\":true,\\\"trimDateTimeParameterToDate\\\":false,\\\"leftExpression\\\":{\\\"className\\\":\\\"Terrasoft.ColumnExpression\\\",\\\"expressionType\\\":0,\\\"columnPath\\\":\\\"Status\\\"},\\\"isAggregative\\\":false,\\\"key\\\":\\\"18e05874-ef45-4993-ad56-2c5b300a0e4c\\\",\\\"dataValueType\\\":10,\\\"leftExpressionCaption\\\":\\\"Состояние\\\",\\\"referenceSchemaName\\\":\\\"ActivityStatus\\\",\\\"rightExpressions\\\":[{\\\"className\\\":\\\"Terrasoft.ParameterExpression\\\",\\\"expressionType\\\":2,\\\"parameter\\\":{\\\"className\\\":\\\"Terrasoft.Parameter\\\",\\\"dataValueType\\\":10,\\\"value\\\":{\\\"Name\\\":\\\"Завершена\\\",\\\"Id\\\":\\\"4bdbb88f-58e6-df11-971b-001d60e938c6\\\",\\\"value\\\":\\\"4bdbb88f-58e6-df11-971b-001d60e938c6\\\",\\\"displayValue\\\":\\\"Завершена\\\"}}}]},\\\"28ae4dab-d25a-4ce7-8f41-7bf247ae802f\\\":{\\\"className\\\":\\\"Terrasoft.IsNullFilter\\\",\\\"filterType\\\":2,\\\"comparisonType\\\":2,\\\"isEnabled\\\":true,\\\"trimDateTimeParameterToDate\\\":false,\\\"leftExpression\\\":{\\\"className\\\":\\\"Terrasoft.ColumnExpression\\\",\\\"expressionType\\\":0,\\\"columnPath\\\":\\\"Lead\\\"},\\\"isAggregative\\\":false,\\\"key\\\":\\\"28ae4dab-d25a-4ce7-8f41-7bf247ae802f\\\",\\\"dataValueType\\\":10,\\\"leftExpressionCaption\\\":\\\"Лид\\\",\\\"referenceSchemaName\\\":\\\"Lead\\\",\\\"isNull\\\":false},\\\"7d1e4889-9ebe-4e66-85ae-9df778415fe8\\\":{\\\"className\\\":\\\"Terrasoft.CompareFilter\\\",\\\"filterType\\\":1,\\\"comparisonType\\\":3,\\\"isEnabled\\\":true,\\\"trimDateTimeParameterToDate\\\":true,\\\"leftExpression\\\":{\\\"className\\\":\\\"Terrasoft.ColumnExpression\\\",\\\"expressionType\\\":0,\\\"columnPath\\\":\\\"StartDate\\\"},\\\"isAggregative\\\":false,\\\"key\\\":\\\"7d1e4889-9ebe-4e66-85ae-9df778415fe8\\\",\\\"dataValueType\\\":7,\\\"leftExpressionCaption\\\":\\\"Начало\\\",\\\"rightExpression\\\":{\\\"className\\\":\\\"Terrasoft.FunctionExpression\\\",\\\"expressionType\\\":1,\\\"functionType\\\":1,\\\"macrosType\\\":10}}},\\\"logicalOperation\\\":0,\\\"isEnabled\\\":true,\\\"filterType\\\":6,\\\"rootSchemaName\\\":\\\"Activity\\\",\\\"key\\\":\\\"\\\"}\"},\"widgetType\":\"Chart\"},\"Chart2\":{\"parameters\":{\"seriesConfig\":[],\"orderBy\":\"GroupByField\",\"orderDirection\":\"Descending\",\"dateTimeFormat\":null,\"caption\":\"Переведенные в продажу лиды\",\"sectionId\":\"7f3f22d6-f36b-1410-6584-1c6f65e16a07\",\"xAxisDefaultCaption\":null,\"yAxisDefaultCaption\":\"\",\"primaryColumnName\":\"Id\",\"yAxisConfig\":{\"position\":0},\"schemaName\":\"Lead\",\"sectionBindingColumn\":\"Id\",\"func\":1,\"type\":\"bar\",\"xAxisColumn\":\"Owner\",\"yAxisColumn\":null,\"YAxisCaption\":\"Количество\",\"styleColor\":\"widget-green\",\"filterData\":\"{\\\"className\\\":\\\"Terrasoft.FilterGroup\\\",\\\"items\\\":{\\\"eec2814a-2396-42ac-8a25-eb8a161bac43\\\":{\\\"className\\\":\\\"Terrasoft.InFilter\\\",\\\"filterType\\\":4,\\\"comparisonType\\\":3,\\\"isEnabled\\\":true,\\\"trimDateTimeParameterToDate\\\":false,\\\"leftExpression\\\":{\\\"className\\\":\\\"Terrasoft.ColumnExpression\\\",\\\"expressionType\\\":0,\\\"columnPath\\\":\\\"QualifyStatus\\\"},\\\"isAggregative\\\":false,\\\"key\\\":\\\"eec2814a-2396-42ac-8a25-eb8a161bac43\\\",\\\"dataValueType\\\":10,\\\"leftExpressionCaption\\\":\\\"Стадия лида\\\",\\\"referenceSchemaName\\\":\\\"QualifyStatus\\\",\\\"rightExpressions\\\":[{\\\"className\\\":\\\"Terrasoft.ParameterExpression\\\",\\\"expressionType\\\":2,\\\"parameter\\\":{\\\"className\\\":\\\"Terrasoft.Parameter\\\",\\\"dataValueType\\\":10,\\\"value\\\":{\\\"Name\\\":\\\"Перевод в продажу\\\",\\\"Id\\\":\\\"ceb70b3c-985f-4867-ae7c-88f9dd710688\\\",\\\"value\\\":\\\"ceb70b3c-985f-4867-ae7c-88f9dd710688\\\",\\\"displayValue\\\":\\\"Перевод в продажу\\\"}}}]},\\\"4bea08b3-84bd-42cf-b1ff-22f841c4c040\\\":{\\\"className\\\":\\\"Terrasoft.CompareFilter\\\",\\\"filterType\\\":1,\\\"comparisonType\\\":3,\\\"isEnabled\\\":true,\\\"trimDateTimeParameterToDate\\\":true,\\\"leftExpression\\\":{\\\"className\\\":\\\"Terrasoft.ColumnExpression\\\",\\\"expressionType\\\":0,\\\"columnPath\\\":\\\"DecisionDate\\\"},\\\"isAggregative\\\":false,\\\"key\\\":\\\"4bea08b3-84bd-42cf-b1ff-22f841c4c040\\\",\\\"dataValueType\\\":7,\\\"leftExpressionCaption\\\":\\\"Дата принятия решения\\\",\\\"rightExpression\\\":{\\\"className\\\":\\\"Terrasoft.FunctionExpression\\\",\\\"expressionType\\\":1,\\\"functionType\\\":1,\\\"macrosType\\\":10}}},\\\"logicalOperation\\\":0,\\\"isEnabled\\\":true,\\\"filterType\\\":6,\\\"rootSchemaName\\\":\\\"Lead\\\",\\\"key\\\":\\\"\\\"}\"},\"widgetType\":\"Chart\"},\"Chart7c4987c7474a\":{\"parameters\":{\"seriesConfig\":[],\"orderBy\":\"GroupByField\",\"orderDirection\":\"Ascending\",\"dateTimeFormat\":null,\"caption\":\"Лиды по ответственным\",\"sectionId\":\"7f3f22d6-f36b-1410-6584-1c6f65e16a07\",\"xAxisDefaultCaption\":null,\"yAxisDefaultCaption\":null,\"primaryColumnName\":\"Id\",\"yAxisConfig\":{\"position\":0},\"schemaName\":\"Lead\",\"sectionBindingColumn\":\"Id\",\"func\":1,\"isPercentageMode\":false,\"type\":\"bar\",\"xAxisColumn\":\"Owner\",\"yAxisColumn\":null,\"styleColor\":\"widget-green\",\"filterData\":\"{\\\"className\\\":\\\"Terrasoft.FilterGroup\\\",\\\"items\\\":{},\\\"logicalOperation\\\":0,\\\"isEnabled\\\":true,\\\"filterType\\\":6,\\\"rootSchemaName\\\":\\\"Lead\\\",\\\"key\\\":\\\"\\\"}\"},\"widgetType\":\"Chart\"}}"
        }
      ]
    }
  ]
}