﻿{
  "Descriptor": {
    "UId": "abdbf10f-ff08-4837-a12b-f936d53bd004",
    "Name": "ITNotificationGenerationForContract",
    "ModifiedOnUtc": "\/Date(1482995635000)\/",
    "ManagerName": "ProcessSchemaManager",
    "Caption": "Генерация системных уведомлений для договора - ITBase",
    "DependsOn": []
  }
}