﻿{
  "Descriptor": {
    "UId": "20838678-313d-4790-bf25-08416bfb1484",
    "Name": "Reminding",
    "ModifiedOnUtc": "\/Date(1482917894000)\/",
    "Parent": {
      "UId": "ae7a5bc6-115f-4ed2-97c5-13f5c5142c37",
      "Name": "Reminding"
    },
    "ExtendParent": true,
    "ManagerName": "EntitySchemaManager",
    "Caption": "Уведомление",
    "DependsOn": []
  }
}