﻿{
  "MetaData": {
    "Schema": {
      "ManagerName": "ClientUnitSchemaManager",
      "UId": "7ef77693-7fa3-49cb-be7b-d9da2a0afe57",
      "A2": "ITFunnelToFirstStageDataProvider",
      "A5": "acab0919-55cf-42d7-a8ce-1a4ea20eb993",
      "B1": [],
      "B2": [],
      "B3": [],
      "B6": "b18a0f67-6bd3-4ff3-8fa3-c759fb72d073",
      "B8": "7.8.3.1978",
      "HD1": "50e3acc0-26fc-4237-a095-849a1d534bd3",
      "HD4": 1,
      "HD6": "null",
      "HD5": [],
      "HD7": [],
      "HD8": [],
      "HD11": []
    }
  }