﻿{
  "MetaData": {
    "Schema": {
      "ManagerName": "ClientUnitSchemaManager",
      "UId": "d89fdba9-e37a-4b5e-9d4c-1b0f343a8467",
      "A2": "TsJsConfigurationUtilities",
      "A5": "c24d0672-92ee-4f4c-9d5b-3f2e0999f5b0",
      "B1": [],
      "B2": [],
      "B3": [],
      "B6": "12ec0688-188b-44d9-99c0-af66d25810d7",
      "B8": "7.8.3.1978",
      "HD1": "50e3acc0-26fc-4237-a095-849a1d534bd3",
      "HD4": 1,
      "HD6": "null",
      "HD5": [],
      "HD7": [],
      "HD8": [],
      "HD11": []
    }
  }