﻿{
  "Descriptor": {
    "UId": "95c0ebfd-b7f6-400d-b24c-e62545b2f560",
    "Name": "ITITParcelUnitPresentation1",
    "ModifiedOnUtc": "\/Date(1507220612000)\/",
    "ManagerName": "ProcessSchemaManager",
    "Caption": "Процесс презентации посылочного блока - ITParselDemo",
    "DependsOn": []
  }
}