﻿{
  "Descriptor": {
    "UId": "83320038-672d-4f4d-a814-35c57cdad89e",
    "Name": "BaseGridDetailV2",
    "ModifiedOnUtc": "\/Date(1477653425000)\/",
    "Parent": {
      "UId": "01eb38ee-668a-42f0-999d-c2534f979089",
      "Name": "BaseGridDetailV2"
    },
    "ExtendParent": true,
    "ManagerName": "ClientUnitSchemaManager",
    "Caption": "Базовая схема детали с реестром",
    "DependsOn": []
  }
}