﻿{
  "Descriptor": {
    "UId": "c00e9811-ac11-46a5-be58-c5a31443910b",
    "Name": "OpportunityCompetitorPageV2",
    "ModifiedOnUtc": "\/Date(1502890397000)\/",
    "Parent": {
      "UId": "14323e11-243b-4a87-9e6a-0e38b6a2f4eb",
      "Name": "OpportunityCompetitorPageV2"
    },
    "ExtendParent": true,
    "ManagerName": "ClientUnitSchemaManager",
    "Caption": "Страница редактирования конкурента в продаже",
    "DependsOn": []
  }
}