﻿{
  "Descriptor": {
    "UId": "204957ae-b26f-4505-8e0f-58f518b83a11",
    "Name": "ITRetailPresentation",
    "ModifiedOnUtc": "\/Date(1499863312000)\/",
    "ManagerName": "ProcessSchemaManager",
    "Caption": "Процесс презентации поставщика розничной торговли- ITBase",
    "DependsOn": []
  }
}