﻿{
  "SqlScript": {
    "UId": "c60c9bc9-ac24-4efd-9339-d5ce005f2219",
    "Name": "UpdateNameForLookupProduct",
    "DBEngineType": 0,
    "InstallType": 0,
    "ModifiedOnUtc": "\/Date(1503641370000)\/",
    "DependsOn": []
  }
}