﻿{
  "Descriptor": {
    "UId": "50cf1e34-4900-48fc-b04d-77b05c341b2b",
    "Name": "ITVwAccountCateg",
    "ModifiedOnUtc": "\/Date(1506430490000)\/",
    "Parent": {
      "UId": "1bab9dcf-17d5-49f8-9536-8e0064f1dce0",
      "Name": "BaseEntity"
    },
    "ManagerName": "EntitySchemaManager",
    "Caption": "Представление категоризации контрагента",
    "DependsOn": []
  }
}