﻿{
  "Descriptor": {
    "UId": "28a39a4d-713a-47f8-9eb8-24bbb764fc60",
    "Name": "ITTsSubscriptionServiceSupporting1",
    "ModifiedOnUtc": "\/Date(1499861951000)\/",
    "ManagerName": "ProcessSchemaManager",
    "Caption": "Процесс сопровождения/поддержки подписных сервисов - ITBase",
    "DependsOn": []
  }
}