﻿{
  "Descriptor": {
    "UId": "36c5d344-77ca-47e9-bf10-8608a721f012",
    "Name": "ContactAddressPageV2",
    "ModifiedOnUtc": "\/Date(1504080778000)\/",
    "Parent": {
      "UId": "2149f737-09ae-4fba-845f-81c480709e06",
      "Name": "ContactAddressPageV2"
    },
    "ExtendParent": true,
    "ManagerName": "ClientUnitSchemaManager",
    "Caption": "Страница адреса контакта",
    "DependsOn": []
  }
}