﻿{
  "Descriptor": {
    "UId": "86c24691-401e-4569-942b-2377f80ef03b",
    "Name": "Product",
    "ModifiedOnUtc": "\/Date(1478711425000)\/",
    "Parent": {
      "UId": "4c7a6ead-4eb8-4fc0-863e-98a664569fed",
      "Name": "Product"
    },
    "ExtendParent": true,
    "ManagerName": "EntitySchemaManager",
    "Caption": "Продукт",
    "DependsOn": []
  }
}