﻿{
  "Descriptor": {
    "UId": "5abb4989-9daf-47d0-a2c5-2c74e79d1908",
    "Name": "OrderProductDetailV2",
    "ModifiedOnUtc": "\/Date(1474908431000)\/",
    "Parent": {
      "UId": "18095247-3838-4c7b-bb72-a5603c5be74c",
      "Name": "OrderProductDetailV2"
    },
    "ExtendParent": true,
    "ManagerName": "ClientUnitSchemaManager",
    "Caption": "Продукты в заказе",
    "DependsOn": []
  }
}