﻿{
  "Descriptor": {
    "UId": "e8559b47-6c4a-4af7-8e81-ebfcd339d5c6",
    "Name": "OrderPageV2",
    "ModifiedOnUtc": "\/Date(1476791413000)\/",
    "Parent": {
      "UId": "23d86ac4-1d23-4314-a5e3-5da5e61b495a",
      "Name": "OrderPageV2"
    },
    "ExtendParent": true,
    "ManagerName": "ClientUnitSchemaManager",
    "Caption": "Страница редактирования заказа",
    "DependsOn": []
  }
}