﻿{
  "Descriptor": {
    "UId": "ba83b201-a09d-4a9f-9ce2-e68e2dfcafb1",
    "Name": "AccountSectionV2",
    "ModifiedOnUtc": "\/Date(1479405666000)\/",
    "Parent": {
      "UId": "65bb2306-7314-4605-a863-04a410798497",
      "Name": "AccountSectionV2"
    },
    "ExtendParent": true,
    "ManagerName": "ClientUnitSchemaManager",
    "Caption": "Раздел контрагенты",
    "DependsOn": []
  }
}