﻿{
  "Descriptor": {
    "UId": "0a6fdfcd-04ec-4297-ab76-7c2f38cdf34e",
    "Name": "Contact",
    "ModifiedOnUtc": "\/Date(1475507376000)\/",
    "Parent": {
      "UId": "16be3651-8fe2-4159-8dd0-a803d4683dd3",
      "Name": "Contact"
    },
    "ExtendParent": true,
    "ManagerName": "EntitySchemaManager",
    "Caption": "Контакт",
    "DependsOn": []
  }
}