﻿{
  "Descriptor": {
    "UId": "30f1edaa-7bd6-460c-9be7-a6139096bb72",
    "Name": "TsSubscriptionServicePresentation",
    "ModifiedOnUtc": "\/Date(1477571991000)\/",
    "ManagerName": "ProcessSchemaManager",
    "Caption": "Процесс презентации подписных сервисов",
    "DependsOn": []
  }
}