﻿{
  "PackageData": [
    {
      "Row": [
        {
          "SchemaColumnUId": "ae0e45ca-c495-4fe7-a39d-3ab7278e1617",
          "Value": "43bd8280-8b48-4d79-bab9-a42524854c01"
        },
        {
          "SchemaColumnUId": "8585929c-62ae-4673-ae8d-bb37f87e5144",
          "Value": "40c39744-5ca4-419b-8432-7f9a98667b2b"
        },
        {
          "SchemaColumnUId": "631e7238-2751-4a21-b6d6-9f1ac0c84f95",
          "Value": "86f60257-baca-469f-ac46-7058b736e72b"
        }
      ]
    },
    {
      "Row": [
        {
          "SchemaColumnUId": "ae0e45ca-c495-4fe7-a39d-3ab7278e1617",
          "Value": "e13d7f57-fc4d-44ea-b5a2-6aff07bd1473"
        },
        {
          "SchemaColumnUId": "8585929c-62ae-4673-ae8d-bb37f87e5144",
          "Value": "4cf27ad7-df62-4c00-8826-978796a6f066"
        },
        {
          "SchemaColumnUId": "631e7238-2751-4a21-b6d6-9f1ac0c84f95",
          "Value": "a8fa3cf5-3c09-4873-b37f-0031cc2697b5"
        }
      ]
    },
    {
      "Row": [
        {
          "SchemaColumnUId": "ae0e45ca-c495-4fe7-a39d-3ab7278e1617",
          "Value": "4aaa003b-c671-4531-9284-6d952c38506f"
        },
        {
          "SchemaColumnUId": "8585929c-62ae-4673-ae8d-bb37f87e5144",
          "Value": "3c3490dd-cf01-4f2f-83f9-3c5a8654341b"
        },
        {
          "SchemaColumnUId": "631e7238-2751-4a21-b6d6-9f1ac0c84f95",
          "Value": "109444b5-0180-4f69-90f4-c640eddb161c"
        }
      ]
    }
  ]
}