﻿{
  "Descriptor": {
    "UId": "44d318fb-634f-4c94-a702-2b86e179da79",
    "Name": "SupplyPaymentElement",
    "ModifiedOnUtc": "\/Date(1481715440000)\/",
    "Parent": {
      "UId": "28cc5afa-2b40-49e9-b516-ed35cbc4203e",
      "Name": "SupplyPaymentElement"
    },
    "ExtendParent": true,
    "ManagerName": "EntitySchemaManager",
    "Caption": "Шаг графика поставок и оплат",
    "DependsOn": []
  }
}