﻿{
  "Descriptor": {
    "UId": "47219553-bfb1-4410-abbd-5050f1f7c6e2",
    "Name": "TsBaseExceedStageDurationHelper",
    "ModifiedOnUtc": "\/Date(1477063549000)\/",
    "ManagerName": "SourceCodeSchemaManager",
    "Caption": "TsBaseExceedStageDurationHelper",
    "DependsOn": []
  }
}