﻿{
  "Descriptor": {
    "UId": "7ff3c69b-ca55-4662-a8d8-7ae70e759985",
    "Name": "ITVwOppStageDuration",
    "ModifiedOnUtc": "\/Date(1496826950000)\/",
    "ManagerName": "EntitySchemaManager",
    "Caption": "Длительность стадии продажи",
    "DependsOn": []
  }
}