﻿{
  "Descriptor": {
    "UId": "83e92bfc-b0cc-44b1-a2d0-67309937021d",
    "Name": "FunnelChartSchema",
    "ModifiedOnUtc": "\/Date(1495436539000)\/",
    "Parent": {
      "UId": "e50dc00b-3f66-4272-a87d-a5be6a03e6a3",
      "Name": "FunnelChartSchema"
    },
    "ExtendParent": true,
    "ManagerName": "ClientUnitSchemaManager",
    "Caption": "FunnelChartSchema",
    "DependsOn": []
  }
}