﻿{
  "Descriptor": {
    "UId": "4825bd57-dce2-42df-a0c7-495b6445a1db",
    "Name": "ITEnrichNewAccountFromKartoteka",
    "ModifiedOnUtc": "\/Date(1503936420000)\/",
    "ManagerName": "SourceCodeSchemaManager",
    "Caption": "Обогащение создаваемого, нового контрагента через картотеку",
    "DependsOn": []
  }
}