﻿{
  "PackageData": [
    {
      "Row": [
        {
          "SchemaColumnUId": "ae0e45ca-c495-4fe7-a39d-3ab7278e1617",
          "Value": "97d5578b-209a-4814-b564-26e75959fbed"
        },
        {
          "SchemaColumnUId": "78ed4015-b81f-49fc-9d50-847cf8df5e6c",
          "Value": 0
        },
        {
          "SchemaColumnUId": "fb750eb9-35b6-463e-b3b8-1a69ec871e43",
          "Value": "[{\"layout\":{\"column\":0,\"row\":0,\"colSpan\":24,\"rowSpan\":5},\"name\":\"DashboardGrid0feab8b9e6bf\",\"itemType\":4},{\"layout\":{\"column\":0,\"row\":5,\"colSpan\":12,\"rowSpan\":5},\"name\":\"DashboardGrid4aa5674c3e13\",\"itemType\":4},{\"layout\":{\"column\":12,\"row\":5,\"colSpan\":12,\"rowSpan\":5},\"name\":\"DashboardGrid68588aa0bf57\",\"itemType\":4},{\"layout\":{\"column\":0,\"row\":10,\"colSpan\":24,\"rowSpan\":5},\"name\":\"DashboardGrid65c5a3950753\",\"itemType\":4},{\"layout\":{\"column\":0,\"row\":15,\"colSpan\":12,\"rowSpan\":5},\"name\":\"DashboardGride0c1a4cbe23e\",\"itemType\":4},{\"layout\":{\"column\":12,\"row\":15,\"colSpan\":12,\"rowSpan\":5},\"name\":\"DashboardGrid3d69fa9376c4\",\"itemType\":4},{\"layout\":{\"column\":0,\"row\":20,\"colSpan\":12,\"rowSpan\":5},\"name\":\"DashboardGrid31a5bc404e83\",\"itemType\":4},{\"layout\":{\"column\":12,\"row\":20,\"colSpan\":12,\"rowSpan\":5},\"name\":\"DashboardGrid1b048639a58a\",\"itemType\":4}]"
        },
        {
          "SchemaColumnUId": "9eedf8ab-d02e-4a4a-9f9d-19ede1c873bc",
          "Value": "null",
          "DisplayValue": ""
        }
      ]
    }
  ]
}