﻿{
  "Descriptor": {
    "UId": "d9c49369-ae67-4535-8fa7-60804f05ce14",
    "Name": "TsCreateInvoiceFromOrder",
    "ModifiedOnUtc": "\/Date(1476171210000)\/",
    "ManagerName": "ProcessSchemaManager",
    "Caption": "Создание счета на основании заказа (TsBase)",
    "DependsOn": []
  }
}