﻿{
  "Descriptor": {
    "UId": "40c39744-5ca4-419b-8432-7f9a98667b2b",
    "Name": "TsIndustryInProductDetailV2",
    "ModifiedOnUtc": "\/Date(1475064165000)\/",
    "Parent": {
      "UId": "01eb38ee-668a-42f0-999d-c2534f979089",
      "Name": "BaseGridDetailV2"
    },
    "ManagerName": "ClientUnitSchemaManager",
    "Caption": "Cхема детали \"Отрасли\"",
    "DependsOn": []
  }
}