﻿{
  "Descriptor": {
    "UId": "1b0b00b9-303f-4f54-99cd-d675ddf41b48",
    "Name": "TsJsConfigurationUtilities",
    "ModifiedOnUtc": "\/Date(1492172995000)\/",
    "Parent": {
      "UId": "d89fdba9-e37a-4b5e-9d4c-1b0f343a8467",
      "Name": "TsJsConfigurationUtilities"
    },
    "ExtendParent": true,
    "ManagerName": "ClientUnitSchemaManager",
    "Caption": "TsJsConfigurationUtilities",
    "DependsOn": []
  }
}