﻿{
  "Descriptor": {
    "UId": "bfe2fcfb-e778-4a02-991f-984f61e8c8e7",
    "Name": "ITFinanceUnitPresentation",
    "ModifiedOnUtc": "\/Date(1501575289000)\/",
    "ManagerName": "ProcessSchemaManager",
    "Caption": "Процесс презентации финансового блока - ITBase",
    "DependsOn": []
  }
}