﻿{
  "Descriptor": {
    "UId": "39874130-b6df-47f3-b853-ad015f9eef09",
    "Name": "OrderPageV2",
    "ModifiedOnUtc": "\/Date(1485262836000)\/",
    "Parent": {
      "UId": "23d86ac4-1d23-4314-a5e3-5da5e61b495a",
      "Name": "OrderPageV2"
    },
    "ExtendParent": true,
    "ManagerName": "ClientUnitSchemaManager",
    "Caption": "Страница редактирования заказа",
    "DependsOn": []
  }
}